<?xml version="1.0" encoding="utf-8"?>
<!-- Generator: Adobe Illustrator 18.1.1, SVG Export Plug-In . SVG Version: 6.00 Build 0)  -->
<!DOCTYPE svg PUBLIC "-//W3C//DTD SVG 1.1//EN" "http://www.w3.org/Graphics/SVG/1.1/DTD/svg11.dtd">
<svg version="1.1" id="Layer_1" xmlns="http://www.w3.org/2000/svg" xmlns:xlink="http://www.w3.org/1999/xlink" x="0px" y="0px"
	 width="32px" height="32px" viewBox="0 0 32 32" enable-background="new 0 0 32 32" xml:space="preserve">
<path d="M25,32c1.7,0,3-1.3,3-3V3c0-1.7-1.3-3-3-3H7C5.3,0,4,1.3,4,3v26c0,1.7,1.3,3,3,3H25z M6,29V3c0-0.6,0.4-1,1-1h18
	c0.6,0,1,0.4,1,1v26c0,0.6-0.4,1-1,1H7C6.4,30,6,29.6,6,29z"/>
<path d="M9,26h14c0.6,0,1-0.4,1-1V7c0-0.6-0.4-1-1-1H9C8.4,6,8,6.4,8,7v18C8,25.6,8.4,26,9,26z M10,8h12v16H10V8z"/>
<path d="M19,11h-6c-0.6,0-1,0.4-1,1s0.4,1,1,1h6c0.6,0,1-0.4,1-1S19.6,11,19,11z"/>
<path d="M19,15h-6c-0.6,0-1,0.4-1,1s0.4,1,1,1h6c0.6,0,1-0.4,1-1S19.6,15,19,15z"/>
<path d="M16,19h-3c-0.6,0-1,0.4-1,1s0.4,1,1,1h3c0.6,0,1-0.4,1-1S16.6,19,16,19z"/>
</svg>
