<?xml version="1.0" encoding="utf-8"?>
<!-- Generator: Adobe Illustrator 18.1.1, SVG Export Plug-In . SVG Version: 6.00 Build 0)  -->
<!DOCTYPE svg PUBLIC "-//W3C//DTD SVG 1.1//EN" "http://www.w3.org/Graphics/SVG/1.1/DTD/svg11.dtd">
<svg version="1.1" id="Layer_1" xmlns="http://www.w3.org/2000/svg" xmlns:xlink="http://www.w3.org/1999/xlink" x="0px" y="0px"
	 width="32px" height="32px" viewBox="0 0 32 32" enable-background="new 0 0 32 32" xml:space="preserve">
<path d="M2.4,30h27.1c0.7,0,1.3-0.3,1.6-0.9c0.4-0.5,0.5-1.2,0.2-1.8L29,20.8V5c0-1.7-1.3-3-3-3H6C4.3,2,3,3.3,3,5v15.8l-2.4,6.5
	c-0.2,0.6-0.1,1.3,0.2,1.8C1.2,29.7,1.8,30,2.4,30z M6,4h20c0.6,0,1,0.4,1,1v15H5V5C5,4.4,5.4,4,6,4z M4.7,22h22.6l2.3,6H2.4L4.7,22
	z"/>
<path d="M8,18h16c0.6,0,1-0.4,1-1V7c0-0.6-0.4-1-1-1H8C7.4,6,7,6.4,7,7v10C7,17.6,7.4,18,8,18z M9,8h14v8H9V8z"/>
</svg>
