<?xml version="1.0" encoding="utf-8"?>
<!-- Generator: Adobe Illustrator 18.1.1, SVG Export Plug-In . SVG Version: 6.00 Build 0)  -->
<!DOCTYPE svg PUBLIC "-//W3C//DTD SVG 1.1//EN" "http://www.w3.org/Graphics/SVG/1.1/DTD/svg11.dtd">
<svg version="1.1" id="Layer_1" xmlns="http://www.w3.org/2000/svg" xmlns:xlink="http://www.w3.org/1999/xlink" x="0px" y="0px"
	 width="32px" height="32px" viewBox="0 0 32 32" enable-background="new 0 0 32 32" xml:space="preserve">
<path d="M14,7H8C7.4,7,7,7.4,7,8v6c0,0.6,0.4,1,1,1h6c0.6,0,1-0.4,1-1V8C15,7.4,14.6,7,14,7z M13,13H9V9h4V13z"/>
<path d="M24,7h-6c-0.6,0-1,0.4-1,1v6c0,0.6,0.4,1,1,1h6c0.6,0,1-0.4,1-1V8C25,7.4,24.6,7,24,7z M23,13h-4V9h4V13z"/>
<path d="M14,18H8c-0.6,0-1,0.4-1,1v6c0,0.6,0.4,1,1,1h6c0.6,0,1-0.4,1-1v-6C15,18.4,14.6,18,14,18z M13,24H9v-4h4V24z"/>
<path d="M24,18h-6c-0.6,0-1,0.4-1,1v6c0,0.6,0.4,1,1,1h6c0.6,0,1-0.4,1-1v-6C25,18.4,24.6,18,24,18z M23,24h-4v-4h4V24z"/>
<path d="M26,0H6C2.7,0,0,2.7,0,6v2c0,0.3,0.1,0.5,0.3,0.7C0.5,8.9,0.7,9,1,9c0,0,0.1,0,0.1,0c1.1,0,2,0.9,2,2c0,1.1-0.9,2-2,2
	c0,0-0.1,0-0.1,0c-0.3,0-0.5,0.1-0.7,0.3S0,13.7,0,14v5c0,0.3,0.1,0.5,0.3,0.7C0.5,19.9,0.7,20,1,20c0,0,0.1,0,0.1,0
	c1.1,0,2,0.9,2,2c0,1.1-0.9,2-2,2c0,0-0.1,0-0.1,0c-0.3,0-0.5,0.1-0.7,0.3S0,24.7,0,25v1c0,3.3,2.7,6,6,6h20c3.3,0,6-2.7,6-6v-1
	c0-0.6-0.4-1-1-1c-1.1,0-2-0.9-2-2s0.9-2,2-2c0.6,0,1-0.4,1-1v-5c0-0.6-0.4-1-1-1c-1.1,0-2-0.9-2-2s0.9-2,2-2c0.6,0,1-0.4,1-1V6
	C32,2.7,29.3,0,26,0z M30,7.1c-1.7,0.4-3,2-3,3.9s1.3,3.4,3,3.9v3.3c-1.7,0.4-3,2-3,3.9s1.3,3.4,3,3.9V26c0,2.2-1.8,4-4,4H6
	c-2.2,0-4-1.8-4-4v-0.1c1.8-0.4,3.1-2,3.1-3.9S3.8,18.5,2,18.1v-3.2c1.8-0.4,3.1-2,3.1-3.9S3.8,7.5,2,7.1V6c0-2.2,1.8-4,4-4h20
	c2.2,0,4,1.8,4,4V7.1z"/>
</svg>
