<?xml version="1.0" encoding="utf-8"?>
<!-- Generator: Adobe Illustrator 18.1.1, SVG Export Plug-In . SVG Version: 6.00 Build 0)  -->
<!DOCTYPE svg PUBLIC "-//W3C//DTD SVG 1.1//EN" "http://www.w3.org/Graphics/SVG/1.1/DTD/svg11.dtd">
<svg version="1.1" id="Layer_1" xmlns="http://www.w3.org/2000/svg" xmlns:xlink="http://www.w3.org/1999/xlink" x="0px" y="0px"
	 width="32px" height="32px" viewBox="0 0 32 32" enable-background="new 0 0 32 32" xml:space="preserve">
<path d="M5,28h22c2.8,0,5-2.2,5-5c0-0.6-0.4-1-1-1h-2V7c0-1.7-1.3-3-3-3H6C4.3,4,3,5.3,3,7v15H1c-0.6,0-1,0.4-1,1
	C0,25.8,2.2,28,5,28z M5,7c0-0.6,0.4-1,1-1h20c0.6,0,1,0.4,1,1v15H5V7z M29.8,24c-0.4,1.2-1.5,2-2.8,2H5c-1.3,0-2.4-0.8-2.8-2H29.8z
	"/>
<path d="M17,8h-2c-0.6,0-1,0.4-1,1s0.4,1,1,1h2c0.6,0,1-0.4,1-1S17.6,8,17,8z"/>
</svg>
