<?xml version="1.0" encoding="utf-8"?>
<!-- Generator: Adobe Illustrator 18.1.1, SVG Export Plug-In . SVG Version: 6.00 Build 0)  -->
<!DOCTYPE svg PUBLIC "-//W3C//DTD SVG 1.1//EN" "http://www.w3.org/Graphics/SVG/1.1/DTD/svg11.dtd">
<svg version="1.1" id="Layer_1" xmlns="http://www.w3.org/2000/svg" xmlns:xlink="http://www.w3.org/1999/xlink" x="0px" y="0px"
	 width="32px" height="32px" viewBox="0 0 32 32" enable-background="new 0 0 32 32" xml:space="preserve">
<path d="M31,7H18.2l4.6-5.3c0.4-0.4,0.3-1.1-0.1-1.4c-0.4-0.4-1-0.3-1.4,0.1L16,6.4l-3.2-4.1c-0.3-0.4-1-0.5-1.4-0.2
	c-0.4,0.3-0.5,1-0.2,1.4L13.9,7H1C0.4,7,0,7.4,0,8v23c0,0.6,0.4,1,1,1h30c0.6,0,1-0.4,1-1V8C32,7.4,31.6,7,31,7z M30,30H2V9h28V30z"
	/>
<path d="M4,12v15c0,0.6,0.4,1,1,1h18c0.6,0,1-0.4,1-1V12c0-0.6-0.4-1-1-1H5C4.4,11,4,11.4,4,12z M6,13h16v13H6V13z"/>
<path d="M27,15c0.6,0,1-0.4,1-1v-2c0-0.6-0.4-1-1-1s-1,0.4-1,1v2C26,14.6,26.4,15,27,15z"/>
<path d="M27,28c0.6,0,1-0.4,1-1v-9c0-0.6-0.4-1-1-1s-1,0.4-1,1v9C26,27.6,26.4,28,27,28z"/>
</svg>
