<?xml version="1.0" encoding="utf-8"?>
<!-- Generator: Adobe Illustrator 18.1.1, SVG Export Plug-In . SVG Version: 6.00 Build 0)  -->
<!DOCTYPE svg PUBLIC "-//W3C//DTD SVG 1.1//EN" "http://www.w3.org/Graphics/SVG/1.1/DTD/svg11.dtd">
<svg version="1.1" id="Layer_1" xmlns="http://www.w3.org/2000/svg" xmlns:xlink="http://www.w3.org/1999/xlink" x="0px" y="0px"
	 width="32px" height="32px" viewBox="0 0 32 32" enable-background="new 0 0 32 32" xml:space="preserve">
<path d="M20,21h-8c-0.6,0-1,0.4-1,1s0.4,1,1,1h8c0.6,0,1-0.4,1-1S20.6,21,20,21z"/>
<path d="M20,25h-8c-0.6,0-1,0.4-1,1s0.4,1,1,1h8c0.6,0,1-0.4,1-1S20.6,25,20,25z"/>
<path d="M25,7.1V1c0-0.6-0.4-1-1-1H8C7.4,0,7,0.4,7,1v6.1C3.1,7.6,0,10.9,0,15v9c0,0.6,0.4,1,1,1h6v6c0,0.6,0.4,1,1,1h16
	c0.6,0,1-0.4,1-1v-6h6c0.6,0,1-0.4,1-1v-9C32,10.9,28.9,7.6,25,7.1z M23,2v5H9V2H23z M23,30H9V18h14V30z M30,23h-5v-6
	c0-0.6-0.4-1-1-1H8c-0.6,0-1,0.4-1,1v6H2v-8c0-3.3,2.7-6,6-6h16c3.3,0,6,2.7,6,6V23z"/>
<path d="M24,12h-2c-0.6,0-1,0.4-1,1s0.4,1,1,1h2c0.6,0,1-0.4,1-1S24.6,12,24,12z"/>
</svg>
