<?xml version="1.0" encoding="utf-8"?>
<!-- Generator: Adobe Illustrator 18.1.1, SVG Export Plug-In . SVG Version: 6.00 Build 0)  -->
<!DOCTYPE svg PUBLIC "-//W3C//DTD SVG 1.1//EN" "http://www.w3.org/Graphics/SVG/1.1/DTD/svg11.dtd">
<svg version="1.1" id="Layer_1" xmlns="http://www.w3.org/2000/svg" xmlns:xlink="http://www.w3.org/1999/xlink" x="0px" y="0px"
	 width="32px" height="32px" viewBox="0 0 32 32" enable-background="new 0 0 32 32" xml:space="preserve">
<circle cx="9" cy="22" r="2"/>
<path d="M31,14h-1v-2c0-0.6-0.4-1-1-1s-1,0.4-1,1v2h-4v-2c0-0.6-0.4-1-1-1s-1,0.4-1,1v2h-1c-0.6,0-1,0.4-1,1s0.4,1,1,1v2
	c0,2.4,1.7,4.4,4,4.9V30H11v-3h4c1.7,0,3-1.3,3-3V3c0-1.7-1.3-3-3-3H3C1.3,0,0,1.3,0,3v21c0,1.7,1.3,3,3,3h6v4c0,0.6,0.4,1,1,1h16
	c0.6,0,1-0.4,1-1v-8.1c2.3-0.5,4-2.5,4-4.9v-2c0.6,0,1-0.4,1-1S31.6,14,31,14z M2,7h14v10H2V7z M3,2h12c0.6,0,1,0.4,1,1v2H2V3
	C2,2.4,2.4,2,3,2z M2,24v-5h14v5c0,0.6-0.4,1-1,1H3C2.4,25,2,24.6,2,24z M29,18c0,1.7-1.3,3-3,3s-3-1.3-3-3v-2h6V18z"/>
</svg>
