<?xml version="1.0" encoding="utf-8"?>
<!-- Generator: Adobe Illustrator 19.1.0, SVG Export Plug-In . SVG Version: 6.00 Build 0)  -->
<!DOCTYPE svg PUBLIC "-//W3C//DTD SVG 1.1//EN" "http://www.w3.org/Graphics/SVG/1.1/DTD/svg11.dtd">
<svg version="1.1" id="Layer_1" xmlns="http://www.w3.org/2000/svg" xmlns:xlink="http://www.w3.org/1999/xlink" x="0px" y="0px"
	 width="48px" height="48px" viewBox="0 0 48 48" enable-background="new 0 0 48 48" xml:space="preserve">
<path d="M24,23c0.6,0,1-0.4,1-1V6.4l4.3,4.3c0.2,0.2,0.5,0.3,0.7,0.3s0.5-0.1,0.7-0.3c0.4-0.4,0.4-1,0-1.4l-6-6
	c-0.1-0.1-0.2-0.2-0.3-0.2c-0.2-0.1-0.5-0.1-0.8,0c-0.1,0.1-0.2,0.1-0.3,0.2l-6,6c-0.4,0.4-0.4,1,0,1.4s1,0.4,1.4,0L23,6.4V22
	C23,22.6,23.4,23,24,23z"/>
<path d="M46,9h-8c-0.6,0-1,0.4-1,1s0.4,1,1,1h7v26H3V11h7c0.6,0,1-0.4,1-1s-0.4-1-1-1H2c-0.6,0-1,0.4-1,1v28c0,0.6,0.4,1,1,1h17v6
	h-5c-0.6,0-1,0.4-1,1s0.4,1,1,1h20c0.6,0,1-0.4,1-1s-0.4-1-1-1h-5v-6h17c0.6,0,1-0.4,1-1V10C47,9.4,46.6,9,46,9z M27,45h-6v-6h6V45z
	"/>
</svg>
