<?xml version="1.0" encoding="utf-8"?>
<!-- Generator: Adobe Illustrator 19.1.0, SVG Export Plug-In . SVG Version: 6.00 Build 0)  -->
<!DOCTYPE svg PUBLIC "-//W3C//DTD SVG 1.1//EN" "http://www.w3.org/Graphics/SVG/1.1/DTD/svg11.dtd">
<svg version="1.1" id="Layer_1" xmlns="http://www.w3.org/2000/svg" xmlns:xlink="http://www.w3.org/1999/xlink" x="0px" y="0px"
	 width="48px" height="48px" viewBox="0 0 48 48" enable-background="new 0 0 48 48" xml:space="preserve">
<path d="M10,31h13v9c0,0.4,0.2,0.7,0.6,0.9C23.7,41,23.9,41,24,41c0.2,0,0.4-0.1,0.6-0.2l20-16c0.2-0.2,0.4-0.5,0.4-0.8
	s-0.1-0.6-0.4-0.8l-20-16c-0.3-0.2-0.7-0.3-1.1-0.1C23.2,7.3,23,7.6,23,8v9H10c-3.9,0-7,3.1-7,7S6.1,31,10,31z M10,19h14
	c0.6,0,1-0.4,1-1v-7.9L42.4,24L25,37.9V30c0-0.6-0.4-1-1-1H10c-2.8,0-5-2.2-5-5S7.2,19,10,19z"/>
</svg>
