<?xml version="1.0" encoding="utf-8"?>
<!-- Generator: Adobe Illustrator 19.1.0, SVG Export Plug-In . SVG Version: 6.00 Build 0)  -->
<!DOCTYPE svg PUBLIC "-//W3C//DTD SVG 1.1//EN" "http://www.w3.org/Graphics/SVG/1.1/DTD/svg11.dtd">
<svg version="1.1" id="Layer_1" xmlns="http://www.w3.org/2000/svg" xmlns:xlink="http://www.w3.org/1999/xlink" x="0px" y="0px"
	 width="48px" height="48px" viewBox="0 0 48 48" enable-background="new 0 0 48 48" xml:space="preserve">
<path d="M24,47c12.7,0,23-10.3,23-23S36.7,1,24,1S1,11.3,1,24S11.3,47,24,47z M24,3c11.6,0,21,9.4,21,21s-9.4,21-21,21S3,35.6,3,24
	S12.4,3,24,3z"/>
<path d="M17.4,24.8l12,8c0.2,0.1,0.4,0.2,0.6,0.2c0.2,0,0.3,0,0.5-0.1c0.3-0.2,0.5-0.5,0.5-0.9V16c0-0.4-0.2-0.7-0.5-0.9
	c-0.3-0.2-0.7-0.2-1,0l-12,8C17.2,23.4,17,23.7,17,24S17.2,24.6,17.4,24.8z M29,17.9v12.3L19.8,24L29,17.9z"/>
</svg>
