<?xml version="1.0" encoding="utf-8"?>
<!-- Generator: Adobe Illustrator 19.1.0, SVG Export Plug-In . SVG Version: 6.00 Build 0)  -->
<!DOCTYPE svg PUBLIC "-//W3C//DTD SVG 1.1//EN" "http://www.w3.org/Graphics/SVG/1.1/DTD/svg11.dtd">
<svg version="1.1" id="Layer_1" xmlns="http://www.w3.org/2000/svg" xmlns:xlink="http://www.w3.org/1999/xlink" x="0px" y="0px"
	 width="48px" height="48px" viewBox="0 0 48 48" enable-background="new 0 0 48 48" xml:space="preserve">
<path d="M35,1c-6.6,0-12,5.4-12,12v2.6l-4.3-4.3c-0.4-0.4-1-0.4-1.4,0s-0.4,1,0,1.4l6,6c0.1,0.1,0.2,0.2,0.3,0.2
	C23.7,19,23.9,19,24,19s0.3,0,0.4-0.1c0.1-0.1,0.2-0.1,0.3-0.2l6-6c0.4-0.4,0.4-1,0-1.4s-1-0.4-1.4,0L25,15.6V13c0-5.5,4.5-10,10-10
	s10,4.5,10,10s-4.5,10-10,10H13C6.4,23,1,28.4,1,35s5.4,12,12,12s12-5.4,12-12v-2.6l4.3,4.3c0.2,0.2,0.5,0.3,0.7,0.3
	s0.5-0.1,0.7-0.3c0.4-0.4,0.4-1,0-1.4l-6-6c-0.1-0.1-0.2-0.2-0.3-0.2c-0.2-0.1-0.5-0.1-0.8,0c-0.1,0.1-0.2,0.1-0.3,0.2l-6,6
	c-0.4,0.4-0.4,1,0,1.4s1,0.4,1.4,0l4.3-4.3V35c0,5.5-4.5,10-10,10S3,40.5,3,35s4.5-10,10-10h22c6.6,0,12-5.4,12-12S41.6,1,35,1z"/>
</svg>
