<?xml version="1.0" encoding="utf-8"?>
<!-- Generator: Adobe Illustrator 19.1.0, SVG Export Plug-In . SVG Version: 6.00 Build 0)  -->
<!DOCTYPE svg PUBLIC "-//W3C//DTD SVG 1.1//EN" "http://www.w3.org/Graphics/SVG/1.1/DTD/svg11.dtd">
<svg version="1.1" id="Layer_1" xmlns="http://www.w3.org/2000/svg" xmlns:xlink="http://www.w3.org/1999/xlink" x="0px" y="0px"
	 width="48px" height="48px" viewBox="0 0 48 48" enable-background="new 0 0 48 48" xml:space="preserve">
<path d="M31,25h9c0.4,0,0.7-0.2,0.9-0.6c0.2-0.3,0.1-0.8-0.1-1.1l-16-20c-0.4-0.5-1.2-0.5-1.6,0l-16,20c-0.2,0.3-0.3,0.7-0.1,1.1
	C7.3,24.8,7.6,25,8,25h9v13c0,0.6,0.4,1,1,1h12c0.6,0,1-0.4,1-1V25z M30,23c-0.6,0-1,0.4-1,1v13H19V24c0-0.6-0.4-1-1-1h-7.9L24,5.6
	L37.9,23H30z"/>
<path d="M30,45H18c-0.6,0-1,0.4-1,1s0.4,1,1,1h12c0.6,0,1-0.4,1-1S30.6,45,30,45z"/>
</svg>
