<?xml version="1.0" encoding="utf-8"?>
<!-- Generator: Adobe Illustrator 19.1.0, SVG Export Plug-In . SVG Version: 6.00 Build 0)  -->
<!DOCTYPE svg PUBLIC "-//W3C//DTD SVG 1.1//EN" "http://www.w3.org/Graphics/SVG/1.1/DTD/svg11.dtd">
<svg version="1.1" id="Layer_1" xmlns="http://www.w3.org/2000/svg" xmlns:xlink="http://www.w3.org/1999/xlink" x="0px" y="0px"
	 width="48px" height="48px" viewBox="0 0 48 48" enable-background="new 0 0 48 48" xml:space="preserve">
<path d="M13.3,14.7c0.4,0.4,1,0.4,1.4,0L23,6.4V26c0,0.6,0.4,1,1,1s1-0.4,1-1V6.4l8.3,8.3c0.2,0.2,0.5,0.3,0.7,0.3s0.5-0.1,0.7-0.3
	c0.4-0.4,0.4-1,0-1.4l-10-10c-0.1-0.1-0.2-0.2-0.3-0.2c-0.2-0.1-0.5-0.1-0.8,0c-0.1,0.1-0.2,0.1-0.3,0.2l-10,10
	C12.9,13.7,12.9,14.3,13.3,14.7z"/>
<path d="M7,34v12c0,0.6,0.4,1,1,1h32c0.6,0,1-0.4,1-1V34c0-0.6-0.4-1-1-1H8C7.4,33,7,33.4,7,34z M9,35h30v10H9V35z"/>
</svg>
