<?xml version="1.0" encoding="utf-8"?>
<!-- Generator: Adobe Illustrator 19.1.0, SVG Export Plug-In . SVG Version: 6.00 Build 0)  -->
<!DOCTYPE svg PUBLIC "-//W3C//DTD SVG 1.1//EN" "http://www.w3.org/Graphics/SVG/1.1/DTD/svg11.dtd">
<svg version="1.1" id="Layer_1" xmlns="http://www.w3.org/2000/svg" xmlns:xlink="http://www.w3.org/1999/xlink" x="0px" y="0px"
	 width="48px" height="48px" viewBox="0 0 48 48" enable-background="new 0 0 48 48" xml:space="preserve">
<path d="M13.3,44.7c0.2,0.2,0.5,0.3,0.7,0.3s0.5-0.1,0.7-0.3l20-20c0.4-0.4,0.4-1,0-1.4l-20-20c-0.4-0.4-1-0.4-1.4,0s-0.4,1,0,1.4
	L32.6,24L13.3,43.3C12.9,43.7,12.9,44.3,13.3,44.7z"/>
</svg>
