<?xml version="1.0" encoding="utf-8"?>
<!-- Generator: Adobe Illustrator 19.1.0, SVG Export Plug-In . SVG Version: 6.00 Build 0)  -->
<!DOCTYPE svg PUBLIC "-//W3C//DTD SVG 1.1//EN" "http://www.w3.org/Graphics/SVG/1.1/DTD/svg11.dtd">
<svg version="1.1" id="Layer_1" xmlns="http://www.w3.org/2000/svg" xmlns:xlink="http://www.w3.org/1999/xlink" x="0px" y="0px"
	 width="48px" height="48px" viewBox="0 0 48 48" enable-background="new 0 0 48 48" xml:space="preserve">
<path d="M5.1,24.4c0.1,0.1,0.1,0.2,0.2,0.3l10,10c0.2,0.2,0.5,0.3,0.7,0.3s0.5-0.1,0.7-0.3c0.4-0.4,0.4-1,0-1.4L8.4,25H34
	c0.6,0,1-0.4,1-1s-0.4-1-1-1H8.4l8.3-8.3c0.4-0.4,0.4-1,0-1.4s-1-0.4-1.4,0l-10,10c-0.1,0.1-0.2,0.2-0.2,0.3C5,23.9,5,24.1,5.1,24.4
	z"/>
<path d="M42,39c0.6,0,1-0.4,1-1V10c0-0.6-0.4-1-1-1s-1,0.4-1,1v28C41,38.6,41.4,39,42,39z"/>
</svg>
