<?xml version="1.0" encoding="utf-8"?>
<!-- Generator: Adobe Illustrator 19.1.0, SVG Export Plug-In . SVG Version: 6.00 Build 0)  -->
<!DOCTYPE svg PUBLIC "-//W3C//DTD SVG 1.1//EN" "http://www.w3.org/Graphics/SVG/1.1/DTD/svg11.dtd">
<svg version="1.1" id="Layer_1" xmlns="http://www.w3.org/2000/svg" xmlns:xlink="http://www.w3.org/1999/xlink" x="0px" y="0px"
	 width="48px" height="48px" viewBox="0 0 48 48" enable-background="new 0 0 48 48" xml:space="preserve">
<path d="M45,24V8c0-0.4-0.2-0.7-0.6-0.9c-0.3-0.2-0.8-0.1-1.1,0.1L24,22.7L4.6,7.2C4.3,7,3.9,6.9,3.6,7.1C3.2,7.3,3,7.6,3,8v16
	c0,0.3,0.1,0.6,0.4,0.8l20,16c0.2,0.1,0.4,0.2,0.6,0.2s0.4-0.1,0.6-0.2l20-16C44.9,24.6,45,24.3,45,24z M43,23.5L24,38.7L5,23.5
	V10.1l18.4,14.7c0.4,0.3,0.9,0.3,1.2,0L43,10.1V23.5z"/>
</svg>
