<?xml version="1.0" encoding="utf-8"?>
<!-- Generator: Adobe Illustrator 19.1.0, SVG Export Plug-In . SVG Version: 6.00 Build 0)  -->
<!DOCTYPE svg PUBLIC "-//W3C//DTD SVG 1.1//EN" "http://www.w3.org/Graphics/SVG/1.1/DTD/svg11.dtd">
<svg version="1.1" id="Layer_1" xmlns="http://www.w3.org/2000/svg" xmlns:xlink="http://www.w3.org/1999/xlink" x="0px" y="0px"
	 width="48px" height="48px" viewBox="0 0 48 48" enable-background="new 0 0 48 48" xml:space="preserve">
<path d="M8.6,18.9C8.7,19,8.9,19,9,19c0.3,0,0.5-0.1,0.7-0.3l9-9C19,9.4,19.1,9,18.9,8.6C18.8,8.2,18.4,8,18,8H9C8.4,8,8,8.4,8,9v9
	C8,18.4,8.2,18.8,8.6,18.9z M10,10h5.6L10,15.6V10z"/>
<path d="M38.3,18.7c0.2,0.2,0.4,0.3,0.7,0.3c0.1,0,0.3,0,0.4-0.1c0.4-0.2,0.6-0.5,0.6-0.9V9c0-0.6-0.4-1-1-1h-9
	c-0.4,0-0.8,0.2-0.9,0.6C28.9,9,29,9.4,29.3,9.7L38.3,18.7z M38,10v5.6L32.4,10H38z"/>
<path d="M30,40h9c0.6,0,1-0.4,1-1v-9c0-0.4-0.2-0.8-0.6-0.9c-0.4-0.2-0.8-0.1-1.1,0.2l-9,9c-0.3,0.3-0.4,0.7-0.2,1.1
	C29.2,39.8,29.6,40,30,40z M38,32.4V38h-5.6L38,32.4z"/>
<path d="M9,40h9c0.4,0,0.8-0.2,0.9-0.6c0.2-0.4,0.1-0.8-0.2-1.1l-9-9C9.4,29,9,28.9,8.6,29.1C8.2,29.2,8,29.6,8,30v9
	C8,39.6,8.4,40,9,40z M10,32.4l5.6,5.6H10V32.4z"/>
<path d="M46,1H2C1.4,1,1,1.4,1,2v44c0,0.6,0.4,1,1,1h44c0.6,0,1-0.4,1-1V2C47,1.4,46.6,1,46,1z M45,45H3V3h42V45z"/>
</svg>
