<?xml version="1.0" encoding="utf-8"?>
<!-- Generator: Adobe Illustrator 19.1.0, SVG Export Plug-In . SVG Version: 6.00 Build 0)  -->
<!DOCTYPE svg PUBLIC "-//W3C//DTD SVG 1.1//EN" "http://www.w3.org/Graphics/SVG/1.1/DTD/svg11.dtd">
<svg version="1.1" id="Layer_1" xmlns="http://www.w3.org/2000/svg" xmlns:xlink="http://www.w3.org/1999/xlink" x="0px" y="0px"
	 width="48px" height="48px" viewBox="0 0 48 48" enable-background="new 0 0 48 48" xml:space="preserve">
<path d="M46.4,1.1C46.3,1,46.1,1,46,1H34c-0.6,0-1,0.4-1,1s0.4,1,1,1h9.6L31.3,15.3c-0.4,0.4-0.4,1,0,1.4c0.2,0.2,0.5,0.3,0.7,0.3
	s0.5-0.1,0.7-0.3L45,4.4V14c0,0.6,0.4,1,1,1s1-0.4,1-1V2c0-0.1,0-0.3-0.1-0.4C46.8,1.4,46.6,1.2,46.4,1.1z"/>
<path d="M1.6,46.9C1.7,47,1.9,47,2,47h12c0.6,0,1-0.4,1-1s-0.4-1-1-1H4.4l12.3-12.3c0.4-0.4,0.4-1,0-1.4s-1-0.4-1.4,0L3,43.6V34
	c0-0.6-0.4-1-1-1s-1,0.4-1,1v12c0,0.1,0,0.3,0.1,0.4C1.2,46.6,1.4,46.8,1.6,46.9z"/>
<path d="M2,15c0.6,0,1-0.4,1-1V4.4l12.3,12.3c0.2,0.2,0.5,0.3,0.7,0.3s0.5-0.1,0.7-0.3c0.4-0.4,0.4-1,0-1.4L4.4,3H14
	c0.6,0,1-0.4,1-1s-0.4-1-1-1H2C1.9,1,1.7,1,1.6,1.1C1.4,1.2,1.2,1.4,1.1,1.6C1,1.7,1,1.9,1,2v12C1,14.6,1.4,15,2,15z"/>
<path d="M46,33c-0.6,0-1,0.4-1,1v9.6L32.7,31.3c-0.4-0.4-1-0.4-1.4,0s-0.4,1,0,1.4L43.6,45H34c-0.6,0-1,0.4-1,1s0.4,1,1,1h12
	c0.1,0,0.3,0,0.4-0.1c0.2-0.1,0.4-0.3,0.5-0.5C47,46.3,47,46.1,47,46V34C47,33.4,46.6,33,46,33z"/>
</svg>
