<?xml version="1.0" encoding="utf-8"?>
<!-- Generator: Adobe Illustrator 19.1.0, SVG Export Plug-In . SVG Version: 6.00 Build 0)  -->
<!DOCTYPE svg PUBLIC "-//W3C//DTD SVG 1.1//EN" "http://www.w3.org/Graphics/SVG/1.1/DTD/svg11.dtd">
<svg version="1.1" id="Layer_1" xmlns="http://www.w3.org/2000/svg" xmlns:xlink="http://www.w3.org/1999/xlink" x="0px" y="0px"
	 width="48px" height="48px" viewBox="0 0 48 48" enable-background="new 0 0 48 48" xml:space="preserve">
<path d="M30.7,29.3c-0.4-0.4-1-0.4-1.4,0L25,33.6V20c0-0.6-0.4-1-1-1s-1,0.4-1,1v13.6l-4.3-4.3c-0.4-0.4-1-0.4-1.4,0s-0.4,1,0,1.4
	l6,6c0.1,0.1,0.2,0.2,0.3,0.2C23.7,37,23.9,37,24,37s0.3,0,0.4-0.1c0.1-0.1,0.2-0.1,0.3-0.2l6-6C31.1,30.3,31.1,29.7,30.7,29.3z"/>
<path d="M38.9,21c-1-7.9-7.8-14-15.9-14C14.7,7,7.8,13.3,7.1,21.5C3.5,22.7,1,26.1,1,30c0,5,4,9,9,9h6c0.6,0,1-0.4,1-1s-0.4-1-1-1
	h-6c-3.9,0-7-3.1-7-7c0-3.2,2.2-6,5.3-6.8C8.7,23.1,9,22.8,9,22.3C9.4,14.8,15.5,9,23,9c7.3,0,13.5,5.7,14,13.1c0,0.5,0.5,0.9,1,0.9
	c0,0,0.1,0,0.1,0c3.8,0,7,3.2,7,7c0,3.9-3.1,7-7,7h-6c-0.6,0-1,0.4-1,1s0.4,1,1,1h6c5,0,9-4,9-9C47,25.3,43.4,21.5,38.9,21z"/>
</svg>
