<?xml version="1.0" encoding="utf-8"?>
<!-- Generator: Adobe Illustrator 19.1.0, SVG Export Plug-In . SVG Version: 6.00 Build 0)  -->
<!DOCTYPE svg PUBLIC "-//W3C//DTD SVG 1.1//EN" "http://www.w3.org/Graphics/SVG/1.1/DTD/svg11.dtd">
<svg version="1.1" id="Layer_1" xmlns="http://www.w3.org/2000/svg" xmlns:xlink="http://www.w3.org/1999/xlink" x="0px" y="0px"
	 width="48px" height="48px" viewBox="0 0 48 48" enable-background="new 0 0 48 48" xml:space="preserve">
<path d="M7.9,33H2c-0.6,0-1,0.4-1,1s0.4,1,1,1h5.9c2.9,0,5.7-1.1,7.8-3.2l6.8-6.8h19.2l-6.3,6.3c-0.4,0.4-0.4,1,0,1.4
	c0.2,0.2,0.5,0.3,0.7,0.3s0.5-0.1,0.7-0.3l8-8c0.1-0.1,0.2-0.2,0.2-0.3c0.1-0.2,0.1-0.5,0-0.8c-0.1-0.1-0.1-0.2-0.2-0.3l-8-8
	c-0.4-0.4-1-0.4-1.4,0s-0.4,1,0,1.4l6.3,6.3H22.4l-6.8-6.8c-2.1-2.1-4.8-3.2-7.8-3.2H2c-0.6,0-1,0.4-1,1s0.4,1,1,1h5.9
	c2.4,0,4.7,0.9,6.4,2.6l6.4,6.4l-6.4,6.4C12.5,32.1,10.3,33,7.9,33z"/>
</svg>
