<?xml version="1.0" encoding="utf-8"?>
<!-- Generator: Adobe Illustrator 19.1.0, SVG Export Plug-In . SVG Version: 6.00 Build 0)  -->
<!DOCTYPE svg PUBLIC "-//W3C//DTD SVG 1.1//EN" "http://www.w3.org/Graphics/SVG/1.1/DTD/svg11.dtd">
<svg version="1.1" id="Layer_1" xmlns="http://www.w3.org/2000/svg" xmlns:xlink="http://www.w3.org/1999/xlink" x="0px" y="0px"
	 width="64px" height="64px" viewBox="0 0 64 64" enable-background="new 0 0 64 64" xml:space="preserve">
<path d="M48,1H16c-2.8,0-5,2.2-5,5v52c0,2.8,2.2,5,5,5h32c2.8,0,5-2.2,5-5V6C53,3.2,50.8,1,48,1z M19,19h26v18H19V19z M20,11h24
	c0.6,0,1,0.4,1,1v5H19v-5C19,11.4,19.4,11,20,11z M32,57c-1.7,0-3-1.3-3-3s1.3-3,3-3s3,1.3,3,3S33.7,57,32,57z M44,45H20
	c-0.6,0-1-0.4-1-1v-5h26v5C45,44.6,44.6,45,44,45z"/>
</svg>
