<?xml version="1.0" encoding="utf-8"?>
<!-- Generator: Adobe Illustrator 19.1.0, SVG Export Plug-In . SVG Version: 6.00 Build 0)  -->
<!DOCTYPE svg PUBLIC "-//W3C//DTD SVG 1.1//EN" "http://www.w3.org/Graphics/SVG/1.1/DTD/svg11.dtd">
<svg version="1.1" id="Layer_1" xmlns="http://www.w3.org/2000/svg" xmlns:xlink="http://www.w3.org/1999/xlink" x="0px" y="0px"
	 width="64px" height="64px" viewBox="0 0 64 64" enable-background="new 0 0 64 64" xml:space="preserve">
<path d="M11,13h52V8c0-0.6-0.4-1-1-1H11V13z"/>
<path d="M9,13V7H2C1.4,7,1,7.4,1,8v5H9z"/>
<path d="M1,15v41c0,0.6,0.4,1,1,1h60c0.6,0,1-0.4,1-1V15H1z M17,48c0,0.6-0.4,1-1,1h-6c-0.6,0-1-0.4-1-1V38c0-0.6,0.4-1,1-1h6
	c0.6,0,1,0.4,1,1V48z M55,48c0,0.6-0.4,1-1,1H24c-0.6,0-1-0.4-1-1V38c0-0.6,0.4-1,1-1h30c0.6,0,1,0.4,1,1V48z M55,30
	c0,0.6-0.4,1-1,1H10c-0.6,0-1-0.4-1-1v-6c0-0.6,0.4-1,1-1h44c0.6,0,1,0.4,1,1V30z"/>
</svg>
