<?xml version="1.0" encoding="utf-8"?>
<!-- Generator: Adobe Illustrator 19.1.0, SVG Export Plug-In . SVG Version: 6.00 Build 0)  -->
<!DOCTYPE svg PUBLIC "-//W3C//DTD SVG 1.1//EN" "http://www.w3.org/Graphics/SVG/1.1/DTD/svg11.dtd">
<svg version="1.1" id="Layer_1" xmlns="http://www.w3.org/2000/svg" xmlns:xlink="http://www.w3.org/1999/xlink" x="0px" y="0px"
	 width="64px" height="64px" viewBox="0 0 64 64" enable-background="new 0 0 64 64" xml:space="preserve">
<path d="M32,61c-0.6,0-1-0.4-1-1v-8c0-0.6,0.4-1,1-1s1,0.4,1,1v8C33,60.6,32.6,61,32,61z"/>
<path d="M32,39c-0.6,0-1-0.4-1-1V26c0-0.6,0.4-1,1-1s1,0.4,1,1v12C33,38.6,32.6,39,32,39z"/>
<path d="M32,13c-0.6,0-1-0.4-1-1V4c0-0.6,0.4-1,1-1s1,0.4,1,1v8C33,12.6,32.6,13,32,13z"/>
<path d="M50,37H14c-0.6,0-1,0.4-1,1v14c0,0.6,0.4,1,1,1h36c0.6,0,1-0.4,1-1V38C51,37.4,50.6,37,50,37z"/>
<path d="M22,27h20c0.6,0,1-0.4,1-1V12c0-0.6-0.4-1-1-1H22c-0.6,0-1,0.4-1,1v14C21,26.6,21.4,27,22,27z"/>
</svg>
