<?xml version="1.0" encoding="utf-8"?>
<!-- Generator: Adobe Illustrator 19.1.0, SVG Export Plug-In . SVG Version: 6.00 Build 0)  -->
<!DOCTYPE svg PUBLIC "-//W3C//DTD SVG 1.1//EN" "http://www.w3.org/Graphics/SVG/1.1/DTD/svg11.dtd">
<svg version="1.1" id="Layer_1" xmlns="http://www.w3.org/2000/svg" xmlns:xlink="http://www.w3.org/1999/xlink" x="0px" y="0px"
	 width="64px" height="64px" viewBox="0 0 64 64" enable-background="new 0 0 64 64" xml:space="preserve">
<path d="M30,39c-0.3,0-0.5-0.1-0.7-0.3l-6-6c-0.4-0.4-0.4-1,0-1.4s1-0.4,1.4,0l5.3,5.3l9.3-9.3c0.4-0.4,1-0.4,1.4,0s0.4,1,0,1.4
	l-10,10C30.5,38.9,30.3,39,30,39z"/>
<path d="M56,1H46v8h2c0.6,0,1,0.4,1,1v44c0,0.6-0.4,1-1,1H16c-0.6,0-1-0.4-1-1V10c0-0.6,0.4-1,1-1h2V1H8C7.4,1,7,1.4,7,2v60
	c0,0.6,0.4,1,1,1h48c0.6,0,1-0.4,1-1V2C57,1.4,56.6,1,56,1z"/>
<path d="M43,1H21c-0.6,0-1,0.4-1,1v10c0,0.6,0.4,1,1,1h4.3c0.4,0,0.8-0.3,1-0.7C27,9.8,29.4,8,32,8s5,1.8,5.7,4.3
	c0.1,0.4,0.5,0.7,1,0.7H43c0.6,0,1-0.4,1-1V2C44,1.4,43.6,1,43,1z"/>
</svg>
