<?xml version="1.0" encoding="utf-8"?>
<!-- Generator: Adobe Illustrator 19.1.0, SVG Export Plug-In . SVG Version: 6.00 Build 0)  -->
<!DOCTYPE svg PUBLIC "-//W3C//DTD SVG 1.1//EN" "http://www.w3.org/Graphics/SVG/1.1/DTD/svg11.dtd">
<svg version="1.1" id="Layer_1" xmlns="http://www.w3.org/2000/svg" xmlns:xlink="http://www.w3.org/1999/xlink" x="0px" y="0px"
	 width="64px" height="64px" viewBox="0 0 64 64" enable-background="new 0 0 64 64" xml:space="preserve">
<path d="M49,42c-1.9,0-3.7,0.5-5.3,1.3l-6-7l14.1-14.1C56.6,17.4,57.5,9.9,54,4L32,29.7L10,4c-3.5,5.9-2.6,13.4,2.2,18.2l14.1,14.1
	l-6,7C18.7,42.5,16.9,42,15,42C8.9,42,4,46.9,4,53s4.9,11,11,11s11-4.9,11-11c0-1.5-0.3-2.9-0.8-4.2L32,42l6.8,6.8
	C38.3,50.1,38,51.5,38,53c0,6.1,4.9,11,11,11s11-4.9,11-11S55.1,42,49,42z M15,60c-3.9,0-7-3.1-7-7s3.1-7,7-7s7,3.1,7,7
	S18.9,60,15,60z M49,60c-3.9,0-7-3.1-7-7s3.1-7,7-7s7,3.1,7,7S52.9,60,49,60z"/>
</svg>
