<?xml version="1.0" encoding="utf-8"?>
<!-- Generator: Adobe Illustrator 19.1.0, SVG Export Plug-In . SVG Version: 6.00 Build 0)  -->
<!DOCTYPE svg PUBLIC "-//W3C//DTD SVG 1.1//EN" "http://www.w3.org/Graphics/SVG/1.1/DTD/svg11.dtd">
<svg version="1.1" id="Layer_1" xmlns="http://www.w3.org/2000/svg" xmlns:xlink="http://www.w3.org/1999/xlink" x="0px" y="0px"
	 width="64px" height="64px" viewBox="0 0 64 64" enable-background="new 0 0 64 64" xml:space="preserve">
<path d="M58,15H6c-0.6,0-1,0.4-1,1v44c0,0.6,0.4,1,1,1h52c0.6,0,1-0.4,1-1V16C59,15.4,58.6,15,58,15z"/>
<path d="M14,13h36c0.6,0,1-0.4,1-1v-2c0-0.6-0.4-1-1-1H14c-0.6,0-1,0.4-1,1v2C13,12.6,13.4,13,14,13z"/>
<path d="M22,7h20c0.6,0,1-0.4,1-1V4c0-0.6-0.4-1-1-1H22c-0.6,0-1,0.4-1,1v2C21,6.6,21.4,7,22,7z"/>
</svg>
