<?xml version="1.0" encoding="utf-8"?>
<!-- Generator: Adobe Illustrator 19.1.0, SVG Export Plug-In . SVG Version: 6.00 Build 0)  -->
<!DOCTYPE svg PUBLIC "-//W3C//DTD SVG 1.1//EN" "http://www.w3.org/Graphics/SVG/1.1/DTD/svg11.dtd">
<svg version="1.1" id="Layer_1" xmlns="http://www.w3.org/2000/svg" xmlns:xlink="http://www.w3.org/1999/xlink" x="0px" y="0px"
	 width="64px" height="64px" viewBox="0 0 64 64" enable-background="new 0 0 64 64" xml:space="preserve">
<path d="M2,7C1.4,7,1,6.6,1,6V2c0-0.6,0.4-1,1-1h4c0.6,0,1,0.4,1,1S6.6,3,6,3H3v3C3,6.6,2.6,7,2,7z"/>
<path d="M6,47H2c-0.6,0-1-0.4-1-1v-4c0-0.6,0.4-1,1-1s1,0.4,1,1v3h3c0.6,0,1,0.4,1,1S6.6,47,6,47z"/>
<path d="M46,7c-0.6,0-1-0.4-1-1V3h-3c-0.6,0-1-0.4-1-1s0.4-1,1-1h4c0.6,0,1,0.4,1,1v4C47,6.6,46.6,7,46,7z"/>
<path d="M20,3h-6c-0.6,0-1-0.4-1-1s0.4-1,1-1h6c0.6,0,1,0.4,1,1S20.6,3,20,3z"/>
<path d="M20,47h-6c-0.6,0-1-0.4-1-1s0.4-1,1-1h6c0.6,0,1,0.4,1,1S20.6,47,20,47z"/>
<path d="M34,47h-6c-0.6,0-1-0.4-1-1s0.4-1,1-1h6c0.6,0,1,0.4,1,1S34.6,47,34,47z"/>
<path d="M34,3h-6c-0.6,0-1-0.4-1-1s0.4-1,1-1h6c0.6,0,1,0.4,1,1S34.6,3,34,3z"/>
<path d="M2,21c-0.6,0-1-0.4-1-1v-6c0-0.6,0.4-1,1-1s1,0.4,1,1v6C3,20.6,2.6,21,2,21z"/>
<path d="M46,21c-0.6,0-1-0.4-1-1v-6c0-0.6,0.4-1,1-1s1,0.4,1,1v6C47,20.6,46.6,21,46,21z"/>
<path d="M46,35c-0.6,0-1-0.4-1-1v-6c0-0.6,0.4-1,1-1s1,0.4,1,1v6C47,34.6,46.6,35,46,35z"/>
<path d="M2,35c-0.6,0-1-0.4-1-1v-6c0-0.6,0.4-1,1-1s1,0.4,1,1v6C3,34.6,2.6,35,2,35z"/>
<path d="M58.7,49.3L49.4,40l7.3-7.3c0.3-0.3,0.4-0.7,0.2-1c-0.1-0.4-0.4-0.6-0.8-0.7l-28-4c-0.3,0-0.6,0.1-0.8,0.3S27,27.8,27,28.1
	l4,28c0.1,0.4,0.3,0.7,0.7,0.8c0.4,0.1,0.8,0,1-0.2l7.3-7.3l9.3,9.3c0.2,0.2,0.5,0.3,0.7,0.3s0.5-0.1,0.7-0.3l8-8
	C59.1,50.3,59.1,49.7,58.7,49.3z"/>
</svg>
