<?xml version="1.0" encoding="utf-8"?>
<!-- Generator: Adobe Illustrator 19.1.0, SVG Export Plug-In . SVG Version: 6.00 Build 0)  -->
<!DOCTYPE svg PUBLIC "-//W3C//DTD SVG 1.1//EN" "http://www.w3.org/Graphics/SVG/1.1/DTD/svg11.dtd">
<svg version="1.1" id="Layer_1" xmlns="http://www.w3.org/2000/svg" xmlns:xlink="http://www.w3.org/1999/xlink" x="0px" y="0px"
	 width="64px" height="64px" viewBox="0 0 64 64" enable-background="new 0 0 64 64" xml:space="preserve">
<rect x="37.8" y="35.6" transform="matrix(0.7071 0.7071 -0.7071 0.7071 44.2928 -19.5183)" width="15.8" height="16.1"/>
<path d="M58.1,45.3L47.3,56.1L58.8,58c0.1,0,0.1,0,0.2,0c0,0,0,0,0,0c0.6,0,1-0.4,1-1c0-0.1,0-0.2-0.1-0.4L58.1,45.3z"/>
<rect x="12.7" y="14.4" transform="matrix(0.7071 -0.7071 0.7071 0.7071 -7.1985 20.2072)" width="16.1" height="8.7"/>
<path d="M22,8.6l-4.3-4.3c-0.4-0.4-1-0.4-1.4,0l-10,10c-0.4,0.4-0.4,1,0,1.4l4.3,4.3L22,8.6z"/>
<path d="M57.7,16.3l-12-12c-0.4-0.4-1-0.4-1.4,0L37,11.6l3.7,3.7c0.4,0.4,0.4,1,0,1.4C40.5,16.9,40.3,17,40,17s-0.5-0.1-0.7-0.3
	L35.6,13L31,17.6l1.7,1.7c0.4,0.4,0.4,1,0,1.4C32.5,20.9,32.3,21,32,21s-0.5-0.1-0.7-0.3L29.6,19L25,23.6l3.7,3.7
	c0.4,0.4,0.4,1,0,1.4C28.5,28.9,28.3,29,28,29s-0.5-0.1-0.7-0.3L23.6,25L19,29.6l1.7,1.7c0.4,0.4,0.4,1,0,1.4
	C20.5,32.9,20.3,33,20,33s-0.5-0.1-0.7-0.3L17.6,31L13,35.6l3.7,3.7c0.4,0.4,0.4,1,0,1.4C16.5,40.9,16.3,41,16,41s-0.5-0.1-0.7-0.3
	L11.6,37l-7.3,7.3c-0.4,0.4-0.4,1,0,1.4l12,12c0.2,0.2,0.5,0.3,0.7,0.3s0.5-0.1,0.7-0.3l40-40C58.1,17.3,58.1,16.7,57.7,16.3z
	 M49.5,19c-1.4,0-2.5-1.1-2.5-2.5s1.1-2.5,2.5-2.5s2.5,1.1,2.5,2.5S50.9,19,49.5,19z"/>
</svg>
