<?xml version="1.0" encoding="utf-8"?>
<!-- Generator: Adobe Illustrator 19.1.0, SVG Export Plug-In . SVG Version: 6.00 Build 0)  -->
<!DOCTYPE svg PUBLIC "-//W3C//DTD SVG 1.1//EN" "http://www.w3.org/Graphics/SVG/1.1/DTD/svg11.dtd">
<svg version="1.1" id="Layer_1" xmlns="http://www.w3.org/2000/svg" xmlns:xlink="http://www.w3.org/1999/xlink" x="0px" y="0px"
	 width="64px" height="64px" viewBox="0 0 64 64" enable-background="new 0 0 64 64" xml:space="preserve">
<path d="M38,35h-5v-9c0-0.6-0.4-1-1-1H3V9h4v7c0,0.6,0.4,1,1,1h50c0.6,0,1-0.4,1-1V2c0-0.6-0.4-1-1-1H8C7.4,1,7,1.4,7,2v5H2
	C1.4,7,1,7.4,1,8v18c0,0.6,0.4,1,1,1h29v8h-5c-0.6,0-1,0.4-1,1v26c0,0.6,0.4,1,1,1h12c0.6,0,1-0.4,1-1V36C39,35.4,38.6,35,38,35z"/>
<path d="M56.8,27.4c-0.4-0.5-1.3-0.5-1.6,0c-0.7,1-4.2,6.2-4.2,8.6c0,2.8,2.2,5,5,5s5-2.2,5-5C61,33.6,57.5,28.4,56.8,27.4z"/>
</svg>
