<?xml version="1.0" encoding="utf-8"?>
<!-- Generator: Adobe Illustrator 19.1.0, SVG Export Plug-In . SVG Version: 6.00 Build 0)  -->
<!DOCTYPE svg PUBLIC "-//W3C//DTD SVG 1.1//EN" "http://www.w3.org/Graphics/SVG/1.1/DTD/svg11.dtd">
<svg version="1.1" id="Layer_1" xmlns="http://www.w3.org/2000/svg" xmlns:xlink="http://www.w3.org/1999/xlink" x="0px" y="0px"
	 width="48px" height="48px" viewBox="0 0 48 48" enable-background="new 0 0 48 48" xml:space="preserve">
<path d="M46,9H24.5l-5.7-7.6C18.6,1.1,18.3,1,18,1H2C1.4,1,1,1.4,1,2v44c0,0.6,0.4,1,1,1h44c0.6,0,1-0.4,1-1V10C47,9.4,46.6,9,46,9z
	 M45,45H3V3h14.5l5.7,7.6c0.2,0.3,0.5,0.4,0.8,0.4h21V45z"/>
<path d="M13,25c0,4.4,3.6,8,8,8c1.8,0,3.5-0.6,4.9-1.7l7.4,7.4c0.2,0.2,0.5,0.3,0.7,0.3s0.5-0.1,0.7-0.3c0.4-0.4,0.4-1,0-1.4
	l-7.4-7.4c1.1-1.4,1.7-3.1,1.7-4.9c0-4.4-3.6-8-8-8S13,20.6,13,25z M27,25c0,3.3-2.7,6-6,6s-6-2.7-6-6s2.7-6,6-6S27,21.7,27,25z"/>
</svg>
