<?xml version="1.0" encoding="utf-8"?>
<!-- Generator: Adobe Illustrator 19.1.0, SVG Export Plug-In . SVG Version: 6.00 Build 0)  -->
<!DOCTYPE svg PUBLIC "-//W3C//DTD SVG 1.1//EN" "http://www.w3.org/Graphics/SVG/1.1/DTD/svg11.dtd">
<svg version="1.1" id="Layer_1" xmlns="http://www.w3.org/2000/svg" xmlns:xlink="http://www.w3.org/1999/xlink" x="0px" y="0px"
	 width="48px" height="48px" viewBox="0 0 48 48" enable-background="new 0 0 48 48" xml:space="preserve">
<path d="M7,29.7c0.5,0,1.2,0.2,1.9,0.5l0.6-1.6C8.7,28.2,7.9,28,7,28c-0.9,0-1.6,0.2-2.2,0.6s-0.8,1-0.8,1.7c0,0.4,0.1,0.7,0.2,1
	c0.1,0.3,0.3,0.5,0.6,0.8c0.3,0.2,0.6,0.4,1.2,0.7c0.6,0.3,0.9,0.4,1,0.5c0.1,0.1,0.2,0.2,0.3,0.2c0.1,0.1,0.1,0.2,0.1,0.3
	c0,0.2-0.1,0.3-0.2,0.4s-0.4,0.2-0.7,0.2c-0.4,0-0.8-0.1-1.2-0.2S4.4,33.9,4,33.7v1.9c0.4,0.2,0.8,0.3,1.1,0.4s0.8,0.1,1.3,0.1
	c0.6,0,1.2-0.1,1.6-0.3c0.5-0.2,0.8-0.5,1.1-0.9s0.4-0.8,0.4-1.3c0-0.5-0.1-1-0.4-1.3c-0.3-0.3-0.7-0.7-1.4-1
	C7,31,6.6,30.8,6.4,30.7c-0.2-0.1-0.2-0.3-0.2-0.4c0-0.1,0.1-0.3,0.2-0.4S6.7,29.7,7,29.7z"/>
<path d="M15,28.1l-1.6,2.4c-0.3,0.5-0.5,0.8-0.6,1v-3.4h-2.1V36h2.1v-2.6l0.6-0.4l1.6,3h2.4l-2.4-4.3l2.5-3.5H15z"/>
<polygon points="17.9,36 22.5,36 22.5,34.3 20,34.3 20,32.8 22.3,32.8 22.3,31.1 20,31.1 20,29.8 22.5,29.8 22.5,28.1 17.9,28.1 "/>
<polygon points="23.1,29.9 25,29.9 25,36 27.1,36 27.1,29.9 29.1,29.9 29.1,28.1 23.1,28.1 "/>
<path d="M33.5,29.8c0.3,0,0.6,0,0.9,0.1c0.3,0.1,0.6,0.2,0.9,0.3l0.6-1.7c-0.8-0.4-1.6-0.6-2.4-0.6c-0.8,0-1.5,0.2-2,0.5
	c-0.6,0.3-1,0.8-1.3,1.4c-0.3,0.6-0.5,1.3-0.5,2.1c0,1.3,0.3,2.3,0.9,3c0.6,0.7,1.5,1,2.7,1c0.8,0,1.6-0.1,2.2-0.4v-1.8
	c-0.3,0.1-0.7,0.3-1,0.3s-0.7,0.1-1,0.1c-1.1,0-1.7-0.8-1.7-2.3c0-0.7,0.1-1.3,0.4-1.7C32.6,30,32.9,29.8,33.5,29.8z"/>
<polygon points="41.5,31.1 39,31.1 39,28.1 36.9,28.1 36.9,36 39,36 39,32.8 41.5,32.8 41.5,36 43.6,36 43.6,28.1 41.5,28.1 "/>
<path d="M47.7,22.3L43,17.6V14c0-0.1,0-0.3-0.1-0.4c-0.1-0.1-0.1-0.2-0.2-0.3l-12-12c-0.1-0.1-0.2-0.2-0.3-0.2C30.3,1,30.1,1,30,1H6
	C5.4,1,5,1.4,5,2v15.6l-4.7,4.7c-0.1,0.1-0.2,0.2-0.2,0.3C0,22.7,0,22.9,0,23v18c0,0.6,0.4,1,1,1h4v4c0,0.6,0.4,1,1,1h36
	c0.6,0,1-0.4,1-1v-4h4c0.6,0,1-0.4,1-1V23c0-0.1,0-0.3-0.1-0.4C47.9,22.5,47.8,22.4,47.7,22.3z M44.6,22H43v-1.6L44.6,22z M31,4.4
	l8.6,8.6H31V4.4z M7,3h22v11c0,0.6,0.4,1,1,1h11v7H7V3z M5,22H3.4L5,20.4V22z M41,45H7v-3h34V45z M2,40V24h44v16H2z"/>
</svg>
