<?xml version="1.0" encoding="utf-8"?>
<!-- Generator: Adobe Illustrator 19.1.0, SVG Export Plug-In . SVG Version: 6.00 Build 0)  -->
<!DOCTYPE svg PUBLIC "-//W3C//DTD SVG 1.1//EN" "http://www.w3.org/Graphics/SVG/1.1/DTD/svg11.dtd">
<svg version="1.1" id="Layer_1" xmlns="http://www.w3.org/2000/svg" xmlns:xlink="http://www.w3.org/1999/xlink" x="0px" y="0px"
	 width="48px" height="48px" viewBox="0 0 48 48" enable-background="new 0 0 48 48" xml:space="preserve">
<path d="M6,47h36c0.6,0,1-0.4,1-1V2c0-0.6-0.4-1-1-1H6C5.4,1,5,1.4,5,2v44C5,46.6,5.4,47,6,47z M7,3h34v42H7V3z"/>
<path d="M24,9c-2.6,0-5.4,1.9-6.5,4.4c-0.2,0.5,0,1.1,0.5,1.3c0.5,0.2,1.1,0,1.3-0.5c0.8-1.8,2.8-3.2,4.7-3.2c2.7,0,5,2.3,5,5
	s-2.3,5-5,5c-0.6,0-1,0.4-1,1v6c0,0.6,0.4,1,1,1s1-0.4,1-1v-5.1c3.3-0.5,6-3.5,6-6.9C31,12.2,27.8,9,24,9z"/>
<path d="M24,33c-1.7,0-3,1.3-3,3s1.3,3,3,3s3-1.3,3-3S25.7,33,24,33z M24,37c-0.6,0-1-0.4-1-1s0.4-1,1-1s1,0.4,1,1S24.6,37,24,37z"
	/>
</svg>
