<?xml version="1.0" encoding="utf-8"?>
<!-- Generator: Adobe Illustrator 19.1.0, SVG Export Plug-In . SVG Version: 6.00 Build 0)  -->
<!DOCTYPE svg PUBLIC "-//W3C//DTD SVG 1.1//EN" "http://www.w3.org/Graphics/SVG/1.1/DTD/svg11.dtd">
<svg version="1.1" id="Layer_1" xmlns="http://www.w3.org/2000/svg" xmlns:xlink="http://www.w3.org/1999/xlink" x="0px" y="0px"
	 width="48px" height="48px" viewBox="0 0 48 48" enable-background="new 0 0 48 48" xml:space="preserve">
<path d="M46,9H24.5l-5.7-7.6C18.6,1.1,18.3,1,18,1H2C1.4,1,1,1.4,1,2v44c0,0.6,0.4,1,1,1h44c0.6,0,1-0.4,1-1V10C47,9.4,46.6,9,46,9z
	 M45,45H3V3h14.5l5.7,7.6c0.2,0.3,0.5,0.4,0.8,0.4h21V45z"/>
<path d="M23.1,17.6L20.3,24H14c-0.4,0-0.8,0.2-0.9,0.6s-0.1,0.8,0.2,1.1l4.6,4.6L16,37.8c-0.1,0.4,0,0.8,0.4,1
	c0.3,0.2,0.8,0.3,1.1,0.1l6.5-3.7l6.5,3.7C30.7,39,30.8,39,31,39c0.2,0,0.4-0.1,0.6-0.2c0.3-0.2,0.5-0.7,0.4-1l-1.9-7.5l4.6-4.6
	c0.3-0.3,0.4-0.7,0.2-1.1S34.4,24,34,24h-6.3l-2.7-6.4C24.8,17.2,24.4,17,24,17S23.2,17.2,23.1,17.6z M26.1,25.4
	c0.2,0.4,0.5,0.6,0.9,0.6h4.6l-3.3,3.3c-0.2,0.2-0.3,0.6-0.3,0.9l1.4,5.7l-5-2.8C24.3,33,24.2,33,24,33s-0.3,0-0.5,0.1l-5,2.8
	l1.4-5.7c0.1-0.3,0-0.7-0.3-0.9L16.4,26H21c0.4,0,0.8-0.2,0.9-0.6l2.1-4.9L26.1,25.4z"/>
</svg>
