<?xml version="1.0" encoding="utf-8"?>
<!-- Generator: Adobe Illustrator 19.1.0, SVG Export Plug-In . SVG Version: 6.00 Build 0)  -->
<!DOCTYPE svg PUBLIC "-//W3C//DTD SVG 1.1//EN" "http://www.w3.org/Graphics/SVG/1.1/DTD/svg11.dtd">
<svg version="1.1" id="Layer_1" xmlns="http://www.w3.org/2000/svg" xmlns:xlink="http://www.w3.org/1999/xlink" x="0px" y="0px"
	 width="48px" height="48px" viewBox="0 0 48 48" enable-background="new 0 0 48 48" xml:space="preserve">
<path d="M20.6,28.1l-2.5,7.7l-2.2-3.3c0.9-0.5,1.3-1.2,1.3-2.1c0-1.5-1.1-2.3-3.2-2.3h-2.6V36h2.1v-2.9h0.5l1.7,2.9H18h0.1h2.2
	l0.4-1.5h2.6l0.4,1.5H26l-2.6-7.9H20.6z M13.9,31.5h-0.4v-1.8H14c0.7,0,1.1,0.3,1.1,0.8C15,31.2,14.7,31.5,13.9,31.5z M21.2,32.8
	c0.3-1.2,0.5-2.1,0.6-2.5c0.1-0.4,0.2-0.7,0.2-0.9c0,0.2,0.1,0.5,0.2,1c0.1,0.5,0.2,0.8,0.3,1.1l0.3,1.3H21.2z"/>
<path d="M34.3,32.1c-0.2,1-0.3,1.7-0.4,2.1c0-0.3-0.1-0.8-0.2-1.4s-0.2-1.2-0.3-1.6l-0.7-3h-2l-0.7,3c-0.1,0.4-0.2,0.9-0.3,1.6
	c-0.1,0.6-0.2,1.1-0.2,1.5c-0.1-0.5-0.2-1.2-0.4-2.1l-0.9-3.9h-2l1.9,7.9h2.5c0.5-2.1,0.7-3.2,0.8-3.5c0.1-0.3,0.1-0.6,0.2-1
	s0.1-0.6,0.1-0.9c0,0.3,0.1,0.6,0.2,1.1c0.1,0.4,0.1,0.7,0.2,0.9l0.8,3.4h2.5l1.9-7.9h-2L34.3,32.1z"/>
<path d="M47.7,22.3L43,17.6V14c0-0.1,0-0.3-0.1-0.4c-0.1-0.1-0.1-0.2-0.2-0.3l-12-12c-0.1-0.1-0.2-0.2-0.3-0.2C30.3,1,30.1,1,30,1H6
	C5.4,1,5,1.4,5,2v15.6l-4.7,4.7c-0.1,0.1-0.2,0.2-0.2,0.3C0,22.7,0,22.9,0,23v18c0,0.6,0.4,1,1,1h4v4c0,0.6,0.4,1,1,1h36
	c0.6,0,1-0.4,1-1v-4h4c0.6,0,1-0.4,1-1V23c0-0.1,0-0.3-0.1-0.4C47.9,22.5,47.8,22.4,47.7,22.3z M44.6,22H43v-1.6L44.6,22z M31,4.4
	l8.6,8.6H31V4.4z M7,3h22v11c0,0.6,0.4,1,1,1h11v7H7V3z M5,22H3.4L5,20.4V22z M41,45H7v-3h34V45z M2,40V24h44v16H2z"/>
</svg>
