<?xml version="1.0" encoding="utf-8"?>
<!-- Generator: Adobe Illustrator 19.1.0, SVG Export Plug-In . SVG Version: 6.00 Build 0)  -->
<!DOCTYPE svg PUBLIC "-//W3C//DTD SVG 1.1//EN" "http://www.w3.org/Graphics/SVG/1.1/DTD/svg11.dtd">
<svg version="1.1" id="Layer_1" xmlns="http://www.w3.org/2000/svg" xmlns:xlink="http://www.w3.org/1999/xlink" x="0px" y="0px"
	 width="48px" height="48px" viewBox="0 0 48 48" enable-background="new 0 0 48 48" xml:space="preserve">
<path d="M16.1,33.7L16.1,33.7l-1.7-5.6h-2.8V36h1.9v-3.4c0-0.5,0-1.3-0.1-2.2h0L15,36h2l1.6-5.6h0c0,0.9-0.1,1.4-0.1,1.6
	c0,0.2,0,0.4,0,0.6V36h2v-7.9h-2.8L16.1,33.7z"/>
<path d="M23.9,28.1L21.3,36h2.3l0.4-1.5h2.6L27,36h2.3l-2.6-7.9H23.9z M24.5,32.8c0.3-1.2,0.5-2.1,0.6-2.5c0.1-0.4,0.2-0.7,0.2-0.9
	c0,0.2,0.1,0.5,0.2,1c0.1,0.5,0.2,0.8,0.3,1.1l0.3,1.3H24.5z"/>
<polygon points="37.1,28.1 34.6,28.1 33.3,30.6 31.9,28.1 29.5,28.1 32,32 29.4,36 31.8,36 33.3,33.5 34.8,36 37.3,36 34.6,32.1 "/>
<path d="M47.7,22.3L43,17.6V14c0-0.1,0-0.3-0.1-0.4c-0.1-0.1-0.1-0.2-0.2-0.3l-12-12c-0.1-0.1-0.2-0.2-0.3-0.2C30.3,1,30.1,1,30,1H6
	C5.4,1,5,1.4,5,2v15.6l-4.7,4.7c-0.1,0.1-0.2,0.2-0.2,0.3C0,22.7,0,22.9,0,23v18c0,0.6,0.4,1,1,1h4v4c0,0.6,0.4,1,1,1h36
	c0.6,0,1-0.4,1-1v-4h4c0.6,0,1-0.4,1-1V23c0-0.1,0-0.3-0.1-0.4C47.9,22.5,47.8,22.4,47.7,22.3z M44.6,22H43v-1.6L44.6,22z M31,4.4
	l8.6,8.6H31V4.4z M7,3h22v11c0,0.6,0.4,1,1,1h11v7H7V3z M5,22H3.4L5,20.4V22z M41,45H7v-3h34V45z M2,40V24h44v16H2z"/>
</svg>
