<?xml version="1.0" encoding="utf-8"?>
<!-- Generator: Adobe Illustrator 19.1.0, SVG Export Plug-In . SVG Version: 6.00 Build 0)  -->
<!DOCTYPE svg PUBLIC "-//W3C//DTD SVG 1.1//EN" "http://www.w3.org/Graphics/SVG/1.1/DTD/svg11.dtd">
<svg version="1.1" id="Layer_1" xmlns="http://www.w3.org/2000/svg" xmlns:xlink="http://www.w3.org/1999/xlink" x="0px" y="0px"
	 width="48px" height="48px" viewBox="0 0 48 48" enable-background="new 0 0 48 48" xml:space="preserve">
<path d="M40,9h-5.6l4.3-4.3c0.4-0.4,0.4-1,0-1.4s-1-0.4-1.4,0l-6,6c-0.1,0.1-0.2,0.2-0.2,0.3c-0.1,0.2-0.1,0.5,0,0.8
	c0.1,0.1,0.1,0.2,0.2,0.3l6,6c0.2,0.2,0.5,0.3,0.7,0.3s0.5-0.1,0.7-0.3c0.4-0.4,0.4-1,0-1.4L34.4,11H40c2.8,0,5,2.2,5,5
	c0,0.6,0.4,1,1,1s1-0.4,1-1C47,12.1,43.9,9,40,9z"/>
<path d="M3,32c0-0.6-0.4-1-1-1s-1,0.4-1,1c0,3.9,3.1,7,7,7h5.6l-4.3,4.3c-0.4,0.4-0.4,1,0,1.4C9.5,44.9,9.7,45,10,45
	s0.5-0.1,0.7-0.3l6-6c0.1-0.1,0.2-0.2,0.2-0.3c0.1-0.2,0.1-0.5,0-0.8c-0.1-0.1-0.1-0.2-0.2-0.3l-6-6c-0.4-0.4-1-0.4-1.4,0
	s-0.4,1,0,1.4l4.3,4.3H8C5.2,37,3,34.8,3,32z"/>
<path d="M46,21H27V2c0-0.6-0.4-1-1-1H2C1.4,1,1,1.4,1,2v24c0,0.6,0.4,1,1,1h19v19c0,0.6,0.4,1,1,1h24c0.6,0,1-0.4,1-1V22
	C47,21.4,46.6,21,46,21z M3,25V3h22v18h-3c-0.6,0-1,0.4-1,1v3H3z M45,45H23V23h22V45z"/>
</svg>
