<?xml version="1.0" encoding="utf-8"?>
<!-- Generator: Adobe Illustrator 19.1.0, SVG Export Plug-In . SVG Version: 6.00 Build 0)  -->
<!DOCTYPE svg PUBLIC "-//W3C//DTD SVG 1.1//EN" "http://www.w3.org/Graphics/SVG/1.1/DTD/svg11.dtd">
<svg version="1.1" id="Layer_1" xmlns="http://www.w3.org/2000/svg" xmlns:xlink="http://www.w3.org/1999/xlink" x="0px" y="0px"
	 width="48px" height="48px" viewBox="0 0 48 48" enable-background="new 0 0 48 48" xml:space="preserve">
<path d="M16.4,29.7c0.5,0,1.2,0.2,1.9,0.5l0.7-1.6c-0.8-0.4-1.7-0.6-2.5-0.6c-0.9,0-1.6,0.2-2.2,0.6s-0.8,1-0.8,1.7
	c0,0.4,0.1,0.7,0.2,1s0.3,0.5,0.6,0.8c0.3,0.2,0.6,0.4,1.2,0.7c0.6,0.3,0.9,0.4,1,0.5c0.1,0.1,0.2,0.2,0.3,0.2
	c0.1,0.1,0.1,0.2,0.1,0.3c0,0.2-0.1,0.3-0.2,0.4c-0.1,0.1-0.4,0.2-0.7,0.2c-0.4,0-0.8-0.1-1.2-0.2s-0.9-0.3-1.3-0.5v1.9
	c0.4,0.2,0.8,0.3,1.1,0.4c0.4,0.1,0.8,0.1,1.3,0.1c0.6,0,1.2-0.1,1.6-0.3c0.5-0.2,0.8-0.5,1.1-0.9s0.4-0.8,0.4-1.3
	c0-0.5-0.1-1-0.4-1.3c-0.3-0.3-0.7-0.7-1.4-1c-0.7-0.3-1.1-0.5-1.3-0.7c-0.2-0.1-0.2-0.3-0.2-0.4c0-0.1,0.1-0.3,0.2-0.4
	S16.1,29.7,16.4,29.7z"/>
<path d="M23.5,32.1c-0.1,0.2-0.1,0.5-0.2,0.9s-0.1,0.7-0.2,0.9c0-0.3-0.1-1-0.4-1.8l-1.1-4h-2.4l2.6,7.9h2.5l2.6-7.9h-2.4L23.5,32.1
	z"/>
<path d="M30.9,33h1.4v1.2c-0.3,0.1-0.6,0.1-0.9,0.1c-0.6,0-1-0.2-1.3-0.6c-0.3-0.4-0.5-0.9-0.5-1.7c0-0.7,0.2-1.3,0.5-1.7
	c0.3-0.4,0.8-0.6,1.4-0.6c0.7,0,1.3,0.1,1.9,0.4l0.7-1.7c-0.3-0.1-0.7-0.3-1.1-0.4c-0.4-0.1-0.9-0.1-1.4-0.1c-1.3,0-2.3,0.4-3,1.1
	s-1.1,1.7-1.1,3c0,1.3,0.3,2.3,1,3c0.7,0.7,1.6,1.1,2.8,1.1c1.1,0,2.1-0.2,3-0.5v-4.2h-3.4V33z"/>
<path d="M47.7,22.3L43,17.6V14c0-0.1,0-0.3-0.1-0.4c-0.1-0.1-0.1-0.2-0.2-0.3l-12-12c-0.1-0.1-0.2-0.2-0.3-0.2C30.3,1,30.1,1,30,1H6
	C5.4,1,5,1.4,5,2v15.6l-4.7,4.7c-0.1,0.1-0.2,0.2-0.2,0.3C0,22.7,0,22.9,0,23v18c0,0.6,0.4,1,1,1h4v4c0,0.6,0.4,1,1,1h36
	c0.6,0,1-0.4,1-1v-4h4c0.6,0,1-0.4,1-1V23c0-0.1,0-0.3-0.1-0.4C47.9,22.5,47.8,22.4,47.7,22.3z M44.6,22H43v-1.6L44.6,22z M31,4.4
	l8.6,8.6H31V4.4z M7,3h22v11c0,0.6,0.4,1,1,1h11v7H7V3z M5,22H3.4L5,20.4V22z M41,45H7v-3h34V45z M2,40V24h44v16H2z"/>
</svg>
