<?xml version="1.0" encoding="utf-8"?>
<!-- Generator: Adobe Illustrator 19.1.0, SVG Export Plug-In . SVG Version: 6.00 Build 0)  -->
<!DOCTYPE svg PUBLIC "-//W3C//DTD SVG 1.1//EN" "http://www.w3.org/Graphics/SVG/1.1/DTD/svg11.dtd">
<svg version="1.1" id="Layer_1" xmlns="http://www.w3.org/2000/svg" xmlns:xlink="http://www.w3.org/1999/xlink" x="0px" y="0px"
	 width="48px" height="48px" viewBox="0 0 48 48" enable-background="new 0 0 48 48" xml:space="preserve">
<path d="M5,46c0,0.6,0.4,1,1,1h36c0.6,0,1-0.4,1-1V14c0-0.1,0-0.3-0.1-0.4c-0.1-0.1-0.1-0.2-0.2-0.3l-12-12
	c-0.1-0.1-0.2-0.2-0.3-0.2C30.3,1,30.1,1,30,1H6C5.4,1,5,1.4,5,2V46z M31,4.4l8.6,8.6H31V4.4z M7,3h22v11c0,0.6,0.4,1,1,1h11v30H7V3
	z"/>
<path d="M34,35H14c-0.6,0-1,0.4-1,1s0.4,1,1,1h20c0.6,0,1-0.4,1-1S34.6,35,34,35z"/>
<path d="M34,25H14c-0.6,0-1,0.4-1,1s0.4,1,1,1h20c0.6,0,1-0.4,1-1S34.6,25,34,25z"/>
<path d="M14,17h8c0.6,0,1-0.4,1-1s-0.4-1-1-1h-8c-0.6,0-1,0.4-1,1S13.4,17,14,17z"/>
</svg>
