<?xml version="1.0" encoding="utf-8"?>
<!-- Generator: Adobe Illustrator 19.1.0, SVG Export Plug-In . SVG Version: 6.00 Build 0)  -->
<!DOCTYPE svg PUBLIC "-//W3C//DTD SVG 1.1//EN" "http://www.w3.org/Graphics/SVG/1.1/DTD/svg11.dtd">
<svg version="1.1" id="Layer_1" xmlns="http://www.w3.org/2000/svg" xmlns:xlink="http://www.w3.org/1999/xlink" x="0px" y="0px"
	 width="48px" height="48px" viewBox="0 0 48 48" enable-background="new 0 0 48 48" xml:space="preserve">
<path d="M19.7,31.7c0,0.5,0,1.1,0.1,1.9h0l-2.9-5.5h-2.8V36h1.9v-3.5c0-0.5,0-1.1-0.1-2h0l2.9,5.5h2.8v-7.9h-1.9V31.7z"/>
<polygon points="23.2,36 27.9,36 27.9,34.3 25.4,34.3 25.4,32.8 27.7,32.8 27.7,31.1 25.4,31.1 25.4,29.8 27.9,29.8 27.9,28.1 
	23.2,28.1 "/>
<path d="M31.9,29.7c0.5,0,1.2,0.2,1.9,0.5l0.6-1.6c-0.8-0.4-1.7-0.6-2.5-0.6c-0.9,0-1.6,0.2-2.2,0.6s-0.8,1-0.8,1.7
	c0,0.4,0.1,0.7,0.2,1c0.1,0.3,0.3,0.5,0.6,0.8s0.6,0.4,1.2,0.7c0.6,0.3,0.9,0.4,1,0.5s0.2,0.2,0.3,0.2c0.1,0.1,0.1,0.2,0.1,0.3
	c0,0.2-0.1,0.3-0.2,0.4c-0.1,0.1-0.4,0.2-0.7,0.2c-0.4,0-0.8-0.1-1.2-0.2s-0.9-0.3-1.3-0.5v1.9c0.4,0.2,0.8,0.3,1.1,0.4
	c0.4,0.1,0.8,0.1,1.3,0.1c0.6,0,1.2-0.1,1.6-0.3c0.5-0.2,0.8-0.5,1.1-0.9s0.4-0.8,0.4-1.3c0-0.5-0.1-1-0.4-1.3
	c-0.3-0.3-0.7-0.7-1.4-1c-0.7-0.3-1.1-0.5-1.3-0.7c-0.2-0.1-0.2-0.3-0.2-0.4c0-0.1,0.1-0.3,0.2-0.4S31.6,29.7,31.9,29.7z"/>
<path d="M47.9,22.6c-0.1-0.1-0.1-0.2-0.2-0.3L43,17.6V14c0-0.1,0-0.3-0.1-0.4c-0.1-0.1-0.1-0.2-0.2-0.3l-12-12
	c-0.1-0.1-0.2-0.2-0.3-0.2C30.3,1,30.1,1,30,1H6C5.4,1,5,1.4,5,2v15.6l-4.7,4.7c-0.1,0.1-0.2,0.2-0.2,0.3C0,22.7,0,22.9,0,23v18
	c0,0.6,0.4,1,1,1h4v4c0,0.6,0.4,1,1,1h36c0.6,0,1-0.4,1-1v-4h4c0.6,0,1-0.4,1-1V23C48,22.9,48,22.7,47.9,22.6z M44.6,22H43v-1.6
	L44.6,22z M31,4.4l8.6,8.6H31V4.4z M7,3h22v11c0,0.6,0.4,1,1,1h11v7H7V3z M5,22H3.4L5,20.4V22z M41,45H7v-3h34V45z M2,40V24h44v16H2
	z"/>
</svg>
