<?xml version="1.0" encoding="utf-8"?>
<!-- Generator: Adobe Illustrator 19.1.0, SVG Export Plug-In . SVG Version: 6.00 Build 0)  -->
<!DOCTYPE svg PUBLIC "-//W3C//DTD SVG 1.1//EN" "http://www.w3.org/Graphics/SVG/1.1/DTD/svg11.dtd">
<svg version="1.1" id="Layer_1" xmlns="http://www.w3.org/2000/svg" xmlns:xlink="http://www.w3.org/1999/xlink" x="0px" y="0px"
	 width="48px" height="48px" viewBox="0 0 48 48" enable-background="new 0 0 48 48" xml:space="preserve">
<path d="M5,46c0,0.6,0.4,1,1,1h36c0.6,0,1-0.4,1-1V2c0-0.6-0.4-1-1-1H6C5.4,1,5,1.4,5,2V46z M7,3h34v42H7V3z"/>
<path d="M24.8,11.4C24.8,11.3,24.7,11.3,24.8,11.4C24.6,11.1,24.3,11,24,11s-0.6,0.1-0.7,0.3c0,0,0,0,0,0l-10,12
	c-0.3,0.3-0.3,0.7-0.1,1.1L18.4,35H16c-0.6,0-1,0.4-1,1s0.4,1,1,1h4h8h4c0.6,0,1-0.4,1-1s-0.4-1-1-1h-2.4l5.3-10.6
	c0.2-0.4,0.1-0.8-0.1-1.1L24.8,11.4z M24,24c0.6,0,1,0.4,1,1s-0.4,1-1,1s-1-0.4-1-1S23.4,24,24,24z M27.4,35h-6.8l-5.4-10.9l7.8-9.4
	v7.4c-1.2,0.4-2,1.5-2,2.8c0,1.7,1.3,3,3,3s3-1.3,3-3c0-1.3-0.8-2.4-2-2.8v-7.4l7.8,9.4L27.4,35z"/>
</svg>
