<?xml version="1.0" encoding="utf-8"?>
<!-- Generator: Adobe Illustrator 19.1.0, SVG Export Plug-In . SVG Version: 6.00 Build 0)  -->
<!DOCTYPE svg PUBLIC "-//W3C//DTD SVG 1.1//EN" "http://www.w3.org/Graphics/SVG/1.1/DTD/svg11.dtd">
<svg version="1.1" id="Layer_1" xmlns="http://www.w3.org/2000/svg" xmlns:xlink="http://www.w3.org/1999/xlink" x="0px" y="0px"
	 width="48px" height="48px" viewBox="0 0 48 48" enable-background="new 0 0 48 48" xml:space="preserve">
<path d="M46,1H2C1.4,1,1,1.4,1,2v10c0,0.6,0.4,1,1,1h3v33c0,0.6,0.4,1,1,1h36c0.6,0,1-0.4,1-1V13h3c0.6,0,1-0.4,1-1V2
	C47,1.4,46.6,1,46,1z M41,45H7V13h34V45z M45,11H3V3h42V11z"/>
<path d="M18,29h12c0.6,0,1-0.4,1-1v-6c0-0.6-0.4-1-1-1H18c-0.6,0-1,0.4-1,1v6C17,28.6,17.4,29,18,29z M19,23h10v4H19V23z"/>
</svg>
