<?xml version="1.0" encoding="utf-8"?>
<!-- Generator: Adobe Illustrator 19.1.0, SVG Export Plug-In . SVG Version: 6.00 Build 0)  -->
<!DOCTYPE svg PUBLIC "-//W3C//DTD SVG 1.1//EN" "http://www.w3.org/Graphics/SVG/1.1/DTD/svg11.dtd">
<svg version="1.1" id="Layer_1" xmlns="http://www.w3.org/2000/svg" xmlns:xlink="http://www.w3.org/1999/xlink" x="0px" y="0px"
	 width="48px" height="48px" viewBox="0 0 48 48" enable-background="new 0 0 48 48" xml:space="preserve">
<path d="M46,29h-5.3c1.5-2.8,2.3-5.8,2.3-9C43,9.5,34.5,1,24,1S5,9.5,5,20c0,3.2,0.8,6.2,2.3,9H2c-0.6,0-1,0.4-1,1v16
	c0,0.6,0.4,1,1,1h44c0.6,0,1-0.4,1-1V30C47,29.4,46.6,29,46,29z M7,20c0-9.4,7.6-17,17-17s17,7.6,17,17c0,3.2-0.9,6.3-2.6,9H9.6
	C7.9,26.3,7,23.2,7,20z M36,39H12c-0.6,0-1-0.4-1-1s0.4-1,1-1h24c0.6,0,1,0.4,1,1S36.6,39,36,39z"/>
<path d="M20.9,8.3c-0.2-0.5-0.8-0.8-1.3-0.6C16,9,13,12,11.7,15.7c-0.2,0.5,0.1,1.1,0.6,1.3c0.1,0,0.2,0.1,0.3,0.1
	c0.4,0,0.8-0.3,0.9-0.7c1.1-3.1,3.6-5.6,6.7-6.7C20.9,9.4,21.1,8.9,20.9,8.3z"/>
<path d="M24,15c-2.8,0-5,2.2-5,5s2.2,5,5,5s5-2.2,5-5S26.8,15,24,15z"/>
</svg>
