<?xml version="1.0" encoding="utf-8"?>
<!-- Generator: Adobe Illustrator 19.1.0, SVG Export Plug-In . SVG Version: 6.00 Build 0)  -->
<!DOCTYPE svg PUBLIC "-//W3C//DTD SVG 1.1//EN" "http://www.w3.org/Graphics/SVG/1.1/DTD/svg11.dtd">
<svg version="1.1" id="Layer_1" xmlns="http://www.w3.org/2000/svg" xmlns:xlink="http://www.w3.org/1999/xlink" x="0px" y="0px"
	 width="48px" height="48px" viewBox="0 0 48 48" enable-background="new 0 0 48 48" xml:space="preserve">
<path d="M46,11h-7V2c0-0.6-0.4-1-1-1H10C9.4,1,9,1.4,9,2v9H2c-0.6,0-1,0.4-1,1v24c0,0.6,0.4,1,1,1h7v9c0,0.6,0.4,1,1,1h28
	c0.6,0,1-0.4,1-1v-9h7c0.6,0,1-0.4,1-1V12C47,11.4,46.6,11,46,11z M11,3h26v8H11V3z M37,45H11V25h26V45z"/>
<path id="color_20_" d="M18,33h12c0.6,0,1-0.4,1-1s-0.4-1-1-1H18c-0.6,0-1,0.4-1,1S17.4,33,18,33z"/>
<path id="color_19_" d="M18,39h12c0.6,0,1-0.4,1-1s-0.4-1-1-1H18c-0.6,0-1,0.4-1,1S17.4,39,18,39z"/>
</svg>
