<?xml version="1.0" encoding="utf-8"?>
<!-- Generator: Adobe Illustrator 19.1.0, SVG Export Plug-In . SVG Version: 6.00 Build 0)  -->
<!DOCTYPE svg PUBLIC "-//W3C//DTD SVG 1.1//EN" "http://www.w3.org/Graphics/SVG/1.1/DTD/svg11.dtd">
<svg version="1.1" id="Layer_1" xmlns="http://www.w3.org/2000/svg" xmlns:xlink="http://www.w3.org/1999/xlink" x="0px" y="0px"
	 width="48px" height="48px" viewBox="0 0 48 48" enable-background="new 0 0 48 48" xml:space="preserve">
<path d="M46,13H26.1l8.6-10.4c0.4-0.4,0.3-1.1-0.1-1.4c-0.4-0.4-1.1-0.3-1.4,0.1l-9.2,11l-5.2-7c-0.3-0.4-1-0.5-1.4-0.2
	c-0.4,0.3-0.5,1-0.2,1.4L22,13H2c-0.6,0-1,0.4-1,1v32c0,0.6,0.4,1,1,1h44c0.6,0,1-0.4,1-1V14C47,13.4,46.6,13,46,13z M34,40
	c0,0.6-0.4,1-1,1H8c-0.6,0-1-0.4-1-1V20c0-0.6,0.4-1,1-1h25c0.6,0,1,0.4,1,1V40z M41,40c0,0.6-0.4,1-1,1s-1-0.4-1-1V30
	c0-0.6,0.4-1,1-1s1,0.4,1,1V40z M41,22c0,0.6-0.4,1-1,1s-1-0.4-1-1v-2c0-0.6,0.4-1,1-1s1,0.4,1,1V22z"/>
</svg>
