<?xml version="1.0" encoding="utf-8"?>
<!-- Generator: Adobe Illustrator 19.1.0, SVG Export Plug-In . SVG Version: 6.00 Build 0)  -->
<!DOCTYPE svg PUBLIC "-//W3C//DTD SVG 1.1//EN" "http://www.w3.org/Graphics/SVG/1.1/DTD/svg11.dtd">
<svg version="1.1" id="Layer_1" xmlns="http://www.w3.org/2000/svg" xmlns:xlink="http://www.w3.org/1999/xlink" x="0px" y="0px"
	 width="64px" height="64px" viewBox="0 0 64 64" enable-background="new 0 0 64 64" xml:space="preserve">
<path d="M62,21H42.9C42.4,9.9,33.2,1,22,1C10.4,1,1,10.4,1,22c0,11.2,8.9,20.4,20,20.9V62c0,0.6,0.4,1,1,1h40c0.6,0,1-0.4,1-1V22
	C63,21.4,62.6,21,62,21z M3,22C3,11.5,11.5,3,22,3c10.1,0,18.4,8,18.9,18H22c-0.6,0-1,0.4-1,1v18.9C11,40.4,3,32.1,3,22z M40.9,23
	c-0.5,9.7-8.3,17.4-17.9,17.9V23H40.9z M61,61H23V42.9c10.8-0.5,19.4-9.2,19.9-19.9H61V61z"/>
</svg>
