<?xml version="1.0" encoding="utf-8"?>
<!-- Generator: Adobe Illustrator 19.1.0, SVG Export Plug-In . SVG Version: 6.00 Build 0)  -->
<!DOCTYPE svg PUBLIC "-//W3C//DTD SVG 1.1//EN" "http://www.w3.org/Graphics/SVG/1.1/DTD/svg11.dtd">
<svg version="1.1" id="Layer_1" xmlns="http://www.w3.org/2000/svg" xmlns:xlink="http://www.w3.org/1999/xlink" x="0px" y="0px"
	 width="64px" height="64px" viewBox="0 0 64 64" enable-background="new 0 0 64 64" xml:space="preserve">
<path d="M15,43C9.5,43,5,47.5,5,53s4.5,10,10,10s10-4.5,10-10c0-0.8-0.1-1.6-0.3-2.3l7.3-7.3l7.3,7.3C39.1,51.4,39,52.2,39,53
	c0,5.5,4.5,10,10,10s10-4.5,10-10s-4.5-10-10-10c-1.3,0-2.5,0.3-3.7,0.7l-6.3-7.3L52.5,23c5.2-5.2,6.2-13.2,2.4-19.5
	C54.7,3.2,54.4,3,54.1,3c-0.3,0-0.6,0.1-0.8,0.3L32,28.1L10.8,3.3C10.6,3.1,10.2,3,9.9,3C9.6,3,9.3,3.2,9.1,3.5
	C5.4,9.8,6.4,17.8,11.5,23l13.4,13.4l-6.3,7.3C17.5,43.3,16.3,43,15,43z M15,61c-4.4,0-8-3.6-8-8s3.6-8,8-8s8,3.6,8,8S19.4,61,15,61
	z M57,53c0,4.4-3.6,8-8,8s-8-3.6-8-8s3.6-8,8-8S57,48.6,57,53z M27.1,37c0.3-0.4,0.3-1-0.1-1.4L13,21.5C8.8,17.3,7.7,11,10.2,5.8
	l21,24.6c0.4,0.4,1.1,0.4,1.5,0l21-24.6c2.5,5.3,1.4,11.6-2.8,15.8L37,35.6c-0.4,0.4-0.4,1-0.1,1.4l6.6,7.7c-1.5,1-2.7,2.4-3.5,4
	l-7.3-7.3c-0.4-0.4-1-0.4-1.4,0L24,48.6c-0.8-1.6-2-3-3.5-4L27.1,37z"/>
</svg>
