<?xml version="1.0" encoding="utf-8"?>
<!-- Generator: Adobe Illustrator 19.1.0, SVG Export Plug-In . SVG Version: 6.00 Build 0)  -->
<!DOCTYPE svg PUBLIC "-//W3C//DTD SVG 1.1//EN" "http://www.w3.org/Graphics/SVG/1.1/DTD/svg11.dtd">
<svg version="1.1" id="Layer_1" xmlns="http://www.w3.org/2000/svg" xmlns:xlink="http://www.w3.org/1999/xlink" x="0px" y="0px"
	 width="64px" height="64px" viewBox="0 0 64 64" enable-background="new 0 0 64 64" xml:space="preserve">
<path d="M15.3,44.7c0.2,0.2,0.5,0.3,0.7,0.3s0.5-0.1,0.7-0.3c0.4-0.4,0.4-1,0-1.4L5.4,32l11.3-11.3c0.4-0.4,0.4-1,0-1.4
	s-1-0.4-1.4,0l-12,12c-0.4,0.4-0.4,1,0,1.4L15.3,44.7z"/>
<path d="M47.3,44.7c0.2,0.2,0.5,0.3,0.7,0.3s0.5-0.1,0.7-0.3l12-12c0.4-0.4,0.4-1,0-1.4l-12-12c-0.4-0.4-1-0.4-1.4,0s-0.4,1,0,1.4
	L58.6,32L47.3,43.3C46.9,43.7,46.9,44.3,47.3,44.7z"/>
<path d="M39.1,9.7l-16,44c-0.2,0.5,0.1,1.1,0.6,1.3c0.1,0,0.2,0.1,0.3,0.1c0.4,0,0.8-0.3,0.9-0.7l16-44c0.2-0.5-0.1-1.1-0.6-1.3
	C39.8,8.9,39.2,9.1,39.1,9.7z"/>
</svg>
