<?xml version="1.0" encoding="utf-8"?>
<!-- Generator: Adobe Illustrator 19.1.0, SVG Export Plug-In . SVG Version: 6.00 Build 0)  -->
<!DOCTYPE svg PUBLIC "-//W3C//DTD SVG 1.1//EN" "http://www.w3.org/Graphics/SVG/1.1/DTD/svg11.dtd">
<svg version="1.1" id="Layer_1" xmlns="http://www.w3.org/2000/svg" xmlns:xlink="http://www.w3.org/1999/xlink" x="0px" y="0px"
	 width="64px" height="64px" viewBox="0 0 64 64" enable-background="new 0 0 64 64" xml:space="preserve">
<path d="M62,45h-9L37.4,19H38c0.6,0,1-0.4,1-1V6c0-0.6-0.4-1-1-1H26c-0.6,0-1,0.4-1,1v12c0,0.6,0.4,1,1,1h0.6L11,45H2
	c-0.6,0-1,0.4-1,1v12c0,0.6,0.4,1,1,1h12c0.6,0,1-0.4,1-1v-5h34v5c0,0.6,0.4,1,1,1h12c0.6,0,1-0.4,1-1V46C63,45.4,62.6,45,62,45z
	 M27,7h10v10h-1c-0.3-0.2-0.7-0.2-1.1,0c0,0,0,0,0,0h-8V7z M13,57H3V47h8.3c0.1,0,0.2,0,0.3,0c0.1,0,0.2,0,0.3,0H13V57z M15,51v-5
	c0-0.6-0.4-1-1-1h-0.6L29,19H35l15.6,26H50c-0.6,0-1,0.4-1,1v5H15z M61,57H51V47h10V57z"/>
</svg>
