<?xml version="1.0" encoding="utf-8"?>
<!-- Generator: Adobe Illustrator 19.1.0, SVG Export Plug-In . SVG Version: 6.00 Build 0)  -->
<!DOCTYPE svg PUBLIC "-//W3C//DTD SVG 1.1//EN" "http://www.w3.org/Graphics/SVG/1.1/DTD/svg11.dtd">
<svg version="1.1" id="Layer_1" xmlns="http://www.w3.org/2000/svg" xmlns:xlink="http://www.w3.org/1999/xlink" x="0px" y="0px"
	 width="16px" height="16px" viewBox="0 0 16 16" enable-background="new 0 0 16 16" xml:space="preserve">
<path fill="#444444" d="M8,0C4.5,0,1,0.9,1,3v10c0,2.1,3.5,3,7,3s7-0.9,7-3V3C15,0.9,11.5,0,8,0z M8,2c2.8,0,4.4,0.6,4.9,1
	c-0.2,0.2-0.9,0.5-2.1,0.8c-0.5,0.1-0.8,0.5-0.8,1V9c0,0.6-0.4,1-1,1S8,9.6,8,9V5c0-0.5-0.4-1-0.9-1c-2.3-0.1-3.6-0.7-4-1
	C3.6,2.6,5.2,2,8,2z"/>
</svg>
