<?xml version="1.0" encoding="utf-8"?>
<!-- Generator: Adobe Illustrator 19.1.0, SVG Export Plug-In . SVG Version: 6.00 Build 0)  -->
<!DOCTYPE svg PUBLIC "-//W3C//DTD SVG 1.1//EN" "http://www.w3.org/Graphics/SVG/1.1/DTD/svg11.dtd">
<svg version="1.1" id="Layer_1" xmlns="http://www.w3.org/2000/svg" xmlns:xlink="http://www.w3.org/1999/xlink" x="0px" y="0px"
	 width="16px" height="16px" viewBox="0 0 16 16" enable-background="new 0 0 16 16" xml:space="preserve">
<path data-color="color-2" fill="#444444" d="M15.6,6.5L12,4.1v9.5l3.8-5.7C16.1,7.4,16,6.8,15.6,6.5z"/>
<path fill="#444444" d="M9,0H1C0.4,0,0,0.4,0,1v9h10V1C10,0.4,9.6,0,9,0z"/>
<path fill="#444444" d="M0,12v3c0,0.6,0.4,1,1,1h8c0.6,0,1-0.4,1-1v-3H0z"/>
</svg>
