<?xml version="1.0" encoding="utf-8"?>
<!-- Generator: Adobe Illustrator 19.1.0, SVG Export Plug-In . SVG Version: 6.00 Build 0)  -->
<!DOCTYPE svg PUBLIC "-//W3C//DTD SVG 1.1//EN" "http://www.w3.org/Graphics/SVG/1.1/DTD/svg11.dtd">
<svg version="1.1" id="Layer_1" xmlns="http://www.w3.org/2000/svg" xmlns:xlink="http://www.w3.org/1999/xlink" x="0px" y="0px"
	 width="16px" height="16px" viewBox="0 0 16 16" enable-background="new 0 0 16 16" xml:space="preserve">
<path fill="#444444" d="M15.7,4.3l-4-4c-0.4-0.4-1-0.4-1.4,0L9,1.6l1.7,1.7L9.3,4.7L7.6,3L6,4.6l1.7,1.7L6.3,7.7L4.6,6L3,7.6
	l1.7,1.7l-1.4,1.4L1.6,9l-1.3,1.3c-0.4,0.4-0.4,1,0,1.4l4,4c0.4,0.4,1,0.4,1.4,0l10-10C16.1,5.3,16.1,4.7,15.7,4.3z"/>
</svg>
