<?xml version="1.0" encoding="utf-8"?>
<!-- Generator: Adobe Illustrator 19.1.0, SVG Export Plug-In . SVG Version: 6.00 Build 0)  -->
<!DOCTYPE svg PUBLIC "-//W3C//DTD SVG 1.1//EN" "http://www.w3.org/Graphics/SVG/1.1/DTD/svg11.dtd">
<svg version="1.1" id="Layer_1" xmlns="http://www.w3.org/2000/svg" xmlns:xlink="http://www.w3.org/1999/xlink" x="0px" y="0px"
	 width="16px" height="16px" viewBox="0 0 16 16" enable-background="new 0 0 16 16" xml:space="preserve">
<path fill="#444444" d="M15,2H7v2h6.7l-1.4,5H4V1c0-0.6-0.4-1-1-1H0v2h2v8c0,0.6,0.4,1,1,1h10c0.4,0,0.8-0.3,1-0.7l2-7
	C16,3,16,2,15,2z"/>
<circle data-color="color-2" fill="#444444" cx="3" cy="14" r="2"/>
<circle data-color="color-2" fill="#444444" cx="13" cy="14" r="2"/>
</svg>
