<?xml version="1.0" encoding="utf-8"?>
<!-- Generator: Adobe Illustrator 19.1.0, SVG Export Plug-In . SVG Version: 6.00 Build 0)  -->
<!DOCTYPE svg PUBLIC "-//W3C//DTD SVG 1.1//EN" "http://www.w3.org/Graphics/SVG/1.1/DTD/svg11.dtd">
<svg version="1.1" id="Layer_1" xmlns="http://www.w3.org/2000/svg" xmlns:xlink="http://www.w3.org/1999/xlink" x="0px" y="0px"
	 width="16px" height="16px" viewBox="0 0 16 16" enable-background="new 0 0 16 16" xml:space="preserve">
<path data-color="color-2" fill="#444444" d="M13,10H3c-0.6,0-1,0.4-1,1v4c0,0.6,0.4,1,1,1h10c0.6,0,1-0.4,1-1v-4C14,10.4,13.6,10,13,10z"
	/>
<path fill="#444444" d="M13.1,5l-2.2-4.4C10.6,0.1,10-0.1,9.6,0.1C9.1,0.4,8.9,1,9.1,1.4L10.9,5H5.1l1.8-3.6c0.2-0.5,0-1.1-0.4-1.3
	C6-0.1,5.4,0.1,5.1,0.6L2.9,5H0v4h16V5H13.1z"/>
</svg>
