<?xml version="1.0" encoding="utf-8"?>
<!-- Generator: Adobe Illustrator 19.1.0, SVG Export Plug-In . SVG Version: 6.00 Build 0)  -->
<!DOCTYPE svg PUBLIC "-//W3C//DTD SVG 1.1//EN" "http://www.w3.org/Graphics/SVG/1.1/DTD/svg11.dtd">
<svg version="1.1" id="Layer_1" xmlns="http://www.w3.org/2000/svg" xmlns:xlink="http://www.w3.org/1999/xlink" x="0px" y="0px"
	 width="16px" height="16px" viewBox="0 0 16 16" enable-background="new 0 0 16 16" xml:space="preserve">
<path fill="#444444" d="M7.05622,11.47304L6.46967,9.87864c0,0-0.95312,1.06299-2.38247,1.06299
	c-1.26472,0-2.16272-1.09968-2.16272-2.85915c0-2.25425,1.1362-3.06067,2.25432-3.06067c1.6127,0,2.26355,1.10542,2.56578,2.38261
	c0.88042,3.72057,2.27259,5.03993,5.44318,5.03993C14.46053,12.44435,16,11.74799,16,9.91532
	C16,7.5,13.79167,7.4375,12.40773,7.03783c-0.74106-0.18366-1.04456-0.51316-1.04456-1.063c0-0.62314,0.49471-0.9897,1.30123-0.9897
	c0.87972,0,1.3562,0.32995,1.42956,1.11803l1.83266-0.21996c-0.14659-1.64945-1.28282-2.32755-3.1523-2.32755
	c-1.64939,0-3.26223,0.62314-3.26223,2.62081c0,1.24628,0.6048,2.03439,2.12583,2.40095c0,0,2.49256,0.38093,2.49256,1.42953
	c0,0.678-0.65972,0.95295-1.90603,0.95295c-2.87028,0-3.66547-4.14191-3.66547-4.14191
	c-0.76963-2.3826-1.99767-3.26232-4.4353-3.26232C1.4296,3.55565,0,5.26006,0,8.15579c0,2.78585,1.4296,4.28857,3.99552,4.28857
	C6.06642,12.44435,7.05622,11.47304,7.05622,11.47304L7.05622,11.47304z"/>
</svg>
