<?xml version="1.0" encoding="utf-8"?>
<!-- Generator: Adobe Illustrator 19.1.0, SVG Export Plug-In . SVG Version: 6.00 Build 0)  -->
<!DOCTYPE svg PUBLIC "-//W3C//DTD SVG 1.1//EN" "http://www.w3.org/Graphics/SVG/1.1/DTD/svg11.dtd">
<svg version="1.1" id="Layer_1" xmlns="http://www.w3.org/2000/svg" xmlns:xlink="http://www.w3.org/1999/xlink" x="0px" y="0px"
	 width="16px" height="16px" viewBox="0 0 16 16" enable-background="new 0 0 16 16" xml:space="preserve">
<path fill="#444444" d="M13.44317,4.04518c-0.00097,0.00659-0.00122,0.0081-0.00297,0.01988
	C13.4402,4.06506,13.44163,4.05547,13.44317,4.04518z"/>
<path fill="#444444" d="M13.44317,4.04518C13.44773,4.01463,13.44587,4.02703,13.44317,4.04518L13.44317,4.04518z"/>
<path fill="#444444" d="M12.76571,1.20644C12.03149,0.35623,10.6856,0,8.97238,0H4.00004C3.64952,0,3.35165,0.25492,3.29679,0.60057
	L1.2264,13.73137c-0.04114,0.25889,0.15935,0.49347,0.42178,0.49347H4.7179l0.74706-4.73689
	c0.05489-0.34565,0.35052-0.60057,0.7006-0.60057h1.45874c2.86567,0,5.10953-1.16398,5.765-4.53111
	C13.40875,4.25669,13.73438,2.32812,12.76571,1.20644z"/>
<path fill="#444444" d="M14.29376,4.83405c-0.75269,3.29803-3.04388,5.05316-6.66925,5.05316H6.41406L5.46875,16H7.4624
	c0.30627,0,0.56696-0.22308,0.61475-0.52533l0.51294-3.22284l0.03143-0.17084c0.13142-0.6104,1.00195-0.52533,1.00195-0.52533
	c2.50677,0,4.4696-1.01843,5.04315-3.96375C14.88367,6.47638,14.78302,5.53906,14.29376,4.83405z"/>
</svg>
