<?xml version="1.0" encoding="utf-8"?>
<!-- Generator: Adobe Illustrator 19.1.0, SVG Export Plug-In . SVG Version: 6.00 Build 0)  -->
<!DOCTYPE svg PUBLIC "-//W3C//DTD SVG 1.1//EN" "http://www.w3.org/Graphics/SVG/1.1/DTD/svg11.dtd">
<svg version="1.1" id="Layer_1" xmlns="http://www.w3.org/2000/svg" xmlns:xlink="http://www.w3.org/1999/xlink" x="0px" y="0px"
	 width="16px" height="16px" viewBox="0 0 16 16" enable-background="new 0 0 16 16" xml:space="preserve">
<path fill="#444444" d="M15.83997,4.80096C15.65912,3.51868,15,2.64581,13.64581,2.37329C11.4375,2,8,2,8,2
	S4.5625,2,2.35419,2.37329C1,2.64581,0.34088,3.51868,0.16003,4.80096C-0.02081,6.08331,0,8,0,8s-0.02081,1.91669,0.16003,3.19904
	C0.34088,12.48132,1,13.35419,2.35419,13.62671C4.5625,14,8,14,8,14s3.4375,0,5.64581-0.37329
	c1.35419-0.27252,2.01331-1.14539,2.19415-2.42767C16.02081,9.91669,16,8,16,8S16.02081,6.08331,15.83997,4.80096z M6,11V5l5,3L6,11
	z"/>
</svg>
