<?xml version="1.0" encoding="utf-8"?>
<!-- Generator: Adobe Illustrator 19.1.0, SVG Export Plug-In . SVG Version: 6.00 Build 0)  -->
<!DOCTYPE svg PUBLIC "-//W3C//DTD SVG 1.1//EN" "http://www.w3.org/Graphics/SVG/1.1/DTD/svg11.dtd">
<svg version="1.1" id="Layer_1" xmlns="http://www.w3.org/2000/svg" xmlns:xlink="http://www.w3.org/1999/xlink" x="0px" y="0px"
	 width="16px" height="16px" viewBox="0 0 16 16" enable-background="new 0 0 16 16" xml:space="preserve">
<path fill="#444444" d="M16,7.85534c0-1.06026-0.86259-1.92285-1.92281-1.92285c-0.45898,0-0.88062,0.16191-1.21147,0.43136
	c-1.17277-0.73698-2.66077-1.18079-4.25574-1.27498L9.4421,2.45861l2.28634,0.53817c0.05998,0.83256,0.75602,1.49174,1.6036,1.49174
	c0.8868,0,1.60828-0.72148,1.60828-1.60828c0-0.88684-0.72148-1.60832-1.60828-1.60832c-0.62016,0-1.1591,0.35307-1.42733,0.86853
	L9.2478,1.51509c-0.22253-0.05241-0.44775,0.0756-0.51672,0.29354l-1.0328,3.26469C5.9797,5.11555,4.36422,5.56086,3.10559,6.34101
	C2.77922,6.08536,2.36865,5.93249,1.92285,5.93249C0.86259,5.93249,0,6.79507,0,7.85534c0,0.6556,0.33004,1.23519,0.83252,1.58232
	C0.81165,9.58987,0.8007,9.74368,0.8007,9.89883c0,1.32581,0.77039,2.55872,2.16927,3.47168
	c1.34131,0.87541,3.11613,1.3575,4.99756,1.3575c1.88151,0,3.65633-0.4821,4.9976-1.3575
	c1.39888-0.91296,2.16931-2.14587,2.16931-3.47168c0-0.14156-0.00932-0.28202-0.02673-0.42122
	C15.64364,9.13602,16,8.53665,16,7.85534z M4.53703,9.04516c0-0.59778,0.50151-1.09924,1.09924-1.09924
	c0.59778,0,1.08289,0.50146,1.08289,1.09924S6.23405,10.128,5.63627,10.128C5.03853,10.128,4.53703,9.64293,4.53703,9.04516z
	 M10.63391,12.23001c-0.55688,0.55636-1.41577,0.82682-2.62565,0.82682c-0.00289,0-0.00566-0.00037-0.00854-0.00041
	c-0.00285,0.00004-0.00562,0.00041-0.0085,0.00041c-1.21008,0-2.06881-0.27051-2.62524-0.82699
	c-0.17065-0.17061-0.17065-0.44731,0-0.61796c0.17065-0.17057,0.44731-0.17061,0.61796,0.00004
	c0.3842,0.3842,1.04081,0.57096,2.00728,0.57096c0.00289,0,0.00566,0.00041,0.0085,0.00045
	c0.00289-0.00004,0.00566-0.00045,0.00854-0.00045c0.96647,0,1.62329-0.18681,2.00798-0.57113
	c0.17074-0.17057,0.44739-0.17041,0.61796,0.00028C10.80477,11.78279,10.80465,12.05944,10.63391,12.23001z M10.38009,10.128
	c-0.59806,0-1.10059-0.48478-1.10059-1.08285c0-0.59806,0.50252-1.09924,1.10059-1.09924c0.5981,0,1.08289,0.50118,1.08289,1.09924
	C11.46297,9.64322,10.97819,10.128,10.38009,10.128z"/>
</svg>
