<?xml version="1.0" encoding="utf-8"?>
<!-- Generator: Adobe Illustrator 19.1.0, SVG Export Plug-In . SVG Version: 6.00 Build 0)  -->
<!DOCTYPE svg PUBLIC "-//W3C//DTD SVG 1.1//EN" "http://www.w3.org/Graphics/SVG/1.1/DTD/svg11.dtd">
<svg version="1.1" id="Layer_1" xmlns="http://www.w3.org/2000/svg" xmlns:xlink="http://www.w3.org/1999/xlink" x="0px" y="0px"
	 width="64px" height="64px" viewBox="0 0 64 64" enable-background="new 0 0 64 64" xml:space="preserve">
<path d="M58,27c0.6,0,1-0.4,1-1V6c0-0.1,0-0.3-0.1-0.4c-0.1-0.2-0.3-0.4-0.5-0.5C58.3,5,58.1,5,58,5H38c-0.6,0-1,0.4-1,1s0.4,1,1,1
	h17.6L37.3,25.3c-0.4,0.4-0.4,1,0,1.4c0.2,0.2,0.5,0.3,0.7,0.3s0.5-0.1,0.7-0.3L57,8.4V26C57,26.6,57.4,27,58,27z"/>
<path d="M5,58c0,0.1,0,0.3,0.1,0.4c0.1,0.2,0.3,0.4,0.5,0.5C5.7,59,5.9,59,6,59h20c0.6,0,1-0.4,1-1s-0.4-1-1-1H8.4l18.3-18.3
	c0.4-0.4,0.4-1,0-1.4s-1-0.4-1.4,0L7,55.6V38c0-0.6-0.4-1-1-1s-1,0.4-1,1V58z"/>
</svg>
