<?xml version="1.0" encoding="utf-8"?>
<!-- Generator: Adobe Illustrator 19.1.0, SVG Export Plug-In . SVG Version: 6.00 Build 0)  -->
<!DOCTYPE svg PUBLIC "-//W3C//DTD SVG 1.1//EN" "http://www.w3.org/Graphics/SVG/1.1/DTD/svg11.dtd">
<svg version="1.1" id="Layer_1" xmlns="http://www.w3.org/2000/svg" xmlns:xlink="http://www.w3.org/1999/xlink" x="0px" y="0px"
	 width="64px" height="64px" viewBox="0 0 64 64" enable-background="new 0 0 64 64" xml:space="preserve">
<path d="M3.3,32.7l14,14c0.2,0.2,0.5,0.3,0.7,0.3s0.5-0.1,0.7-0.3c0.4-0.4,0.4-1,0-1.4L6.4,33H38c0.6,0,1-0.4,1-1s-0.4-1-1-1H6.4
	l12.3-12.3c0.4-0.4,0.4-1,0-1.4s-1-0.4-1.4,0l-14,14c-0.1,0.1-0.2,0.2-0.2,0.3c-0.1,0.2-0.1,0.5,0,0.8C3.1,32.5,3.2,32.6,3.3,32.7z"
	/>
<path d="M61,58V6c0-0.6-0.4-1-1-1H46c-0.6,0-1,0.4-1,1v52c0,0.6,0.4,1,1,1h14C60.6,59,61,58.6,61,58z M59,57H47V7h12V57z"/>
</svg>
