<?xml version="1.0" encoding="utf-8"?>
<!-- Generator: Adobe Illustrator 19.1.0, SVG Export Plug-In . SVG Version: 6.00 Build 0)  -->
<!DOCTYPE svg PUBLIC "-//W3C//DTD SVG 1.1//EN" "http://www.w3.org/Graphics/SVG/1.1/DTD/svg11.dtd">
<svg version="1.1" id="Layer_1" xmlns="http://www.w3.org/2000/svg" xmlns:xlink="http://www.w3.org/1999/xlink" x="0px" y="0px"
	 width="64px" height="64px" viewBox="0 0 64 64" enable-background="new 0 0 64 64" xml:space="preserve">
<path d="M46.7,45.3c-0.4-0.4-1-0.4-1.4,0L33,57.6V26c0-0.6-0.4-1-1-1s-1,0.4-1,1v31.6L18.7,45.3c-0.4-0.4-1-0.4-1.4,0s-0.4,1,0,1.4
	l14,14c0.1,0.1,0.2,0.2,0.3,0.2C31.7,61,31.9,61,32,61s0.3,0,0.4-0.1c0.1-0.1,0.2-0.1,0.3-0.2l14-14C47.1,46.3,47.1,45.7,46.7,45.3z
	"/>
<path d="M5,4v14c0,0.6,0.4,1,1,1h52c0.6,0,1-0.4,1-1V4c0-0.6-0.4-1-1-1H6C5.4,3,5,3.4,5,4z M7,5h50v12H7V5z"/>
</svg>
