<?xml version="1.0" encoding="utf-8"?>
<!-- Generator: Adobe Illustrator 19.1.0, SVG Export Plug-In . SVG Version: 6.00 Build 0)  -->
<!DOCTYPE svg PUBLIC "-//W3C//DTD SVG 1.1//EN" "http://www.w3.org/Graphics/SVG/1.1/DTD/svg11.dtd">
<svg version="1.1" id="Layer_1" xmlns="http://www.w3.org/2000/svg" xmlns:xlink="http://www.w3.org/1999/xlink" x="0px" y="0px"
	 width="64px" height="64px" viewBox="0 0 64 64" enable-background="new 0 0 64 64" xml:space="preserve">
<path d="M41.3,49.3L33,57.6V28c0-0.6-0.4-1-1-1s-1,0.4-1,1v29.6l-8.3-8.3c-0.4-0.4-1-0.4-1.4,0s-0.4,1,0,1.4l10,10
	c0.1,0.1,0.2,0.2,0.3,0.2C31.7,61,31.9,61,32,61s0.3,0,0.4-0.1c0.1-0.1,0.2-0.1,0.3-0.2l10-10c0.4-0.4,0.4-1,0-1.4
	S41.7,48.9,41.3,49.3z"/>
<path d="M52.8,19.1C51.4,8.7,42.6,1,32,1c-9.1,0-17,5.7-19.9,14.3C5.6,16.7,1,22.3,1,29c0,7.3,5.7,13.4,13,14h10c0.6,0,1-0.4,1-1
	s-0.4-1-1-1l-9.9,0C7.9,40.5,3,35.3,3,29c0-5.9,4.2-10.9,10-11.8c0.4-0.1,0.7-0.3,0.8-0.7C16.3,8.4,23.6,3,32,3
	c9.8,0,18,7.4,18.9,17.1c0,0.5,0.4,0.9,0.9,0.9C57,21.5,61,25.8,61,31c0,5.1-4,9.5-9,10H40c-0.6,0-1,0.4-1,1s0.4,1,1,1l12.1,0
	C58.2,42.4,63,37.2,63,31C63,25.1,58.6,20,52.8,19.1z"/>
</svg>
