<?xml version="1.0" encoding="utf-8"?>
<!-- Generator: Adobe Illustrator 19.1.0, SVG Export Plug-In . SVG Version: 6.00 Build 0)  -->
<!DOCTYPE svg PUBLIC "-//W3C//DTD SVG 1.1//EN" "http://www.w3.org/Graphics/SVG/1.1/DTD/svg11.dtd">
<svg version="1.1" id="Layer_1" xmlns="http://www.w3.org/2000/svg" xmlns:xlink="http://www.w3.org/1999/xlink" x="0px" y="0px"
	 width="64px" height="64px" viewBox="0 0 64 64" enable-background="new 0 0 64 64" xml:space="preserve">
<path d="M48.7,43.3c-0.4-0.4-1-0.4-1.4,0L33,57.6V14c0-0.6-0.4-1-1-1s-1,0.4-1,1v43.6L16.7,43.3c-0.4-0.4-1-0.4-1.4,0s-0.4,1,0,1.4
	l16,16c0.1,0.1,0.2,0.2,0.3,0.2C31.7,61,31.9,61,32,61s0.3,0,0.4-0.1c0.1-0.1,0.2-0.1,0.3-0.2l16-16C49.1,44.3,49.1,43.7,48.7,43.3z
	"/>
<path d="M10,5h44c0.6,0,1-0.4,1-1s-0.4-1-1-1H10C9.4,3,9,3.4,9,4S9.4,5,10,5z"/>
</svg>
