<?xml version="1.0" encoding="utf-8"?>
<!-- Generator: Adobe Illustrator 19.1.0, SVG Export Plug-In . SVG Version: 6.00 Build 0)  -->
<!DOCTYPE svg PUBLIC "-//W3C//DTD SVG 1.1//EN" "http://www.w3.org/Graphics/SVG/1.1/DTD/svg11.dtd">
<svg version="1.1" id="Layer_1" xmlns="http://www.w3.org/2000/svg" xmlns:xlink="http://www.w3.org/1999/xlink" x="0px" y="0px"
	 width="64px" height="64px" viewBox="0 0 64 64" enable-background="new 0 0 64 64" xml:space="preserve">
<path d="M22.7,19.3c-0.4-0.4-1-0.4-1.4,0l-12,12c-0.1,0.1-0.2,0.2-0.2,0.3c-0.1,0.2-0.1,0.5,0,0.8c0.1,0.1,0.1,0.2,0.2,0.3l12,12
	c0.2,0.2,0.5,0.3,0.7,0.3s0.5-0.1,0.7-0.3c0.4-0.4,0.4-1,0-1.4L12.4,33h39.2L41.3,43.3c-0.4,0.4-0.4,1,0,1.4
	c0.2,0.2,0.5,0.3,0.7,0.3s0.5-0.1,0.7-0.3l12-12c0.1-0.1,0.2-0.2,0.2-0.3c0.1-0.2,0.1-0.5,0-0.8c-0.1-0.1-0.1-0.2-0.2-0.3l-12-12
	c-0.4-0.4-1-0.4-1.4,0s-0.4,1,0,1.4L51.6,31H12.4l10.3-10.3C23.1,20.3,23.1,19.7,22.7,19.3z"/>
<path d="M2,55c0.6,0,1-0.4,1-1V10c0-0.6-0.4-1-1-1s-1,0.4-1,1v44C1,54.6,1.4,55,2,55z"/>
<path d="M62,9c-0.6,0-1,0.4-1,1v44c0,0.6,0.4,1,1,1s1-0.4,1-1V10C63,9.4,62.6,9,62,9z"/>
</svg>
