<?xml version="1.0" encoding="utf-8"?>
<!-- Generator: Adobe Illustrator 19.1.0, SVG Export Plug-In . SVG Version: 6.00 Build 0)  -->
<!DOCTYPE svg PUBLIC "-//W3C//DTD SVG 1.1//EN" "http://www.w3.org/Graphics/SVG/1.1/DTD/svg11.dtd">
<svg version="1.1" id="Layer_1" xmlns="http://www.w3.org/2000/svg" xmlns:xlink="http://www.w3.org/1999/xlink" x="0px" y="0px"
	 width="64px" height="64px" viewBox="0 0 64 64" enable-background="new 0 0 64 64" xml:space="preserve">
<path d="M60,31H16.4l14.3-14.3c0.4-0.4,0.4-1,0-1.4s-1-0.4-1.4,0l-16,16c-0.1,0.1-0.2,0.2-0.2,0.3c-0.1,0.2-0.1,0.5,0,0.8
	c0.1,0.1,0.1,0.2,0.2,0.3l16,16c0.2,0.2,0.5,0.3,0.7,0.3s0.5-0.1,0.7-0.3c0.4-0.4,0.4-1,0-1.4L16.4,33H60c0.6,0,1-0.4,1-1
	S60.6,31,60,31z"/>
<path d="M4,55c0.6,0,1-0.4,1-1V10c0-0.6-0.4-1-1-1s-1,0.4-1,1v44C3,54.6,3.4,55,4,55z"/>
</svg>
