<?xml version="1.0" encoding="utf-8"?>
<!-- Generator: Adobe Illustrator 19.1.0, SVG Export Plug-In . SVG Version: 6.00 Build 0)  -->
<!DOCTYPE svg PUBLIC "-//W3C//DTD SVG 1.1//EN" "http://www.w3.org/Graphics/SVG/1.1/DTD/svg11.dtd">
<svg version="1.1" id="Layer_1" xmlns="http://www.w3.org/2000/svg" xmlns:xlink="http://www.w3.org/1999/xlink" x="0px" y="0px"
	 width="64px" height="64px" viewBox="0 0 64 64" enable-background="new 0 0 64 64" xml:space="preserve">
<path d="M44.7,37.2c0.1,0,0.2,0,0.3-0.1c0.4-0.1,0.6-0.5,0.6-0.9l1.4-18.4c0-0.3-0.1-0.6-0.3-0.8c-0.2-0.2-0.5-0.3-0.8-0.3
	l-18.4,1.4c-0.4,0-0.7,0.3-0.9,0.7c-0.1,0.4,0,0.8,0.2,1.1l17,17C44.2,37.1,44.5,37.2,44.7,37.2z M30,20.1l15.1-1.2L43.9,34L30,20.1
	z"/>
<path d="M37.2,45.1c0.1-0.4,0-0.8-0.2-1.1l-17-17c-0.3-0.3-0.7-0.4-1.1-0.2c-0.4,0.1-0.6,0.5-0.6,0.9l-1.4,18.4
	c0,0.3,0.1,0.6,0.3,0.8c0.2,0.2,0.4,0.3,0.7,0.3c0,0,0.1,0,0.1,0l18.4-1.4C36.7,45.7,37,45.4,37.2,45.1z M18.9,45.1L20.1,30L34,43.9
	L18.9,45.1z"/>
</svg>
