<?xml version="1.0" encoding="utf-8"?>
<!-- Generator: Adobe Illustrator 19.1.0, SVG Export Plug-In . SVG Version: 6.00 Build 0)  -->
<!DOCTYPE svg PUBLIC "-//W3C//DTD SVG 1.1//EN" "http://www.w3.org/Graphics/SVG/1.1/DTD/svg11.dtd">
<svg version="1.1" id="Layer_1" xmlns="http://www.w3.org/2000/svg" xmlns:xlink="http://www.w3.org/1999/xlink" x="0px" y="0px"
	 width="64px" height="64px" viewBox="0 0 64 64" enable-background="new 0 0 64 64" xml:space="preserve">
<path d="M9,28v14c0,0.6,0.4,1,1,1s1-0.4,1-1V28c0-6.1,4.9-11,11-11h19.6L31.3,27.3c-0.4,0.4-0.4,1,0,1.4c0.2,0.2,0.5,0.3,0.7,0.3
	s0.5-0.1,0.7-0.3l12-12c0.1-0.1,0.2-0.2,0.2-0.3c0.1-0.2,0.1-0.5,0-0.8c-0.1-0.1-0.1-0.2-0.2-0.3l-12-12c-0.4-0.4-1-0.4-1.4,0
	s-0.4,1,0,1.4L41.6,15H22C14.8,15,9,20.8,9,28z"/>
<path d="M30,61h24c0.6,0,1-0.4,1-1V36c0-0.6-0.4-1-1-1H30c-0.6,0-1,0.4-1,1v24C29,60.6,29.4,61,30,61z M31,37h22v22H31V37z"/>
</svg>
