<?xml version="1.0" encoding="utf-8"?>
<!-- Generator: Adobe Illustrator 19.1.0, SVG Export Plug-In . SVG Version: 6.00 Build 0)  -->
<!DOCTYPE svg PUBLIC "-//W3C//DTD SVG 1.1//EN" "http://www.w3.org/Graphics/SVG/1.1/DTD/svg11.dtd">
<svg version="1.1" id="Layer_1" xmlns="http://www.w3.org/2000/svg" xmlns:xlink="http://www.w3.org/1999/xlink" x="0px" y="0px"
	 width="64px" height="64px" viewBox="0 0 64 64" enable-background="new 0 0 64 64" xml:space="preserve">
<path d="M60.4,9.1c-0.4-0.2-0.8-0.1-1.1,0.1l-26,22C33.1,31.4,33,31.7,33,32s0.1,0.6,0.4,0.8l26,22c0.2,0.2,0.4,0.2,0.6,0.2
	c0.1,0,0.3,0,0.4-0.1c0.4-0.2,0.6-0.5,0.6-0.9V10C61,9.6,60.8,9.3,60.4,9.1z M59,51.8L35.5,32L59,12.2V51.8z"/>
<path d="M3,32c0,0.3,0.1,0.6,0.4,0.8l26,22c0.2,0.2,0.4,0.2,0.6,0.2c0.1,0,0.3,0,0.4-0.1c0.4-0.2,0.6-0.5,0.6-0.9V10
	c0-0.4-0.2-0.7-0.6-0.9c-0.4-0.2-0.8-0.1-1.1,0.1l-26,22C3.1,31.4,3,31.7,3,32z M29,12.2v39.7L5.5,32L29,12.2z"/>
</svg>
