<?xml version="1.0" encoding="utf-8"?>
<!-- Generator: Adobe Illustrator 19.1.0, SVG Export Plug-In . SVG Version: 6.00 Build 0)  -->
<!DOCTYPE svg PUBLIC "-//W3C//DTD SVG 1.1//EN" "http://www.w3.org/Graphics/SVG/1.1/DTD/svg11.dtd">
<svg version="1.1" id="Layer_1" xmlns="http://www.w3.org/2000/svg" xmlns:xlink="http://www.w3.org/1999/xlink" x="0px" y="0px"
	 width="64px" height="64px" viewBox="0 0 64 64" enable-background="new 0 0 64 64" xml:space="preserve">
<path d="M62,1H2C1.4,1,1,1.4,1,2v60c0,0.6,0.4,1,1,1h60c0.6,0,1-0.4,1-1V2C63,1.4,62.6,1,62,1z M61,61H3V3h58V61z"/>
<path d="M12,29c0.6,0,1-0.4,1-1V14.4l14.3,14.3c0.2,0.2,0.5,0.3,0.7,0.3s0.5-0.1,0.7-0.3c0.4-0.4,0.4-1,0-1.4L14.4,13H28
	c0.6,0,1-0.4,1-1s-0.4-1-1-1H12c-0.1,0-0.3,0-0.4,0.1c-0.2,0.1-0.4,0.3-0.5,0.5C11,11.7,11,11.9,11,12v16C11,28.6,11.4,29,12,29z"/>
<path d="M36,53h16c0.6,0,1-0.4,1-1V36c0-0.6-0.4-1-1-1H36c-0.6,0-1,0.4-1,1v16C35,52.6,35.4,53,36,53z M37,37h14v14H37V37z"/>
</svg>
