<?xml version="1.0" encoding="utf-8"?>
<!-- Generator: Adobe Illustrator 19.1.0, SVG Export Plug-In . SVG Version: 6.00 Build 0)  -->
<!DOCTYPE svg PUBLIC "-//W3C//DTD SVG 1.1//EN" "http://www.w3.org/Graphics/SVG/1.1/DTD/svg11.dtd">
<svg version="1.1" id="Layer_1" xmlns="http://www.w3.org/2000/svg" xmlns:xlink="http://www.w3.org/1999/xlink" x="0px" y="0px"
	 width="64px" height="64px" viewBox="0 0 64 64" enable-background="new 0 0 64 64" xml:space="preserve">
<path d="M60.7,23.3l-14-14c-0.4-0.4-1-0.4-1.4,0s-0.4,1,0,1.4L57.6,23H16C8.8,23,3,28.8,3,36v18c0,0.6,0.4,1,1,1s1-0.4,1-1V36
	c0-6.1,4.9-11,11-11h41.6L45.3,37.3c-0.4,0.4-0.4,1,0,1.4c0.2,0.2,0.5,0.3,0.7,0.3s0.5-0.1,0.7-0.3l14-14c0.1-0.1,0.2-0.2,0.2-0.3
	c0.1-0.2,0.1-0.5,0-0.8C60.9,23.5,60.8,23.4,60.7,23.3z"/>
</svg>
