<?xml version="1.0" encoding="utf-8"?>
<!-- Generator: Adobe Illustrator 19.1.0, SVG Export Plug-In . SVG Version: 6.00 Build 0)  -->
<!DOCTYPE svg PUBLIC "-//W3C//DTD SVG 1.1//EN" "http://www.w3.org/Graphics/SVG/1.1/DTD/svg11.dtd">
<svg version="1.1" id="Layer_1" xmlns="http://www.w3.org/2000/svg" xmlns:xlink="http://www.w3.org/1999/xlink" x="0px" y="0px"
	 width="64px" height="64px" viewBox="0 0 64 64" enable-background="new 0 0 64 64" xml:space="preserve">
<path d="M5.1,9.5c-0.2,0.3-0.1,0.7,0.1,1l26,36c0.2,0.3,0.5,0.4,0.8,0.4s0.6-0.2,0.8-0.4l26-36c0.2-0.3,0.3-0.7,0.1-1
	C58.7,9.2,58.4,9,58,9H6C5.6,9,5.3,9.2,5.1,9.5z M56,11L32,44.3L8,11H56z"/>
<path d="M59,54c0-0.6-0.4-1-1-1H6c-0.6,0-1,0.4-1,1s0.4,1,1,1h52C58.6,55,59,54.6,59,54z"/>
</svg>
