<?xml version="1.0" encoding="utf-8"?>
<!-- Generator: Adobe Illustrator 19.1.0, SVG Export Plug-In . SVG Version: 6.00 Build 0)  -->
<!DOCTYPE svg PUBLIC "-//W3C//DTD SVG 1.1//EN" "http://www.w3.org/Graphics/SVG/1.1/DTD/svg11.dtd">
<svg version="1.1" id="Layer_1" xmlns="http://www.w3.org/2000/svg" xmlns:xlink="http://www.w3.org/1999/xlink" x="0px" y="0px"
	 width="64px" height="64px" viewBox="0 0 64 64" enable-background="new 0 0 64 64" xml:space="preserve">
<path d="M10,33c-0.6,0-1,0.4-1,1v20c0,0.1,0,0.3,0.1,0.4c0.1,0.2,0.3,0.4,0.5,0.5C9.7,55,9.9,55,10,55h20c0.6,0,1-0.4,1-1
	s-0.4-1-1-1H12.4L53,12.4V30c0,0.6,0.4,1,1,1s1-0.4,1-1V10c0-0.1,0-0.3-0.1-0.4c-0.1-0.2-0.3-0.4-0.5-0.5C54.3,9,54.1,9,54,9H34
	c-0.6,0-1,0.4-1,1s0.4,1,1,1h17.6L11,51.6V34C11,33.4,10.6,33,10,33z"/>
</svg>
