<?xml version="1.0" encoding="utf-8"?>
<!-- Generator: Adobe Illustrator 19.1.0, SVG Export Plug-In . SVG Version: 6.00 Build 0)  -->
<!DOCTYPE svg PUBLIC "-//W3C//DTD SVG 1.1//EN" "http://www.w3.org/Graphics/SVG/1.1/DTD/svg11.dtd">
<svg version="1.1" id="Layer_1" xmlns="http://www.w3.org/2000/svg" xmlns:xlink="http://www.w3.org/1999/xlink" x="0px" y="0px"
	 width="64px" height="64px" viewBox="0 0 64 64" enable-background="new 0 0 64 64" xml:space="preserve">
<path d="M50.6,31.2l-14-10c-0.3-0.2-0.7-0.2-1-0.1C35.2,21.3,35,21.6,35,22v9H14c-0.6,0-1,0.4-1,1s0.4,1,1,1h21v9
	c0,0.4,0.2,0.7,0.5,0.9C35.7,43,35.8,43,36,43c0.2,0,0.4-0.1,0.6-0.2l14-10c0.3-0.2,0.4-0.5,0.4-0.8S50.8,31.4,50.6,31.2z M37,40.1
	V23.9L48.3,32L37,40.1z"/>
<path d="M32,1C14.9,1,1,14.9,1,32s13.9,31,31,31s31-13.9,31-31S49.1,1,32,1z M32,61C16,61,3,48,3,32S16,3,32,3s29,13,29,29
	S48,61,32,61z"/>
</svg>
