<?xml version="1.0" encoding="utf-8"?>
<!-- Generator: Adobe Illustrator 18.1.1, SVG Export Plug-In . SVG Version: 6.00 Build 0)  -->
<!DOCTYPE svg PUBLIC "-//W3C//DTD SVG 1.1//EN" "http://www.w3.org/Graphics/SVG/1.1/DTD/svg11.dtd">
<svg version="1.1" id="Layer_1" xmlns="http://www.w3.org/2000/svg" xmlns:xlink="http://www.w3.org/1999/xlink" x="0px" y="0px"
	 width="32px" height="32px" viewBox="0 0 32 32" enable-background="new 0 0 32 32" xml:space="preserve">
<path d="M31,8H20V5c0-2.2-1.8-4-4-4s-4,1.8-4,4v3H1C0.4,8,0,8.4,0,9v21c0,0.6,0.4,1,1,1h30c0.6,0,1-0.4,1-1V9C32,8.4,31.6,8,31,8z
	 M15,6c0-0.6,0.4-1,1-1s1,0.4,1,1v1c0,0.6-0.4,1-1,1s-1-0.4-1-1V6z M12,11c0,0.6,0.4,1,1,1h6c0.6,0,1-0.4,1-1v2c0,0.6-0.4,1-1,1h-6
	c-0.6,0-1-0.4-1-1V11z M15,26c0,0.6-0.4,1-1,1H6c-0.6,0-1-0.4-1-1v-8c0-0.6,0.4-1,1-1h8c0.6,0,1,0.4,1,1V26z M23,25h-5
	c-0.6,0-1-0.4-1-1s0.4-1,1-1h5c0.6,0,1,0.4,1,1S23.6,25,23,25z M26,21h-8c-0.6,0-1-0.4-1-1s0.4-1,1-1h8c0.6,0,1,0.4,1,1
	S26.6,21,26,21z"/>
</svg>
