<?xml version="1.0" encoding="utf-8"?>
<!-- Generator: Adobe Illustrator 18.1.1, SVG Export Plug-In . SVG Version: 6.00 Build 0)  -->
<!DOCTYPE svg PUBLIC "-//W3C//DTD SVG 1.1//EN" "http://www.w3.org/Graphics/SVG/1.1/DTD/svg11.dtd">
<svg version="1.1" id="Layer_1" xmlns="http://www.w3.org/2000/svg" xmlns:xlink="http://www.w3.org/1999/xlink" x="0px" y="0px"
	 width="32px" height="32px" viewBox="0 0 32 32" enable-background="new 0 0 32 32" xml:space="preserve">
<path d="M31.4,0.1C31.3,0,31.1,0,31,0h-5c-0.6,0-1,0.4-1,1s0.4,1,1,1h2.6l-4,4c-1.5-1.2-3.5-2-5.6-2c-1.8,0-3.6,0.6-5,1.5
	C12.6,4.6,10.8,4,9,4c-5,0-9,4-9,9c0,4.6,3.5,8.4,8,8.9V26H6c-0.6,0-1,0.4-1,1s0.4,1,1,1h2v2c0,0.6,0.4,1,1,1s1-0.4,1-1v-2h2
	c0.6,0,1-0.4,1-1s-0.4-1-1-1h-2v-4.1c1.5-0.2,2.8-0.7,4-1.5c1.4,1,3.2,1.5,5,1.5c5,0,9-4,9-9c0-2.1-0.7-4.1-2-5.6l4-4V6
	c0,0.6,0.4,1,1,1s1-0.4,1-1V1c0-0.1,0-0.3-0.1-0.4C31.8,0.4,31.6,0.2,31.4,0.1z M14,17.9c-1.2-1.3-2-3-2-4.9s0.8-3.6,2-4.9
	c1.2,1.3,2,3,2,4.9S15.2,16.6,14,17.9z M9,20c-3.9,0-7-3.1-7-7s3.1-7,7-7c1.2,0,2.4,0.3,3.4,0.9C10.9,8.5,10,10.6,10,13
	s0.9,4.5,2.4,6.1C11.4,19.7,10.2,20,9,20z M19,20c-1.2,0-2.4-0.3-3.4-0.9c1.5-1.6,2.4-3.8,2.4-6.1c0-2.4-0.9-4.5-2.4-6.1
	C16.6,6.3,17.8,6,19,6c3.9,0,7,3.1,7,7S22.9,20,19,20z"/>
</svg>
