<?xml version="1.0" encoding="utf-8"?>
<!-- Generator: Adobe Illustrator 18.1.1, SVG Export Plug-In . SVG Version: 6.00 Build 0)  -->
<!DOCTYPE svg PUBLIC "-//W3C//DTD SVG 1.1//EN" "http://www.w3.org/Graphics/SVG/1.1/DTD/svg11.dtd">
<svg version="1.1" id="Layer_1" xmlns="http://www.w3.org/2000/svg" xmlns:xlink="http://www.w3.org/1999/xlink" x="0px" y="0px"
	 width="32px" height="32px" viewBox="0 0 32 32" enable-background="new 0 0 32 32" xml:space="preserve">
<path d="M12,19.4V27c0,0.6,0.4,1,1,1h6c0.6,0,1-0.4,1-1v-7.6l2.7-2.7c0.2-0.2,0.3-0.4,0.3-0.7v-4c0-0.6-0.4-1-1-1H10
	c-0.6,0-1,0.4-1,1v4c0,0.3,0.1,0.5,0.3,0.7L12,19.4z"/>
<path d="M16,10c2.8,0,5-2.2,5-5s-2.2-5-5-5s-5,2.2-5,5S13.2,10,16,10z"/>
<path d="M16,32c5.6,0,15-0.9,15-4.5c0-2.6-5.2-3.7-9-4.2v2c4.6,0.6,6.8,1.6,7,2.1c-0.3,0.9-5,2.5-13,2.5S3.3,28.4,3,27.5
	c0.2-0.5,2.4-1.6,7-2.2v-2c-3.8,0.4-9,1.5-9,4.2C1,31.1,10.4,32,16,32z"/>
</svg>
