<?xml version="1.0" encoding="utf-8"?>
<!-- Generator: Adobe Illustrator 18.1.1, SVG Export Plug-In . SVG Version: 6.00 Build 0)  -->
<!DOCTYPE svg PUBLIC "-//W3C//DTD SVG 1.1//EN" "http://www.w3.org/Graphics/SVG/1.1/DTD/svg11.dtd">
<svg version="1.1" id="Layer_1" xmlns="http://www.w3.org/2000/svg" xmlns:xlink="http://www.w3.org/1999/xlink" x="0px" y="0px"
	 width="32px" height="32px" viewBox="0 0 32 32" enable-background="new 0 0 32 32" xml:space="preserve">
<path d="M8,32h16c1.7,0,3-1.3,3-3V3c0-1.7-1.3-3-3-3H8C6.3,0,5,1.3,5,3v26C5,30.7,6.3,32,8,32z M16,29c-1.1,0-2-0.9-2-2s0.9-2,2-2
	s2,0.9,2,2S17.1,29,16,29z M9,5c0-0.6,0.4-1,1-1h12c0.6,0,1,0.4,1,1v14l-3.8-2.7c0.5-0.7,0.8-1.5,0.8-2.3v-1c0-2.2-1.8-4-4-4
	s-4,1.8-4,4v1c0,0.9,0.3,1.7,0.8,2.3L9,19V5z"/>
</svg>
