<?xml version="1.0" encoding="utf-8"?>
<!-- Generator: Adobe Illustrator 18.1.1, SVG Export Plug-In . SVG Version: 6.00 Build 0)  -->
<!DOCTYPE svg PUBLIC "-//W3C//DTD SVG 1.1//EN" "http://www.w3.org/Graphics/SVG/1.1/DTD/svg11.dtd">
<svg version="1.1" id="Layer_1" xmlns="http://www.w3.org/2000/svg" xmlns:xlink="http://www.w3.org/1999/xlink" x="0px" y="0px"
	 width="32px" height="32px" viewBox="0 0 32 32" enable-background="new 0 0 32 32" xml:space="preserve">
<path d="M5,9v2c0,4.4,3.6,8,8,8s8-3.6,8-8V9c0-4.4-3.6-8-8-8S5,4.6,5,9z"/>
<path d="M25,17c-2.8,0-5.2,1.7-6.3,4c-0.2,0-0.4,0-0.7,0H8c-3.9,0-7,3.1-7,7v2c0,0.6,0.4,1,1,1h23c3.9,0,7-3.1,7-7S28.9,17,25,17z
	 M25,29c-2.8,0-5-2.2-5-5s2.2-5,5-5s5,2.2,5,5S27.8,29,25,29z"/>
<path d="M27,23h-1v-1c0-0.6-0.4-1-1-1s-1,0.4-1,1v1h-1c-0.6,0-1,0.4-1,1s0.4,1,1,1h1v1c0,0.6,0.4,1,1,1s1-0.4,1-1v-1h1
	c0.6,0,1-0.4,1-1S27.6,23,27,23z"/>
</svg>
