<?xml version="1.0" encoding="utf-8"?>
<!-- Generator: Adobe Illustrator 19.1.0, SVG Export Plug-In . SVG Version: 6.00 Build 0)  -->
<!DOCTYPE svg PUBLIC "-//W3C//DTD SVG 1.1//EN" "http://www.w3.org/Graphics/SVG/1.1/DTD/svg11.dtd">
<svg version="1.1" id="Layer_1" xmlns="http://www.w3.org/2000/svg" xmlns:xlink="http://www.w3.org/1999/xlink" x="0px" y="0px"
	 width="48px" height="48px" viewBox="0 0 48 48" enable-background="new 0 0 48 48" xml:space="preserve">
<path d="M38.8,18.6c0.2-0.9,0.2-1.7,0.2-2.6c0-8.3-6.7-15-15-15S9,7.7,9,16c0,0.9,0.1,1.8,0.2,2.6C4.4,21.1,1,26.2,1,32
	c0,8.3,6.7,15,15,15c2.9,0,5.7-0.9,8-2.3c2.3,1.5,5.1,2.3,8,2.3c8.3,0,15-6.7,15-15C47,26.2,43.6,21.1,38.8,18.6z M29,32
	c0,4.2-2,7.8-5,10.2c-3-2.4-5-6.1-5-10.2c0-0.6,0.1-1.2,0.1-1.8c1.5,0.5,3.2,0.8,4.9,0.8s3.3-0.3,4.9-0.8C28.9,30.8,29,31.4,29,32z
	 M24,29c-1.6,0-3-0.3-4.4-0.8c0.8-2.6,2.4-4.8,4.4-6.4c2.1,1.6,3.6,3.9,4.4,6.4C27,28.7,25.6,29,24,29z M17.7,27.4
	c-2.9-1.6-5.2-4.3-6.2-7.6C13,19.3,14.4,19,16,19c2.3,0,4.4,0.6,6.3,1.6C20.2,22.4,18.6,24.7,17.7,27.4z M25.7,20.6
	c1.9-1,4-1.6,6.3-1.6c1.6,0,3,0.3,4.4,0.8c-1,3.3-3.2,6-6.2,7.6C29.4,24.7,27.8,22.4,25.7,20.6z"/>
</svg>
