<?xml version="1.0" encoding="utf-8"?>
<!-- Generator: Adobe Illustrator 19.1.0, SVG Export Plug-In . SVG Version: 6.00 Build 0)  -->
<!DOCTYPE svg PUBLIC "-//W3C//DTD SVG 1.1//EN" "http://www.w3.org/Graphics/SVG/1.1/DTD/svg11.dtd">
<svg version="1.1" id="Layer_1" xmlns="http://www.w3.org/2000/svg" xmlns:xlink="http://www.w3.org/1999/xlink" x="0px" y="0px"
	 width="48px" height="48px" viewBox="0 0 48 48" enable-background="new 0 0 48 48" xml:space="preserve">
<path d="M46,38h-5V15.7l-5.1,5.1c-0.8,0.8-1.8,1.2-2.8,1.2c-0.4,0-0.8-0.1-1.1-0.2c0.2,0.6,0.3,1.2,0.3,1.8c0,1.6-0.6,3.1-1.8,4.2
	c-1.1,1.1-3.1,1.7-6.2,1.9c-0.1,0-0.2,0-0.3,0c0,0,0,0,0,0c-1.1,0-2.2-0.5-2.9-1.3c-0.8-0.8-1.1-1.9-1.1-3c0.2-3.1,0.8-5.1,1.9-6.2
	c1.1-1.1,2.6-1.8,4.2-1.8c0.6,0,1.2,0.1,1.8,0.3c-0.1-0.4-0.2-0.7-0.2-1.1c0-1.1,0.4-2.1,1.2-2.8L39.7,3.3C38.6,1.9,36.9,1,35,1H7
	C3.7,1,1,3.7,1,7v1c0,0.6,0.4,1,1,1h9v32c0,3.3,2.7,6,6,6h23h1c3.3,0,6-2.7,6-6v-2C47,38.4,46.6,38,46,38z M3,7c0-2.2,1.8-4,4-4
	s4,1.8,4,4H3z M45,41c0,2.2-1.8,4-4,4H21.4c0.9-0.9,1.6-2.2,1.6-4v-1h22V41z"/>
<path id="color_36_" d="M47.1,2.8c-1.1-1.1-2.9-1.1-4,0L30.5,15.4c-0.8,0.8-0.8,2,0,2.8l1.2,1.2c0.8,0.8,2,0.8,2.8,0L47.1,6.8
	C48.2,5.7,48.2,3.9,47.1,2.8z M23.4,20.8c-0.9,0.9-1.2,3.2-1.4,4.9c-0.1,1.2,0.9,2.2,2.1,2.1c1.7-0.1,4-0.4,4.9-1.4
	c1.6-1.6,1.6-4.1,0-5.7C27.5,19.3,25,19.3,23.4,20.8z"/>
</svg>
