<?xml version="1.0" encoding="utf-8"?>
<!-- Generator: Adobe Illustrator 19.1.0, SVG Export Plug-In . SVG Version: 6.00 Build 0)  -->
<!DOCTYPE svg PUBLIC "-//W3C//DTD SVG 1.1//EN" "http://www.w3.org/Graphics/SVG/1.1/DTD/svg11.dtd">
<svg version="1.1" id="Layer_1" xmlns="http://www.w3.org/2000/svg" xmlns:xlink="http://www.w3.org/1999/xlink" x="0px" y="0px"
	 width="48px" height="48px" viewBox="0 0 48 48" enable-background="new 0 0 48 48" xml:space="preserve">
<path d="M21,26c0-1.8-0.2-3.4-0.5-5H1v10h19.5C20.8,29.4,21,27.7,21,26z"/>
<path d="M47,31V21H36.6c0.2,1.6,0.4,3.3,0.4,5c0,1.7-0.2,3.4-0.4,5H47z"/>
<path d="M22.2,33c-0.9,3.9-2.4,7.4-3.8,10h12.2c1.1-2.2,2.7-5.7,3.6-10H22.2z"/>
<path d="M34.6,21h-12c0.3,1.6,0.5,3.2,0.5,5c0,1.7-0.2,3.4-0.4,5h12c0.3-1.6,0.4-3.3,0.4-5C35,24.3,34.8,22.6,34.6,21z"/>
<path d="M22.1,19h12.1c-0.9-4.3-2.5-7.8-3.6-10H17.6C19.2,11.4,21.1,14.8,22.1,19z"/>
<path d="M20.1,33H1v9c0,0.6,0.4,1,1,1h14.1C17.5,40.5,19.1,37,20.1,33z"/>
<path d="M36.3,33c-0.8,4.1-2.3,7.6-3.4,10H46c0.6,0,1-0.4,1-1v-9H36.3z"/>
<path d="M36.3,19H47v-9c0-0.6-0.4-1-1-1H32.8C34,11.4,35.4,14.9,36.3,19z"/>
<path d="M20,19c-1.2-4.4-3.3-7.9-4.9-10H2c-0.6,0-1,0.4-1,1v9H20z"/>
</svg>
