<?xml version="1.0" encoding="utf-8"?>
<!-- Generator: Adobe Illustrator 19.1.0, SVG Export Plug-In . SVG Version: 6.00 Build 0)  -->
<!DOCTYPE svg PUBLIC "-//W3C//DTD SVG 1.1//EN" "http://www.w3.org/Graphics/SVG/1.1/DTD/svg11.dtd">
<svg version="1.1" id="Layer_1" xmlns="http://www.w3.org/2000/svg" xmlns:xlink="http://www.w3.org/1999/xlink" x="0px" y="0px"
	 width="48px" height="48px" viewBox="0 0 48 48" enable-background="new 0 0 48 48" xml:space="preserve">
<path id="color_65_" d="M46,5H2C1.4,5,1,5.4,1,6s0.4,1,1,1h44c0.6,0,1-0.4,1-1S46.6,5,46,5z"/>
<path d="M38,13H28c-0.6,0-1,0.4-1,1v28c0,0.6,0.4,1,1,1h10c0.6,0,1-0.4,1-1V14C39,13.4,38.6,13,38,13z"/>
<path d="M20,13H10c-0.6,0-1,0.4-1,1v16c0,0.6,0.4,1,1,1h10c0.6,0,1-0.4,1-1V14C21,13.4,20.6,13,20,13z"/>
</svg>
