<?xml version="1.0" encoding="utf-8"?>
<!-- Generator: Adobe Illustrator 19.1.0, SVG Export Plug-In . SVG Version: 6.00 Build 0)  -->
<!DOCTYPE svg PUBLIC "-//W3C//DTD SVG 1.1//EN" "http://www.w3.org/Graphics/SVG/1.1/DTD/svg11.dtd">
<svg version="1.1" id="Layer_1" xmlns="http://www.w3.org/2000/svg" xmlns:xlink="http://www.w3.org/1999/xlink" x="0px" y="0px"
	 width="48px" height="48px" viewBox="0 0 48 48" enable-background="new 0 0 48 48" xml:space="preserve">
<path d="M46,3H2C1.4,3,1,3.4,1,4v40c0,0.6,0.4,1,1,1h44c0.6,0,1-0.4,1-1V4C47,3.4,46.6,3,46,3z M6,7h36c0.6,0,1,0.4,1,1v20.6
	l-8.3-8.3C34.5,20.1,34.3,20,34,20c-0.3,0-0.5,0.1-0.7,0.3L21.9,33.6l-9.2-7.4c-0.4-0.3-1-0.3-1.3,0.1L5,32.6V8C5,7.4,5.4,7,6,7z"/>
<path id="color_96_" d="M21,21c2.2,0,4-1.8,4-4s-1.8-4-4-4s-4,1.8-4,4S18.8,21,21,21z"/>
</svg>
