<?xml version="1.0" encoding="utf-8"?>
<!-- Generator: Adobe Illustrator 19.1.0, SVG Export Plug-In . SVG Version: 6.00 Build 0)  -->
<!DOCTYPE svg PUBLIC "-//W3C//DTD SVG 1.1//EN" "http://www.w3.org/Graphics/SVG/1.1/DTD/svg11.dtd">
<svg version="1.1" id="Layer_1" xmlns="http://www.w3.org/2000/svg" xmlns:xlink="http://www.w3.org/1999/xlink" x="0px" y="0px"
	 width="48px" height="48px" viewBox="0 0 48 48" enable-background="new 0 0 48 48" xml:space="preserve">
<path d="M30,9H18c-0.6,0-1,0.4-1,1v28c0,0.6,0.4,1,1,1h12c0.6,0,1-0.4,1-1V10C31,9.4,30.6,9,30,9z"/>
<path id="color_63_" d="M4,1C3.4,1,3,1.4,3,2v44c0,0.6,0.4,1,1,1s1-0.4,1-1V2C5,1.4,4.6,1,4,1z"/>
<path id="color_62_" d="M44,1c-0.6,0-1,0.4-1,1v44c0,0.6,0.4,1,1,1s1-0.4,1-1V2C45,1.4,44.6,1,44,1z"/>
</svg>
