<?xml version="1.0" encoding="utf-8"?>
<!-- Generator: Adobe Illustrator 19.1.0, SVG Export Plug-In . SVG Version: 6.00 Build 0)  -->
<!DOCTYPE svg PUBLIC "-//W3C//DTD SVG 1.1//EN" "http://www.w3.org/Graphics/SVG/1.1/DTD/svg11.dtd">
<svg version="1.1" id="Layer_1" xmlns="http://www.w3.org/2000/svg" xmlns:xlink="http://www.w3.org/1999/xlink" x="0px" y="0px"
	 width="48px" height="48px" viewBox="0 0 48 48" enable-background="new 0 0 48 48" xml:space="preserve">
<path id="color_95_" d="M15,3H2C1.4,3,1,3.4,1,4v40c0,0.6,0.4,1,1,1h13V3z M6,10h2c0.6,0,1,0.4,1,1s-0.4,1-1,1H6c-0.6,0-1-0.4-1-1
	S5.4,10,6,10z M6,16h3c0.6,0,1,0.4,1,1s-0.4,1-1,1H6c-0.6,0-1-0.4-1-1S5.4,16,6,16z M6,22h2c0.6,0,1,0.4,1,1s-0.4,1-1,1H6
	c-0.6,0-1-0.4-1-1S5.4,22,6,22z M8,36H6c-0.6,0-1-0.4-1-1s0.4-1,1-1h2c0.6,0,1,0.4,1,1S8.6,36,8,36z M10,30H6c-0.6,0-1-0.4-1-1
	s0.4-1,1-1h4c0.6,0,1,0.4,1,1S10.6,30,10,30z"/>
<path d="M46,3H17v42h29c0.6,0,1-0.4,1-1V4C47,3.4,46.6,3,46,3z M28,16h4c0.6,0,1,0.4,1,1s-0.4,1-1,1h-4c-0.6,0-1-0.4-1-1
	S27.4,16,28,16z M24,10h2c0.6,0,1,0.4,1,1s-0.4,1-1,1h-2c-0.6,0-1-0.4-1-1S23.4,10,24,10z M26,36h-2c-0.6,0-1-0.4-1-1s0.4-1,1-1h2
	c0.6,0,1,0.4,1,1S26.6,36,26,36z M32,30h-4c-0.6,0-1-0.4-1-1s0.4-1,1-1h4c0.6,0,1,0.4,1,1S32.6,30,32,30z M40,24h-8
	c-0.6,0-1-0.4-1-1s0.4-1,1-1h8c0.6,0,1,0.4,1,1S40.6,24,40,24z"/>
</svg>
