<?xml version="1.0" encoding="utf-8"?>
<!-- Generator: Adobe Illustrator 19.1.0, SVG Export Plug-In . SVG Version: 6.00 Build 0)  -->
<!DOCTYPE svg PUBLIC "-//W3C//DTD SVG 1.1//EN" "http://www.w3.org/Graphics/SVG/1.1/DTD/svg11.dtd">
<svg version="1.1" id="Layer_1" xmlns="http://www.w3.org/2000/svg" xmlns:xlink="http://www.w3.org/1999/xlink" x="0px" y="0px"
	 width="48px" height="48px" viewBox="0 0 48 48" enable-background="new 0 0 48 48" xml:space="preserve">
<path d="M27,31H12c-0.6,0-1-0.4-1-1V6c0-0.6,0.4-1,1-1h28c0.6,0,1,0.4,1,1v9h3c0.3,0,0.7,0,1,0.1V4c0-1.7-1.3-3-3-3H4
	C2.3,1,1,2.3,1,4v28c0,1.7,1.3,3,3,3h23V31z M6,21c-1.7,0-3-1.3-3-3s1.3-3,3-3s3,1.3,3,3S7.7,21,6,21z"/>
<path id="color_21_" d="M44,17H32c-1.7,0-3,1.3-3,3v24c0,1.7,1.3,3,3,3h12c1.7,0,3-1.3,3-3V20C47,18.3,45.7,17,44,17z M38,45
	c-1.1,0-2-0.9-2-2s0.9-2,2-2s2,0.9,2,2S39.1,45,38,45z M44,38c0,0.6-0.4,1-1,1H33c-0.6,0-1-0.4-1-1V21c0-0.6,0.4-1,1-1h10
	c0.6,0,1,0.4,1,1V38z"/>
</svg>
