<?xml version="1.0" encoding="utf-8"?>
<!-- Generator: Adobe Illustrator 19.1.0, SVG Export Plug-In . SVG Version: 6.00 Build 0)  -->
<!DOCTYPE svg PUBLIC "-//W3C//DTD SVG 1.1//EN" "http://www.w3.org/Graphics/SVG/1.1/DTD/svg11.dtd">
<svg version="1.1" id="Layer_1" xmlns="http://www.w3.org/2000/svg" xmlns:xlink="http://www.w3.org/1999/xlink" x="0px" y="0px"
	 width="16px" height="16px" viewBox="0 0 16 16" enable-background="new 0 0 16 16" xml:space="preserve">
<path fill="#444444" d="M11.8,9.3C12.5,8.4,13,7.3,13,6V5c0-2.8-2.2-5-5-5S3,2.2,3,5v1c0,1.3,0.5,2.4,1.2,3.3C1.8,10,0,12.3,0,15
	c0,0.6,0.4,1,1,1h14c0.6,0,1-0.4,1-1C16,12.3,14.2,10,11.8,9.3z M5,5c0-1.7,1.3-3,3-3s3,1.3,3,3v1c0,1.7-1.3,3-3,3S5,7.7,5,6V5z
	 M2.1,14c0.4-1.7,2-3,3.9-3h4c1.9,0,3.4,1.3,3.9,3H2.1z"/>
</svg>
