<?xml version="1.0" encoding="utf-8"?>
<!-- Generator: Adobe Illustrator 19.1.0, SVG Export Plug-In . SVG Version: 6.00 Build 0)  -->
<!DOCTYPE svg PUBLIC "-//W3C//DTD SVG 1.1//EN" "http://www.w3.org/Graphics/SVG/1.1/DTD/svg11.dtd">
<svg version="1.1" id="Layer_1" xmlns="http://www.w3.org/2000/svg" xmlns:xlink="http://www.w3.org/1999/xlink" x="0px" y="0px"
	 width="16px" height="16px" viewBox="0 0 16 16" enable-background="new 0 0 16 16" xml:space="preserve">
<path fill="#444444" d="M7,9L7,9C4.8,9,3,7.2,3,5V4c0-2.2,1.8-4,4-4h0c2.2,0,4,1.8,4,4v1C11,7.2,9.2,9,7,9z"/>
<path fill="#444444" d="M5,11c-2.8,0-5,2.2-5,5h8v-5H5z"/>
<polygon data-color="color-2" fill="#444444" points="10,12 10,14 16,14 16,12 "/>
</svg>
