<?xml version="1.0" encoding="utf-8"?>
<!-- Generator: Adobe Illustrator 18.1.1, SVG Export Plug-In . SVG Version: 6.00 Build 0)  -->
<!DOCTYPE svg PUBLIC "-//W3C//DTD SVG 1.1//EN" "http://www.w3.org/Graphics/SVG/1.1/DTD/svg11.dtd">
<svg version="1.1" id="Layer_1" xmlns="http://www.w3.org/2000/svg" xmlns:xlink="http://www.w3.org/1999/xlink" x="0px" y="0px"
	 width="32px" height="32px" viewBox="0 0 32 32" enable-background="new 0 0 32 32" xml:space="preserve">
<path d="M26,11.8c0-0.3,0-0.5,0-0.8c0-5.5-4.5-10-10-10S6,5.5,6,11c0,0.3,0,0.5,0,0.8c-3.5,1.5-6,5.1-6,9.2c0,5.5,4.5,10,10,10
	c2.3,0,4.3-0.8,6-2c1.7,1.3,3.7,2,6,2c5.5,0,10-4.5,10-10C32,16.9,29.5,13.4,26,11.8z M8,11c0-4.4,3.6-8,8-8s8,3.6,8,8
	c0,0.1,0,0.1,0,0.2c-0.6-0.1-1.3-0.2-2-0.2c-2.3,0-4.3,0.8-6,2c-1.7-1.3-3.7-2-6-2c-0.7,0-1.3,0.1-2,0.2C8,11.1,8,11.1,8,11z M18,21
	c0,2-0.8,3.9-2,5.3c-1.2-1.4-2-3.3-2-5.3c0-0.1,0-0.1,0-0.2c0.6,0.1,1.3,0.2,2,0.2s1.3-0.1,2-0.2C18,20.9,18,20.9,18,21z M16,19
	c-0.6,0-1.1-0.1-1.7-0.2c0.3-1.2,0.9-2.2,1.7-3.1c0.8,0.9,1.4,1.9,1.7,3.1C17.1,18.9,16.6,19,16,19z M12.4,18.1c-2-1-3.5-2.8-4.1-5
	C8.9,13.1,9.4,13,10,13c1.7,0,3.2,0.5,4.5,1.4C13.6,15.5,12.8,16.7,12.4,18.1z M17.5,14.4c1.3-0.9,2.8-1.4,4.5-1.4
	c0.6,0,1.1,0.1,1.7,0.2c-0.6,2.2-2.1,4-4.1,5C19.2,16.7,18.4,15.5,17.5,14.4z M2,21c0-3.1,1.8-5.8,4.4-7.1c0.8,2.8,2.9,5.2,5.6,6.3
	c0,0.3,0,0.5,0,0.8c0,2.5,1,4.8,2.5,6.6C13.2,28.5,11.7,29,10,29C5.6,29,2,25.4,2,21z M22,29c-1.7,0-3.2-0.5-4.5-1.4
	C19,25.8,20,23.5,20,21c0-0.3,0-0.5,0-0.8c2.7-1.2,4.8-3.5,5.6-6.3c2.6,1.3,4.4,4,4.4,7.1C30,25.4,26.4,29,22,29z"/>
</svg>
