<?xml version="1.0" encoding="utf-8"?>
<!-- Generator: Adobe Illustrator 18.1.1, SVG Export Plug-In . SVG Version: 6.00 Build 0)  -->
<!DOCTYPE svg PUBLIC "-//W3C//DTD SVG 1.1//EN" "http://www.w3.org/Graphics/SVG/1.1/DTD/svg11.dtd">
<svg version="1.1" id="Layer_1" xmlns="http://www.w3.org/2000/svg" xmlns:xlink="http://www.w3.org/1999/xlink" x="0px" y="0px"
	 width="32px" height="32px" viewBox="0 0 32 32" enable-background="new 0 0 32 32" xml:space="preserve">
<path d="M31,25h-4V10.3l3.1-3.1c1.2-1.2,1.2-3.2,0-4.4c-0.9-0.9-2.4-1.1-3.5-0.6C25.9,0.9,24.6,0,23,0H4C1.8,0,0,1.8,0,4v2
	c0,0.6,0.4,1,1,1h5v21c0,2.2,1.8,4,4,4h16h2c2.2,0,4-1.8,4-4v-2C32,25.4,31.6,25,31,25z M28.7,4.2c0.4,0.4,0.4,1.1,0,1.6L25.5,9
	c-0.1,0.1-0.3,0.2-0.3,0.3l-3.3,3.3L20.3,11l6.1-6.1c0.3-0.1,0.5-0.3,0.6-0.6l0.2-0.2C27.5,3.8,28.2,3.8,28.7,4.2z M2,5V4
	c0-1.1,0.9-2,2-2s2,0.9,2,2v1H2z M8,28V6V4c0-0.2,0-0.5-0.1-0.7c0-0.1,0-0.1,0-0.2C7.8,2.9,7.8,2.7,7.7,2.5c0,0,0,0,0,0
	C7.6,2.3,7.5,2.1,7.5,2H23c0.9,0,1.7,0.7,1.9,1.5l-6.8,6.8c-0.4,0.4-0.4,1,0,1.4l3,3c0.2,0.2,0.5,0.3,0.7,0.3s0.5-0.1,0.7-0.3
	l2.4-2.4V25H13c-0.6,0-1,0.4-1,1v2c0,1.1-0.9,2-2,2S8,29.1,8,28z M30,28c0,1.1-0.9,2-2,2h-2H13.5c0.3-0.6,0.5-1.3,0.5-2v-1h16V28z"
	/>
<path d="M15.8,19.8c1.4,0,2.6-0.5,3.5-1.4c1.4-1.4,1.4-3.8,0-5.2c-1.4-1.4-3.8-1.4-5.2,0c-1,1-1.1,2.1-1,2.9c0,0.3-0.4,0.3-0.7,0.3
	c-0.4,0-0.8,0.3-0.9,0.6c-0.1,0.4-0.1,0.8,0.2,1.1C12.7,19.2,14.2,19.8,15.8,19.8z M15.1,16.1c0-0.7,0.1-1.1,0.5-1.5
	c0.6-0.6,1.7-0.6,2.4,0c0.6,0.6,0.7,1.7,0,2.4c-0.8,0.8-2.2,1-3.4,0.6C14.9,17.2,15.1,16.7,15.1,16.1z"/>
</svg>
