<?xml version="1.0" encoding="utf-8"?>
<!-- Generator: Adobe Illustrator 18.1.1, SVG Export Plug-In . SVG Version: 6.00 Build 0)  -->
<!DOCTYPE svg PUBLIC "-//W3C//DTD SVG 1.1//EN" "http://www.w3.org/Graphics/SVG/1.1/DTD/svg11.dtd">
<svg version="1.1" id="Layer_1" xmlns="http://www.w3.org/2000/svg" xmlns:xlink="http://www.w3.org/1999/xlink" x="0px" y="0px"
	 width="32px" height="32px" viewBox="0 0 32 32" enable-background="new 0 0 32 32" xml:space="preserve">
<path d="M31,3H1C0.4,3,0,3.4,0,4v24c0,0.6,0.4,1,1,1h30c0.6,0,1-0.4,1-1V4C32,3.4,31.6,3,31,3z M30,7H6V5h24V7z M4,5v2H2V5H4z M2,27
	V9h28v18H2z"/>
<path d="M10.7,16.3l-4-4c-0.4-0.4-1-0.4-1.4,0s-0.4,1,0,1.4L8.6,17l-3.3,3.3c-0.4,0.4-0.4,1,0,1.4C5.5,21.9,5.7,22,6,22
	s0.5-0.1,0.7-0.3l4-4C11.1,17.3,11.1,16.7,10.7,16.3z"/>
<path d="M18,20h-6c-0.6,0-1,0.4-1,1s0.4,1,1,1h6c0.6,0,1-0.4,1-1S18.6,20,18,20z"/>
</svg>
