<?xml version="1.0" encoding="utf-8"?>
<!-- Generator: Adobe Illustrator 18.1.1, SVG Export Plug-In . SVG Version: 6.00 Build 0)  -->
<!DOCTYPE svg PUBLIC "-//W3C//DTD SVG 1.1//EN" "http://www.w3.org/Graphics/SVG/1.1/DTD/svg11.dtd">
<svg version="1.1" id="Layer_1" xmlns="http://www.w3.org/2000/svg" xmlns:xlink="http://www.w3.org/1999/xlink" x="0px" y="0px"
	 width="32px" height="32px" viewBox="0 0 32 32" enable-background="new 0 0 32 32" xml:space="preserve">
<path d="M2,32h27c0.4,0,0.8-0.2,0.9-0.6s0.1-0.8-0.2-1.1l-27-28C2.4,2,2,1.9,1.6,2.1S1,2.6,1,3v28C1,31.6,1.4,32,2,32z M26.6,30H3
	v-2h1c0.6,0,1-0.4,1-1s-0.4-1-1-1H3v-2h2c0.6,0,1-0.4,1-1s-0.4-1-1-1H3v-2h1c0.6,0,1-0.4,1-1s-0.4-1-1-1H3v-2h2c0.6,0,1-0.4,1-1
	s-0.4-1-1-1H3v-2h1c0.6,0,1-0.4,1-1s-0.4-1-1-1H3V5.5L26.6,30z"/>
<path d="M9,26h7c0.4,0,0.8-0.2,0.9-0.6c0.2-0.4,0.1-0.8-0.2-1.1l-7-7C9.4,17,9,16.9,8.6,17.1C8.2,17.2,8,17.6,8,18v7
	C8,25.6,8.4,26,9,26z M10,20.4l3.6,3.6H10V20.4z"/>
</svg>
