<?xml version="1.0" encoding="utf-8"?>
<!-- Generator: Adobe Illustrator 18.1.1, SVG Export Plug-In . SVG Version: 6.00 Build 0)  -->
<!DOCTYPE svg PUBLIC "-//W3C//DTD SVG 1.1//EN" "http://www.w3.org/Graphics/SVG/1.1/DTD/svg11.dtd">
<svg version="1.1" id="Layer_1" xmlns="http://www.w3.org/2000/svg" xmlns:xlink="http://www.w3.org/1999/xlink" x="0px" y="0px"
	 width="32px" height="32px" viewBox="0 0 32 32" enable-background="new 0 0 32 32" xml:space="preserve">
<path d="M16,24c0.6,0,1-0.4,1-1v-1h3.4l2.9,5.8c1.1,2.1,3.2,3.4,5.5,3.4c0.5,0,1-0.1,1.5-0.2c0.3-0.1,0.5-0.3,0.7-0.6
	c0.1-0.3,0.1-0.6,0-0.9L27.1,22H29c0.6,0,1-0.4,1-1s-0.4-1-1-1h-2.9L20.8,9.4C20.9,8.9,21,8.5,21,8c0-2.4-1.7-4.4-4-4.9V1
	c0-0.6-0.4-1-1-1s-1,0.4-1,1v2.1c-2.3,0.5-4,2.5-4,4.9c0,0.5,0.1,0.9,0.2,1.4L5.9,20H3c-0.6,0-1,0.4-1,1s0.4,1,1,1h1.9l-3.8,7.6
	c-0.1,0.3-0.1,0.6,0,0.9c0.1,0.3,0.4,0.5,0.7,0.6c0.5,0.1,1,0.2,1.5,0.2c2.3,0,4.4-1.3,5.5-3.4l2.9-5.8H15v1C15,23.6,15.4,24,16,24z
	 M24.5,21.3c0,0.1,0.1,0.2,0.2,0.3l3.8,7.6c-1.4-0.1-2.7-0.9-3.4-2.3l-7.1-14.3c0.6-0.3,1.2-0.7,1.7-1.2L24.5,21.3z M16,5
	c1.7,0,3,1.3,3,3s-1.3,3-3,3s-3-1.3-3-3S14.3,5,16,5z M6.9,26.9c-0.7,1.3-2,2.2-3.4,2.3l8.9-17.7c0.5,0.5,1,0.9,1.7,1.2l-3.9,7.8
	c-0.1,0.1-0.1,0.2-0.2,0.4L6.9,26.9z M12.6,20l3.4-6.8l3.4,6.8H17v-1c0-0.6-0.4-1-1-1s-1,0.4-1,1v1H12.6z"/>
</svg>
