<?xml version="1.0" encoding="utf-8"?>
<!-- Generator: Adobe Illustrator 18.1.1, SVG Export Plug-In . SVG Version: 6.00 Build 0)  -->
<!DOCTYPE svg PUBLIC "-//W3C//DTD SVG 1.1//EN" "http://www.w3.org/Graphics/SVG/1.1/DTD/svg11.dtd">
<svg version="1.1" id="Layer_1" xmlns="http://www.w3.org/2000/svg" xmlns:xlink="http://www.w3.org/1999/xlink" x="0px" y="0px"
	 width="32px" height="32px" viewBox="0 0 32 32" enable-background="new 0 0 32 32" xml:space="preserve">
<path d="M26.9,6.7c-0.1-0.4-0.4-0.6-0.8-0.7l-22-3C3.8,3,3.5,3.1,3.3,3.3C3.1,3.5,3,3.8,3,4.1l3,22c0.1,0.4,0.3,0.7,0.7,0.8
	c0.4,0.1,0.8,0,1-0.2l5.3-5.3l4.8,4.8c1.1,1.1,2.6,1.7,4.2,1.7s3.1-0.6,4.2-1.7c2.3-2.3,2.3-6.1,0-8.4L21.4,13l5.3-5.3
	C27,7.4,27.1,7,26.9,6.7z M19.3,12.3c-0.4,0.4-0.4,1,0,1.4l5.5,5.5c1.5,1.5,1.5,4,0,5.6c-1.5,1.5-4.1,1.5-5.6,0l-5.5-5.5
	C13.5,19.1,13.3,19,13,19s-0.5,0.1-0.7,0.3l-4.6,4.6L5.2,5.2l18.7,2.5L19.3,12.3z"/>
</svg>
