<?xml version="1.0" encoding="utf-8"?>
<!-- Generator: Adobe Illustrator 18.1.1, SVG Export Plug-In . SVG Version: 6.00 Build 0)  -->
<!DOCTYPE svg PUBLIC "-//W3C//DTD SVG 1.1//EN" "http://www.w3.org/Graphics/SVG/1.1/DTD/svg11.dtd">
<svg version="1.1" id="Layer_1" xmlns="http://www.w3.org/2000/svg" xmlns:xlink="http://www.w3.org/1999/xlink" x="0px" y="0px"
	 width="32px" height="32px" viewBox="0 0 32 32" enable-background="new 0 0 32 32" xml:space="preserve">
<path d="M1,9c0,3.5,2.3,5,4.5,5C7,14,8.2,13.5,9,12.6c0.8,0.9,2.1,1.4,3.6,1.4c1.4,0,2.6-0.5,3.4-1.3c0.8,0.8,2,1.3,3.4,1.3
	c1.5,0,2.8-0.5,3.6-1.4c0.8,0.9,2,1.4,3.5,1.4c2.2,0,4.5-1.5,4.5-5c0-0.2-0.1-0.4-0.2-0.6l-6-8C24.6,0.1,24.3,0,24,0H8
	C7.7,0,7.4,0.1,7.2,0.4l-6,8C1.1,8.6,1,8.8,1,9z"/>
<path d="M26,16c-2.9,0-6,2.2-6,6c0,3.4,4.8,8.3,5.3,8.8c0.2,0.2,0.5,0.3,0.7,0.3s0.5-0.1,0.7-0.3c0.5-0.5,5.3-5.4,5.3-8.8
	C32,18.2,28.9,16,26,16z M26,24c-1.1,0-2-0.9-2-2s0.9-2,2-2s2,0.9,2,2S27.1,24,26,24z"/>
<path d="M20.8,15.9c-0.5,0.1-0.9,0.1-1.4,0.1c-1.3,0-2.4-0.3-3.4-0.8c-1,0.5-2.1,0.8-3.4,0.8c-1.3,0-2.5-0.3-3.6-0.9
	C8,15.7,6.8,16,5.5,16c-0.5,0-1-0.1-1.5-0.2V29c0,0.6,0.4,1,1,1h16.9c-1.8-2.1-3.9-5.3-3.9-8C18,19.3,19.2,17.2,20.8,15.9z"/>
</svg>
