<?xml version="1.0" encoding="utf-8"?>
<!-- Generator: Adobe Illustrator 18.1.1, SVG Export Plug-In . SVG Version: 6.00 Build 0)  -->
<!DOCTYPE svg PUBLIC "-//W3C//DTD SVG 1.1//EN" "http://www.w3.org/Graphics/SVG/1.1/DTD/svg11.dtd">
<svg version="1.1" id="Layer_1" xmlns="http://www.w3.org/2000/svg" xmlns:xlink="http://www.w3.org/1999/xlink" x="0px" y="0px"
	 width="32px" height="32px" viewBox="0 0 32 32" enable-background="new 0 0 32 32" xml:space="preserve">
<path d="M28.3,17.8l2.6-7.5c0.1-0.3,0.1-0.6-0.1-0.9C30.6,9.2,30.3,9,30,9h-4.5l-5.7-7.6c-0.3-0.4-1-0.5-1.4-0.2
	c-0.4,0.3-0.5,1-0.2,1.4L23,9H9l4.8-6.4c0.3-0.4,0.2-1.1-0.2-1.4c-0.4-0.3-1.1-0.2-1.4,0.2L6.5,9H2C1.7,9,1.4,9.2,1.2,9.4
	C1,9.7,0.9,10,1.1,10.3l6,17C7.2,27.7,7.6,28,8,28h11.3c1.3,1.8,3.4,3,5.7,3c3.9,0,7-3.1,7-7C32,21.3,30.5,19,28.3,17.8z M25,29
	c-2.8,0-5-2.2-5-5s2.2-5,5-5s5,2.2,5,5S27.8,29,25,29z"/>
<path d="M27,23h-4c-0.6,0-1,0.4-1,1s0.4,1,1,1h4c0.6,0,1-0.4,1-1S27.6,23,27,23z"/>
</svg>
