<?xml version="1.0" encoding="utf-8"?>
<!-- Generator: Adobe Illustrator 18.1.1, SVG Export Plug-In . SVG Version: 6.00 Build 0)  -->
<!DOCTYPE svg PUBLIC "-//W3C//DTD SVG 1.1//EN" "http://www.w3.org/Graphics/SVG/1.1/DTD/svg11.dtd">
<svg version="1.1" id="Layer_1" xmlns="http://www.w3.org/2000/svg" xmlns:xlink="http://www.w3.org/1999/xlink" x="0px" y="0px"
	 width="32px" height="32px" viewBox="0 0 32 32" enable-background="new 0 0 32 32" xml:space="preserve">
<path d="M31,6h-5.6C25.8,5.4,26,4.7,26,4c0-2.2-1.8-4-4-4c-3.1,0-5,2.4-6,4.3C15,2.4,13.1,0,10,0C7.8,0,6,1.8,6,4
	c0,0.7,0.2,1.4,0.6,2H1C0.4,6,0,6.4,0,7v4c0,0.6,0.4,1,1,1h30c0.6,0,1-0.4,1-1V7C32,6.4,31.6,6,31,6z M10,6C8.9,6,8,5.1,8,4
	s0.9-2,2-2c2.5,0,3.9,2.4,4.6,4H10z M22,6h-4.6c0.7-1.6,2.1-4,4.6-4c1.1,0,2,0.9,2,2S23.1,6,22,6z"/>
<rect x="14" y="14" width="4" height="18"/>
<path d="M29,31V15c0-0.6-0.4-1-1-1h-8v18h8C28.6,32,29,31.6,29,31z"/>
<path d="M12,32V14H4c-0.6,0-1,0.4-1,1v16c0,0.6,0.4,1,1,1H12z"/>
</svg>
