<?xml version="1.0" encoding="utf-8"?>
<!-- Generator: Adobe Illustrator 18.1.1, SVG Export Plug-In . SVG Version: 6.00 Build 0)  -->
<!DOCTYPE svg PUBLIC "-//W3C//DTD SVG 1.1//EN" "http://www.w3.org/Graphics/SVG/1.1/DTD/svg11.dtd">
<svg version="1.1" id="Layer_1" xmlns="http://www.w3.org/2000/svg" xmlns:xlink="http://www.w3.org/1999/xlink" x="0px" y="0px"
	 width="32px" height="32px" viewBox="0 0 32 32" enable-background="new 0 0 32 32" xml:space="preserve">
<path d="M21,29v-5H1v5c0,1.7,1.3,3,3,3h14C19.7,32,21,30.7,21,29z M11,30c-1.1,0-2-0.9-2-2s0.9-2,2-2s2,0.9,2,2S12.1,30,11,30z"/>
<path d="M31,13V1c0-0.6-0.4-1-1-1H13c-0.6,0-1,0.4-1,1v1H4C2.3,2,1,3.3,1,5v2h11v2H1v13h20v-8h9C30.6,14,31,13.6,31,13z M29,12H14V6
	h15V12z M29,4H14V2h15V4z"/>
<path d="M17,10h3c0.6,0,1-0.4,1-1s-0.4-1-1-1h-3c-0.6,0-1,0.4-1,1S16.4,10,17,10z"/>
<path d="M25,10h1c0.6,0,1-0.4,1-1s-0.4-1-1-1h-1c-0.6,0-1,0.4-1,1S24.4,10,25,10z"/>
</svg>
