<?xml version="1.0" encoding="utf-8"?>
<!-- Generator: Adobe Illustrator 18.1.1, SVG Export Plug-In . SVG Version: 6.00 Build 0)  -->
<!DOCTYPE svg PUBLIC "-//W3C//DTD SVG 1.1//EN" "http://www.w3.org/Graphics/SVG/1.1/DTD/svg11.dtd">
<svg version="1.1" id="Layer_1" xmlns="http://www.w3.org/2000/svg" xmlns:xlink="http://www.w3.org/1999/xlink" x="0px" y="0px"
	 width="32px" height="32px" viewBox="0 0 32 32" enable-background="new 0 0 32 32" xml:space="preserve">
<path d="M31,9h-5.4L21,0.5c-0.3-0.5-0.9-0.7-1.4-0.4c-0.5,0.3-0.7,0.9-0.4,1.4L23.3,9H8.7l4.1-7.5c0.3-0.5,0.1-1.1-0.4-1.4
	C11.9-0.1,11.3,0,11,0.5L6.4,9H1c-0.6,0-1,0.4-1,1v4c0,0.6,0.4,1,1,1h30c0.6,0,1-0.4,1-1v-4C32,9.4,31.6,9,31,9z"/>
<path d="M28,17H4c-0.6,0-1,0.4-1,1v13c0,0.6,0.4,1,1,1h24c0.6,0,1-0.4,1-1V18C29,17.4,28.6,17,28,17z M12,28c0,0.6-0.4,1-1,1
	s-1-0.4-1-1v-7c0-0.6,0.4-1,1-1s1,0.4,1,1V28z M17,28c0,0.6-0.4,1-1,1s-1-0.4-1-1v-7c0-0.6,0.4-1,1-1s1,0.4,1,1V28z M22,28
	c0,0.6-0.4,1-1,1s-1-0.4-1-1v-7c0-0.6,0.4-1,1-1s1,0.4,1,1V28z"/>
</svg>
