<?xml version="1.0" encoding="utf-8"?>
<!-- Generator: Adobe Illustrator 19.1.0, SVG Export Plug-In . SVG Version: 6.00 Build 0)  -->
<!DOCTYPE svg PUBLIC "-//W3C//DTD SVG 1.1//EN" "http://www.w3.org/Graphics/SVG/1.1/DTD/svg11.dtd">
<svg version="1.1" id="Layer_1" xmlns="http://www.w3.org/2000/svg" xmlns:xlink="http://www.w3.org/1999/xlink" x="0px" y="0px"
	 width="24px" height="24px" viewBox="0 0 24 24" enable-background="new 0 0 24 24" xml:space="preserve">
<path d="M21.9,17.8c0.6-0.8,1-1.8,1.1-2.8c0-0.5-0.3-1-0.8-1.1c-1.7-0.4-3.2-2.1-3.2-3.9c0,0,0,0,0,0c0,0,0,0,0,0V7c0-3.9-3.1-7-7-7
	S5,3.1,5,7v3c0,1.9,0.8,3.6,2,4.9l-4.5,2.7C1.6,18.1,1,19.1,1,20.1V23c0,0.6,0.4,1,1,1h20c0.6,0,1-0.4,1-1v-2.9
	C23,19.2,22.6,18.4,21.9,17.8z M20.8,15.6c-0.1,0.4-0.4,0.8-0.6,1.2L17,14.9c0.4-0.4,0.8-0.9,1.1-1.4C18.8,14.4,19.7,15.1,20.8,15.6
	z M7,10V9.5C7.8,9.8,8.6,10,9.5,10c2,0,3.8-0.9,5-2.4C15.2,8.5,16,9.1,17,9.5V10c0,2.8-2.2,5-5,5S7,12.8,7,10z M12,2
	c2.8,0,5,2.2,5,5v0.2c-0.7-0.5-1.2-1.1-1.6-1.8c-0.2-0.4-0.5-0.6-0.9-0.6c-0.4,0-0.7,0.2-0.9,0.6C12.9,7,11.3,8,9.5,8
	C8.6,8,7.7,7.7,7,7.2V7C7,4.2,9.2,2,12,2z M21,22H3v-1.9c0-0.3,0.2-0.7,0.5-0.9l5.2-3.1c1,0.5,2.1,0.8,3.3,0.8
	c1.2,0,2.3-0.3,3.3-0.8l4.5,2.7c0,0,0,0,0.1,0l0.6,0.4c0.3,0.2,0.5,0.5,0.5,0.9V22z"/>
</svg>
