<?xml version="1.0" encoding="utf-8"?>
<!-- Generator: Adobe Illustrator 19.1.0, SVG Export Plug-In . SVG Version: 6.00 Build 0)  -->
<!DOCTYPE svg PUBLIC "-//W3C//DTD SVG 1.1//EN" "http://www.w3.org/Graphics/SVG/1.1/DTD/svg11.dtd">
<svg version="1.1" id="Layer_1" xmlns="http://www.w3.org/2000/svg" xmlns:xlink="http://www.w3.org/1999/xlink" x="0px" y="0px"
	 width="24px" height="24px" viewBox="0 0 24 24" enable-background="new 0 0 24 24" xml:space="preserve">
<path d="M11,11H5c-0.6,0-1,0.4-1,1v6c0,0.6,0.4,1,1,1h6c0.6,0,1-0.4,1-1v-6C12,11.4,11.6,11,11,11z M10,17H6v-4h4V17z"/>
<path d="M23,5h-8V3c0-1.7-1.3-3-3-3S9,1.3,9,3v2H1C0.4,5,0,5.4,0,6v17c0,0.6,0.4,1,1,1h22c0.6,0,1-0.4,1-1V6C24,5.4,23.6,5,23,5z
	 M11,3c0-0.6,0.4-1,1-1s1,0.4,1,1v3c0,0,0,0,0,0s0,0,0,0v1h-2V3z M22,22H2V7h7v1c0,0.6,0.4,1,1,1h4c0.6,0,1-0.4,1-1V7h7V22z"/>
<path d="M15,12c-0.6,0-1,0.4-1,1s0.4,1,1,1h4c0.6,0,1-0.4,1-1s-0.4-1-1-1H15z"/>
<path d="M19,16h-4c-0.6,0-1,0.4-1,1s0.4,1,1,1h4c0.6,0,1-0.4,1-1S19.6,16,19,16z"/>
</svg>
