<?xml version="1.0" encoding="utf-8"?>
<!-- Generator: Adobe Illustrator 19.1.0, SVG Export Plug-In . SVG Version: 6.00 Build 0)  -->
<!DOCTYPE svg PUBLIC "-//W3C//DTD SVG 1.1//EN" "http://www.w3.org/Graphics/SVG/1.1/DTD/svg11.dtd">
<svg version="1.1" id="Layer_1" xmlns="http://www.w3.org/2000/svg" xmlns:xlink="http://www.w3.org/1999/xlink" x="0px" y="0px"
	 width="24px" height="24px" viewBox="0 0 24 24" enable-background="new 0 0 24 24" xml:space="preserve">
<path d="M23,0H1C0.4,0,0,0.4,0,1v22c0,0.6,0.4,1,1,1h22c0.6,0,1-0.4,1-1V1C24,0.4,23.6,0,23,0z M6,22c0-1.7,1.3-3,3-3h6
	c1.7,0,3,1.3,3,3H6z M22,22h-2c0-2.8-2.2-5-5-5H9c-2.8,0-5,2.2-5,5H2V2h20V22z"/>
<path d="M12,16c2.8,0,5-2.2,5-5V9c0-2.8-2.2-5-5-5S7,6.2,7,9v2C7,13.8,9.2,16,12,16z M9,9c0-1.7,1.3-3,3-3s3,1.3,3,3v2
	c0,1.7-1.3,3-3,3s-3-1.3-3-3V9z"/>
</svg>
