<?xml version="1.0" encoding="utf-8"?>
<!-- Generator: Adobe Illustrator 19.1.0, SVG Export Plug-In . SVG Version: 6.00 Build 0)  -->
<!DOCTYPE svg PUBLIC "-//W3C//DTD SVG 1.1//EN" "http://www.w3.org/Graphics/SVG/1.1/DTD/svg11.dtd">
<svg version="1.1" id="Layer_1" xmlns="http://www.w3.org/2000/svg" xmlns:xlink="http://www.w3.org/1999/xlink" x="0px" y="0px"
	 width="24px" height="24px" viewBox="0 0 24 24" enable-background="new 0 0 24 24" xml:space="preserve">
<path d="M2,24h20c0.6,0,1-0.4,1-1v-2.9c0-1-0.6-2-1.5-2.6L17,14.9c1.2-1.3,2-3,2-4.9V7c0-3.9-3.1-7-7-7S5,3.1,5,7v3
	c0,1.9,0.8,3.6,2,4.9l-4.5,2.7C1.6,18.1,1,19.1,1,20.1V23C1,23.6,1.4,24,2,24z M7,7c0-2.8,2.2-5,5-5s5,2.2,5,5v3c0,2.8-2.2,5-5,5
	s-5-2.2-5-5V7z M3,20.1c0-0.3,0.2-0.7,0.5-0.9l5.2-3.1c1,0.5,2.1,0.8,3.3,0.8c1.2,0,2.3-0.3,3.3-0.8l5.2,3.1
	c0.3,0.2,0.5,0.5,0.5,0.9V22H3V20.1z"/>
</svg>
