<?xml version="1.0" encoding="utf-8"?>
<!-- Generator: Adobe Illustrator 19.1.0, SVG Export Plug-In . SVG Version: 6.00 Build 0)  -->
<!DOCTYPE svg PUBLIC "-//W3C//DTD SVG 1.1//EN" "http://www.w3.org/Graphics/SVG/1.1/DTD/svg11.dtd">
<svg version="1.1" id="Layer_1" xmlns="http://www.w3.org/2000/svg" xmlns:xlink="http://www.w3.org/1999/xlink" x="0px" y="0px"
	 width="24px" height="24px" viewBox="0 0 24 24" enable-background="new 0 0 24 24" xml:space="preserve">
<path d="M21.9,17.8c0.6-0.8,1-1.8,1.1-2.9c0-0.5-0.3-1-0.8-1.1c-1.7-0.4-3.2-2.1-3.2-3.9c0-0.1,0-0.1,0-0.2V7c0-3.9-3.1-7-7-7
	S5,3.1,5,7v3c0,0,0,0,0,0c0,0,0,0,0,0c0,1.8-1.4,3.5-3.2,3.9C1.3,14,1,14.5,1,15c0.1,1,0.5,2,1.1,2.8C1.4,18.4,1,19.2,1,20.1V23
	c0,0.6,0.4,1,1,1h20c0.6,0,1-0.4,1-1v-2.9C23,19.2,22.6,18.4,21.9,17.8z M20.8,15.6c-0.1,0.4-0.4,0.8-0.7,1.2L17,14.9
	c0.4-0.4,0.8-0.9,1.1-1.5C18.8,14.3,19.8,15.1,20.8,15.6z M7,10V9h2c0.3,0,0.6-0.2,0.8-0.4L11,6.8l1.2,1.8C12.4,8.8,12.7,9,13,9h4v1
	c0,2.8-2.2,5-5,5S7,12.8,7,10z M12,2c2.8,0,5,2.2,5,5h-3.5l-1.7-2.6c-0.4-0.6-1.3-0.6-1.7,0L8.5,7H7C7,4.2,9.2,2,12,2z M5.9,13.4
	c0.3,0.5,0.7,1,1.1,1.5l-3.1,1.9c-0.3-0.3-0.5-0.7-0.6-1.2C4.3,15.1,5.2,14.4,5.9,13.4z M21,22H3v-1.9c0-0.3,0.2-0.7,0.5-0.9
	l0.6-0.4c0,0,0,0,0.1,0l4.5-2.7c1,0.5,2.1,0.8,3.3,0.8c1.2,0,2.3-0.3,3.3-0.8l5.2,3.1c0.3,0.2,0.5,0.5,0.5,0.9V22z"/>
</svg>
