<?xml version="1.0" encoding="utf-8"?>
<!-- Generator: Adobe Illustrator 19.1.0, SVG Export Plug-In . SVG Version: 6.00 Build 0)  -->
<!DOCTYPE svg PUBLIC "-//W3C//DTD SVG 1.1//EN" "http://www.w3.org/Graphics/SVG/1.1/DTD/svg11.dtd">
<svg version="1.1" id="Layer_1" xmlns="http://www.w3.org/2000/svg" xmlns:xlink="http://www.w3.org/1999/xlink" x="0px" y="0px"
	 width="64px" height="64px" viewBox="0 0 64 64" enable-background="new 0 0 64 64" xml:space="preserve">
<path d="M32,37c8.3,0,15-6.7,15-15v-4c0-8.3-6.7-15-15-15S17,9.7,17,18v4C17,30.3,23.7,37,32,37z M19,18c0-7.2,5.8-13,13-13
	s13,5.8,13,13v4c0,7.2-5.8,13-13,13s-13-5.8-13-13V18z"/>
<path d="M60,59H5c0.5-7.8,7-14,15-14h16c0.6,0,1-0.4,1-1s-0.4-1-1-1H20c-9.4,0-17,7.6-17,17c0,0.6,0.4,1,1,1h56c0.6,0,1-0.4,1-1
	S60.6,59,60,59z"/>
<path d="M62,43h-7v-7c0-0.6-0.4-1-1-1s-1,0.4-1,1v7h-7c-0.6,0-1,0.4-1,1s0.4,1,1,1h7v7c0,0.6,0.4,1,1,1s1-0.4,1-1v-7h7
	c0.6,0,1-0.4,1-1S62.6,43,62,43z"/>
</svg>
