<?xml version="1.0" encoding="utf-8"?>
<!-- Generator: Adobe Illustrator 19.1.0, SVG Export Plug-In . SVG Version: 6.00 Build 0)  -->
<!DOCTYPE svg PUBLIC "-//W3C//DTD SVG 1.1//EN" "http://www.w3.org/Graphics/SVG/1.1/DTD/svg11.dtd">
<svg version="1.1" id="Layer_1" xmlns="http://www.w3.org/2000/svg" xmlns:xlink="http://www.w3.org/1999/xlink" x="0px" y="0px"
	 width="64px" height="64px" viewBox="0 0 64 64" enable-background="new 0 0 64 64" xml:space="preserve">
<path d="M32,63c17.1,0,31-13.9,31-31S49.1,1,32,1S1,14.9,1,32S14.9,63,32,63z M13.9,54.6v-2.8c0-1.8,1-3.5,2.5-4.3l10.3-5.9
	c1.6,0.9,3.4,1.4,5.3,1.4s3.7-0.5,5.3-1.4l10.3,5.9c1.6,0.9,2.5,2.6,2.5,4.3v2.8c-5,4-11.3,6.4-18.1,6.4S18.9,58.6,13.9,54.6z
	 M32,41c-5,0-9-4-9-9v-6c0-5,4-9,9-9s9,4,9,9v6C41,37,37,41,32,41z M32,3c16,0,29,13,29,29c0,8.2-3.4,15.6-8.9,20.9v-1
	c0-2.5-1.4-4.8-3.5-6.1l-9.4-5.4c2.4-2,3.9-5,3.9-8.4v-6c0-6.1-4.9-11-11-11s-11,4.9-11,11v6c0,3.4,1.5,6.4,3.9,8.4l-9.4,5.4
	c-2.2,1.2-3.5,3.6-3.5,6.1v1C6.4,47.6,3,40.2,3,32C3,16,16,3,32,3z"/>
</svg>
