<?xml version="1.0" encoding="utf-8"?>
<!-- Generator: Adobe Illustrator 19.1.0, SVG Export Plug-In . SVG Version: 6.00 Build 0)  -->
<!DOCTYPE svg PUBLIC "-//W3C//DTD SVG 1.1//EN" "http://www.w3.org/Graphics/SVG/1.1/DTD/svg11.dtd">
<svg version="1.1" id="Layer_1" xmlns="http://www.w3.org/2000/svg" xmlns:xlink="http://www.w3.org/1999/xlink" x="0px" y="0px"
	 width="64px" height="64px" viewBox="0 0 64 64" enable-background="new 0 0 64 64" xml:space="preserve">
<path d="M20,35c2.8,0,5-2.2,5-5v-2c0-2.8-2.2-5-5-5s-5,2.2-5,5v2C15,32.8,17.2,35,20,35z M17,28c0-1.7,1.3-3,3-3s3,1.3,3,3v2
	c0,1.7-1.3,3-3,3s-3-1.3-3-3V28z"/>
<path d="M37,32c0,0.6,0.4,1,1,1h16c0.6,0,1-0.4,1-1s-0.4-1-1-1H38C37.4,31,37,31.4,37,32z"/>
<path d="M48,39H38c-0.6,0-1,0.4-1,1s0.4,1,1,1h10c0.6,0,1-0.4,1-1S48.6,39,48,39z"/>
<path d="M24,37h-8c-3.9,0-7,3.1-7,7c0,0.6,0.4,1,1,1h20c0.6,0,1-0.4,1-1C31,40.1,27.9,37,24,37z M11.1,43c0.5-2.3,2.5-4,4.9-4h8
	c2.4,0,4.4,1.7,4.9,4H11.1z"/>
<path d="M62,7H52c-0.6,0-1,0.4-1,1c0,1.7-1.3,3-3,3s-3-1.3-3-3c0-0.6-0.4-1-1-1h-8c-0.6,0-1,0.4-1,1c0,1.7-1.3,3-3,3s-3-1.3-3-3
	c0-0.6-0.4-1-1-1h-8c-0.6,0-1,0.4-1,1c0,1.7-1.3,3-3,3s-3-1.3-3-3c0-0.6-0.4-1-1-1H2C1.4,7,1,7.4,1,8v48c0,0.6,0.4,1,1,1h60
	c0.6,0,1-0.4,1-1V8C63,7.4,62.6,7,62,7z M61,55H3V9h8.1c0.5,2.3,2.5,4,4.9,4s4.4-1.7,4.9-4h6.2c0.5,2.3,2.5,4,4.9,4s4.4-1.7,4.9-4
	h6.2c0.5,2.3,2.5,4,4.9,4s4.4-1.7,4.9-4H61V55z"/>
</svg>
