<?xml version="1.0" encoding="utf-8"?>
<!-- Generator: Adobe Illustrator 19.1.0, SVG Export Plug-In . SVG Version: 6.00 Build 0)  -->
<!DOCTYPE svg PUBLIC "-//W3C//DTD SVG 1.1//EN" "http://www.w3.org/Graphics/SVG/1.1/DTD/svg11.dtd">
<svg version="1.1" id="Layer_1" xmlns="http://www.w3.org/2000/svg" xmlns:xlink="http://www.w3.org/1999/xlink" x="0px" y="0px"
	 width="64px" height="64px" viewBox="0 0 64 64" enable-background="new 0 0 64 64" xml:space="preserve">
<path d="M4,63h56c0.6,0,1-0.4,1-1v-7.3c0-3.3-1.8-6.3-4.7-7.9l-13.8-7.5C46.5,36.2,49,31.4,49,26v-8c0-9.4-7.6-17-17-17
	S15,8.6,15,18v8c0,5.4,2.5,10.2,6.5,13.3L7.7,46.8C4.8,48.4,3,51.5,3,54.7V62C3,62.6,3.4,63,4,63z M17,26v-8c0-8.3,6.7-15,15-15
	s15,6.7,15,15v8c0,5.2-2.6,9.7-6.6,12.4c-0.2,0-0.4,0.2-0.6,0.3c-2.3,1.4-5,2.2-7.8,2.2c-2.9,0-5.7-0.9-8-2.3
	c-0.1,0-0.1-0.1-0.2-0.1C19.7,35.9,17,31.3,17,26z M5,54.7c0-2.6,1.4-4.9,3.6-6.1l14.7-8c2.5,1.5,5.5,2.4,8.7,2.4s6.1-0.9,8.7-2.4
	l14.7,8c2.2,1.2,3.6,3.6,3.6,6.1V61H5V54.7z"/>
</svg>
