<?xml version="1.0" encoding="utf-8"?>
<!-- Generator: Adobe Illustrator 18.1.1, SVG Export Plug-In . SVG Version: 6.00 Build 0)  -->
<!DOCTYPE svg PUBLIC "-//W3C//DTD SVG 1.1//EN" "http://www.w3.org/Graphics/SVG/1.1/DTD/svg11.dtd">
<svg version="1.1" id="Layer_1" xmlns="http://www.w3.org/2000/svg" xmlns:xlink="http://www.w3.org/1999/xlink" x="0px" y="0px"
	 width="32px" height="32px" viewBox="0 0 32 32" enable-background="new 0 0 32 32" xml:space="preserve">
<path d="M25.9,1.5C25.7,1.2,25.4,1,25,1h-8c-0.3,0-0.6,0.2-0.8,0.4l-10,14c-0.2,0.3-0.2,0.8,0,1.2l10,14c0.2,0.3,0.5,0.4,0.8,0.4h8
	c0.4,0,0.7-0.2,0.9-0.5c0.2-0.3,0.1-0.7-0.1-1L16.2,16l9.6-13.4C26,2.3,26.1,1.9,25.9,1.5z"/>
</svg>
