<?xml version="1.0" encoding="utf-8"?>
<!-- Generator: Adobe Illustrator 18.1.1, SVG Export Plug-In . SVG Version: 6.00 Build 0)  -->
<!DOCTYPE svg PUBLIC "-//W3C//DTD SVG 1.1//EN" "http://www.w3.org/Graphics/SVG/1.1/DTD/svg11.dtd">
<svg version="1.1" id="Layer_1" xmlns="http://www.w3.org/2000/svg" xmlns:xlink="http://www.w3.org/1999/xlink" x="0px" y="0px"
	 width="32px" height="32px" viewBox="0 0 32 32" enable-background="new 0 0 32 32" xml:space="preserve">
<path d="M1.3,16.7l8,8C9.5,24.9,9.7,25,10,25s0.5-0.1,0.7-0.3c0.4-0.4,0.4-1,0-1.4L4.4,17H25c0.6,0,1-0.4,1-1s-0.4-1-1-1H4.4
	l6.3-6.3c0.4-0.4,0.4-1,0-1.4s-1-0.4-1.4,0l-8,8c-0.1,0.1-0.2,0.2-0.2,0.3c-0.1,0.2-0.1,0.5,0,0.8C1.1,16.5,1.2,16.6,1.3,16.7z"/>
<path d="M30,4c-0.6,0-1,0.4-1,1v22c0,0.6,0.4,1,1,1s1-0.4,1-1V5C31,4.4,30.6,4,30,4z"/>
</svg>
