<?xml version="1.0" encoding="utf-8"?>
<!-- Generator: Adobe Illustrator 18.1.1, SVG Export Plug-In . SVG Version: 6.00 Build 0)  -->
<!DOCTYPE svg PUBLIC "-//W3C//DTD SVG 1.1//EN" "http://www.w3.org/Graphics/SVG/1.1/DTD/svg11.dtd">
<svg version="1.1" id="Layer_1" xmlns="http://www.w3.org/2000/svg" xmlns:xlink="http://www.w3.org/1999/xlink" x="0px" y="0px"
	 width="32px" height="32px" viewBox="0 0 32 32" enable-background="new 0 0 32 32" xml:space="preserve">
<path d="M2,11c0.6,0,1-0.4,1-1V3h7c0.6,0,1-0.4,1-1s-0.4-1-1-1H2C1.4,1,1,1.4,1,2v8C1,10.6,1.4,11,2,11z"/>
<path d="M22,3h7v7c0,0.6,0.4,1,1,1s1-0.4,1-1V2c0-0.6-0.4-1-1-1h-8c-0.6,0-1,0.4-1,1S21.4,3,22,3z"/>
<path d="M30,21c-0.6,0-1,0.4-1,1v7h-7c-0.6,0-1,0.4-1,1s0.4,1,1,1h8c0.6,0,1-0.4,1-1v-8C31,21.4,30.6,21,30,21z"/>
<path d="M2,31h8c0.6,0,1-0.4,1-1s-0.4-1-1-1H3v-7c0-0.6-0.4-1-1-1s-1,0.4-1,1v8C1,30.6,1.4,31,2,31z"/>
<path d="M16,23c3.9,0,7-3.1,7-7s-3.1-7-7-7s-7,3.1-7,7S12.1,23,16,23z"/>
</svg>
