<?xml version="1.0" encoding="utf-8"?>
<!-- Generator: Adobe Illustrator 18.1.1, SVG Export Plug-In . SVG Version: 6.00 Build 0)  -->
<!DOCTYPE svg PUBLIC "-//W3C//DTD SVG 1.1//EN" "http://www.w3.org/Graphics/SVG/1.1/DTD/svg11.dtd">
<svg version="1.1" id="Layer_1" xmlns="http://www.w3.org/2000/svg" xmlns:xlink="http://www.w3.org/1999/xlink" x="0px" y="0px"
	 width="32px" height="32px" viewBox="0 0 32 32" enable-background="new 0 0 32 32" xml:space="preserve">
<path d="M10.7,8.3c-0.4-0.4-1-0.4-1.4,0l-7,7c-0.1,0.1-0.2,0.2-0.2,0.3c-0.1,0.2-0.1,0.5,0,0.8c0.1,0.1,0.1,0.2,0.2,0.3l7,7
	C9.5,23.9,9.7,24,10,24s0.5-0.1,0.7-0.3c0.4-0.4,0.4-1,0-1.4L5.4,17H24c0.6,0,1-0.4,1-1s-0.4-1-1-1H5.4l5.3-5.3
	C11.1,9.3,11.1,8.7,10.7,8.3z"/>
<path d="M30,31V1c0-0.6-0.4-1-1-1H14c-0.6,0-1,0.4-1,1s0.4,1,1,1h14v28H14c-0.6,0-1,0.4-1,1s0.4,1,1,1h15C29.6,32,30,31.6,30,31z"/>
</svg>
