<?xml version="1.0" encoding="utf-8"?>
<!-- Generator: Adobe Illustrator 18.1.1, SVG Export Plug-In . SVG Version: 6.00 Build 0)  -->
<!DOCTYPE svg PUBLIC "-//W3C//DTD SVG 1.1//EN" "http://www.w3.org/Graphics/SVG/1.1/DTD/svg11.dtd">
<svg version="1.1" id="Layer_1" xmlns="http://www.w3.org/2000/svg" xmlns:xlink="http://www.w3.org/1999/xlink" x="0px" y="0px"
	 width="32px" height="32px" viewBox="0 0 32 32" enable-background="new 0 0 32 32" xml:space="preserve">
<path d="M1.1,15.6c-0.1,0.2-0.1,0.5,0,0.8c0.1,0.1,0.1,0.2,0.2,0.3l6,6C7.5,22.9,7.7,23,8,23s0.5-0.1,0.7-0.3c0.4-0.4,0.4-1,0-1.4
	L4.4,17H12c0.6,0,1-0.4,1-1s-0.4-1-1-1H4.4l4.3-4.3c0.4-0.4,0.4-1,0-1.4s-1-0.4-1.4,0l-6,6C1.2,15.4,1.1,15.5,1.1,15.6z"/>
<path d="M30.9,16.4c0.1-0.2,0.1-0.5,0-0.8c-0.1-0.1-0.1-0.2-0.2-0.3l-6-6c-0.4-0.4-1-0.4-1.4,0s-0.4,1,0,1.4l4.3,4.3H20
	c-0.6,0-1,0.4-1,1s0.4,1,1,1h7.6l-4.3,4.3c-0.4,0.4-0.4,1,0,1.4c0.2,0.2,0.5,0.3,0.7,0.3s0.5-0.1,0.7-0.3l6-6
	C30.8,16.6,30.9,16.5,30.9,16.4z"/>
<path d="M17,29V3c0-0.6-0.4-1-1-1s-1,0.4-1,1v26c0,0.6,0.4,1,1,1S17,29.6,17,29z"/>
</svg>
