<?xml version="1.0" encoding="utf-8"?>
<!-- Generator: Adobe Illustrator 18.1.1, SVG Export Plug-In . SVG Version: 6.00 Build 0)  -->
<!DOCTYPE svg PUBLIC "-//W3C//DTD SVG 1.1//EN" "http://www.w3.org/Graphics/SVG/1.1/DTD/svg11.dtd">
<svg version="1.1" id="Layer_1" xmlns="http://www.w3.org/2000/svg" xmlns:xlink="http://www.w3.org/1999/xlink" x="0px" y="0px"
	 width="32px" height="32px" viewBox="0 0 32 32" enable-background="new 0 0 32 32" xml:space="preserve">
<path d="M16,1c-0.6,0-1,0.4-1,1v10.6l-2.3-2.3c-0.4-0.4-1-0.4-1.4,0s-0.4,1,0,1.4l4,4c0.1,0.1,0.2,0.2,0.3,0.2
	C15.7,16,15.9,16,16,16s0.3,0,0.4-0.1c0.1-0.1,0.2-0.1,0.3-0.2l4-4c0.4-0.4,0.4-1,0-1.4s-1-0.4-1.4,0L17,12.6V2C17,1.4,16.6,1,16,1z
	"/>
<path d="M31.9,21.6C31.9,21.6,31.9,21.5,31.9,21.6l-6-11.1C25.7,10.2,25.4,10,25,10h-1c-0.6,0-1,0.4-1,1s0.4,1,1,1h0.4l4.9,9H2.7
	l4.9-9H8c0.6,0,1-0.4,1-1s-0.4-1-1-1H7c-0.4,0-0.7,0.2-0.9,0.5l-6,11c0,0,0,0,0,0.1c0,0,0,0,0,0.1C0,21.8,0,21.9,0,22v8
	c0,0.6,0.4,1,1,1h30c0.6,0,1-0.4,1-1v-8C32,21.9,32,21.8,31.9,21.6C31.9,21.6,31.9,21.6,31.9,21.6z M26,27h-4c-0.6,0-1-0.4-1-1
	s0.4-1,1-1h4c0.6,0,1,0.4,1,1S26.6,27,26,27z"/>
</svg>
