<?xml version="1.0" encoding="utf-8"?>
<!-- Generator: Adobe Illustrator 18.1.1, SVG Export Plug-In . SVG Version: 6.00 Build 0)  -->
<!DOCTYPE svg PUBLIC "-//W3C//DTD SVG 1.1//EN" "http://www.w3.org/Graphics/SVG/1.1/DTD/svg11.dtd">
<svg version="1.1" id="Layer_1" xmlns="http://www.w3.org/2000/svg" xmlns:xlink="http://www.w3.org/1999/xlink" x="0px" y="0px"
	 width="32px" height="32px" viewBox="0 0 32 32" enable-background="new 0 0 32 32" xml:space="preserve">
<path d="M25,11c-2.3,0-5.9,2.6-9.8,5.3C12.2,18.4,8.4,21,7,21c-2.3,0-4-1.7-4-4c0-2.2,1.8-4,4-4c1.3,0,3,0.9,4.3,1.8L8.1,16
	c-0.5,0.2-0.8,0.8-0.6,1.3c0.1,0.4,0.5,0.7,0.9,0.7c0.1,0,0.2,0,0.3-0.1l5.1-1.9c0.5-0.2,0.8-0.8,0.6-1.3l-1.9-5.1
	c-0.2-0.5-0.8-0.8-1.3-0.6c-0.5,0.2-0.8,0.8-0.6,1.3l0.8,2.2C10,11.7,8.5,11,7,11c-3.4,0-6,2.6-6,6c0,3.4,2.6,6,6,6
	c2.1,0,5.4-2.3,9.3-5.1c3.1-2.2,7.1-4.9,8.7-4.9c2.2,0,4,1.8,4,4c0,2.3-1.7,4-4,4c-1.7,0-3.9-1.4-5.9-2.9c-0.4-0.3-1.1-0.2-1.4,0.2
	s-0.2,1.1,0.2,1.4c2.3,1.7,4.8,3.2,7,3.2c3.4,0,6-2.6,6-6C31,13.6,28.4,11,25,11z"/>
</svg>
