<?xml version="1.0" encoding="utf-8"?>
<!-- Generator: Adobe Illustrator 18.1.1, SVG Export Plug-In . SVG Version: 6.00 Build 0)  -->
<!DOCTYPE svg PUBLIC "-//W3C//DTD SVG 1.1//EN" "http://www.w3.org/Graphics/SVG/1.1/DTD/svg11.dtd">
<svg version="1.1" id="Layer_1" xmlns="http://www.w3.org/2000/svg" xmlns:xlink="http://www.w3.org/1999/xlink" x="0px" y="0px"
	 width="32px" height="32px" viewBox="0 0 32 32" enable-background="new 0 0 32 32" xml:space="preserve">
<path d="M31,15V7c0-0.4-0.2-0.7-0.5-0.9c-0.3-0.2-0.7-0.1-1,0.1L16,15.8L2.6,6.2C2.3,6,1.9,5.9,1.5,6.1C1.2,6.3,1,6.6,1,7v8
	c0,0.3,0.2,0.6,0.4,0.8l14,10c0.2,0.1,0.4,0.2,0.6,0.2s0.4-0.1,0.6-0.2l14-10C30.8,15.6,31,15.3,31,15z"/>
</svg>
