<?xml version="1.0" encoding="utf-8"?>
<!-- Generator: Adobe Illustrator 18.1.1, SVG Export Plug-In . SVG Version: 6.00 Build 0)  -->
<!DOCTYPE svg PUBLIC "-//W3C//DTD SVG 1.1//EN" "http://www.w3.org/Graphics/SVG/1.1/DTD/svg11.dtd">
<svg version="1.1" id="Layer_1" xmlns="http://www.w3.org/2000/svg" xmlns:xlink="http://www.w3.org/1999/xlink" x="0px" y="0px"
	 width="32px" height="32px" viewBox="0 0 32 32" enable-background="new 0 0 32 32" xml:space="preserve">
<path d="M22,30c0.2,0,0.3,0,0.4-0.1c0.3-0.2,0.6-0.5,0.6-0.9V3c0-0.4-0.2-0.7-0.6-0.9c-0.3-0.2-0.7-0.1-1.1,0.1l-17,13
	C4.1,15.4,4,15.7,4,16s0.1,0.6,0.4,0.8l17,13C21.6,29.9,21.8,30,22,30z"/>
<path d="M28,28V3.6c0-0.6-0.4-1-1-1s-1,0.4-1,1V28c0,0.6,0.4,1,1,1S28,28.6,28,28z"/>
</svg>
