<?xml version="1.0" encoding="utf-8"?>
<!-- Generator: Adobe Illustrator 18.1.1, SVG Export Plug-In . SVG Version: 6.00 Build 0)  -->
<!DOCTYPE svg PUBLIC "-//W3C//DTD SVG 1.1//EN" "http://www.w3.org/Graphics/SVG/1.1/DTD/svg11.dtd">
<svg version="1.1" id="Layer_1" xmlns="http://www.w3.org/2000/svg" xmlns:xlink="http://www.w3.org/1999/xlink" x="0px" y="0px"
	 width="32px" height="32px" viewBox="0 0 32 32" enable-background="new 0 0 32 32" xml:space="preserve">
<path d="M31.9,20.6l-5-11C26.7,9.2,26.4,9,26,9h-2c-0.6,0-1,0.4-1,1s0.4,1,1,1h1.4l4.1,9H20c-0.6,0-1,0.4-1,1v2h-6v-2
	c0-0.6-0.4-1-1-1H2.6l4.1-9H8c0.6,0,1-0.4,1-1S8.6,9,8,9H6C5.6,9,5.3,9.2,5.1,9.6l-5,11c0,0,0,0,0,0C0,20.7,0,20.9,0,21v9
	c0,0.6,0.4,1,1,1h30c0.6,0,1-0.4,1-1v-9C32,20.9,32,20.7,31.9,20.6C31.9,20.6,31.9,20.6,31.9,20.6z"/>
<path d="M16,1c-0.6,0-1,0.4-1,1v10.6l-2.3-2.3c-0.4-0.4-1-0.4-1.4,0s-0.4,1,0,1.4l4,4c0.1,0.1,0.2,0.2,0.3,0.2
	C15.7,16,15.9,16,16,16s0.3,0,0.4-0.1c0.1-0.1,0.2-0.1,0.3-0.2l4-4c0.4-0.4,0.4-1,0-1.4s-1-0.4-1.4,0L17,12.6V2C17,1.4,16.6,1,16,1z
	"/>
</svg>
