<?xml version="1.0" encoding="utf-8"?>
<!-- Generator: Adobe Illustrator 18.1.1, SVG Export Plug-In . SVG Version: 6.00 Build 0)  -->
<!DOCTYPE svg PUBLIC "-//W3C//DTD SVG 1.1//EN" "http://www.w3.org/Graphics/SVG/1.1/DTD/svg11.dtd">
<svg version="1.1" id="Layer_1" xmlns="http://www.w3.org/2000/svg" xmlns:xlink="http://www.w3.org/1999/xlink" x="0px" y="0px"
	 width="32px" height="32px" viewBox="0 0 32 32" enable-background="new 0 0 32 32" xml:space="preserve">
<path d="M2,17h16v7c0,0.4,0.2,0.7,0.5,0.9C18.7,25,18.8,25,19,25c0.2,0,0.4-0.1,0.6-0.2l11-8c0.3-0.2,0.4-0.5,0.4-0.8
	s-0.2-0.6-0.4-0.8l-11-8c-0.3-0.2-0.7-0.3-1-0.1C18.2,7.3,18,7.6,18,8v7H2c-0.6,0-1,0.4-1,1S1.4,17,2,17z"/>
</svg>
