<?xml version="1.0" encoding="utf-8"?>
<!-- Generator: Adobe Illustrator 18.1.1, SVG Export Plug-In . SVG Version: 6.00 Build 0)  -->
<!DOCTYPE svg PUBLIC "-//W3C//DTD SVG 1.1//EN" "http://www.w3.org/Graphics/SVG/1.1/DTD/svg11.dtd">
<svg version="1.1" id="Layer_1" xmlns="http://www.w3.org/2000/svg" xmlns:xlink="http://www.w3.org/1999/xlink" x="0px" y="0px"
	 width="32px" height="32px" viewBox="0 0 32 32" enable-background="new 0 0 32 32" xml:space="preserve">
<path d="M17,29v-8c0-0.6-0.4-1-1-1s-1,0.4-1,1v8c0,0.6,0.4,1,1,1S17,29.6,17,29z"/>
<path d="M30,15H17V3c0-0.6-0.4-1-1-1s-1,0.4-1,1v12H4.4l5.3-5.3c0.4-0.4,0.4-1,0-1.4s-1-0.4-1.4,0l-7,7c-0.1,0.1-0.2,0.2-0.2,0.3
	c-0.1,0.2-0.1,0.5,0,0.8c0.1,0.1,0.1,0.2,0.2,0.3l7,7C8.5,23.9,8.7,24,9,24s0.5-0.1,0.7-0.3c0.4-0.4,0.4-1,0-1.4L4.4,17H30
	c0.6,0,1-0.4,1-1S30.6,15,30,15z"/>
</svg>
