<?xml version="1.0" encoding="utf-8"?>
<!-- Generator: Adobe Illustrator 18.1.1, SVG Export Plug-In . SVG Version: 6.00 Build 0)  -->
<!DOCTYPE svg PUBLIC "-//W3C//DTD SVG 1.1//EN" "http://www.w3.org/Graphics/SVG/1.1/DTD/svg11.dtd">
<svg version="1.1" id="Layer_1" xmlns="http://www.w3.org/2000/svg" xmlns:xlink="http://www.w3.org/1999/xlink" x="0px" y="0px"
	 width="32px" height="32px" viewBox="0 0 32 32" enable-background="new 0 0 32 32" xml:space="preserve">
<path d="M23,16c0.3,0,0.5-0.1,0.7-0.3c0.4-0.4,0.4-1,0-1.4l-7-7c-0.1-0.1-0.2-0.2-0.3-0.2c-0.2-0.1-0.5-0.1-0.8,0
	c-0.1,0.1-0.2,0.1-0.3,0.2l-7,7c-0.4,0.4-0.4,1,0,1.4s1,0.4,1.4,0l5.3-5.3V24c0,0.6,0.4,1,1,1s1-0.4,1-1V10.4l5.3,5.3
	C22.5,15.9,22.7,16,23,16z"/>
<path d="M19,2c0.6,0,1-0.4,1-1s-0.4-1-1-1h-6c-0.6,0-1,0.4-1,1s0.4,1,1,1H19z"/>
<path d="M1,20c0.6,0,1-0.4,1-1v-6c0-0.6-0.4-1-1-1s-1,0.4-1,1v6C0,19.6,0.4,20,1,20z"/>
<path d="M31,12c-0.6,0-1,0.4-1,1v6c0,0.6,0.4,1,1,1s1-0.4,1-1v-6C32,12.4,31.6,12,31,12z"/>
<path d="M1,6c0.6,0,1-0.4,1-1V2h3c0.6,0,1-0.4,1-1S5.6,0,5,0H1C0.4,0,0,0.4,0,1v4C0,5.6,0.4,6,1,6z"/>
<path d="M31,0h-4c-0.6,0-1,0.4-1,1s0.4,1,1,1h3v3c0,0.6,0.4,1,1,1s1-0.4,1-1V1C32,0.4,31.6,0,31,0z"/>
<path d="M13,30c-0.6,0-1,0.4-1,1s0.4,1,1,1h6c0.6,0,1-0.4,1-1s-0.4-1-1-1H13z"/>
<path d="M5,32c0.6,0,1-0.4,1-1s-0.4-1-1-1H2v-3c0-0.6-0.4-1-1-1s-1,0.4-1,1v4c0,0.6,0.4,1,1,1H5z"/>
<path d="M31,26c-0.6,0-1,0.4-1,1v3h-3c-0.6,0-1,0.4-1,1s0.4,1,1,1h4c0.6,0,1-0.4,1-1v-4C32,26.4,31.6,26,31,26z"/>
</svg>
