<?xml version="1.0" encoding="utf-8"?>
<!-- Generator: Adobe Illustrator 18.1.1, SVG Export Plug-In . SVG Version: 6.00 Build 0)  -->
<!DOCTYPE svg PUBLIC "-//W3C//DTD SVG 1.1//EN" "http://www.w3.org/Graphics/SVG/1.1/DTD/svg11.dtd">
<svg version="1.1" id="Layer_1" xmlns="http://www.w3.org/2000/svg" xmlns:xlink="http://www.w3.org/1999/xlink" x="0px" y="0px"
	 width="32px" height="32px" viewBox="0 0 32 32" enable-background="new 0 0 32 32" xml:space="preserve">
<path d="M2,13c0,0.6,0.4,1,1,1s1-0.4,1-1V5.4l8.3,8.3c0.2,0.2,0.5,0.3,0.7,0.3s0.5-0.1,0.7-0.3c0.4-0.4,0.4-1,0-1.4L5.4,4H13
	c0.6,0,1-0.4,1-1s-0.4-1-1-1H3C2.9,2,2.7,2,2.6,2.1C2.4,2.2,2.2,2.4,2.1,2.6C2,2.7,2,2.9,2,3V13z"/>
<path d="M29,18c-0.6,0-1,0.4-1,1v7.6l-8.3-8.3c-0.4-0.4-1-0.4-1.4,0s-0.4,1,0,1.4l8.3,8.3H19c-0.6,0-1,0.4-1,1s0.4,1,1,1h10
	c0.1,0,0.3,0,0.4-0.1c0.2-0.1,0.4-0.3,0.5-0.5C30,29.3,30,29.1,30,29V19C30,18.4,29.6,18,29,18z"/>
</svg>
