<?xml version="1.0" encoding="utf-8"?>
<!-- Generator: Adobe Illustrator 19.1.0, SVG Export Plug-In . SVG Version: 6.00 Build 0)  -->
<!DOCTYPE svg PUBLIC "-//W3C//DTD SVG 1.1//EN" "http://www.w3.org/Graphics/SVG/1.1/DTD/svg11.dtd">
<svg version="1.1" id="Layer_1" xmlns="http://www.w3.org/2000/svg" xmlns:xlink="http://www.w3.org/1999/xlink" x="0px" y="0px"
	 width="24px" height="24px" viewBox="0 0 24 24" enable-background="new 0 0 24 24" xml:space="preserve">
<path id="color_59_" d="M24,8V6c0-1.7-1.3-3-3-3H3C1.3,3,0,4.3,0,6v2H24z"/>
<path d="M0,11v7c0,1.7,1.3,3,3,3h18c1.7,0,3-1.3,3-3v-7H0z M11,17H4v-2h7V17z M20,17h-4v-2h4V17z"/>
</svg>
