<?xml version="1.0" encoding="utf-8"?>
<!-- Generator: Adobe Illustrator 19.1.0, SVG Export Plug-In . SVG Version: 6.00 Build 0)  -->
<!DOCTYPE svg PUBLIC "-//W3C//DTD SVG 1.1//EN" "http://www.w3.org/Graphics/SVG/1.1/DTD/svg11.dtd">
<svg version="1.1" id="Layer_1" xmlns="http://www.w3.org/2000/svg" xmlns:xlink="http://www.w3.org/1999/xlink" x="0px" y="0px"
	 width="24px" height="24px" viewBox="0 0 24 24" enable-background="new 0 0 24 24" xml:space="preserve">
<path d="M22.6,9.4c-0.4-0.4-1-0.4-1.4,0l-5.8,5.8c-1.2-0.7-2.8-0.7-4,0L4.2,8c-0.4-0.4-1-0.4-1.4,0L1.4,9.4c-0.4,0.4-0.4,1,0,1.4
	s1,0.4,1.4,0l0.7-0.7l6.5,6.5c-0.4,0.6-0.6,1.3-0.6,2c0,1.1,0.4,2.1,1.2,2.8c0.8,0.8,1.8,1.2,2.8,1.2s2.1-0.4,2.8-1.2
	s1.2-1.8,1.2-2.8c0-0.7-0.2-1.4-0.6-2l5.8-5.8C23,10.5,23,9.8,22.6,9.4z M14.8,20c-0.8,0.8-2.1,0.8-2.8,0c-0.4-0.4-0.6-0.9-0.6-1.4
	s0.2-1,0.6-1.4s0.9-0.6,1.4-0.6s1,0.2,1.4,0.6c0.4,0.4,0.6,0.9,0.6,1.4S15.2,19.7,14.8,20z"/>
<path id="color_24_" d="M12.7,13.7c0.2,0.2,0.5,0.3,0.7,0.3s0.5-0.1,0.7-0.3L19.8,8c0.2-0.2,0.3-0.4,0.3-0.7S20,6.8,19.8,6.6l-5-5
	c-0.4-0.4-1-0.4-1.4,0L7.8,7.3C7.6,7.5,7.5,7.8,7.5,8s0.1,0.5,0.3,0.7L12.7,13.7z"/>
</svg>
