<?xml version="1.0" encoding="utf-8"?>
<!-- Generator: Adobe Illustrator 19.1.0, SVG Export Plug-In . SVG Version: 6.00 Build 0)  -->
<!DOCTYPE svg PUBLIC "-//W3C//DTD SVG 1.1//EN" "http://www.w3.org/Graphics/SVG/1.1/DTD/svg11.dtd">
<svg version="1.1" id="Layer_1" xmlns="http://www.w3.org/2000/svg" xmlns:xlink="http://www.w3.org/1999/xlink" x="0px" y="0px"
	 width="24px" height="24px" viewBox="0 0 24 24" enable-background="new 0 0 24 24" xml:space="preserve">
<path id="color_50_" d="M23,7h-3.4l-3.7-6.5C15.6,0,15-0.1,14.5,0.1C14,0.4,13.9,1,14.1,1.5L17.3,7H6.7l3.1-5.5
	C10.1,1,10,0.4,9.5,0.1C9-0.1,8.4,0,8.1,0.5L4.4,7H1C0.4,7,0,7.4,0,8v2c0,0.6,0.4,1,1,1h22c0.6,0,1-0.4,1-1V8C24,7.4,23.6,7,23,7z"
	/>
<path id="color_30_" d="M23,18h-2v-2c0-0.6-0.4-1-1-1s-1,0.4-1,1v2h-2c-0.6,0-1,0.4-1,1s0.4,1,1,1h2v2c0,0.6,0.4,1,1,1s1-0.4,1-1v-2
	h2c0.6,0,1-0.4,1-1S23.6,18,23,18z"/>
<path d="M14,19c0-1.7,1.3-3,3-3v-3H3c-0.6,0-1,0.4-1,1v9c0,0.6,0.4,1,1,1h14c0,0,0-1.2,0-2C15.3,22,14,20.7,14,19z"/>
</svg>
