<?xml version="1.0" encoding="utf-8"?>
<!-- Generator: Adobe Illustrator 19.1.0, SVG Export Plug-In . SVG Version: 6.00 Build 0)  -->
<!DOCTYPE svg PUBLIC "-//W3C//DTD SVG 1.1//EN" "http://www.w3.org/Graphics/SVG/1.1/DTD/svg11.dtd">
<svg version="1.1" id="Layer_1" xmlns="http://www.w3.org/2000/svg" xmlns:xlink="http://www.w3.org/1999/xlink" x="0px" y="0px"
	 width="24px" height="24px" viewBox="0 0 24 24" enable-background="new 0 0 24 24" xml:space="preserve">
<path d="M24,4c0-2.2-1.8-4-4-4H4C1.8,0,0,1.8,0,4c0,1.9,1.3,3.4,3,3.9V21c0,1.7,1.3,3,3,3h2V3H4C3.4,3,3,3.4,3,4v1.7
	C2.4,5.4,2,4.7,2,4c0-1.1,0.9-2,2-2h16c1.1,0,2,0.9,2,2c0,0.7-0.4,1.4-1,1.7V4c0-0.6-0.4-1-1-1h-8v21h6c1.7,0,3-1.3,3-3V7.9
	C22.7,7.4,24,5.9,24,4z M17,20h-2v-5h2V20z"/>
</svg>
