<?xml version="1.0" encoding="utf-8"?>
<!-- Generator: Adobe Illustrator 19.1.0, SVG Export Plug-In . SVG Version: 6.00 Build 0)  -->
<!DOCTYPE svg PUBLIC "-//W3C//DTD SVG 1.1//EN" "http://www.w3.org/Graphics/SVG/1.1/DTD/svg11.dtd">
<svg version="1.1" id="Layer_1" xmlns="http://www.w3.org/2000/svg" xmlns:xlink="http://www.w3.org/1999/xlink" x="0px" y="0px"
	 width="24px" height="24px" viewBox="0 0 24 24" enable-background="new 0 0 24 24" xml:space="preserve">
<path d="M23,15H5V5h4c0.6,0,1-0.4,1-1S9.6,3,9,3H5V1c0-0.6-0.4-1-1-1H1C0.4,0,0,0.4,0,1s0.4,1,1,1h2v14c0,0.6,0.4,1,1,1h19
	c0.6,0,1-0.4,1-1S23.6,15,23,15z"/>
<circle id="color_44_" cx="6" cy="21" r="2"/>
<circle id="color_43_" cx="21" cy="21" r="2"/>
<path id="color_42_" d="M18,0c-3.3,0-6,2.7-6,6s2.7,6,6,6s6-2.7,6-6S21.3,0,18,0z M20,7h-4c-0.6,0-1-0.4-1-1s0.4-1,1-1h4
	c0.6,0,1,0.4,1,1S20.6,7,20,7z"/>
</svg>
