<?xml version="1.0" encoding="utf-8"?>
<!-- Generator: Adobe Illustrator 19.1.0, SVG Export Plug-In . SVG Version: 6.00 Build 0)  -->
<!DOCTYPE svg PUBLIC "-//W3C//DTD SVG 1.1//EN" "http://www.w3.org/Graphics/SVG/1.1/DTD/svg11.dtd">
<svg version="1.1" id="Layer_1" xmlns="http://www.w3.org/2000/svg" xmlns:xlink="http://www.w3.org/1999/xlink" x="0px" y="0px"
	 width="24px" height="24px" viewBox="0 0 24 24" enable-background="new 0 0 24 24" xml:space="preserve">
<rect x="15" y="0" width="5" height="10"/>
<rect x="4" y="0" width="5" height="10"/>
<path id="color_62_" d="M24,12H0v12h2V14h2v5h5v-5h2v5h2v-5h2v5h5v-5h2v10h2V12z"/>
<rect width="2" height="10"/>
<rect x="11" width="2" height="10"/>
<rect x="22" width="2" height="10"/>
</svg>
