<?xml version="1.0" encoding="utf-8"?>
<!-- Generator: Adobe Illustrator 19.1.0, SVG Export Plug-In . SVG Version: 6.00 Build 0)  -->
<!DOCTYPE svg PUBLIC "-//W3C//DTD SVG 1.1//EN" "http://www.w3.org/Graphics/SVG/1.1/DTD/svg11.dtd">
<svg version="1.1" id="Layer_1" xmlns="http://www.w3.org/2000/svg" xmlns:xlink="http://www.w3.org/1999/xlink" x="0px" y="0px"
	 width="48px" height="48px" viewBox="0 0 48 48" enable-background="new 0 0 48 48" xml:space="preserve">
<path id="color_47_" d="M24,3c-0.6,0-1,0.4-1,1v40c0,0.6,0.4,1,1,1s1-0.4,1-1V4C25,3.4,24.6,3,24,3z"/>
<path d="M33.3,33.3L24,42.6l-9.3-9.3c-0.4-0.4-1-0.4-1.4,0s-0.4,1,0,1.4l10,10c0.2,0.2,0.5,0.3,0.7,0.3s0.5-0.1,0.7-0.3l10-10
	c0.4-0.4,0.4-1,0-1.4S33.7,32.9,33.3,33.3z"/>
<path d="M34.7,13.3l-10-10c-0.4-0.4-1-0.4-1.4,0l-10,10c-0.4,0.4-0.4,1,0,1.4s1,0.4,1.4,0L24,5.4l9.3,9.3c0.2,0.2,0.5,0.3,0.7,0.3
	s0.5-0.1,0.7-0.3C35.1,14.3,35.1,13.7,34.7,13.3z"/>
</svg>
