<?xml version="1.0" encoding="utf-8"?>
<!-- Generator: Adobe Illustrator 19.1.0, SVG Export Plug-In . SVG Version: 6.00 Build 0)  -->
<!DOCTYPE svg PUBLIC "-//W3C//DTD SVG 1.1//EN" "http://www.w3.org/Graphics/SVG/1.1/DTD/svg11.dtd">
<svg version="1.1" id="Layer_1" xmlns="http://www.w3.org/2000/svg" xmlns:xlink="http://www.w3.org/1999/xlink" x="0px" y="0px"
	 width="48px" height="48px" viewBox="0 0 48 48" enable-background="new 0 0 48 48" xml:space="preserve">
<path d="M23.3,44.7c0.2,0.2,0.5,0.3,0.7,0.3s0.6-0.1,0.7-0.3l16-18c0.3-0.3,0.3-0.7,0.2-1.1S40.4,25,40,25h-9V10c0-3.9-3.1-7-7-7
	s-7,3.1-7,7v15H8c-0.4,0-0.8,0.2-0.9,0.6S7,26.4,7.3,26.7L23.3,44.7z"/>
</svg>
