<?xml version="1.0" encoding="utf-8"?>
<!-- Generator: Adobe Illustrator 19.1.0, SVG Export Plug-In . SVG Version: 6.00 Build 0)  -->
<!DOCTYPE svg PUBLIC "-//W3C//DTD SVG 1.1//EN" "http://www.w3.org/Graphics/SVG/1.1/DTD/svg11.dtd">
<svg version="1.1" id="Layer_1" xmlns="http://www.w3.org/2000/svg" xmlns:xlink="http://www.w3.org/1999/xlink" x="0px" y="0px"
	 width="48px" height="48px" viewBox="0 0 48 48" enable-background="new 0 0 48 48" xml:space="preserve">
<path id="color_72_" d="M43.3,13.3L26,32.5L14.7,21.3c-0.4-0.4-1-0.4-1.4,0l-10,10c-0.4,0.4-0.4,1,0,1.4s1,0.4,1.4,0l9.3-9.3
	l11.3,11.3c0.2,0.2,0.4,0.3,0.7,0.3c0,0,0,0,0,0c0.3,0,0.5-0.1,0.7-0.3l18-20c0.4-0.4,0.3-1-0.1-1.4C44.3,12.9,43.6,12.9,43.3,13.3z
	"/>
<path d="M44,29c0.6,0,1-0.4,1-1V14c0-0.6-0.4-1-1-1H30c-0.6,0-1,0.4-1,1s0.4,1,1,1h13v13C43,28.6,43.4,29,44,29z"/>
</svg>
