<?xml version="1.0" encoding="utf-8"?>
<!-- Generator: Adobe Illustrator 19.1.0, SVG Export Plug-In . SVG Version: 6.00 Build 0)  -->
<!DOCTYPE svg PUBLIC "-//W3C//DTD SVG 1.1//EN" "http://www.w3.org/Graphics/SVG/1.1/DTD/svg11.dtd">
<svg version="1.1" id="Layer_1" xmlns="http://www.w3.org/2000/svg" xmlns:xlink="http://www.w3.org/1999/xlink" x="0px" y="0px"
	 width="48px" height="48px" viewBox="0 0 48 48" enable-background="new 0 0 48 48" xml:space="preserve">
<path d="M38.9,22c-1-7.9-7.8-14-15.9-14C14.7,8,7.8,14.3,7.1,22.5C3.5,23.7,1,27.1,1,31c0,5,4,9,9,9h28c5,0,9-4,9-9
	C47,26.3,43.4,22.5,38.9,22z M15.5,25.8c0-4.7,3.8-8.5,8.5-8.5c2.2,0,4.3,0.9,5.9,2.4L30,18c0-0.6,0.5-1,1-1c0.6,0,1,0.5,1,1
	l-0.2,4.5c0,0.1,0,0.1,0,0.2c0,0,0,0.1,0,0.1c0,0.1-0.1,0.2-0.1,0.2c0,0,0,0.1-0.1,0.1c0,0,0,0.1-0.1,0.1c-0.1,0.1-0.1,0.1-0.2,0.1
	c0,0,0,0,0,0c0,0,0,0,0,0c-0.1,0.1-0.2,0.1-0.4,0.1c0,0,0,0,0,0c0,0,0,0,0,0c0,0,0,0,0,0l-4.5-0.2c-0.6,0-1-0.5-1-1c0-0.6,0.5-1,1-1
	l2.5,0.1c-1.2-1.3-2.9-2.1-4.8-2.1c-3.6,0-6.5,2.9-6.5,6.5c0,0.6-0.4,1-1,1C16,26.8,15.5,26.3,15.5,25.8z M24,34.5
	c-2.2,0-4.2-0.8-5.8-2.3l0,1.5c0,0.6-0.5,1-1,1c0,0,0,0,0,0c-0.6,0-1-0.5-1-1l0-4.5c0-0.1,0-0.1,0-0.2c0-0.1,0-0.1,0-0.1
	c0-0.1,0.1-0.1,0.1-0.2c0,0,0-0.1,0.1-0.1c0.1-0.1,0.1-0.1,0.2-0.2c0,0,0,0,0.1-0.1c0,0,0,0,0,0c0.1,0,0.2-0.1,0.3-0.1
	c0,0,0.1,0,0.1,0c0,0,0,0,0,0c0,0,0,0,0,0l4.5,0c0.6,0,1,0.5,1,1c0,0.6-0.5,1-1,1c0,0,0,0,0,0l-2.6,0c1.2,1.4,3,2.2,4.9,2.2
	c3.6,0,6.5-2.9,6.5-6.5c0-0.6,0.4-1,1-1c0.6,0,1,0.4,1,1C32.5,30.7,28.7,34.5,24,34.5z"/>
</svg>
