<?xml version="1.0" encoding="utf-8"?>
<!-- Generator: Adobe Illustrator 19.1.0, SVG Export Plug-In . SVG Version: 6.00 Build 0)  -->
<!DOCTYPE svg PUBLIC "-//W3C//DTD SVG 1.1//EN" "http://www.w3.org/Graphics/SVG/1.1/DTD/svg11.dtd">
<svg version="1.1" id="Layer_1" xmlns="http://www.w3.org/2000/svg" xmlns:xlink="http://www.w3.org/1999/xlink" x="0px" y="0px"
	 width="48px" height="48px" viewBox="0 0 48 48" enable-background="new 0 0 48 48" xml:space="preserve">
<path d="M31.3,16.7c0.2,0.2,0.5,0.3,0.7,0.3s0.5-0.1,0.7-0.3c0.4-0.4,0.4-1,0-1.4l-8-8c-0.1-0.1-0.2-0.2-0.3-0.2
	c-0.2-0.1-0.5-0.1-0.8,0c-0.1,0.1-0.2,0.1-0.3,0.2l-8,8c-0.4,0.4-0.4,1,0,1.4s1,0.4,1.4,0l6.3-6.3v27.2l-6.3-6.3
	c-0.4-0.4-1-0.4-1.4,0s-0.4,1,0,1.4l8,8c0.1,0.1,0.2,0.2,0.3,0.2C23.7,41,23.9,41,24,41s0.3,0,0.4-0.1c0.1-0.1,0.2-0.1,0.3-0.2l8-8
	c0.4-0.4,0.4-1,0-1.4s-1-0.4-1.4,0L25,37.6V10.4L31.3,16.7z"/>
<path id="color_24_" d="M10,3h28c0.6,0,1-0.4,1-1s-0.4-1-1-1H10C9.4,1,9,1.4,9,2S9.4,3,10,3z"/>
<path id="color_23_" d="M10,47h28c0.6,0,1-0.4,1-1s-0.4-1-1-1H10c-0.6,0-1,0.4-1,1S9.4,47,10,47z"/>
</svg>
