<?xml version="1.0" encoding="utf-8"?>
<!-- Generator: Adobe Illustrator 19.1.0, SVG Export Plug-In . SVG Version: 6.00 Build 0)  -->
<!DOCTYPE svg PUBLIC "-//W3C//DTD SVG 1.1//EN" "http://www.w3.org/Graphics/SVG/1.1/DTD/svg11.dtd">
<svg version="1.1" id="Layer_1" xmlns="http://www.w3.org/2000/svg" xmlns:xlink="http://www.w3.org/1999/xlink" x="0px" y="0px"
	 width="48px" height="48px" viewBox="0 0 48 48" enable-background="new 0 0 48 48" xml:space="preserve">
<path d="M43,8c0-0.6-0.4-1-1-1H6C5.4,7,5,7.4,5,8s0.4,1,1,1h36C42.6,9,43,8.6,43,8z"/>
<path d="M5.1,40.4C5.3,40.8,5.6,41,6,41h36c0,0,0,0,0,0c0.6,0,1-0.4,1-1c0-0.3-0.1-0.6-0.3-0.7L24.8,15.4c-0.4-0.5-1.2-0.5-1.6,0
	l-18,24C5,39.7,4.9,40.1,5.1,40.4z"/>
</svg>
