<?xml version="1.0" encoding="utf-8"?>
<!-- Generator: Adobe Illustrator 19.1.0, SVG Export Plug-In . SVG Version: 6.00 Build 0)  -->
<!DOCTYPE svg PUBLIC "-//W3C//DTD SVG 1.1//EN" "http://www.w3.org/Graphics/SVG/1.1/DTD/svg11.dtd">
<svg version="1.1" id="Layer_1" xmlns="http://www.w3.org/2000/svg" xmlns:xlink="http://www.w3.org/1999/xlink" x="0px" y="0px"
	 width="48px" height="48px" viewBox="0 0 48 48" enable-background="new 0 0 48 48" xml:space="preserve">
<path d="M17,12v24c0,0.6,0.4,1,1,1s1-0.4,1-1V13h21c0.6,0,1-0.4,1-1s-0.4-1-1-1H18C17.4,11,17,11.4,17,12z"/>
<path d="M17.3,36.7c0.2,0.2,0.5,0.3,0.7,0.3s0.5-0.1,0.7-0.3l10-10c0.4-0.4,0.4-1,0-1.4s-1-0.4-1.4,0L18,34.6l-9.3-9.3
	c-0.4-0.4-1-0.4-1.4,0s-0.4,1,0,1.4L17.3,36.7z"/>
</svg>
