<?xml version="1.0" encoding="utf-8"?>
<!-- Generator: Adobe Illustrator 19.1.0, SVG Export Plug-In . SVG Version: 6.00 Build 0)  -->
<!DOCTYPE svg PUBLIC "-//W3C//DTD SVG 1.1//EN" "http://www.w3.org/Graphics/SVG/1.1/DTD/svg11.dtd">
<svg version="1.1" id="Layer_1" xmlns="http://www.w3.org/2000/svg" xmlns:xlink="http://www.w3.org/1999/xlink" x="0px" y="0px"
	 width="48px" height="48px" viewBox="0 0 48 48" enable-background="new 0 0 48 48" xml:space="preserve">
<path d="M24,1C11.3,1,1,11.3,1,24s10.3,23,23,23s23-10.3,23-23S36.7,1,24,1z M32.7,26.7l-8,8c-0.1,0.1-0.2,0.2-0.3,0.2
	C24.3,35,24.1,35,24,35s-0.3,0-0.4-0.1c-0.1-0.1-0.2-0.1-0.3-0.2l-8-8c-0.4-0.4-0.4-1,0-1.4s1-0.4,1.4,0l6.3,6.3V12c0-0.6,0.4-1,1-1
	s1,0.4,1,1v19.6l6.3-6.3c0.4-0.4,1-0.4,1.4,0S33.1,26.3,32.7,26.7z"/>
</svg>
