<?xml version="1.0" encoding="utf-8"?>
<!-- Generator: Adobe Illustrator 19.1.0, SVG Export Plug-In . SVG Version: 6.00 Build 0)  -->
<!DOCTYPE svg PUBLIC "-//W3C//DTD SVG 1.1//EN" "http://www.w3.org/Graphics/SVG/1.1/DTD/svg11.dtd">
<svg version="1.1" id="Layer_1" xmlns="http://www.w3.org/2000/svg" xmlns:xlink="http://www.w3.org/1999/xlink" x="0px" y="0px"
	 width="48px" height="48px" viewBox="0 0 48 48" enable-background="new 0 0 48 48" xml:space="preserve">
<path id="color_66_" d="M18.7,29.3c-0.4-0.4-1-0.4-1.4,0l-9,9c-0.4,0.4-0.4,1,0,1.4C8.5,39.9,8.7,40,9,40s0.5-0.1,0.7-0.3l9-9
	C19.1,30.3,19.1,29.7,18.7,29.3z"/>
<path id="color_65_" d="M38.3,8.3l-9,9c-0.4,0.4-0.4,1,0,1.4c0.2,0.2,0.5,0.3,0.7,0.3s0.5-0.1,0.7-0.3l9-9c0.4-0.4,0.4-1,0-1.4
	S38.7,7.9,38.3,8.3z"/>
<path id="color_64_" d="M30.7,29.3c-0.4-0.4-1-0.4-1.4,0s-0.4,1,0,1.4l9,9c0.2,0.2,0.5,0.3,0.7,0.3s0.5-0.1,0.7-0.3
	c0.4-0.4,0.4-1,0-1.4L30.7,29.3z"/>
<path id="color_63_" d="M8.3,8.3c-0.4,0.4-0.4,1,0,1.4l9,9c0.2,0.2,0.5,0.3,0.7,0.3s0.5-0.1,0.7-0.3c0.4-0.4,0.4-1,0-1.4l-9-9
	C9.3,7.9,8.7,7.9,8.3,8.3z"/>
<path d="M46,1H32c-0.4,0-0.8,0.2-0.9,0.6C30.9,2,31,2.4,31.3,2.7l14,14c0.2,0.2,0.4,0.3,0.7,0.3c0.1,0,0.3,0,0.4-0.1
	c0.4-0.2,0.6-0.5,0.6-0.9V2C47,1.4,46.6,1,46,1z"/>
<path d="M2,47h14c0,0,0,0,0,0c0.6,0,1-0.4,1-1c0-0.3-0.2-0.6-0.4-0.8L2.7,31.3C2.4,31,2,30.9,1.6,31.1C1.2,31.2,1,31.6,1,32v14
	C1,46.6,1.4,47,2,47z"/>
<path d="M1.6,16.9C1.7,17,1.9,17,2,17c0.3,0,0.5-0.1,0.7-0.3l14-14C17,2.4,17.1,2,16.9,1.6C16.8,1.2,16.4,1,16,1H2C1.4,1,1,1.4,1,2
	v14C1,16.4,1.2,16.8,1.6,16.9z"/>
<path d="M46.4,31.1c-0.4-0.2-0.8-0.1-1.1,0.2l-14,14c-0.3,0.3-0.4,0.7-0.2,1.1c0.2,0.4,0.5,0.6,0.9,0.6h14c0.6,0,1-0.4,1-1V32
	C47,31.6,46.8,31.2,46.4,31.1z"/>
</svg>
