<?xml version="1.0" encoding="utf-8"?>
<!-- Generator: Adobe Illustrator 19.1.0, SVG Export Plug-In . SVG Version: 6.00 Build 0)  -->
<!DOCTYPE svg PUBLIC "-//W3C//DTD SVG 1.1//EN" "http://www.w3.org/Graphics/SVG/1.1/DTD/svg11.dtd">
<svg version="1.1" id="Layer_1" xmlns="http://www.w3.org/2000/svg" xmlns:xlink="http://www.w3.org/1999/xlink" x="0px" y="0px"
	 width="48px" height="48px" viewBox="0 0 48 48" enable-background="new 0 0 48 48" xml:space="preserve">
<path d="M12,41c0.6,0,1-0.4,1-1V28c0-5,4-9,9-9h14c0.6,0,1-0.4,1-1s-0.4-1-1-1H22c-6.1,0-11,4.9-11,11v12C11,40.6,11.4,41,12,41z"/>
<path d="M25.3,28.7c0.2,0.2,0.5,0.3,0.7,0.3s0.5-0.1,0.7-0.3l10-10c0.4-0.4,0.4-1,0-1.4l-10-10c-0.4-0.4-1-0.4-1.4,0s-0.4,1,0,1.4
	l9.3,9.3l-9.3,9.3C24.9,27.7,24.9,28.3,25.3,28.7z"/>
</svg>
