<?xml version="1.0" encoding="utf-8"?>
<!-- Generator: Adobe Illustrator 19.1.0, SVG Export Plug-In . SVG Version: 6.00 Build 0)  -->
<!DOCTYPE svg PUBLIC "-//W3C//DTD SVG 1.1//EN" "http://www.w3.org/Graphics/SVG/1.1/DTD/svg11.dtd">
<svg version="1.1" id="Layer_1" xmlns="http://www.w3.org/2000/svg" xmlns:xlink="http://www.w3.org/1999/xlink" x="0px" y="0px"
	 width="48px" height="48px" viewBox="0 0 48 48" enable-background="new 0 0 48 48" xml:space="preserve">
<path d="M44,29H10.2l7.6-8.9c1.7-2,4.2-3.1,6.8-3.1H34c0.6,0,1-0.4,1-1s-0.4-1-1-1h-9.4c-3.2,0-6.3,1.4-8.4,3.8L7.5,29H2
	c-0.6,0-1,0.4-1,1s0.4,1,1,1h6h36c0.6,0,1-0.4,1-1S44.6,29,44,29z"/>
<path d="M37.3,36.7c0.2,0.2,0.5,0.3,0.7,0.3s0.5-0.1,0.7-0.3l6-6c0.4-0.4,0.4-1,0-1.4l-6-6c-0.4-0.4-1-0.4-1.4,0s-0.4,1,0,1.4
	l5.3,5.3l-5.3,5.3C36.9,35.7,36.9,36.3,37.3,36.7z"/>
<path d="M27.3,22.7c0.2,0.2,0.5,0.3,0.7,0.3s0.5-0.1,0.7-0.3l6-6c0.4-0.4,0.4-1,0-1.4l-6-6c-0.4-0.4-1-0.4-1.4,0s-0.4,1,0,1.4
	l5.3,5.3l-5.3,5.3C26.9,21.7,26.9,22.3,27.3,22.7z"/>
</svg>
