<?xml version="1.0" encoding="utf-8"?>
<!-- Generator: Adobe Illustrator 19.1.0, SVG Export Plug-In . SVG Version: 6.00 Build 0)  -->
<!DOCTYPE svg PUBLIC "-//W3C//DTD SVG 1.1//EN" "http://www.w3.org/Graphics/SVG/1.1/DTD/svg11.dtd">
<svg version="1.1" id="Layer_1" xmlns="http://www.w3.org/2000/svg" xmlns:xlink="http://www.w3.org/1999/xlink" x="0px" y="0px"
	 width="48px" height="48px" viewBox="0 0 48 48" enable-background="new 0 0 48 48" xml:space="preserve">
<path d="M24,19c-2.8,0-5,2.2-5,5s2.2,5,5,5s5-2.2,5-5S26.8,19,24,19z"/>
<path d="M24.8,3.4c-0.4-0.5-1.2-0.5-1.6,0l-6,8c-0.2,0.3-0.3,0.7-0.1,1S17.6,13,18,13h12c0.4,0,0.7-0.2,0.9-0.6s0.1-0.7-0.1-1
	L24.8,3.4z"/>
<path d="M36.6,17.2c-0.3-0.2-0.7-0.3-1-0.1C35.2,17.3,35,17.6,35,18v12c0,0.4,0.2,0.7,0.6,0.9C35.7,31,35.8,31,36,31
	c0.2,0,0.4-0.1,0.6-0.2l8-6c0.3-0.2,0.4-0.5,0.4-0.8s-0.1-0.6-0.4-0.8L36.6,17.2z"/>
<path d="M30,35H18c-0.4,0-0.7,0.2-0.9,0.6s-0.1,0.7,0.1,1l6,8c0.2,0.3,0.5,0.4,0.8,0.4s0.6-0.1,0.8-0.4l6-8c0.2-0.3,0.3-0.7,0.1-1
	S30.4,35,30,35z"/>
<path d="M12.4,17.1c-0.3-0.2-0.7-0.1-1,0.1l-8,6C3.1,23.4,3,23.7,3,24s0.1,0.6,0.4,0.8l8,6c0.2,0.1,0.4,0.2,0.6,0.2
	c0.2,0,0.3,0,0.4-0.1c0.3-0.2,0.6-0.5,0.6-0.9V18C13,17.6,12.8,17.3,12.4,17.1z"/>
</svg>
