<?xml version="1.0" encoding="utf-8"?>
<!-- Generator: Adobe Illustrator 19.1.0, SVG Export Plug-In . SVG Version: 6.00 Build 0)  -->
<!DOCTYPE svg PUBLIC "-//W3C//DTD SVG 1.1//EN" "http://www.w3.org/Graphics/SVG/1.1/DTD/svg11.dtd">
<svg version="1.1" id="Layer_1" xmlns="http://www.w3.org/2000/svg" xmlns:xlink="http://www.w3.org/1999/xlink" x="0px" y="0px"
	 width="48px" height="48px" viewBox="0 0 48 48" enable-background="new 0 0 48 48" xml:space="preserve">
<path d="M15,32c0,0.6,0.4,1,1,1h16c0.6,0,1-0.4,1-1V16c0-0.6-0.4-1-1-1H16c-0.6,0-1,0.4-1,1V32z"/>
<path id="color_13_" d="M2,15c0.6,0,1-0.4,1-1V3h11c0.6,0,1-0.4,1-1s-0.4-1-1-1H2C1.4,1,1,1.4,1,2v12C1,14.6,1.4,15,2,15z"/>
<path id="color_12_" d="M46,1H34c-0.6,0-1,0.4-1,1s0.4,1,1,1h11v11c0,0.6,0.4,1,1,1s1-0.4,1-1V2C47,1.4,46.6,1,46,1z"/>
<path id="color_11_" d="M46,33c-0.6,0-1,0.4-1,1v11H34c-0.6,0-1,0.4-1,1s0.4,1,1,1h12c0.6,0,1-0.4,1-1V34C47,33.4,46.6,33,46,33z"/>
<path id="color_10_" d="M2,47h12c0.6,0,1-0.4,1-1s-0.4-1-1-1H3V34c0-0.6-0.4-1-1-1s-1,0.4-1,1v12C1,46.6,1.4,47,2,47z"/>
</svg>
