<?xml version="1.0" encoding="utf-8"?>
<!-- Generator: Adobe Illustrator 19.1.0, SVG Export Plug-In . SVG Version: 6.00 Build 0)  -->
<!DOCTYPE svg PUBLIC "-//W3C//DTD SVG 1.1//EN" "http://www.w3.org/Graphics/SVG/1.1/DTD/svg11.dtd">
<svg version="1.1" id="Layer_1" xmlns="http://www.w3.org/2000/svg" xmlns:xlink="http://www.w3.org/1999/xlink" x="0px" y="0px"
	 width="48px" height="48px" viewBox="0 0 48 48" enable-background="new 0 0 48 48" xml:space="preserve">
<path d="M38,15c-3.3,0-8.7,4-14.5,8.1C18.4,26.8,12.7,31,10,31c-3.9,0-7-3.1-7-7s3.1-7,7-7c1.4,0,3.8,1.1,6.9,3l-6.1,1.8
	c-0.5,0.2-0.8,0.7-0.7,1.2c0.1,0.4,0.5,0.7,1,0.7c0.1,0,0.2,0,0.3,0l8.1-2.4c0.4-0.1,0.6-0.4,0.7-0.7c0,0,0-0.1,0-0.1c0,0,0,0,0-0.1
	c0-0.2,0-0.3-0.1-0.5l-2.3-8c-0.2-0.5-0.7-0.8-1.2-0.7c-0.5,0.2-0.8,0.7-0.7,1.2l1.6,5.5c-3.2-2-5.7-3-7.4-3c-5,0-9,4-9,9s4,9,9,9
	c3.3,0,8.8-4,14.7-8.2c5-3.6,10.7-7.8,13.3-7.8c3.9,0,7,3.1,7,7s-3.1,7-7,7c-1.6,0-4.5-1.4-8.1-3.8c-0.5-0.3-1.1-0.2-1.4,0.3
	s-0.2,1.1,0.3,1.4C32.9,31.6,36,33,38,33c5,0,9-4,9-9S43,15,38,15z"/>
</svg>
