<?xml version="1.0" encoding="utf-8"?>
<!-- Generator: Adobe Illustrator 19.1.0, SVG Export Plug-In . SVG Version: 6.00 Build 0)  -->
<!DOCTYPE svg PUBLIC "-//W3C//DTD SVG 1.1//EN" "http://www.w3.org/Graphics/SVG/1.1/DTD/svg11.dtd">
<svg version="1.1" id="Layer_1" xmlns="http://www.w3.org/2000/svg" xmlns:xlink="http://www.w3.org/1999/xlink" x="0px" y="0px"
	 width="48px" height="48px" viewBox="0 0 48 48" enable-background="new 0 0 48 48" xml:space="preserve">
<path d="M6,35h18c6.1,0,11-4.9,11-11V6c0-0.6-0.4-1-1-1s-1,0.4-1,1v18c0,5-4,9-9,9H6c-0.6,0-1,0.4-1,1S5.4,35,6,35z"/>
<path d="M26.7,14.7L34,7.4l7.3,7.3c0.2,0.2,0.5,0.3,0.7,0.3s0.5-0.1,0.7-0.3c0.4-0.4,0.4-1,0-1.4l-8-8c-0.4-0.4-1-0.4-1.4,0l-8,8
	c-0.4,0.4-0.4,1,0,1.4S26.3,15.1,26.7,14.7z"/>
<path d="M13.3,42.7c0.2,0.2,0.5,0.3,0.7,0.3s0.5-0.1,0.7-0.3c0.4-0.4,0.4-1,0-1.4L7.4,34l7.3-7.3c0.4-0.4,0.4-1,0-1.4s-1-0.4-1.4,0
	l-8,8c-0.4,0.4-0.4,1,0,1.4L13.3,42.7z"/>
</svg>
