<?xml version="1.0" encoding="utf-8"?>
<!-- Generator: Adobe Illustrator 19.1.0, SVG Export Plug-In . SVG Version: 6.00 Build 0)  -->
<!DOCTYPE svg PUBLIC "-//W3C//DTD SVG 1.1//EN" "http://www.w3.org/Graphics/SVG/1.1/DTD/svg11.dtd">
<svg version="1.1" id="Layer_1" xmlns="http://www.w3.org/2000/svg" xmlns:xlink="http://www.w3.org/1999/xlink" x="0px" y="0px"
	 width="48px" height="48px" viewBox="0 0 48 48" enable-background="new 0 0 48 48" xml:space="preserve">
<path d="M46,11h-8c-0.6,0-1,0.4-1,1s0.4,1,1,1h7v16H3V13h7c0.6,0,1-0.4,1-1s-0.4-1-1-1H2c-0.6,0-1,0.4-1,1v18v16c0,0.6,0.4,1,1,1h44
	c0.6,0,1-0.4,1-1V30V12C47,11.4,46.6,11,46,11z M28,39h-8c-0.6,0-1-0.4-1-1s0.4-1,1-1h8c0.6,0,1,0.4,1,1S28.6,39,28,39z"/>
<path d="M30,11c0.3,0,0.5-0.1,0.7-0.3c0.4-0.4,0.4-1,0-1.4l-6-6c-0.1-0.1-0.2-0.2-0.3-0.2c-0.2-0.1-0.5-0.1-0.8,0
	c-0.1,0.1-0.2,0.1-0.3,0.2l-6,6c-0.4,0.4-0.4,1,0,1.4s1,0.4,1.4,0L23,6.4V22c0,0.6,0.4,1,1,1s1-0.4,1-1V6.4l4.3,4.3
	C29.5,10.9,29.7,11,30,11z"/>
</svg>
