<?xml version="1.0" encoding="utf-8"?>
<!-- Generator: Adobe Illustrator 19.1.0, SVG Export Plug-In . SVG Version: 6.00 Build 0)  -->
<!DOCTYPE svg PUBLIC "-//W3C//DTD SVG 1.1//EN" "http://www.w3.org/Graphics/SVG/1.1/DTD/svg11.dtd">
<svg version="1.1" id="Layer_1" xmlns="http://www.w3.org/2000/svg" xmlns:xlink="http://www.w3.org/1999/xlink" x="0px" y="0px"
	 width="48px" height="48px" viewBox="0 0 48 48" enable-background="new 0 0 48 48" xml:space="preserve">
<path d="M35,1c-6.6,0-12,5.4-12,12v5c0,0.6,0.4,1,1,1s1-0.4,1-1v-5c0-5.5,4.5-10,10-10s10,4.5,10,10s-4.5,10-10,10H13
	C6.4,23,1,28.4,1,35s5.4,12,12,12s12-5.4,12-12v-5c0-0.6-0.4-1-1-1s-1,0.4-1,1v5c0,5.5-4.5,10-10,10S3,40.5,3,35s4.5-10,10-10h22
	c6.6,0,12-5.4,12-12S41.6,1,35,1z"/>
<path d="M29.3,11.3L24,16.6l-5.3-5.3c-0.4-0.4-1-0.4-1.4,0s-0.4,1,0,1.4l6,6c0.2,0.2,0.5,0.3,0.7,0.3s0.5-0.1,0.7-0.3l6-6
	c0.4-0.4,0.4-1,0-1.4S29.7,10.9,29.3,11.3z"/>
<path d="M24.7,29.3c-0.4-0.4-1-0.4-1.4,0l-6,6c-0.4,0.4-0.4,1,0,1.4s1,0.4,1.4,0l5.3-5.3l5.3,5.3c0.2,0.2,0.5,0.3,0.7,0.3
	s0.5-0.1,0.7-0.3c0.4-0.4,0.4-1,0-1.4L24.7,29.3z"/>
</svg>
