<?xml version="1.0" encoding="utf-8"?>
<!-- Generator: Adobe Illustrator 19.1.0, SVG Export Plug-In . SVG Version: 6.00 Build 0)  -->
<!DOCTYPE svg PUBLIC "-//W3C//DTD SVG 1.1//EN" "http://www.w3.org/Graphics/SVG/1.1/DTD/svg11.dtd">
<svg version="1.1" id="Layer_1" xmlns="http://www.w3.org/2000/svg" xmlns:xlink="http://www.w3.org/1999/xlink" x="0px" y="0px"
	 width="48px" height="48px" viewBox="0 0 48 48" enable-background="new 0 0 48 48" xml:space="preserve">
<path d="M2,33c-0.6,0-1,0.4-1,1s0.4,1,1,1h10c0.3,0,0.5-0.1,0.7-0.3l9.7-9.7H44c0.6,0,1-0.4,1-1s-0.4-1-1-1H22.4l-9.7-9.7
	C12.5,13.1,12.3,13,12,13H2c-0.6,0-1,0.4-1,1s0.4,1,1,1h9.6l9,9l-9,9H2z"/>
<path d="M35.3,32.7c0.2,0.2,0.5,0.3,0.7,0.3s0.5-0.1,0.7-0.3l8-8c0.4-0.4,0.4-1,0-1.4l-8-8c-0.4-0.4-1-0.4-1.4,0s-0.4,1,0,1.4
	l7.3,7.3l-7.3,7.3C34.9,31.7,34.9,32.3,35.3,32.7z"/>
</svg>
