<?xml version="1.0" encoding="utf-8"?>
<!-- Generator: Adobe Illustrator 19.1.0, SVG Export Plug-In . SVG Version: 6.00 Build 0)  -->
<!DOCTYPE svg PUBLIC "-//W3C//DTD SVG 1.1//EN" "http://www.w3.org/Graphics/SVG/1.1/DTD/svg11.dtd">
<svg version="1.1" id="Layer_1" xmlns="http://www.w3.org/2000/svg" xmlns:xlink="http://www.w3.org/1999/xlink" x="0px" y="0px"
	 width="48px" height="48px" viewBox="0 0 48 48" enable-background="new 0 0 48 48" xml:space="preserve">
<path d="M29.3,15.3L25,19.6V2c0-0.6-0.4-1-1-1s-1,0.4-1,1v17.6l-4.3-4.3c-0.4-0.4-1-0.4-1.4,0s-0.4,1,0,1.4l6,6
	c0.1,0.1,0.2,0.2,0.3,0.2C23.7,23,23.9,23,24,23s0.3,0,0.4-0.1c0.1-0.1,0.2-0.1,0.3-0.2l6-6c0.4-0.4,0.4-1,0-1.4
	S29.7,14.9,29.3,15.3z"/>
<path d="M40.9,11.7C40.8,11.3,40.4,11,40,11h-2c-0.6,0-1,0.4-1,1s0.4,1,1,1h1.3l5.3,16H32c-0.6,0-1,0.4-1,1v5H17v-5c0-0.6-0.4-1-1-1
	H3.4l5.3-16H10c0.6,0,1-0.4,1-1s-0.4-1-1-1H8c-0.4,0-0.8,0.3-0.9,0.7l-6,18C1,29.8,1,29.9,1,30v16c0,0.6,0.4,1,1,1h44
	c0.6,0,1-0.4,1-1V30c0-0.1,0-0.2-0.1-0.3L40.9,11.7z"/>
</svg>
