<?xml version="1.0" encoding="utf-8"?>
<!-- Generator: Adobe Illustrator 19.1.0, SVG Export Plug-In . SVG Version: 6.00 Build 0)  -->
<!DOCTYPE svg PUBLIC "-//W3C//DTD SVG 1.1//EN" "http://www.w3.org/Graphics/SVG/1.1/DTD/svg11.dtd">
<svg version="1.1" id="Layer_1" xmlns="http://www.w3.org/2000/svg" xmlns:xlink="http://www.w3.org/1999/xlink" x="0px" y="0px"
	 width="48px" height="48px" viewBox="0 0 48 48" enable-background="new 0 0 48 48" xml:space="preserve">
<path d="M14,39h-2c-0.6,0-1,0.4-1,1s0.4,1,1,1h2c0.6,0,1-0.4,1-1S14.6,39,14,39z"/>
<path d="M46,31h-1v-5c0-3.5-2.6-6.4-6-6.9V2c0-0.6-0.4-1-1-1H14c-0.6,0-1,0.4-1,1v7H6c-2.8,0-5,2.2-5,5v28c0,2.8,2.2,5,5,5h14
	c2.8,0,5-2.2,5-5V14c0-2.8-2.2-5-5-5h-5V3h22v16.1c-3.4,0.5-6,3.4-6,6.9v5h-1c-0.6,0-1,0.4-1,1s0.4,1,1,1h3v3c0,0.6,0.4,1,1,1
	s1-0.4,1-1v-3h6v3c0,0.6,0.4,1,1,1s1-0.4,1-1v-3h3c0.6,0,1-0.4,1-1S46.6,31,46,31z M23,33H3V19h20V33z M20,45H6c-1.7,0-3-1.3-3-3v-7
	h20v7C23,43.7,21.7,45,20,45z M23,14v3H3v-3c0-1.7,1.3-3,3-3h14C21.7,11,23,12.3,23,14z M33,26c0-2.8,2.2-5,5-5s5,2.2,5,5v5H33V26z"
	/>
</svg>
