<?xml version="1.0" encoding="utf-8"?>
<!-- Generator: Adobe Illustrator 19.1.0, SVG Export Plug-In . SVG Version: 6.00 Build 0)  -->
<!DOCTYPE svg PUBLIC "-//W3C//DTD SVG 1.1//EN" "http://www.w3.org/Graphics/SVG/1.1/DTD/svg11.dtd">
<svg version="1.1" id="Layer_1" xmlns="http://www.w3.org/2000/svg" xmlns:xlink="http://www.w3.org/1999/xlink" x="0px" y="0px"
	 width="48px" height="48px" viewBox="0 0 48 48" enable-background="new 0 0 48 48" xml:space="preserve">
<path d="M46,1H18c-0.6,0-1,0.4-1,1v3H2C1.4,5,1,5.4,1,6v28c0,0.6,0.4,1,1,1h15v6H6c-0.6,0-1,0.4-1,1s0.4,1,1,1h11v3c0,0.6,0.4,1,1,1
	h28c0.6,0,1-0.4,1-1V2C47,1.4,46.6,1,46,1z M17,27H9V13h8V27z M3,33V7h14v4H8c-0.6,0-1,0.4-1,1v16c0,0.6,0.4,1,1,1h9v4H3z M45,45H19
	V3h26V45z"/>
<path d="M28,13h8c0.6,0,1-0.4,1-1s-0.4-1-1-1h-8c-0.6,0-1,0.4-1,1S27.4,13,28,13z"/>
<path d="M28,21h8c0.6,0,1-0.4,1-1s-0.4-1-1-1h-8c-0.6,0-1,0.4-1,1S27.4,21,28,21z"/>
<path d="M32,37c2.8,0,5-2.2,5-5s-2.2-5-5-5s-5,2.2-5,5S29.2,37,32,37z M32,29c1.7,0,3,1.3,3,3s-1.3,3-3,3s-3-1.3-3-3S30.3,29,32,29z
	"/>
</svg>
