<?xml version="1.0" encoding="utf-8"?>
<!-- Generator: Adobe Illustrator 19.1.0, SVG Export Plug-In . SVG Version: 6.00 Build 0)  -->
<!DOCTYPE svg PUBLIC "-//W3C//DTD SVG 1.1//EN" "http://www.w3.org/Graphics/SVG/1.1/DTD/svg11.dtd">
<svg version="1.1" id="Layer_1" xmlns="http://www.w3.org/2000/svg" xmlns:xlink="http://www.w3.org/1999/xlink" x="0px" y="0px"
	 width="48px" height="48px" viewBox="0 0 48 48" enable-background="new 0 0 48 48" xml:space="preserve">
<path d="M24,7c-5,0-9,4-9,9s4,9,9,9s9-4,9-9S29,7,24,7z M24,23c-3.9,0-7-3.1-7-7s3.1-7,7-7s7,3.1,7,7S27.9,23,24,23z"/>
<path d="M24,13c-1.7,0-3,1.3-3,3s1.3,3,3,3s3-1.3,3-3S25.7,13,24,13z M24,17c-0.6,0-1-0.4-1-1s0.4-1,1-1s1,0.4,1,1S24.6,17,24,17z"
	/>
<path d="M9,46c0,0.6,0.4,1,1,1h28c0.6,0,1-0.4,1-1s-0.4-1-1-1h-3c0.1-6.1,1.2-11.8,2.3-16.8C38.2,23.8,39,19.7,39,16
	c0-8.4-6.6-15-15-15S9,7.6,9,16c0,3.7,0.8,7.8,1.7,12.2c1,5,2.1,10.7,2.3,16.8h-3C9.4,45,9,45.4,9,46z M12.7,27.8
	C11.8,23.5,11,19.5,11,16c0-7.3,5.7-13,13-13s13,5.7,13,13c0,3.5-0.8,7.5-1.7,11.8c-1,5.1-2.2,10.9-2.3,17.2H15
	C14.9,38.7,13.7,32.9,12.7,27.8z"/>
</svg>
