<?xml version="1.0" encoding="utf-8"?>
<!-- Generator: Adobe Illustrator 19.1.0, SVG Export Plug-In . SVG Version: 6.00 Build 0)  -->
<!DOCTYPE svg PUBLIC "-//W3C//DTD SVG 1.1//EN" "http://www.w3.org/Graphics/SVG/1.1/DTD/svg11.dtd">
<svg version="1.1" id="Layer_1" xmlns="http://www.w3.org/2000/svg" xmlns:xlink="http://www.w3.org/1999/xlink" x="0px" y="0px"
	 width="48px" height="48px" viewBox="0 0 48 48" enable-background="new 0 0 48 48" xml:space="preserve">
<path d="M3.5,44.9c0.7,1,1.8,1.5,3,1.2L24,43l17.5,3.2c0.2,0,0.4,0.1,0.6,0.1c1,0,1.9-0.5,2.5-1.3c0.7-1,0.7-2.2,0.1-3.3L38.7,32
	c2.7-3.3,4.3-7.4,4.3-12C43,9.5,34.5,1,24,1S5,9.5,5,20c0,4.5,1.6,8.7,4.3,12l-5.8,9.7C2.8,42.7,2.8,44,3.5,44.9z M24,3
	c9.4,0,17,7.6,17,17s-7.6,17-17,17S7,29.4,7,20S14.6,3,24,3z M5.1,42.7l5.5-9.2C14.1,36.9,18.8,39,24,39c5.2,0,9.9-2.1,13.3-5.5
	l5.5,9.2c0.3,0.5,0.1,1,0,1.1c-0.1,0.1-0.4,0.5-1,0.4L24.2,41c-0.1,0-0.2,0-0.4,0L6.2,44.2c-0.6,0.1-0.9-0.3-1-0.4
	C5.1,43.7,4.8,43.2,5.1,42.7z"/>
<path d="M24,33c6.1,0,11-4.9,11-11s-4.9-11-11-11s-11,4.9-11,11S17.9,33,24,33z M24,13c5,0,9,4,9,9s-4,9-9,9s-9-4-9-9S19,13,24,13z"
	/>
<path d="M24,25c1.7,0,3-1.3,3-3s-1.3-3-3-3s-3,1.3-3,3S22.3,25,24,25z M24,21c0.6,0,1,0.4,1,1s-0.4,1-1,1s-1-0.4-1-1S23.4,21,24,21z
	"/>
</svg>
