<?xml version="1.0" encoding="utf-8"?>
<!-- Generator: Adobe Illustrator 19.1.0, SVG Export Plug-In . SVG Version: 6.00 Build 0)  -->
<!DOCTYPE svg PUBLIC "-//W3C//DTD SVG 1.1//EN" "http://www.w3.org/Graphics/SVG/1.1/DTD/svg11.dtd">
<svg version="1.1" id="Layer_1" xmlns="http://www.w3.org/2000/svg" xmlns:xlink="http://www.w3.org/1999/xlink" x="0px" y="0px"
	 width="48px" height="48px" viewBox="0 0 48 48" enable-background="new 0 0 48 48" xml:space="preserve">
<path d="M46,33h-3V14c0-2.8-2.2-5-5-5H10c-2.8,0-5,2.2-5,5v19H2c-0.6,0-1,0.4-1,1v2c0,2.8,2.2,5,5,5h36c2.8,0,5-2.2,5-5v-2
	C47,33.4,46.6,33,46,33z M7,14c0-1.7,1.3-3,3-3h28c1.7,0,3,1.3,3,3v19H7V14z M45,36c0,1.7-1.3,3-3,3H6c-1.7,0-3-1.3-3-3v-1h42V36z"
	/>
<path d="M26,15h-4c-0.6,0-1,0.4-1,1s0.4,1,1,1h4c0.6,0,1-0.4,1-1S26.6,15,26,15z"/>
</svg>
