<?xml version="1.0" encoding="utf-8"?>
<!-- Generator: Adobe Illustrator 19.1.0, SVG Export Plug-In . SVG Version: 6.00 Build 0)  -->
<!DOCTYPE svg PUBLIC "-//W3C//DTD SVG 1.1//EN" "http://www.w3.org/Graphics/SVG/1.1/DTD/svg11.dtd">
<svg version="1.1" id="Layer_1" xmlns="http://www.w3.org/2000/svg" xmlns:xlink="http://www.w3.org/1999/xlink" x="0px" y="0px"
	 width="24px" height="24px" viewBox="0 0 24 24" enable-background="new 0 0 24 24" xml:space="preserve">
<path d="M4,21c0,1.7,1.3,3,3,3s3-1.3,3-3s-1.3-3-3-3S4,19.3,4,21z M8,21c0,0.6-0.4,1-1,1s-1-0.4-1-1s0.4-1,1-1S8,20.4,8,21z"/>
<path d="M16,21c0,1.7,1.3,3,3,3s3-1.3,3-3s-1.3-3-3-3S16,19.3,16,21z M20,21c0,0.6-0.4,1-1,1s-1-0.4-1-1s0.4-1,1-1S20,20.4,20,21z"
	/>
<path d="M4,0.8C3.9,0.3,3.5,0,3,0H1C0.4,0,0,0.4,0,1s0.4,1,1,1h1.2L5,16.2C5.1,16.7,5.5,17,6,17h14c0.5,0,0.9-0.4,1-0.8l2-12
	c0-0.3,0-0.6-0.2-0.8C22.6,3.1,22.3,3,22,3H9C8.4,3,8,3.4,8,4s0.4,1,1,1h11.8l-1.7,10H6.8L4,0.8z"/>
<path d="M13,7c-0.6,0-1,0.4-1,1v1h-1c-0.6,0-1,0.4-1,1s0.4,1,1,1h1v1c0,0.6,0.4,1,1,1s1-0.4,1-1v-1h1c0.6,0,1-0.4,1-1s-0.4-1-1-1h-1
	V8C14,7.4,13.6,7,13,7z"/>
</svg>
