<?xml version="1.0" encoding="utf-8"?>
<!-- Generator: Adobe Illustrator 19.1.0, SVG Export Plug-In . SVG Version: 6.00 Build 0)  -->
<!DOCTYPE svg PUBLIC "-//W3C//DTD SVG 1.1//EN" "http://www.w3.org/Graphics/SVG/1.1/DTD/svg11.dtd">
<svg version="1.1" id="Layer_1" xmlns="http://www.w3.org/2000/svg" xmlns:xlink="http://www.w3.org/1999/xlink" x="0px" y="0px"
	 width="24px" height="24px" viewBox="0 0 24 24" enable-background="new 0 0 24 24" xml:space="preserve">
<path d="M10,21c0-1.7-1.3-3-3-3s-3,1.3-3,3s1.3,3,3,3S10,22.7,10,21z M6,21c0-0.6,0.4-1,1-1s1,0.4,1,1s-0.4,1-1,1S6,21.6,6,21z"/>
<path d="M22,21c0-1.7-1.3-3-3-3s-3,1.3-3,3s1.3,3,3,3S22,22.7,22,21z M18,21c0-0.6,0.4-1,1-1s1,0.4,1,1s-0.4,1-1,1S18,21.6,18,21z"
	/>
<path d="M18,0c-2.6,0-4.8,1.7-5.6,4H4.8L4.4,1.8C4.4,1.3,3.9,1,3.5,1H1C0.4,1,0,1.4,0,2s0.4,1,1,1h1.6L3,5.2c0,0,0,0,0,0l2,11
	C5.1,16.7,5.5,17,6,17h14c0.5,0,0.9-0.3,1-0.8l1-5.7c1.2-1.1,2-2.7,2-4.4C24,2.7,21.3,0,18,0z M18,2c2.2,0,4,1.8,4,4s-1.8,4-4,4
	s-4-1.8-4-4S15.8,2,18,2z M19.2,15H6.8L5.2,6H12c0,3.3,2.7,6,6,6c0.6,0,1.2-0.1,1.8-0.3L19.2,15z"/>
<path d="M16,7h4c0.6,0,1-0.4,1-1s-0.4-1-1-1h-4c-0.6,0-1,0.4-1,1S15.4,7,16,7z"/>
</svg>
