<?xml version="1.0" encoding="utf-8"?>
<!-- Generator: Adobe Illustrator 19.1.0, SVG Export Plug-In . SVG Version: 6.00 Build 0)  -->
<!DOCTYPE svg PUBLIC "-//W3C//DTD SVG 1.1//EN" "http://www.w3.org/Graphics/SVG/1.1/DTD/svg11.dtd">
<svg version="1.1" id="Layer_1" xmlns="http://www.w3.org/2000/svg" xmlns:xlink="http://www.w3.org/1999/xlink" x="0px" y="0px"
	 width="24px" height="24px" viewBox="0 0 24 24" enable-background="new 0 0 24 24" xml:space="preserve">
<path d="M12,0C5.4,0,0,5.4,0,12s5.4,12,12,12s12-5.4,12-12S18.6,0,12,0z M19.6,18.5c-0.7-1.6-2.2-2.3-3.7-2.8
	c-0.7-0.2-1.1-0.9-1.2-1.5C16,13.4,17,11.8,17,10V9c0-2.8-2.2-5-5-5S7,6.2,7,9v1c0,1.8,1,3.4,2.4,4.3c-0.2,0.6-0.5,1.2-1.2,1.5
	c-1.5,0.5-3,1.2-3.7,2.8C2.9,16.8,2,14.5,2,12C2,6.5,6.5,2,12,2s10,4.5,10,10C22,14.5,21.1,16.8,19.6,18.5z"/>
</svg>
