<?xml version="1.0" encoding="utf-8"?>
<!-- Generator: Adobe Illustrator 19.1.0, SVG Export Plug-In . SVG Version: 6.00 Build 0)  -->
<!DOCTYPE svg PUBLIC "-//W3C//DTD SVG 1.1//EN" "http://www.w3.org/Graphics/SVG/1.1/DTD/svg11.dtd">
<svg version="1.1" id="Layer_1" xmlns="http://www.w3.org/2000/svg" xmlns:xlink="http://www.w3.org/1999/xlink" x="0px" y="0px"
	 width="24px" height="24px" viewBox="0 0 24 24" enable-background="new 0 0 24 24" xml:space="preserve">
<path id="color_17_" d="M21,18.4l-3.9-2.3C15.8,17.3,14,18,12,18s-3.8-0.7-5.2-1.9L3,18.4c-0.6,0.4-1,1-1,1.7V23h20v-2.9
	C22,19.4,21.6,18.8,21,18.4z"/>
<path d="M12,16L12,16c-3.3,0-6-2.7-6-6V7c0-3.3,2.7-6,6-6h0c3.3,0,6,2.7,6,6v3C18,13.3,15.3,16,12,16z"/>
</svg>
