<?xml version="1.0" encoding="utf-8"?>
<!-- Generator: Adobe Illustrator 19.1.0, SVG Export Plug-In . SVG Version: 6.00 Build 0)  -->
<!DOCTYPE svg PUBLIC "-//W3C//DTD SVG 1.1//EN" "http://www.w3.org/Graphics/SVG/1.1/DTD/svg11.dtd">
<svg version="1.1" id="Layer_1" xmlns="http://www.w3.org/2000/svg" xmlns:xlink="http://www.w3.org/1999/xlink" x="0px" y="0px"
	 width="24px" height="24px" viewBox="0 0 24 24" enable-background="new 0 0 24 24" xml:space="preserve">
<path d="M9,14c3.3,0,6-2.7,6-6V6c0-3.3-2.7-6-6-6S3,2.7,3,6v2C3,11.3,5.7,14,9,14z"/>
<path d="M18,11c-3,0-5.4,2.2-5.9,5H5c-2.8,0-5,2.2-5,5v2c0,0.6,0.4,1,1,1h16c0.6,0,1-0.4,1-1c3.3,0,6-2.7,6-6S21.3,11,18,11z M18,21
	c-2.2,0-4-1.8-4-4s1.8-4,4-4s4,1.8,4,4S20.2,21,18,21z"/>
<path d="M20,16h-4c-0.6,0-1,0.4-1,1s0.4,1,1,1h4c0.6,0,1-0.4,1-1S20.6,16,20,16z"/>
</svg>
