<?xml version="1.0" encoding="utf-8"?>
<!-- Generator: Adobe Illustrator 19.1.0, SVG Export Plug-In . SVG Version: 6.00 Build 0)  -->
<!DOCTYPE svg PUBLIC "-//W3C//DTD SVG 1.1//EN" "http://www.w3.org/Graphics/SVG/1.1/DTD/svg11.dtd">
<svg version="1.1" id="Layer_1" xmlns="http://www.w3.org/2000/svg" xmlns:xlink="http://www.w3.org/1999/xlink" x="0px" y="0px"
	 width="48px" height="48px" viewBox="0 0 48 48" enable-background="new 0 0 48 48" xml:space="preserve">
<path d="M46,3H2C1.4,3,1,3.4,1,4v40c0,0.6,0.4,1,1,1h44c0.6,0,1-0.4,1-1V4C47,3.4,46.6,3,46,3z M45,11H13V5h32V11z M11,5v6H3V5H11z
	 M3,43V13h42v30H3z"/>
<path d="M40,17H8c-0.6,0-1,0.4-1,1v6c0,0.6,0.4,1,1,1h32c0.6,0,1-0.4,1-1v-6C41,17.4,40.6,17,40,17z M39,23H9v-4h30V23z"/>
<path d="M14,29H8c-0.6,0-1,0.4-1,1v8c0,0.6,0.4,1,1,1h6c0.6,0,1-0.4,1-1v-8C15,29.4,14.6,29,14,29z M13,37H9v-6h4V37z"/>
<path d="M40,29H20c-0.6,0-1,0.4-1,1v8c0,0.6,0.4,1,1,1h20c0.6,0,1-0.4,1-1v-8C41,29.4,40.6,29,40,29z M39,37H21v-6h18V37z"/>
</svg>
