<?xml version="1.0" encoding="utf-8"?>
<!-- Generator: Adobe Illustrator 19.1.0, SVG Export Plug-In . SVG Version: 6.00 Build 0)  -->
<!DOCTYPE svg PUBLIC "-//W3C//DTD SVG 1.1//EN" "http://www.w3.org/Graphics/SVG/1.1/DTD/svg11.dtd">
<svg version="1.1" id="Layer_1" xmlns="http://www.w3.org/2000/svg" xmlns:xlink="http://www.w3.org/1999/xlink" x="0px" y="0px"
	 width="48px" height="48px" viewBox="0 0 48 48" enable-background="new 0 0 48 48" xml:space="preserve">
<path d="M28,1H8C7.4,1,7,1.4,7,2v44c0,0.6,0.4,1,1,1h20c0.6,0,1-0.4,1-1v-2.8l13.9-22.9c0.1-0.2,0.2-0.5,0.1-0.8
	c-0.1-0.3-0.2-0.5-0.5-0.6l-7-4.2l1.5-6c0.1-0.3,0-0.5-0.1-0.8c-0.1-0.2-0.4-0.4-0.6-0.5L29,5.7V2C29,1.4,28.6,1,28,1z M27,3v3.1
	c0,0,0,0.1-0.1,0.1c-0.1,0.2,0,0.4,0.1,0.6V29H9V3H27z M9,45V31h18v11.8c0,0,0,0.1,0,0.1V45H9z M40.6,20.1l-11,18.2L35,16.7
	L40.6,20.1z M34.8,9.2l-1.3,5.2c0,0-0.1,0.1-0.1,0.1c-0.2,0.2-0.2,0.5-0.1,0.8L29,32.5V7.7L34.8,9.2z"/>
<path d="M18,35c-1.7,0-3,1.3-3,3s1.3,3,3,3s3-1.3,3-3S19.7,35,18,35z M18,39c-0.6,0-1-0.4-1-1s0.4-1,1-1s1,0.4,1,1S18.6,39,18,39z"
	/>
</svg>
