<?xml version="1.0" encoding="utf-8"?>
<!-- Generator: Adobe Illustrator 19.1.0, SVG Export Plug-In . SVG Version: 6.00 Build 0)  -->
<!DOCTYPE svg PUBLIC "-//W3C//DTD SVG 1.1//EN" "http://www.w3.org/Graphics/SVG/1.1/DTD/svg11.dtd">
<svg version="1.1" id="Layer_1" xmlns="http://www.w3.org/2000/svg" xmlns:xlink="http://www.w3.org/1999/xlink" x="0px" y="0px"
	 width="48px" height="48px" viewBox="0 0 48 48" enable-background="new 0 0 48 48" xml:space="preserve">
<path d="M16,7c0.6,0,1-0.4,1-1V3h3c0.6,0,1-0.4,1-1s-0.4-1-1-1h-4c-0.6,0-1,0.4-1,1v4C15,6.6,15.4,7,16,7z"/>
<path d="M46,1h-4c-0.6,0-1,0.4-1,1s0.4,1,1,1h3v3c0,0.6,0.4,1,1,1s1-0.4,1-1V2C47,1.4,46.6,1,46,1z"/>
<path d="M46,27c-0.6,0-1,0.4-1,1v3h-3c-0.6,0-1,0.4-1,1s0.4,1,1,1h4c0.6,0,1-0.4,1-1v-4C47,27.4,46.6,27,46,27z"/>
<path d="M34,1h-6c-0.6,0-1,0.4-1,1s0.4,1,1,1h6c0.6,0,1-0.4,1-1S34.6,1,34,1z"/>
<path d="M34,31h-1V16c0-0.6-0.4-1-1-1H17v-1c0-0.6-0.4-1-1-1s-1,0.4-1,1v1H2c-0.6,0-1,0.4-1,1v30c0,0.6,0.4,1,1,1h30
	c0.6,0,1-0.4,1-1V33h1c0.6,0,1-0.4,1-1S34.6,31,34,31z M31,31H17V17h14V31z M3,45V17h12v15c0,0.6,0.4,1,1,1h15v12H3z"/>
<path d="M46,13c-0.6,0-1,0.4-1,1v6c0,0.6,0.4,1,1,1s1-0.4,1-1v-6C47,13.4,46.6,13,46,13z"/>
</svg>
