<?xml version="1.0" encoding="utf-8"?>
<!-- Generator: Adobe Illustrator 19.1.0, SVG Export Plug-In . SVG Version: 6.00 Build 0)  -->
<!DOCTYPE svg PUBLIC "-//W3C//DTD SVG 1.1//EN" "http://www.w3.org/Graphics/SVG/1.1/DTD/svg11.dtd">
<svg version="1.1" id="Layer_1" xmlns="http://www.w3.org/2000/svg" xmlns:xlink="http://www.w3.org/1999/xlink" x="0px" y="0px"
	 width="48px" height="48px" viewBox="0 0 48 48" enable-background="new 0 0 48 48" xml:space="preserve">
<path d="M11.4,32.8L23,40.5V46c0,0.6,0.4,1,1,1s1-0.4,1-1v-3.5l11.6-7.7c0.3-0.2,0.4-0.5,0.4-0.8v-5h3c0.6,0,1-0.4,1-1v-8
	c0-0.6-0.4-1-1-1h-8c-0.6,0-1,0.4-1,1v8c0,0.6,0.4,1,1,1h3v4.5l-10,6.7V6.4l4.3,4.3c0.2,0.2,0.5,0.3,0.7,0.3s0.5-0.1,0.7-0.3
	c0.4-0.4,0.4-1,0-1.4l-6-6c-0.1-0.1-0.2-0.2-0.3-0.2c-0.2-0.1-0.5-0.1-0.8,0c-0.1,0.1-0.2,0.1-0.3,0.2l-6,6c-0.4,0.4-0.4,1,0,1.4
	s1,0.4,1.4,0L23,6.4v31.7l-10-6.7v-6.6c2.3-0.5,4-2.5,4-4.9c0-2.8-2.2-5-5-5s-5,2.2-5,5c0,2.4,1.7,4.4,4,4.9V32
	C11,32.3,11.2,32.6,11.4,32.8z M33,21h6v6h-6V21z M9,20c0-1.7,1.3-3,3-3s3,1.3,3,3s-1.3,3-3,3S9,21.7,9,20z"/>
</svg>
