<?xml version="1.0" encoding="utf-8"?>
<!-- Generator: Adobe Illustrator 19.1.0, SVG Export Plug-In . SVG Version: 6.00 Build 0)  -->
<!DOCTYPE svg PUBLIC "-//W3C//DTD SVG 1.1//EN" "http://www.w3.org/Graphics/SVG/1.1/DTD/svg11.dtd">
<svg version="1.1" id="Layer_1" xmlns="http://www.w3.org/2000/svg" xmlns:xlink="http://www.w3.org/1999/xlink" x="0px" y="0px"
	 width="48px" height="48px" viewBox="0 0 48 48" enable-background="new 0 0 48 48" xml:space="preserve">
<path d="M8,13c2.8,0,5-2.2,5-5s-2.2-5-5-5S3,5.2,3,8S5.2,13,8,13z M8,5c1.7,0,3,1.3,3,3s-1.3,3-3,3S5,9.7,5,8S6.3,5,8,5z"/>
<path d="M8,29c2.8,0,5-2.2,5-5s-2.2-5-5-5s-5,2.2-5,5S5.2,29,8,29z M8,21c1.7,0,3,1.3,3,3s-1.3,3-3,3s-3-1.3-3-3S6.3,21,8,21z"/>
<path d="M8,45c2.8,0,5-2.2,5-5s-2.2-5-5-5s-5,2.2-5,5S5.2,45,8,45z M8,37c1.7,0,3,1.3,3,3s-1.3,3-3,3s-3-1.3-3-3S6.3,37,8,37z"/>
<path d="M44,7H20c-0.6,0-1,0.4-1,1s0.4,1,1,1h24c0.6,0,1-0.4,1-1S44.6,7,44,7z"/>
<path d="M44,23H20c-0.6,0-1,0.4-1,1s0.4,1,1,1h24c0.6,0,1-0.4,1-1S44.6,23,44,23z"/>
<path d="M45,40c0-0.6-0.4-1-1-1H20c-0.6,0-1,0.4-1,1s0.4,1,1,1h24C44.6,41,45,40.6,45,40z"/>
</svg>
