<?xml version="1.0" encoding="utf-8"?>
<!-- Generator: Adobe Illustrator 19.1.0, SVG Export Plug-In . SVG Version: 6.00 Build 0)  -->
<!DOCTYPE svg PUBLIC "-//W3C//DTD SVG 1.1//EN" "http://www.w3.org/Graphics/SVG/1.1/DTD/svg11.dtd">
<svg version="1.1" id="Layer_1" xmlns="http://www.w3.org/2000/svg" xmlns:xlink="http://www.w3.org/1999/xlink" x="0px" y="0px"
	 width="48px" height="48px" viewBox="0 0 48 48" enable-background="new 0 0 48 48" xml:space="preserve">
<path d="M5,43v3c0,0.6,0.4,1,1,1h36c0.6,0,1-0.4,1-1v-3H5z"/>
<path d="M43,21v-7H31c-0.6,0-1-0.4-1-1V1H6C5.4,1,5,1.4,5,2v19H43z"/>
<polygon id="color_230_" points="32,2.6 32,12 41.4,12 "/>
<path id="color_76_" d="M28.3,31c0.2-0.1,0.2-0.3,0.2-0.6c0-0.4-0.3-0.7-1-0.7H27v1.4h0.6C27.9,31.2,28.2,31.1,28.3,31z"/>
<path id="color_75_" d="M27.7,32.7H27v1.6h0.7c0.7,0,1-0.3,1-0.8c0-0.3-0.1-0.5-0.3-0.6C28.3,32.8,28,32.7,27.7,32.7z"/>
<path id="color_74_" d="M20,29.8h-0.4v1.8h0.4c0.7,0,1.1-0.3,1.1-1C21.1,30,20.7,29.8,20,29.8z"/>
<path id="color_73_" d="M47,23H1c-0.6,0-1,0.4-1,1v16c0,0.6,0.4,1,1,1h46c0.6,0,1-0.4,1-1V24C48,23.4,47.6,23,47,23z M21.7,36
	l-1.7-2.9h-0.5V36h-2.1v-7.9H20c2.1,0,3.2,0.8,3.2,2.3c0,0.9-0.4,1.6-1.3,2.1l2.3,3.4H21.7z M30.1,35.4c-0.5,0.4-1.3,0.6-2.2,0.6
	h-3.1v-7.9h2.7c1.1,0,1.9,0.2,2.4,0.5c0.5,0.3,0.8,0.8,0.8,1.5c0,0.4-0.1,0.8-0.3,1.1s-0.5,0.5-0.9,0.6v0.1c0.5,0.1,0.8,0.3,1.1,0.6
	s0.3,0.7,0.3,1.2C30.9,34.4,30.6,35,30.1,35.4z"/>
</svg>
