<?xml version="1.0" encoding="utf-8"?>
<!-- Generator: Adobe Illustrator 19.1.0, SVG Export Plug-In . SVG Version: 6.00 Build 0)  -->
<!DOCTYPE svg PUBLIC "-//W3C//DTD SVG 1.1//EN" "http://www.w3.org/Graphics/SVG/1.1/DTD/svg11.dtd">
<svg version="1.1" id="Layer_1" xmlns="http://www.w3.org/2000/svg" xmlns:xlink="http://www.w3.org/1999/xlink" x="0px" y="0px"
	 width="48px" height="48px" viewBox="0 0 48 48" enable-background="new 0 0 48 48" xml:space="preserve">
<path d="M5,43v3c0,0.6,0.4,1,1,1h36c0.6,0,1-0.4,1-1v-3H5z"/>
<path d="M43,21v-7H31c-0.6,0-1-0.4-1-1V1H6C5.4,1,5,1.4,5,2v19H43z"/>
<polygon id="color_287_" points="32,2.6 32,12 41.4,12 "/>
<path id="color_151_" d="M47,23H1c-0.6,0-1,0.4-1,1v16c0,0.6,0.4,1,1,1h46c0.6,0,1-0.4,1-1V24C48,23.4,47.6,23,47,23z M17.9,34.4
	c0.3,0,0.7,0,1-0.1s0.7-0.2,1-0.3v1.8c-0.7,0.3-1.4,0.4-2.2,0.4c-1.2,0-2.1-0.3-2.7-1c-0.6-0.7-0.9-1.7-0.9-3c0-0.8,0.2-1.5,0.5-2.1
	c0.3-0.6,0.7-1.1,1.3-1.4c0.6-0.3,1.3-0.5,2-0.5c0.8,0,1.7,0.2,2.4,0.6l-0.6,1.7c-0.3-0.1-0.6-0.2-0.9-0.3c-0.3-0.1-0.6-0.1-0.9-0.1
	c-0.5,0-0.9,0.2-1.2,0.6c-0.3,0.4-0.4,1-0.4,1.7C16.1,33.6,16.7,34.4,17.9,34.4z M26,29.8h-2.6v1.5h2.4v1.7h-2.4V36h-2.1v-7.9H26
	V29.8z M33.9,35.6c-0.9,0.3-1.9,0.5-3,0.5c-1.2,0-2.1-0.4-2.8-1.1c-0.7-0.7-1-1.7-1-3c0-1.3,0.4-2.3,1.1-3s1.7-1.1,3-1.1
	c0.5,0,1,0,1.4,0.1c0.4,0.1,0.8,0.2,1.1,0.4L33,30.2c-0.6-0.3-1.2-0.4-1.9-0.4c-0.6,0-1.1,0.2-1.4,0.6c-0.3,0.4-0.5,1-0.5,1.7
	c0,0.7,0.2,1.3,0.5,1.7c0.3,0.4,0.7,0.6,1.3,0.6c0.3,0,0.6,0,0.9-0.1V33h-1.4v-1.6h3.4V35.6z"/>
</svg>
