<?xml version="1.0" encoding="utf-8"?>
<!-- Generator: Adobe Illustrator 19.1.0, SVG Export Plug-In . SVG Version: 6.00 Build 0)  -->
<!DOCTYPE svg PUBLIC "-//W3C//DTD SVG 1.1//EN" "http://www.w3.org/Graphics/SVG/1.1/DTD/svg11.dtd">
<svg version="1.1" id="Layer_1" xmlns="http://www.w3.org/2000/svg" xmlns:xlink="http://www.w3.org/1999/xlink" x="0px" y="0px"
	 width="48px" height="48px" viewBox="0 0 48 48" enable-background="new 0 0 48 48" xml:space="preserve">
<path d="M5,43v3c0,0.6,0.4,1,1,1h36c0.6,0,1-0.4,1-1v-3H5z"/>
<path d="M43,21v-7H31c-0.6,0-1-0.4-1-1V1H6C5.4,1,5,1.4,5,2v19H43z"/>
<polygon id="color_236_" points="32,2.6 32,12 41.4,12 "/>
<path id="color_48_" d="M47,23H1c-0.6,0-1,0.4-1,1v16c0,0.6,0.4,1,1,1h46c0.6,0,1-0.4,1-1V24C48,23.4,47.6,23,47,23z M13.7,36h-2.1
	v-7.9h2.1V36z M19,34.4c0.3,0,0.7,0,1-0.1s0.7-0.2,1-0.3v1.8c-0.7,0.3-1.4,0.4-2.2,0.4c-1.2,0-2.1-0.3-2.7-1c-0.6-0.7-0.9-1.7-0.9-3
	c0-0.8,0.2-1.5,0.5-2.1c0.3-0.6,0.7-1.1,1.3-1.4c0.6-0.3,1.3-0.5,2-0.5c0.8,0,1.7,0.2,2.4,0.6l-0.6,1.7c-0.3-0.1-0.6-0.2-0.9-0.3
	c-0.3-0.1-0.6-0.1-0.9-0.1c-0.5,0-0.9,0.2-1.2,0.6c-0.3,0.4-0.4,1-0.4,1.7C17.3,33.6,17.9,34.4,19,34.4z M30,36h-2.8l-2.9-5.5h0
	c0.1,0.9,0.1,1.5,0.1,2V36h-1.9v-7.9h2.8l2.9,5.5h0c-0.1-0.8-0.1-1.4-0.1-1.9v-3.5H30V36z M33.8,30.7c0.2,0.1,0.6,0.3,1.3,0.7
	c0.7,0.3,1.1,0.6,1.4,1c0.3,0.3,0.4,0.8,0.4,1.3c0,0.5-0.1,0.9-0.4,1.3s-0.6,0.7-1.1,0.9c-0.5,0.2-1,0.3-1.6,0.3c-0.5,0-1,0-1.3-0.1
	s-0.7-0.2-1.1-0.4v-1.9c0.4,0.2,0.8,0.4,1.3,0.5s0.8,0.2,1.2,0.2c0.3,0,0.5-0.1,0.7-0.2s0.2-0.2,0.2-0.4c0-0.1,0-0.2-0.1-0.3
	c-0.1-0.1-0.2-0.2-0.3-0.2c-0.1-0.1-0.5-0.3-1-0.5c-0.5-0.2-0.9-0.5-1.2-0.7c-0.3-0.2-0.4-0.5-0.6-0.8c-0.1-0.3-0.2-0.6-0.2-1
	c0-0.7,0.3-1.3,0.8-1.7s1.2-0.6,2.2-0.6c0.8,0,1.6,0.2,2.5,0.6l-0.6,1.6c-0.7-0.3-1.4-0.5-1.9-0.5c-0.3,0-0.5,0-0.6,0.1
	s-0.2,0.2-0.2,0.4C33.5,30.4,33.6,30.5,33.8,30.7z"/>
</svg>
