<?xml version="1.0" encoding="utf-8"?>
<!-- Generator: Adobe Illustrator 19.1.0, SVG Export Plug-In . SVG Version: 6.00 Build 0)  -->
<!DOCTYPE svg PUBLIC "-//W3C//DTD SVG 1.1//EN" "http://www.w3.org/Graphics/SVG/1.1/DTD/svg11.dtd">
<svg version="1.1" id="Layer_1" xmlns="http://www.w3.org/2000/svg" xmlns:xlink="http://www.w3.org/1999/xlink" x="0px" y="0px"
	 width="48px" height="48px" viewBox="0 0 48 48" enable-background="new 0 0 48 48" xml:space="preserve">
<path d="M5,43v3c0,0.6,0.4,1,1,1h36c0.6,0,1-0.4,1-1v-3H5z"/>
<path d="M43,21v-7H31c-0.6,0-1-0.4-1-1V1H6C5.4,1,5,1.4,5,2v19H43z"/>
<polygon id="color_288_" points="32,2.6 32,12 41.4,12 "/>
<path id="color_153_" d="M30.3,29.8h-0.4v1.8h0.4c0.7,0,1.1-0.3,1.1-1C31.3,30,31,29.8,30.3,29.8z"/>
<path id="color_152_" d="M47,23H1c-0.6,0-1,0.4-1,1v16c0,0.6,0.4,1,1,1h46c0.6,0,1-0.4,1-1V24C48,23.4,47.6,23,47,23z M18.2,34.4
	c0.3,0,0.7,0,1-0.1s0.7-0.2,1-0.3v1.8c-0.7,0.3-1.4,0.4-2.2,0.4c-1.2,0-2.1-0.3-2.7-1c-0.6-0.7-0.9-1.7-0.9-3c0-0.8,0.2-1.5,0.5-2.1
	c0.3-0.6,0.7-1.1,1.3-1.4c0.6-0.3,1.3-0.5,2-0.5c0.8,0,1.7,0.2,2.4,0.6l-0.6,1.7c-0.3-0.1-0.6-0.2-0.9-0.3c-0.3-0.1-0.6-0.1-0.9-0.1
	c-0.5,0-0.9,0.2-1.2,0.6c-0.3,0.4-0.4,1-0.4,1.7C16.4,33.6,17,34.4,18.2,34.4z M26.3,29.8h-2.5v1.2h2.4v1.7h-2.4v1.5h2.5V36h-4.7
	v-7.9h4.7V29.8z M32,36l-1.7-2.9h-0.5V36h-2.1v-7.9h2.6c2.1,0,3.2,0.8,3.2,2.3c0,0.9-0.4,1.6-1.3,2.1l2.3,3.4H32z"/>
</svg>
