<?xml version="1.0" encoding="utf-8"?>
<!-- Generator: Adobe Illustrator 19.1.0, SVG Export Plug-In . SVG Version: 6.00 Build 0)  -->
<!DOCTYPE svg PUBLIC "-//W3C//DTD SVG 1.1//EN" "http://www.w3.org/Graphics/SVG/1.1/DTD/svg11.dtd">
<svg version="1.1" id="Layer_1" xmlns="http://www.w3.org/2000/svg" xmlns:xlink="http://www.w3.org/1999/xlink" x="0px" y="0px"
	 width="48px" height="48px" viewBox="0 0 48 48" enable-background="new 0 0 48 48" xml:space="preserve">
<path d="M46,9H24.5l-5.7-7.6C18.6,1.1,18.3,1,18,1H2C1.4,1,1,1.4,1,2v44c0,0.6,0.4,1,1,1h44c0.6,0,1-0.4,1-1V10C47,9.4,46.6,9,46,9z
	 M19,22c0-2.8,2.2-5,5-5s5,2.2,5,5v3c0,2.8-2.2,5-5,5s-5-2.2-5-5V22z M33,39C33,39,33,39,33,39H15c-0.6,0-1-0.4-1-1c0-3.3,2.7-6,6-6
	h8c3.2,0,5.9,2.6,6,5.8c0,0.1,0,0.1,0,0.2C34,38.6,33.6,39,33,39z"/>
</svg>
