<?xml version="1.0" encoding="utf-8"?>
<!-- Generator: Adobe Illustrator 19.1.0, SVG Export Plug-In . SVG Version: 6.00 Build 0)  -->
<!DOCTYPE svg PUBLIC "-//W3C//DTD SVG 1.1//EN" "http://www.w3.org/Graphics/SVG/1.1/DTD/svg11.dtd">
<svg version="1.1" id="Layer_1" xmlns="http://www.w3.org/2000/svg" xmlns:xlink="http://www.w3.org/1999/xlink" x="0px" y="0px"
	 width="48px" height="48px" viewBox="0 0 48 48" enable-background="new 0 0 48 48" xml:space="preserve">
<path d="M5,43v3c0,0.6,0.4,1,1,1h36c0.6,0,1-0.4,1-1v-3H5z"/>
<path d="M43,21v-7H31c-0.6,0-1-0.4-1-1V1H6C5.4,1,5,1.4,5,2v19H43z"/>
<polygon id="color_274_" points="32,2.6 32,12 41.4,12 "/>
<path id="color_132_" d="M31.4,29.8H31v1.8h0.4c0.7,0,1.1-0.3,1.1-1C32.5,30,32.1,29.8,31.4,29.8z"/>
<path id="color_131_" d="M47,23H1c-0.6,0-1,0.4-1,1v16c0,0.6,0.4,1,1,1h46c0.6,0,1-0.4,1-1V24C48,23.4,47.6,23,47,23z M17,34.4
	c0.3,0,0.7,0,1-0.1c0.3-0.1,0.7-0.2,1-0.3v1.8c-0.7,0.3-1.4,0.4-2.2,0.4c-1.2,0-2.1-0.3-2.7-1c-0.6-0.7-0.9-1.7-0.9-3
	c0-0.8,0.2-1.5,0.5-2.1c0.3-0.6,0.7-1.1,1.3-1.4c0.6-0.3,1.3-0.5,2-0.5c0.8,0,1.7,0.2,2.4,0.6l-0.7,1.7c-0.3-0.1-0.6-0.2-0.9-0.3
	c-0.3-0.1-0.6-0.1-0.9-0.1c-0.5,0-0.9,0.2-1.2,0.6c-0.3,0.4-0.4,1-0.4,1.7C15.3,33.6,15.9,34.4,17,34.4z M27.2,32.9
	c0,1-0.3,1.8-0.9,2.4c-0.6,0.6-1.4,0.8-2.5,0.8c-1.1,0-1.9-0.3-2.5-0.8c-0.6-0.5-0.9-1.3-0.9-2.4v-4.8h2.1v4.6c0,0.6,0.1,1,0.3,1.2
	c0.2,0.2,0.5,0.4,0.9,0.4c0.4,0,0.7-0.1,0.9-0.4s0.3-0.7,0.3-1.2v-4.6h2.1V32.9z M33.2,36l-1.7-2.9H31V36h-2.1v-7.9h2.6
	c2.1,0,3.2,0.8,3.2,2.3c0,0.9-0.4,1.6-1.3,2.1l2.3,3.4H33.2z"/>
</svg>
