<?xml version="1.0" encoding="utf-8"?>
<!-- Generator: Adobe Illustrator 19.1.0, SVG Export Plug-In . SVG Version: 6.00 Build 0)  -->
<!DOCTYPE svg PUBLIC "-//W3C//DTD SVG 1.1//EN" "http://www.w3.org/Graphics/SVG/1.1/DTD/svg11.dtd">
<svg version="1.1" id="Layer_1" xmlns="http://www.w3.org/2000/svg" xmlns:xlink="http://www.w3.org/1999/xlink" x="0px" y="0px"
	 width="48px" height="48px" viewBox="0 0 48 48" enable-background="new 0 0 48 48" xml:space="preserve">
<path d="M46,9H24.5l-5.7-7.6C18.6,1.1,18.3,1,18,1H2C1.4,1,1,1.4,1,2v44c0,0.6,0.4,1,1,1h44c0.6,0,1-0.4,1-1V10C47,9.4,46.6,9,46,9z
	 M33,38c0,0.6-0.4,1-1,1H16c-0.6,0-1-0.4-1-1V24c0-0.6,0.4-1,1-1h3v-3c0-2.8,2.2-5,5-5s5,2.2,5,5v3h3c0.6,0,1,0.4,1,1V38z"/>
<path d="M27,20c0-1.7-1.3-3-3-3s-3,1.3-3,3v3h6V20z"/>
<path d="M24,33c-0.6,0-1-0.4-1-1v-2c0-0.6,0.4-1,1-1s1,0.4,1,1v2C25,32.6,24.6,33,24,33z"/>
</svg>
