<?xml version="1.0" encoding="utf-8"?>
<!-- Generator: Adobe Illustrator 19.1.0, SVG Export Plug-In . SVG Version: 6.00 Build 0)  -->
<!DOCTYPE svg PUBLIC "-//W3C//DTD SVG 1.1//EN" "http://www.w3.org/Graphics/SVG/1.1/DTD/svg11.dtd">
<svg version="1.1" id="Layer_1" xmlns="http://www.w3.org/2000/svg" xmlns:xlink="http://www.w3.org/1999/xlink" x="0px" y="0px"
	 width="48px" height="48px" viewBox="0 0 48 48" enable-background="new 0 0 48 48" xml:space="preserve">
<path d="M5,43v3c0,0.6,0.4,1,1,1h36c0.6,0,1-0.4,1-1v-3H5z"/>
<path d="M43,21v-7H31c-0.6,0-1-0.4-1-1V1H6C5.4,1,5,1.4,5,2v19H43z"/>
<polygon id="color_230_" points="32,2.6 32,12 41.4,12 "/>
<path id="color_39_" d="M29.1,29.8c-1.1,0-1.6,0.8-1.6,2.3c0,1.5,0.5,2.3,1.6,2.3c0.5,0,0.9-0.2,1.2-0.6c0.3-0.4,0.4-0.9,0.4-1.7
	c0-0.8-0.1-1.4-0.4-1.7C30,30,29.6,29.8,29.1,29.8z"/>
<path id="color_38_" d="M47,23H1c-0.6,0-1,0.4-1,1v16c0,0.6,0.4,1,1,1h46c0.6,0,1-0.4,1-1V24C48,23.4,47.6,23,47,23z M17.5,36h-2.1
	v-7.9h2.1V36z M21.2,30.7c0.2,0.1,0.6,0.3,1.3,0.7c0.7,0.3,1.1,0.6,1.4,1c0.3,0.3,0.4,0.8,0.4,1.3c0,0.5-0.1,0.9-0.4,1.3
	s-0.6,0.7-1.1,0.9c-0.5,0.2-1,0.3-1.6,0.3c-0.5,0-1,0-1.3-0.1s-0.7-0.2-1.1-0.4v-1.9c0.4,0.2,0.8,0.4,1.3,0.5s0.8,0.2,1.2,0.2
	c0.3,0,0.5-0.1,0.7-0.2s0.2-0.2,0.2-0.4c0-0.1,0-0.2-0.1-0.3c-0.1-0.1-0.2-0.2-0.3-0.2c-0.1-0.1-0.5-0.3-1-0.5
	c-0.5-0.2-0.9-0.5-1.2-0.7c-0.3-0.2-0.4-0.5-0.6-0.8c-0.1-0.3-0.2-0.6-0.2-1c0-0.7,0.3-1.3,0.8-1.7s1.2-0.6,2.2-0.6
	c0.8,0,1.6,0.2,2.5,0.6l-0.6,1.6c-0.7-0.3-1.4-0.5-1.9-0.5c-0.3,0-0.5,0-0.6,0.1S21,30.1,21,30.2C21,30.4,21.1,30.5,21.2,30.7z
	 M31.9,35.1c-0.6,0.7-1.6,1-2.8,1c-1.2,0-2.2-0.3-2.8-1c-0.7-0.7-1-1.7-1-3c0-1.3,0.3-2.3,1-3c0.7-0.7,1.6-1,2.8-1
	c1.2,0,2.2,0.3,2.8,1s1,1.7,1,3C32.9,33.4,32.6,34.4,31.9,35.1z"/>
</svg>
