<?xml version="1.0" encoding="utf-8"?>
<!-- Generator: Adobe Illustrator 19.1.0, SVG Export Plug-In . SVG Version: 6.00 Build 0)  -->
<!DOCTYPE svg PUBLIC "-//W3C//DTD SVG 1.1//EN" "http://www.w3.org/Graphics/SVG/1.1/DTD/svg11.dtd">
<svg version="1.1" id="Layer_1" xmlns="http://www.w3.org/2000/svg" xmlns:xlink="http://www.w3.org/1999/xlink" x="0px" y="0px"
	 width="48px" height="48px" viewBox="0 0 48 48" enable-background="new 0 0 48 48" xml:space="preserve">
<path d="M1,17v29c0,0.6,0.4,1,1,1h44c0.6,0,1-0.4,1-1V17H1z"/>
<path d="M47,15V8c0-0.6-0.4-1-1-1H21V2c0-0.6-0.4-1-1-1H2C1.4,1,1,1.4,1,2v13H47z"/>
</svg>
