<?xml version="1.0" encoding="utf-8"?>
<!-- Generator: Adobe Illustrator 19.1.0, SVG Export Plug-In . SVG Version: 6.00 Build 0)  -->
<!DOCTYPE svg PUBLIC "-//W3C//DTD SVG 1.1//EN" "http://www.w3.org/Graphics/SVG/1.1/DTD/svg11.dtd">
<svg version="1.1" id="Layer_1" xmlns="http://www.w3.org/2000/svg" xmlns:xlink="http://www.w3.org/1999/xlink" x="0px" y="0px"
	 width="48px" height="48px" viewBox="0 0 48 48" enable-background="new 0 0 48 48" xml:space="preserve">
<path d="M5,43v3c0,0.6,0.4,1,1,1h36c0.6,0,1-0.4,1-1v-3H5z"/>
<path d="M43,21v-7H31c-0.6,0-1-0.4-1-1V1H6C5.4,1,5,1.4,5,2v19H43z"/>
<polygon id="color_254_" points="32,2.6 32,12 41.4,12 "/>
<path id="color_143_" d="M24.8,29.9h-0.6v4.4h0.5c0.6,0,1.1-0.2,1.4-0.6s0.5-0.9,0.5-1.7c0-0.7-0.1-1.3-0.4-1.6
	C25.8,30,25.3,29.9,24.8,29.9z"/>
<path id="color_142_" d="M16.8,29.8c-1.1,0-1.6,0.8-1.6,2.3c0,1.5,0.5,2.3,1.6,2.3c0.5,0,0.9-0.2,1.2-0.6s0.4-0.9,0.4-1.7
	c0-0.8-0.1-1.4-0.4-1.7C17.7,30,17.3,29.8,16.8,29.8z"/>
<path id="color_141_" d="M47,23H1c-0.6,0-1,0.4-1,1v16c0,0.6,0.4,1,1,1h46c0.6,0,1-0.4,1-1V24C48,23.4,47.6,23,47,23z M19.6,35.1
	c-0.6,0.7-1.6,1-2.8,1c-1.2,0-2.2-0.3-2.8-1c-0.7-0.7-1-1.7-1-3c0-1.3,0.3-2.3,1-3c0.7-0.7,1.6-1,2.8-1c1.2,0,2.2,0.3,2.8,1
	s1,1.7,1,3C20.6,33.4,20.3,34.4,19.6,35.1z M27.6,34.9c-0.7,0.7-1.7,1.1-3,1.1H22v-7.9h2.7c1.3,0,2.2,0.3,2.9,1c0.7,0.6,1,1.6,1,2.8
	C28.7,33.2,28.3,34.2,27.6,34.9z M32.1,30.7c0.2,0.1,0.6,0.3,1.3,0.7c0.7,0.3,1.1,0.6,1.4,1c0.3,0.3,0.4,0.8,0.4,1.3
	c0,0.5-0.1,0.9-0.4,1.3s-0.6,0.7-1.1,0.9c-0.5,0.2-1,0.3-1.6,0.3c-0.5,0-1,0-1.3-0.1c-0.4-0.1-0.7-0.2-1.1-0.4v-1.9
	c0.4,0.2,0.8,0.4,1.3,0.5s0.8,0.2,1.2,0.2c0.3,0,0.5-0.1,0.7-0.2c0.1-0.1,0.2-0.2,0.2-0.4c0-0.1,0-0.2-0.1-0.3
	c-0.1-0.1-0.2-0.2-0.3-0.2c-0.1-0.1-0.5-0.3-1-0.5c-0.5-0.2-0.9-0.5-1.2-0.7c-0.3-0.2-0.4-0.5-0.6-0.8s-0.2-0.6-0.2-1
	c0-0.7,0.3-1.3,0.8-1.7s1.2-0.6,2.2-0.6c0.8,0,1.6,0.2,2.5,0.6l-0.7,1.6c-0.7-0.3-1.4-0.5-1.9-0.5c-0.3,0-0.5,0-0.6,0.1
	s-0.2,0.2-0.2,0.4C31.9,30.4,32,30.5,32.1,30.7z"/>
</svg>
