<?xml version="1.0" encoding="utf-8"?>
<!-- Generator: Adobe Illustrator 19.1.0, SVG Export Plug-In . SVG Version: 6.00 Build 0)  -->
<!DOCTYPE svg PUBLIC "-//W3C//DTD SVG 1.1//EN" "http://www.w3.org/Graphics/SVG/1.1/DTD/svg11.dtd">
<svg version="1.1" id="Layer_1" xmlns="http://www.w3.org/2000/svg" xmlns:xlink="http://www.w3.org/1999/xlink" x="0px" y="0px"
	 width="48px" height="48px" viewBox="0 0 48 48" enable-background="new 0 0 48 48" xml:space="preserve">
<path d="M32,13H6c-0.6,0-1,0.4-1,1v32c0,0.6,0.4,1,1,1h26c0.6,0,1-0.4,1-1V14C33,13.4,32.6,13,32,13z"/>
<path d="M38,7H12c-0.6,0-1,0.4-1,1v2c0,0.6,0.4,1,1,1h23v29c0,0.6,0.4,1,1,1h2c0.6,0,1-0.4,1-1V8C39,7.4,38.6,7,38,7z"/>
<path d="M44,1H18c-0.6,0-1,0.4-1,1v2c0,0.6,0.4,1,1,1h23v29c0,0.6,0.4,1,1,1h2c0.6,0,1-0.4,1-1V2C45,1.4,44.6,1,44,1z"/>
</svg>
