<?xml version="1.0" encoding="utf-8"?>
<!-- Generator: Adobe Illustrator 19.1.0, SVG Export Plug-In . SVG Version: 6.00 Build 0)  -->
<!DOCTYPE svg PUBLIC "-//W3C//DTD SVG 1.1//EN" "http://www.w3.org/Graphics/SVG/1.1/DTD/svg11.dtd">
<svg version="1.1" id="Layer_1" xmlns="http://www.w3.org/2000/svg" xmlns:xlink="http://www.w3.org/1999/xlink" x="0px" y="0px"
	 width="48px" height="48px" viewBox="0 0 48 48" enable-background="new 0 0 48 48" xml:space="preserve">
<path d="M5,43v3c0,0.6,0.4,1,1,1h36c0.6,0,1-0.4,1-1v-3H5z"/>
<path d="M43,21v-7H31c-0.6,0-1-0.4-1-1V1H6C5.4,1,5,1.4,5,2v19H43z"/>
<polygon id="color_250_" points="32,2.6 32,12 41.4,12 "/>
<path id="color_75_" d="M47,23H1c-0.6,0-1,0.4-1,1v16c0,0.6,0.4,1,1,1h46c0.6,0,1-0.4,1-1V24C48,23.4,47.6,23,47,23z M18.7,29.8
	h-2.6v1.5h2.4v1.7h-2.4V36H14v-7.9h4.6V29.8z M27.5,36h-2.8l-2.9-5.5h0c0.1,0.9,0.1,1.5,0.1,2V36H20v-7.9h2.8l2.9,5.5h0
	c-0.1-0.8-0.1-1.4-0.1-1.9v-3.5h1.9V36z M34.5,29.9h-1.9V36h-2.1v-6.1h-1.9v-1.7h6V29.9z"/>
</svg>
