<?xml version="1.0" encoding="utf-8"?>
<!-- Generator: Adobe Illustrator 19.1.0, SVG Export Plug-In . SVG Version: 6.00 Build 0)  -->
<!DOCTYPE svg PUBLIC "-//W3C//DTD SVG 1.1//EN" "http://www.w3.org/Graphics/SVG/1.1/DTD/svg11.dtd">
<svg version="1.1" id="Layer_1" xmlns="http://www.w3.org/2000/svg" xmlns:xlink="http://www.w3.org/1999/xlink" x="0px" y="0px"
	 width="48px" height="48px" viewBox="0 0 48 48" enable-background="new 0 0 48 48" xml:space="preserve">
<path d="M5,43v3c0,0.6,0.4,1,1,1h36c0.6,0,1-0.4,1-1v-3H5z"/>
<path d="M43,21v-7H31c-0.6,0-1-0.4-1-1V1H6C5.4,1,5,1.4,5,2v19H43z"/>
<polygon id="color_237_" points="32,2.6 32,12 41.4,12 "/>
<path id="color_49_" d="M47,23H1c-0.6,0-1,0.4-1,1v16c0,0.6,0.4,1,1,1h46c0.6,0,1-0.4,1-1V24C48,23.4,47.6,23,47,23z M15.6,36h-2.1
	v-3.2H11V36H8.9v-7.9H11v2.9h2.5v-2.9h2.1V36z M22.7,29.9h-1.9V36h-2.1v-6.1h-1.9v-1.7h6V29.9z M32.7,36h-1.9v-3.4
	c0-0.2,0-0.4,0-0.6c0-0.2,0-0.8,0.1-1.6h0L29.2,36h-2l-1.6-5.7h0c0.1,1,0.1,1.7,0.1,2.2V36h-1.9v-7.9h2.8l1.6,5.6h0l1.6-5.6h2.8V36z
	 M39.6,36h-5.1v-7.9h2.1v6.1h3V36z"/>
</svg>
