<?xml version="1.0" encoding="utf-8"?>
<!-- Generator: Adobe Illustrator 19.1.0, SVG Export Plug-In . SVG Version: 6.00 Build 0)  -->
<!DOCTYPE svg PUBLIC "-//W3C//DTD SVG 1.1//EN" "http://www.w3.org/Graphics/SVG/1.1/DTD/svg11.dtd">
<svg version="1.1" id="Layer_1" xmlns="http://www.w3.org/2000/svg" xmlns:xlink="http://www.w3.org/1999/xlink" x="0px" y="0px"
	 width="48px" height="48px" viewBox="0 0 48 48" enable-background="new 0 0 48 48" xml:space="preserve">
<path d="M5,43v3c0,0.6,0.4,1,1,1h36c0.6,0,1-0.4,1-1v-3H5z"/>
<path d="M43,21v-7H31c-0.6,0-1-0.4-1-1V1H6C5.4,1,5,1.4,5,2v19H43z"/>
<polygon id="color_296_" points="32,2.6 32,12 41.4,12 "/>
<path id="color_177_" d="M18.5,30.4c-0.1-0.5-0.2-0.8-0.2-1c0,0.2-0.1,0.5-0.2,0.9c-0.1,0.4-0.3,1.2-0.6,2.5h1.7l-0.3-1.3
	C18.7,31.2,18.6,30.8,18.5,30.4z"/>
<path id="color_176_" d="M47,23H1c-0.6,0-1,0.4-1,1v16c0,0.6,0.4,1,1,1h46c0.6,0,1-0.4,1-1V24C48,23.4,47.6,23,47,23z M19.9,36
	l-0.4-1.5H17L16.6,36h-2.3l2.6-7.9h2.8l2.6,7.9H19.9z M27.3,36h-2.5l-2.6-7.9h2.4l1.1,4c0.2,0.9,0.3,1.5,0.4,1.8
	c0-0.2,0.1-0.6,0.2-0.9s0.1-0.7,0.2-0.9l1.1-4h2.4L27.3,36z M32.9,36h-2.1v-7.9h2.1V36z"/>
</svg>
