<?xml version="1.0" encoding="utf-8"?>
<!-- Generator: Adobe Illustrator 19.1.0, SVG Export Plug-In . SVG Version: 6.00 Build 0)  -->
<!DOCTYPE svg PUBLIC "-//W3C//DTD SVG 1.1//EN" "http://www.w3.org/Graphics/SVG/1.1/DTD/svg11.dtd">
<svg version="1.1" id="Layer_1" xmlns="http://www.w3.org/2000/svg" xmlns:xlink="http://www.w3.org/1999/xlink" x="0px" y="0px"
	 width="48px" height="48px" viewBox="0 0 48 48" enable-background="new 0 0 48 48" xml:space="preserve">
<path d="M18.4,31c1.5,1.2,3.5,2,5.6,2c5,0,9-4,9-9c0-2.1-0.7-4.1-2-5.6L18.4,31z"/>
<path d="M29.6,17c-1.5-1.2-3.5-2-5.6-2c-5,0-9,4-9,9c0,2.1,0.7,4.1,2,5.6L29.6,17z"/>
<path d="M42,1H6C5.4,1,5,1.4,5,2v44c0,0.6,0.4,1,1,1h36c0.6,0,1-0.4,1-1V2C43,1.4,42.6,1,42,1z M24,35c-6.1,0-11-4.9-11-11
	s4.9-11,11-11s11,4.9,11,11S30.1,35,24,35z"/>
</svg>
