<?xml version="1.0" encoding="utf-8"?>
<!-- Generator: Adobe Illustrator 19.1.0, SVG Export Plug-In . SVG Version: 6.00 Build 0)  -->
<!DOCTYPE svg PUBLIC "-//W3C//DTD SVG 1.1//EN" "http://www.w3.org/Graphics/SVG/1.1/DTD/svg11.dtd">
<svg version="1.1" id="Layer_1" xmlns="http://www.w3.org/2000/svg" xmlns:xlink="http://www.w3.org/1999/xlink" x="0px" y="0px"
	 width="24px" height="24px" viewBox="0 0 24 24" enable-background="new 0 0 24 24" xml:space="preserve">
<path d="M21,0h-5c-0.4,0-0.8,0.3-0.9,0.7L13.3,6H14c0.6,0,1,0.4,1,1v5c0,0.6-0.4,1-1,1h-4c-0.6,0-1-0.4-1-1V7c0-0.6,0.4-1,1-1h0.7
	L8.9,0.7C8.8,0.3,8.4,0,8,0H3C2.4,0,2,0.4,2,1v22c0,0.6,0.4,1,1,1h18c0.6,0,1-0.4,1-1V1C22,0.4,21.6,0,21,0z M14,21h-4v-2h4V21z
	 M14,17h-4v-2h4V17z"/>
<path d="M12,11c0.6,0,1-0.4,1-1V9c0-0.6-0.4-1-1-1s-1,0.4-1,1v1C11,10.6,11.4,11,12,11z"/>
</svg>
