<?xml version="1.0" encoding="utf-8"?>
<!-- Generator: Adobe Illustrator 19.1.0, SVG Export Plug-In . SVG Version: 6.00 Build 0)  -->
<!DOCTYPE svg PUBLIC "-//W3C//DTD SVG 1.1//EN" "http://www.w3.org/Graphics/SVG/1.1/DTD/svg11.dtd">
<svg version="1.1" id="Layer_1" xmlns="http://www.w3.org/2000/svg" xmlns:xlink="http://www.w3.org/1999/xlink" x="0px" y="0px"
	 width="24px" height="24px" viewBox="0 0 24 24" enable-background="new 0 0 24 24" xml:space="preserve">
<path d="M10,11.5c0,0.6,0.3,0.9,1,1.2v-2.6C10.4,10.3,10,10.8,10,11.5z"/>
<path d="M14,16.5c0-0.6-0.3-0.9-1-1.2v2.6C13.6,17.7,14,17.2,14,16.5z"/>
<path d="M23,4H12.5L9.8,0.4C9.6,0.1,9.3,0,9,0H1C0.4,0,0,0.4,0,1v22c0,0.6,0.4,1,1,1h22c0.6,0,1-0.4,1-1V5C24,4.4,23.6,4,23,4z
	 M16,16.5c0,1.8-1.3,3.2-3,3.4V20c0,0.6-0.4,1-1,1s-1-0.4-1-1v-0.1c-1.7-0.2-3-1.7-3-3.4c0-0.6,0.4-1,1-1s1,0.4,1,1
	c0,0.7,0.4,1.2,1,1.4v-3.1c-1.4-0.4-3-1.1-3-3.3c0-1.8,1.3-3.2,3-3.4V8c0-0.6,0.4-1,1-1s1,0.4,1,1v0.1c1.7,0.2,3,1.7,3,3.4
	c0,0.6-0.4,1-1,1s-1-0.4-1-1c0-0.7-0.4-1.2-1-1.4v3.1C14.4,13.6,16,14.4,16,16.5z"/>
</svg>
