<?xml version="1.0" encoding="utf-8"?>
<!-- Generator: Adobe Illustrator 19.1.0, SVG Export Plug-In . SVG Version: 6.00 Build 0)  -->
<!DOCTYPE svg PUBLIC "-//W3C//DTD SVG 1.1//EN" "http://www.w3.org/Graphics/SVG/1.1/DTD/svg11.dtd">
<svg version="1.1" id="Layer_1" xmlns="http://www.w3.org/2000/svg" xmlns:xlink="http://www.w3.org/1999/xlink" x="0px" y="0px"
	 width="24px" height="24px" viewBox="0 0 24 24" enable-background="new 0 0 24 24" xml:space="preserve">
<path d="M21,0H3C2.4,0,2,0.4,2,1v22c0,0.6,0.4,1,1,1h18c0.6,0,1-0.4,1-1V1C22,0.4,21.6,0,21,0z M16,16c0,0.4-0.2,0.7-0.6,0.9
	C15.3,17,15.2,17,15,17c-0.2,0-0.4-0.1-0.6-0.2L10.7,14H8c-0.6,0-1-0.4-1-1v-2c0-0.6,0.4-1,1-1h2.7l3.7-2.8c0.3-0.2,0.7-0.3,1-0.1
	C15.8,7.3,16,7.6,16,8V16z"/>
</svg>
