<?xml version="1.0" encoding="utf-8"?>
<!-- Generator: Adobe Illustrator 19.1.0, SVG Export Plug-In . SVG Version: 6.00 Build 0)  -->
<!DOCTYPE svg PUBLIC "-//W3C//DTD SVG 1.1//EN" "http://www.w3.org/Graphics/SVG/1.1/DTD/svg11.dtd">
<svg version="1.1" id="Layer_1" xmlns="http://www.w3.org/2000/svg" xmlns:xlink="http://www.w3.org/1999/xlink" x="0px" y="0px"
	 width="24px" height="24px" viewBox="0 0 24 24" enable-background="new 0 0 24 24" xml:space="preserve">
<path d="M8,9c0-0.6,0.4-1,1-1h5V1c0-0.6-0.4-1-1-1H1C0.4,0,0,0.4,0,1v12c0,0.6,0.4,1,1,1h7V9z"/>
<path d="M23,10H11c-0.6,0-1,0.4-1,1v12c0,0.6,0.4,1,1,1h12c0.6,0,1-0.4,1-1V11C24,10.4,23.6,10,23,10z"/>
<path id="color_6_" d="M23,4h-4.6l1.3-1.3c0.4-0.4,0.4-1,0-1.4s-1-0.4-1.4,0l-3,3c-0.1,0.1-0.2,0.2-0.2,0.3c-0.1,0.2-0.1,0.5,0,0.8
	c0.1,0.1,0.1,0.2,0.2,0.3l3,3C18.5,8.9,18.7,9,19,9s0.5-0.1,0.7-0.3c0.4-0.4,0.4-1,0-1.4L18.4,6H22v2c0,0.6,0.4,1,1,1s1-0.4,1-1V5
	C24,4.4,23.6,4,23,4z"/>
<path id="color_5_" d="M8.9,18.6c-0.1-0.1-0.1-0.2-0.2-0.3l-3-3c-0.4-0.4-1-0.4-1.4,0s-0.4,1,0,1.4L5.6,18H2v-2c0-0.6-0.4-1-1-1
	s-1,0.4-1,1v3c0,0.6,0.4,1,1,1h4.6l-1.3,1.3c-0.4,0.4-0.4,1,0,1.4C4.5,22.9,4.7,23,5,23s0.5-0.1,0.7-0.3l3-3
	c0.1-0.1,0.2-0.2,0.2-0.3C9,19.1,9,18.9,8.9,18.6z"/>
</svg>
