<?xml version="1.0" encoding="utf-8"?>
<!-- Generator: Adobe Illustrator 19.1.0, SVG Export Plug-In . SVG Version: 6.00 Build 0)  -->
<!DOCTYPE svg PUBLIC "-//W3C//DTD SVG 1.1//EN" "http://www.w3.org/Graphics/SVG/1.1/DTD/svg11.dtd">
<svg version="1.1" id="Layer_1" xmlns="http://www.w3.org/2000/svg" xmlns:xlink="http://www.w3.org/1999/xlink" x="0px" y="0px"
	 width="24px" height="24px" viewBox="0 0 24 24" enable-background="new 0 0 24 24" xml:space="preserve">
<path d="M21,0H3C2.4,0,2,0.4,2,1v22c0,0.6,0.4,1,1,1h18c0.6,0,1-0.4,1-1V1C22,0.4,21.6,0,21,0z M10,5c1.1,0,2,0.9,2,2
	c0,1.1-0.9,2-2,2S8,8.1,8,7C8,5.9,8.9,5,10,5z M20,18c0,0.5-0.4,1-1,1H5c-0.6,0-1-0.4-1-1s3.2-5.6,3.2-5.6C7.4,12.2,7.6,12,7.9,12
	c0.3,0,0.6,0.1,0.8,0.3l2.2,2.2l3.3-4.1c0.2-0.2,0.5-0.4,0.8-0.4c0.3,0,0.6,0.2,0.8,0.4C15.8,10.4,20,17.5,20,18z"/>
</svg>
