<?xml version="1.0" encoding="utf-8"?>
<!-- Generator: Adobe Illustrator 18.1.1, SVG Export Plug-In . SVG Version: 6.00 Build 0)  -->
<!DOCTYPE svg PUBLIC "-//W3C//DTD SVG 1.1//EN" "http://www.w3.org/Graphics/SVG/1.1/DTD/svg11.dtd">
<svg version="1.1" id="Layer_1" xmlns="http://www.w3.org/2000/svg" xmlns:xlink="http://www.w3.org/1999/xlink" x="0px" y="0px"
	 width="32px" height="32px" viewBox="0 0 32 32" enable-background="new 0 0 32 32" xml:space="preserve">
<path d="M5,31c0,0.6,0.4,1,1,1h20c0.6,0,1-0.4,1-1s-0.4-1-1-1h-2c0.1-4,0.9-7.7,1.7-11.1c0.7-3,1.3-5.8,1.3-8.4C27,4.6,22.2,0,16,0
	S5,4.6,5,10.5c0,2.6,0.6,5.4,1.3,8.4C7,22.3,7.9,26,8,30H6C5.4,30,5,30.4,5,31z M16,5c3.3,0,6,2.7,6,6s-2.7,6-6,6s-6-2.7-6-6
	S12.7,5,16,5z"/>
<circle cx="16" cy="11" r="2"/>
</svg>
