<?xml version="1.0" encoding="utf-8"?>
<!-- Generator: Adobe Illustrator 18.1.1, SVG Export Plug-In . SVG Version: 6.00 Build 0)  -->
<!DOCTYPE svg PUBLIC "-//W3C//DTD SVG 1.1//EN" "http://www.w3.org/Graphics/SVG/1.1/DTD/svg11.dtd">
<svg version="1.1" id="Layer_1" xmlns="http://www.w3.org/2000/svg" xmlns:xlink="http://www.w3.org/1999/xlink" x="0px" y="0px"
	 width="32px" height="32px" viewBox="0 0 32 32" enable-background="new 0 0 32 32" xml:space="preserve">
<path d="M24,3H8C6.3,3,5,4.3,5,6v23c0,1.7,1.3,3,3,3h16c1.7,0,3-1.3,3-3V6C27,4.3,25.7,3,24,3z M16,29c-1.1,0-2-0.9-2-2s0.9-2,2-2
	s2,0.9,2,2S17.1,29,16,29z M23,22c0,0.6-0.4,1-1,1H10c-0.6,0-1-0.4-1-1V8c0-0.6,0.4-1,1-1h12c0.6,0,1,0.4,1,1V22z"/>
<path d="M12,13c-0.6,0-1,0.4-1,1v1c0,0.6,0.4,1,1,1s1-0.4,1-1v-1C13,13.4,12.6,13,12,13z"/>
<path d="M16,10c-0.6,0-1,0.4-1,1v7c0,0.6,0.4,1,1,1s1-0.4,1-1v-7C17,10.4,16.6,10,16,10z"/>
<path d="M20,12c-0.6,0-1,0.4-1,1v3c0,0.6,0.4,1,1,1s1-0.4,1-1v-3C21,12.4,20.6,12,20,12z"/>
<path d="M22,2c0.6,0,1-0.4,1-1s-0.4-1-1-1h-3c-0.6,0-1,0.4-1,1s0.4,1,1,1H22z"/>
</svg>
