<?xml version="1.0" encoding="utf-8"?>
<!-- Generator: Adobe Illustrator 18.1.1, SVG Export Plug-In . SVG Version: 6.00 Build 0)  -->
<!DOCTYPE svg PUBLIC "-//W3C//DTD SVG 1.1//EN" "http://www.w3.org/Graphics/SVG/1.1/DTD/svg11.dtd">
<svg version="1.1" id="Layer_1" xmlns="http://www.w3.org/2000/svg" xmlns:xlink="http://www.w3.org/1999/xlink" x="0px" y="0px"
	 width="32px" height="32px" viewBox="0 0 32 32" enable-background="new 0 0 32 32" xml:space="preserve">
<path d="M29,4h-6c-1.4-2.6-4.3-4-7-4s-5.6,1.4-7,4H3C1.3,4,0,5.3,0,7v22c0,1.7,1.3,3,3,3h26c1.7,0,3-1.3,3-3V7C32,5.3,30.7,4,29,4z
	 M16,2c2.9,0,6,2.2,6,5.8c0,2.8-3.8,7.4-6,9.7c-2.2-2.3-6-7-6-9.7C10,4.2,13.1,2,16,2z M5,10c0-0.6,0.4-1,1-1h2.1
	c0.5,2.3,2.2,4.9,3.9,7l-7,9.3V10z M17,27v-3c0-0.6-0.4-1-1-1s-1,0.4-1,1v3H6.2l7.1-9.4c1,1.1,1.7,1.9,2,2.1
	c0.2,0.2,0.5,0.3,0.7,0.3s0.5-0.1,0.7-0.3c0.2-0.2,1-1,2-2.1l7.1,9.4H17z M27,25.3L20,16c1.6-2.1,3.4-4.7,3.9-7H26c0.6,0,1,0.4,1,1
	V25.3z"/>
<circle cx="16" cy="8" r="3"/>
</svg>
