<?xml version="1.0" encoding="utf-8"?>
<!-- Generator: Adobe Illustrator 19.2.1, SVG Export Plug-In . SVG Version: 6.00 Build 0)  -->
<!DOCTYPE svg PUBLIC "-//W3C//DTD SVG 1.1//EN" "http://www.w3.org/Graphics/SVG/1.1/DTD/svg11.dtd">
<svg version="1.1" id="Layer_1" xmlns="http://www.w3.org/2000/svg" xmlns:xlink="http://www.w3.org/1999/xlink" x="0px" y="0px"
	 width="64px" height="64px" viewBox="0 0 64 64" enable-background="new 0 0 64 64" xml:space="preserve">
<path d="M39.211,29.039c-0.928-1.156-2.23-1.825-3.459-1.825c-1.626,0-2.313,0.772-3.441,0.772c-1.163,0-2.047-0.771-3.453-0.771
	c-1.381,0-2.85,0.839-3.781,2.272c-1.31,2.017-1.088,5.811,1.036,9.044c0.76,1.156,1.775,2.456,3.101,2.469
	c1.179,0.011,1.513-0.753,3.113-0.761c1.6-0.009,1.903,0.769,3.082,0.758c1.327-0.012,2.397-1.452,3.157-2.608
	c0.544-0.828,0.747-1.246,1.17-2.183C36.665,35.045,36.171,30.705,39.211,29.039z"/>
<path d="M34.519,25.922c0.591-0.758,1.039-1.828,0.876-2.922c-0.965,0.066-2.093,0.68-2.752,1.48c-0.598,0.726-1.092,1.803-0.9,2.85
	C32.796,27.363,33.886,26.734,34.519,25.922z"/>
<path d="M58,9H6c-2.757,0-5,2.243-5,5v36c0,2.757,2.243,5,5,5h52c2.757,0,5-2.243,5-5V14C63,11.243,60.757,9,58,9z M61,50
	c0,1.654-1.346,3-3,3H6c-1.654,0-3-1.346-3-3V14c0-1.654,1.346-3,3-3h52c1.654,0,3,1.346,3,3V50z"/>
</svg>
