<?xml version="1.0" encoding="utf-8"?>
<!-- Generator: Adobe Illustrator 19.1.0, SVG Export Plug-In . SVG Version: 6.00 Build 0)  -->
<!DOCTYPE svg PUBLIC "-//W3C//DTD SVG 1.1//EN" "http://www.w3.org/Graphics/SVG/1.1/DTD/svg11.dtd">
<svg version="1.1" id="Layer_1" xmlns="http://www.w3.org/2000/svg" xmlns:xlink="http://www.w3.org/1999/xlink" x="0px" y="0px"
	 width="64px" height="64px" viewBox="0 0 64 64" enable-background="new 0 0 64 64" xml:space="preserve">
<path d="M53.8,37.6L51,17.9c-0.1-0.5-0.5-0.9-1-0.9h-9v-5c0-6.2-4.8-11-11-11S19,5.8,19,12v5h-9c-0.5,0-0.9,0.4-1,0.9l-6,44
	c0,0.3,0,0.6,0.2,0.8C3.4,62.9,3.7,63,4,63h46c7.2,0,13-5.8,13-13C63,44.2,59.1,39.2,53.8,37.6z M21,12c0-5,4-9,9-9s9,4,9,9v5H21V12
	z M5.1,61l5.7-42H19v6.1c-2.3,0.5-4,2.5-4,4.9c0,2.8,2.2,5,5,5s5-2.2,5-5c0-2.4-1.7-4.4-4-4.9V19h18v6.1c-2.3,0.5-4,2.5-4,4.9
	c0,2.8,2.2,5,5,5s5-2.2,5-5c0-2.4-1.7-4.4-4-4.9V19h8.1l2.6,18.1C51.2,37.1,50.6,37,50,37c-7.2,0-13,5.8-13,13c0,4.6,2.4,8.7,6.1,11
	H5.1z M20,27c1.7,0,3,1.3,3,3s-1.3,3-3,3s-3-1.3-3-3S18.3,27,20,27z M40,27c1.7,0,3,1.3,3,3s-1.3,3-3,3s-3-1.3-3-3S38.3,27,40,27z
	 M50,61c-6.1,0-11-4.9-11-11s4.9-11,11-11s11,4.9,11,11S56.1,61,50,61z"/>
<path d="M54,49h-3v-3c0-0.6-0.4-1-1-1s-1,0.4-1,1v3h-3c-0.6,0-1,0.4-1,1s0.4,1,1,1h3v3c0,0.6,0.4,1,1,1s1-0.4,1-1v-3h3
	c0.6,0,1-0.4,1-1S54.6,49,54,49z"/>
</svg>
