<?xml version="1.0" encoding="utf-8"?>
<!-- Generator: Adobe Illustrator 19.1.0, SVG Export Plug-In . SVG Version: 6.00 Build 0)  -->
<!DOCTYPE svg PUBLIC "-//W3C//DTD SVG 1.1//EN" "http://www.w3.org/Graphics/SVG/1.1/DTD/svg11.dtd">
<svg version="1.1" id="Layer_1" xmlns="http://www.w3.org/2000/svg" xmlns:xlink="http://www.w3.org/1999/xlink" x="0px" y="0px"
	 width="64px" height="64px" viewBox="0 0 64 64" enable-background="new 0 0 64 64" xml:space="preserve">
<path d="M52,23h6c0.6,0,1-0.4,1-1s-0.4-1-1-1H6c-0.6,0-1,0.4-1,1s0.4,1,1,1h6L4,34C2,37,1,40.4,1,43.9C1,53.6,8.3,61,18,61h28
	c9.7,0,17-7.4,17-17.1c0-3.5-1-6.9-3-9.9L52,23z M46,59H18C9.3,59,3,52.6,3,43.9c0-3.1,0.9-6.1,2.6-8.7L14.5,23h35l8.9,12.2
	c1.7,2.6,2.6,5.6,2.6,8.7C61,52.6,54.7,59,46,59z"/>
<path d="M23,17c0.2,0,0.5-0.1,0.6-0.2C24.2,16.3,29,12.1,29,9c0-3.3-2.7-6-6-6s-6,2.7-6,6c0,3.1,4.8,7.3,5.4,7.8
	C22.5,16.9,22.8,17,23,17z M19,9c0-2.2,1.8-4,4-4s4,1.8,4,4c0,1.5-2.2,4-4,5.7C21.2,13,19,10.5,19,9z"/>
<path d="M41,17c0.2,0,0.5-0.1,0.6-0.2C42.2,16.3,47,12.1,47,9c0-3.3-2.7-6-6-6s-6,2.7-6,6c0,3.1,4.8,7.3,5.4,7.8
	C40.5,16.9,40.8,17,41,17z M37,9c0-2.2,1.8-4,4-4s4,1.8,4,4c0,1.5-2.2,4-4,5.7C39.2,13,37,10.5,37,9z"/>
</svg>
