<?xml version="1.0" encoding="utf-8"?>
<!-- Generator: Adobe Illustrator 19.1.0, SVG Export Plug-In . SVG Version: 6.00 Build 0)  -->
<!DOCTYPE svg PUBLIC "-//W3C//DTD SVG 1.1//EN" "http://www.w3.org/Graphics/SVG/1.1/DTD/svg11.dtd">
<svg version="1.1" id="Layer_1" xmlns="http://www.w3.org/2000/svg" xmlns:xlink="http://www.w3.org/1999/xlink" x="0px" y="0px"
	 width="64px" height="64px" viewBox="0 0 64 64" enable-background="new 0 0 64 64" xml:space="preserve">
<path d="M13,56c0,3.9,3.1,7,7,7s7-3.1,7-7s-3.1-7-7-7S13,52.1,13,56z M25,56c0,2.8-2.2,5-5,5s-5-2.2-5-5s2.2-5,5-5S25,53.2,25,56z"
	/>
<path d="M54,49c-3.9,0-7,3.1-7,7s3.1,7,7,7s7-3.1,7-7S57.9,49,54,49z M54,61c-2.8,0-5-2.2-5-5s2.2-5,5-5s5,2.2,5,5S56.8,61,54,61z"
	/>
<path d="M2,3h7.1L15,42.1c0.1,0.5,0.5,0.9,1,0.9h40c0.5,0,0.9-0.4,1-0.9l4-30c0-0.3,0-0.6-0.2-0.8S60.3,11,60,11H44
	c-0.6,0-1,0.4-1,1s0.4,1,1,1h14.9l-3.7,28H16.9l-4.2-28H28c0.6,0,1-0.4,1-1s-0.4-1-1-1H12.4L11,1.9C10.9,1.4,10.5,1,10,1H2
	C1.4,1,1,1.4,1,2S1.4,3,2,3z"/>
<path d="M28.7,23.3c-0.4-0.4-1-0.4-1.4,0s-0.4,1,0,1.4l8,8c0.1,0.1,0.2,0.2,0.3,0.2C35.7,33,35.9,33,36,33s0.3,0,0.4-0.1
	c0.1-0.1,0.2-0.1,0.3-0.2l8-8c0.4-0.4,0.4-1,0-1.4s-1-0.4-1.4,0L37,29.6V4c0-0.6-0.4-1-1-1s-1,0.4-1,1v25.6L28.7,23.3z"/>
</svg>
