<?xml version="1.0" encoding="utf-8"?>
<!-- Generator: Adobe Illustrator 19.1.0, SVG Export Plug-In . SVG Version: 6.00 Build 0)  -->
<!DOCTYPE svg PUBLIC "-//W3C//DTD SVG 1.1//EN" "http://www.w3.org/Graphics/SVG/1.1/DTD/svg11.dtd">
<svg version="1.1" id="Layer_1" xmlns="http://www.w3.org/2000/svg" xmlns:xlink="http://www.w3.org/1999/xlink" x="0px" y="0px"
	 width="64px" height="64px" viewBox="0 0 64 64" enable-background="new 0 0 64 64" xml:space="preserve">
<path d="M59,62V12c0-0.1,0-0.3-0.1-0.4c-0.1-0.1-0.1-0.2-0.2-0.3l-10-10C48.5,1.1,48.3,1,48,1H16c-0.3,0-0.5,0.1-0.7,0.3l-10,10
	c-0.1,0.1-0.2,0.2-0.2,0.3C5,11.7,5,11.9,5,12v50c0,0.6,0.4,1,1,1h52C58.6,63,59,62.6,59,62z M16.4,3h31.2l8,8H8.4L16.4,3z M7,61V13
	h50v48H7z"/>
<path d="M46,23c-0.6,0-1,0.4-1,1c0,7.2-5.8,13-13,13s-13-5.8-13-13c0-0.6-0.4-1-1-1s-1,0.4-1,1c0,8.3,6.7,15,15,15s15-6.7,15-15
	C47,23.4,46.6,23,46,23z"/>
</svg>
