<?xml version="1.0" encoding="utf-8"?>
<!-- Generator: Adobe Illustrator 19.1.0, SVG Export Plug-In . SVG Version: 6.00 Build 0)  -->
<!DOCTYPE svg PUBLIC "-//W3C//DTD SVG 1.1//EN" "http://www.w3.org/Graphics/SVG/1.1/DTD/svg11.dtd">
<svg version="1.1" id="Layer_1" xmlns="http://www.w3.org/2000/svg" xmlns:xlink="http://www.w3.org/1999/xlink" x="0px" y="0px"
	 width="64px" height="64px" viewBox="0 0 64 64" enable-background="new 0 0 64 64" xml:space="preserve">
<path d="M58,3H6C3.2,3,1,5.2,1,8v36c0,2.8,2.2,5,5,5h29v11c0,0.6,0.4,1,1,1h20c0.6,0,1-0.4,1-1V49h1c2.8,0,5-2.2,5-5V8
	C63,5.2,60.8,3,58,3z M3,17h58v8H3V17z M6,5h52c1.7,0,3,1.3,3,3v7H3V8C3,6.3,4.3,5,6,5z M37,59V43h18v5c0,0,0,0,0,0s0,0,0,0v11H37z
	 M51,41H41v-3c0-2.9,2.1-5,5-5s5,2.1,5,5V41z M58,47h-1v-5c0-0.6-0.4-1-1-1h-3v-3c0-3.9-3.1-7-7-7s-7,3.1-7,7v3h-3c-0.6,0-1,0.4-1,1
	v5H6c-1.7,0-3-1.3-3-3V27h58v17C61,45.7,59.7,47,58,47z"/>
<path d="M24,37H10c-0.6,0-1,0.4-1,1s0.4,1,1,1h14c0.6,0,1-0.4,1-1S24.6,37,24,37z"/>
<path d="M46,49c-0.6,0-1,0.4-1,1v2c0,0.6,0.4,1,1,1s1-0.4,1-1v-2C47,49.4,46.6,49,46,49z"/>
</svg>
