<?xml version="1.0" encoding="utf-8"?>
<!-- Generator: Adobe Illustrator 19.1.0, SVG Export Plug-In . SVG Version: 6.00 Build 0)  -->
<!DOCTYPE svg PUBLIC "-//W3C//DTD SVG 1.1//EN" "http://www.w3.org/Graphics/SVG/1.1/DTD/svg11.dtd">
<svg version="1.1" id="Layer_1" xmlns="http://www.w3.org/2000/svg" xmlns:xlink="http://www.w3.org/1999/xlink" x="0px" y="0px"
	 width="64px" height="64px" viewBox="0 0 64 64" enable-background="new 0 0 64 64" xml:space="preserve">
<circle cx="14" cy="54" r="6"/>
<circle cx="56" cy="54" r="6"/>
<path d="M60,41H11v-6h39c0.5,0,0.9-0.3,1-0.8l6-24c0.1-0.3,0-0.6-0.2-0.9C56.6,9.1,56.3,9,56,9H33v14.6l6.3-6.3c0.4-0.4,1-0.4,1.4,0
	s0.4,1,0,1.4l-8,8c-0.1,0.1-0.2,0.2-0.3,0.2C32.3,27,32.1,27,32,27c-0.1,0-0.3,0-0.4-0.1c-0.1-0.1-0.2-0.1-0.3-0.2l-8-8
	c-0.4-0.4-0.4-1,0-1.4s1-0.4,1.4,0l6.3,6.3V9H11V2c0-0.6-0.4-1-1-1H2C1.4,1,1,1.4,1,2s0.4,1,1,1h7v39c0,0.6,0.4,1,1,1h50
	c0.6,0,1-0.4,1-1S60.6,41,60,41z"/>
</svg>
