<?xml version="1.0" encoding="utf-8"?>
<!-- Generator: Adobe Illustrator 19.1.0, SVG Export Plug-In . SVG Version: 6.00 Build 0)  -->
<!DOCTYPE svg PUBLIC "-//W3C//DTD SVG 1.1//EN" "http://www.w3.org/Graphics/SVG/1.1/DTD/svg11.dtd">
<svg version="1.1" id="Layer_1" xmlns="http://www.w3.org/2000/svg" xmlns:xlink="http://www.w3.org/1999/xlink" x="0px" y="0px"
	 width="64px" height="64px" viewBox="0 0 64 64" enable-background="new 0 0 64 64" xml:space="preserve">
<polygon id="color_1_" points="14.8,10.5 2.1,16.8 34,32.9 46,26.8 "/>
<path id="color" d="M48.2,25.7l13.7-6.9L30.4,3.1c-0.3-0.1-0.6-0.1-0.9,0L17,9.4L48.2,25.7z"/>
<path d="M48.9,27.6c-0.1,0.1-0.3,0.2-0.4,0.2L35,34.6v26l27.4-13.7c0.3-0.2,0.6-0.5,0.6-0.9V20.5L48.9,27.6z"/>
<path d="M33,34.6L1,18.5V44c0,0.4,0.2,0.7,0.6,0.9L33,60.6V34.6z M24.6,46.3l-14-7c-0.3-0.2-0.6-0.5-0.6-0.9v-5.9
	c0-0.7,0.8-1.2,1.4-0.9l14,7c0.3,0.2,0.6,0.5,0.6,0.9v5.9C26,46.2,25.2,46.7,24.6,46.3z"/>
</svg>
