<?xml version="1.0" encoding="utf-8"?>
<!-- Generator: Adobe Illustrator 19.1.0, SVG Export Plug-In . SVG Version: 6.00 Build 0)  -->
<!DOCTYPE svg PUBLIC "-//W3C//DTD SVG 1.1//EN" "http://www.w3.org/Graphics/SVG/1.1/DTD/svg11.dtd">
<svg version="1.1" id="Layer_1" xmlns="http://www.w3.org/2000/svg" xmlns:xlink="http://www.w3.org/1999/xlink" x="0px" y="0px"
	 width="64px" height="64px" viewBox="0 0 64 64" enable-background="new 0 0 64 64" xml:space="preserve">
<path d="M60.8,21.4L54.9,9.6c-0.1-0.3-0.4-0.5-0.7-0.5L32.3,5c-0.1,0-0.2,0-0.3,0h0c0,0,0,0,0,0c0,0,0,0,0,0c-0.1,0-0.1,0-0.2,0
	l-22,4C9.5,9.1,9.2,9.3,9.1,9.6l-6,12c-0.2,0.3-0.1,0.7,0,1S3.7,23,4,23h5v25c0,0.4,0.2,0.7,0.6,0.9l22,10C31.7,59,31.9,59,32,59
	s0.3,0,0.4-0.1l22-10c0.4-0.2,0.6-0.5,0.6-0.9V23h5c0,0,0,0,0,0c0.6,0,1-0.4,1-1C61,21.8,60.9,21.6,60.8,21.4z M10.7,10.9l19.8-3.6
	L25.3,21H5.6L10.7,10.9z M38.7,21L33.6,7.3l19.8,3.6L58.4,21H38.7z"/>
</svg>
