<?xml version="1.0" encoding="utf-8"?>
<!-- Generator: Adobe Illustrator 19.1.0, SVG Export Plug-In . SVG Version: 6.00 Build 0)  -->
<!DOCTYPE svg PUBLIC "-//W3C//DTD SVG 1.1//EN" "http://www.w3.org/Graphics/SVG/1.1/DTD/svg11.dtd">
<svg version="1.1" id="Layer_1" xmlns="http://www.w3.org/2000/svg" xmlns:xlink="http://www.w3.org/1999/xlink" x="0px" y="0px"
	 width="64px" height="64px" viewBox="0 0 64 64" enable-background="new 0 0 64 64" xml:space="preserve">
<path d="M60.7,35.3l-34-34C26.5,1.1,26.3,1,26,1H2C1.4,1,1,1.4,1,2v24c0,0.3,0.1,0.5,0.3,0.7l34,34c0.2,0.2,0.5,0.3,0.7,0.3
	s0.5-0.1,0.7-0.3l24-24C61.1,36.3,61.1,35.7,60.7,35.3z M16,20c-2.2,0-4-1.8-4-4c0-2.2,1.8-4,4-4s4,1.8,4,4C20,18.2,18.2,20,16,20z
	 M36.7,44.7C36.5,44.9,36.3,45,36,45s-0.5-0.1-0.7-0.3l-14-14c-0.4-0.4-0.4-1,0-1.4s1-0.4,1.4,0l14,14
	C37.1,43.7,37.1,44.3,36.7,44.7z M44.7,36.7C44.5,36.9,44.3,37,44,37s-0.5-0.1-0.7-0.3l-14-14c-0.4-0.4-0.4-1,0-1.4s1-0.4,1.4,0
	l14,14C45.1,35.7,45.1,36.3,44.7,36.7z"/>
</svg>
