<?xml version="1.0" encoding="utf-8"?>
<!-- Generator: Adobe Illustrator 19.1.0, SVG Export Plug-In . SVG Version: 6.00 Build 0)  -->
<!DOCTYPE svg PUBLIC "-//W3C//DTD SVG 1.1//EN" "http://www.w3.org/Graphics/SVG/1.1/DTD/svg11.dtd">
<svg version="1.1" id="Layer_1" xmlns="http://www.w3.org/2000/svg" xmlns:xlink="http://www.w3.org/1999/xlink" x="0px" y="0px"
	 width="64px" height="64px" viewBox="0 0 64 64" enable-background="new 0 0 64 64" xml:space="preserve">
<path id="color_20_" d="M24.3,40.5C23.5,39.9,23,39,23,38V13.2C10.6,14.7,1,25.2,1,38c0,13.8,11.2,25,25,25c7.2,0,14-3.1,18.8-8.5
	L24.3,40.5z"/>
<path d="M26,1c-0.6,0-1,0.4-1,1v36c0,0.3,0.2,0.6,0.4,0.8l29.7,20.4c0.2,0.1,0.4,0.2,0.6,0.2c0.3,0,0.6-0.2,0.8-0.4
	c4.3-6.2,6.5-13.4,6.5-21C63,17.6,46.4,1,26,1z"/>
</svg>
