<?xml version="1.0" encoding="utf-8"?>
<!-- Generator: Adobe Illustrator 19.1.0, SVG Export Plug-In . SVG Version: 6.00 Build 0)  -->
<!DOCTYPE svg PUBLIC "-//W3C//DTD SVG 1.1//EN" "http://www.w3.org/Graphics/SVG/1.1/DTD/svg11.dtd">
<svg version="1.1" id="Layer_1" xmlns="http://www.w3.org/2000/svg" xmlns:xlink="http://www.w3.org/1999/xlink" x="0px" y="0px"
	 width="64px" height="64px" viewBox="0 0 64 64" enable-background="new 0 0 64 64" xml:space="preserve">
<path d="M54,1H10C9.4,1,9,1.4,9,2v58c0,0.3,0.2,0.7,0.5,0.9s0.7,0.2,1,0l7.5-3.7l5.5,3.7c0.2,0.1,0.4,0.2,0.6,0.2
	c0.2,0,0.3,0,0.4-0.1l7.6-3.8l7.6,3.8c0.3,0.2,0.7,0.1,1-0.1l5.5-3.7l7.5,3.7c0.3,0.2,0.7,0.1,1,0c0.3-0.2,0.5-0.5,0.5-0.9V2
	C55,1.4,54.6,1,54,1z M22,47h-4c-0.6,0-1-0.4-1-1s0.4-1,1-1h4c0.6,0,1,0.4,1,1S22.6,47,22,47z M26.7,28.7l-6,6
	C20.5,34.9,20.3,35,20,35s-0.5-0.1-0.7-0.3l-2-2c-0.4-0.4-0.4-1,0-1.4s1-0.4,1.4,0l1.3,1.3l5.3-5.3c0.4-0.4,1-0.4,1.4,0
	S27.1,28.3,26.7,28.7z M26.7,14.7l-6,6C20.5,20.9,20.3,21,20,21s-0.5-0.1-0.7-0.3l-2-2c-0.4-0.4-0.4-1,0-1.4s1-0.4,1.4,0l1.3,1.3
	l5.3-5.3c0.4-0.4,1-0.4,1.4,0S27.1,14.3,26.7,14.7z M46,47H32c-0.6,0-1-0.4-1-1s0.4-1,1-1h14c0.6,0,1,0.4,1,1S46.6,47,46,47z M46,33
	H32c-0.6,0-1-0.4-1-1s0.4-1,1-1h14c0.6,0,1,0.4,1,1S46.6,33,46,33z M46,19H32c-0.6,0-1-0.4-1-1s0.4-1,1-1h14c0.6,0,1,0.4,1,1
	S46.6,19,46,19z"/>
</svg>
