<?xml version="1.0" encoding="utf-8"?>
<!-- Generator: Adobe Illustrator 19.1.0, SVG Export Plug-In . SVG Version: 6.00 Build 0)  -->
<!DOCTYPE svg PUBLIC "-//W3C//DTD SVG 1.1//EN" "http://www.w3.org/Graphics/SVG/1.1/DTD/svg11.dtd">
<svg version="1.1" id="Layer_1" xmlns="http://www.w3.org/2000/svg" xmlns:xlink="http://www.w3.org/1999/xlink" x="0px" y="0px"
	 width="64px" height="64px" viewBox="0 0 64 64" enable-background="new 0 0 64 64" xml:space="preserve">
<polygon id="color_204_" points="42,2.6 42,16 55.4,16 "/>
<path d="M57,29V18H41c-0.6,0-1-0.4-1-1V1H8C7.4,1,7,1.4,7,2v27H57z"/>
<path d="M7,56v6c0,0.6,0.4,1,1,1h48c0.6,0,1-0.4,1-1v-6H7z"/>
<path id="color_30_" d="M61,31H3c-0.6,0-1,0.4-1,1v21c0,0.6,0.4,1,1,1h58c0.6,0,1-0.4,1-1V32C62,31.4,61.6,31,61,31z M27.1,39.4
	h-2.5V47h-2v-7.6h-2.5v-1.6h7V39.4z M34.1,47l-2.2-3.5L29.8,47h-2.1l3.1-4.8l-2.9-4.5H30l2,3.3l2-3.3h2.1l-2.9,4.6l3.1,4.7H34.1z
	 M43.9,39.4h-2.5V47h-2v-7.6h-2.5v-1.6h7V39.4z"/>
</svg>
