<?xml version="1.0" encoding="utf-8"?>
<!-- Generator: Adobe Illustrator 19.1.0, SVG Export Plug-In . SVG Version: 6.00 Build 0)  -->
<!DOCTYPE svg PUBLIC "-//W3C//DTD SVG 1.1//EN" "http://www.w3.org/Graphics/SVG/1.1/DTD/svg11.dtd">
<svg version="1.1" id="Layer_1" xmlns="http://www.w3.org/2000/svg" xmlns:xlink="http://www.w3.org/1999/xlink" x="0px" y="0px"
	 width="64px" height="64px" viewBox="0 0 64 64" enable-background="new 0 0 64 64" xml:space="preserve">
<polygon id="color_6_" points="45,1.6 45,13 56.4,13 "/>
<path d="M44,15c-0.6,0-1-0.4-1-1V1H8C7.4,1,7,1.4,7,2v60c0,0.6,0.4,1,1,1h48c0.6,0,1-0.4,1-1V15H44z M36,16c2.2,0,4,1.8,4,4v3
	c0,2.2-1.8,4-4,4v-1c0-2.9-1.6-5.5-3.9-6.9C32.5,17.3,34.1,16,36,16z M22,26c0-3.3,2.7-6,6-6s6,2.7,6,6v3c0,3.3-2.7,6-6,6
	s-6-2.7-6-6V26z M37.6,44H18.4c-1.4,0-2.4-1.5-1.8-2.8c1.1-2.5,3.5-4.2,6.4-4.2h10c2.9,0,5.3,1.7,6.4,4.2C40,42.5,39,44,37.6,44z
	 M43.6,36h-6.5c-1.2-0.6-2.4-1-3.8-1c1.7-1.5,2.7-3.6,2.7-6h3c2.9,0,5.3,1.7,6.4,4.2C46,34.5,45,36,43.6,36z"/>
</svg>
