<?xml version="1.0" encoding="utf-8"?>
<!-- Generator: Adobe Illustrator 19.1.0, SVG Export Plug-In . SVG Version: 6.00 Build 0)  -->
<!DOCTYPE svg PUBLIC "-//W3C//DTD SVG 1.1//EN" "http://www.w3.org/Graphics/SVG/1.1/DTD/svg11.dtd">
<svg version="1.1" id="Layer_1" xmlns="http://www.w3.org/2000/svg" xmlns:xlink="http://www.w3.org/1999/xlink" x="0px" y="0px"
	 width="64px" height="64px" viewBox="0 0 64 64" enable-background="new 0 0 64 64" xml:space="preserve">
<path d="M51,23V2c0-0.6-0.4-1-1-1H2C1.4,1,1,1.4,1,2v52c0,0.6,0.4,1,1,1h25V25c0-1.1,0.9-2,2-2H51z"/>
<path id="color_7_" d="M62,25H30c-0.6,0-1,0.4-1,1v36c0,0.6,0.4,1,1,1h32c0.6,0,1-0.4,1-1V26C63,25.4,62.6,25,62,25z"/>
</svg>
