<?xml version="1.0" encoding="utf-8"?>
<!-- Generator: Adobe Illustrator 19.1.0, SVG Export Plug-In . SVG Version: 6.00 Build 0)  -->
<!DOCTYPE svg PUBLIC "-//W3C//DTD SVG 1.1//EN" "http://www.w3.org/Graphics/SVG/1.1/DTD/svg11.dtd">
<svg version="1.1" id="Layer_1" xmlns="http://www.w3.org/2000/svg" xmlns:xlink="http://www.w3.org/1999/xlink" x="0px" y="0px"
	 width="64px" height="64px" viewBox="0 0 64 64" enable-background="new 0 0 64 64" xml:space="preserve">
<path d="M62,11H30.5l-5.7-7.6C24.6,3.1,24.3,3,24,3H2C1.4,3,1,3.4,1,4v56c0,0.6,0.4,1,1,1h60c0.6,0,1-0.4,1-1V12
	C63,11.4,62.6,11,62,11z M29,21c3.3,0,6,2.7,6,6s-2.7,6-6,6s-6-2.7-6-6S25.7,21,29,21z M52,50C52,50,52,50,52,50H12
	c-0.4,0-0.7-0.2-0.9-0.5c-0.2-0.3-0.1-0.7,0.1-1l8-11c0.2-0.2,0.4-0.4,0.7-0.4c0.3,0,0.5,0,0.8,0.2l9.3,7.4l11.4-11.4
	c0.2-0.2,0.5-0.3,0.8-0.3c0.3,0,0.6,0.2,0.7,0.4l9.9,14.9c0.2,0.2,0.3,0.4,0.3,0.7C53,49.6,52.6,50,52,50z"/>
</svg>
