<?xml version="1.0" encoding="utf-8"?>
<!-- Generator: Adobe Illustrator 19.1.0, SVG Export Plug-In . SVG Version: 6.00 Build 0)  -->
<!DOCTYPE svg PUBLIC "-//W3C//DTD SVG 1.1//EN" "http://www.w3.org/Graphics/SVG/1.1/DTD/svg11.dtd">
<svg version="1.1" id="Layer_1" xmlns="http://www.w3.org/2000/svg" xmlns:xlink="http://www.w3.org/1999/xlink" x="0px" y="0px"
	 width="64px" height="64px" viewBox="0 0 64 64" enable-background="new 0 0 64 64" xml:space="preserve">
<path d="M40,47c0-0.6,0.4-1,1-1h16V2c0-0.6-0.4-1-1-1H8C7.4,1,7,1.4,7,2v60c0,0.6,0.4,1,1,1h32V47z M20,15h24c0.6,0,1,0.4,1,1
	s-0.4,1-1,1H20c-0.6,0-1-0.4-1-1S19.4,15,20,15z M20,25h24c0.6,0,1,0.4,1,1s-0.4,1-1,1H20c-0.6,0-1-0.4-1-1S19.4,25,20,25z M20,35
	h24c0.6,0,1,0.4,1,1s-0.4,1-1,1H20c-0.6,0-1-0.4-1-1S19.4,35,20,35z M28,47h-8c-0.6,0-1-0.4-1-1s0.4-1,1-1h8c0.6,0,1,0.4,1,1
	S28.6,47,28,47z"/>
<polygon id="color_51_" points="55.4,48 42,48 42,61.4 "/>
</svg>
