<?xml version="1.0" encoding="utf-8"?>
<!-- Generator: Adobe Illustrator 19.1.0, SVG Export Plug-In . SVG Version: 6.00 Build 0)  -->
<!DOCTYPE svg PUBLIC "-//W3C//DTD SVG 1.1//EN" "http://www.w3.org/Graphics/SVG/1.1/DTD/svg11.dtd">
<svg version="1.1" id="Layer_1" xmlns="http://www.w3.org/2000/svg" xmlns:xlink="http://www.w3.org/1999/xlink" x="0px" y="0px"
	 width="64px" height="64px" viewBox="0 0 64 64" enable-background="new 0 0 64 64" xml:space="preserve">
<polygon id="color_304_" points="42,2.6 42,16 55.4,16 "/>
<path d="M57,29V18H41c-0.6,0-1-0.4-1-1V1H8C7.4,1,7,1.4,7,2v27H57z"/>
<path d="M7,56v6c0,0.6,0.4,1,1,1h48c0.6,0,1-0.4,1-1v-6H7z"/>
<path id="color_198_" d="M26,39.1c-0.1,0.5-0.5,1.9-1.2,4h2.4c-0.6-2-1-3.1-1-3.4C26.1,39.5,26.1,39.3,26,39.1z"/>
<path id="color_197_" d="M61,31H3c-0.6,0-1,0.4-1,1v21c0,0.6,0.4,1,1,1h58c0.6,0,1-0.4,1-1V32C62,31.4,61.6,31,61,31z M28.4,47
	l-0.7-2.2h-3.4L23.7,47h-2.1l3.3-9.3h2.4l3.3,9.3H28.4z M33.9,47h-2v-9.3h2V47z M41.8,39.3h-3.4v2.4h3.1v1.6h-3.1V47h-1.9v-9.3h5.3
	V39.3z"/>
</svg>
