<?xml version="1.0" encoding="utf-8"?>
<!-- Generator: Adobe Illustrator 19.1.0, SVG Export Plug-In . SVG Version: 6.00 Build 0)  -->
<!DOCTYPE svg PUBLIC "-//W3C//DTD SVG 1.1//EN" "http://www.w3.org/Graphics/SVG/1.1/DTD/svg11.dtd">
<svg version="1.1" id="Layer_1" xmlns="http://www.w3.org/2000/svg" xmlns:xlink="http://www.w3.org/1999/xlink" x="0px" y="0px"
	 width="64px" height="64px" viewBox="0 0 64 64" enable-background="new 0 0 64 64" xml:space="preserve">
<polygon id="color_255_" points="42,2.6 42,16 55.4,16 "/>
<path d="M57,29V18H41c-0.6,0-1-0.4-1-1V1H8C7.4,1,7,1.4,7,2v27H57z"/>
<path d="M7,56v6c0,0.6,0.4,1,1,1h48c0.6,0,1-0.4,1-1v-6H7z"/>
<path id="color_86_" d="M45,43h-1.2v2.4h1.3c0.5,0,0.9-0.1,1.2-0.3c0.3-0.2,0.4-0.5,0.4-1C46.7,43.3,46.1,43,45,43z"/>
<path id="color_85_" d="M26.2,39.3h-0.9v2.8h0.6c0.6,0,1.1-0.1,1.4-0.4s0.5-0.6,0.5-1c0-0.5-0.1-0.8-0.4-1S26.7,39.3,26.2,39.3z"/>
<path id="color_84_" d="M46.1,41.1c0.2-0.2,0.4-0.4,0.4-0.8c0-0.4-0.1-0.6-0.4-0.8c-0.3-0.2-0.7-0.2-1.2-0.2h-1v2.1h1.1
	C45.5,41.4,45.9,41.3,46.1,41.1z"/>
<path id="color_83_" d="M61,31H3c-0.6,0-1,0.4-1,1v21c0,0.6,0.4,1,1,1h58c0.6,0,1-0.4,1-1V32C62,31.4,61.6,31,61,31z M21.1,39.3
	h-3.4v2h3.1V43h-3.1v2.4h3.4V47h-5.3v-9.3h5.3V39.3z M28.8,42.9c-0.6,0.5-1.5,0.8-2.7,0.8h-0.8V47h-2v-9.3h3c1.1,0,2,0.2,2.6,0.7
	c0.6,0.5,0.9,1.2,0.9,2.2C29.7,41.6,29.4,42.4,28.8,42.9z M39.3,43.7c0,0.7-0.2,1.3-0.5,1.8c-0.3,0.5-0.8,0.9-1.3,1.2
	c-0.6,0.3-1.3,0.4-2.1,0.4c-1.2,0-2.1-0.3-2.8-0.9s-1-1.4-1-2.5v-6h2v5.7c0,0.7,0.1,1.2,0.4,1.6c0.3,0.3,0.8,0.5,1.4,0.5
	c0.6,0,1.1-0.2,1.4-0.5c0.3-0.3,0.4-0.9,0.4-1.6v-5.7h2V43.7z M47.8,46.3c-0.6,0.5-1.4,0.7-2.5,0.7h-3.5v-9.3h2.9
	c1.3,0,2.3,0.2,2.9,0.6c0.6,0.4,0.9,1,0.9,1.8c0,0.6-0.1,1-0.4,1.4c-0.3,0.4-0.6,0.6-1,0.6v0.1c0.6,0.1,1,0.4,1.3,0.7
	s0.4,0.8,0.4,1.4C48.7,45.2,48.4,45.8,47.8,46.3z"/>
</svg>
