<?xml version="1.0" encoding="utf-8"?>
<!-- Generator: Adobe Illustrator 19.1.0, SVG Export Plug-In . SVG Version: 6.00 Build 0)  -->
<!DOCTYPE svg PUBLIC "-//W3C//DTD SVG 1.1//EN" "http://www.w3.org/Graphics/SVG/1.1/DTD/svg11.dtd">
<svg version="1.1" id="Layer_1" xmlns="http://www.w3.org/2000/svg" xmlns:xlink="http://www.w3.org/1999/xlink" x="0px" y="0px"
	 width="64px" height="64px" viewBox="0 0 64 64" enable-background="new 0 0 64 64" xml:space="preserve">
<polygon id="color_310_" points="42,2.6 42,16 55.4,16 "/>
<path d="M57,29V18H41c-0.6,0-1-0.4-1-1V1H8C7.4,1,7,1.4,7,2v27H57z"/>
<path d="M7,56v6c0,0.6,0.4,1,1,1h48c0.6,0,1-0.4,1-1v-6H7z"/>
<path id="color_210_" d="M61,31H3c-0.6,0-1,0.4-1,1v21c0,0.6,0.4,1,1,1h58c0.6,0,1-0.4,1-1V32C62,31.4,61.6,31,61,31z M23,46.4
	c-0.6,0.5-1.6,0.7-2.8,0.7c-1,0-1.9-0.2-2.7-0.5V45c0.4,0.2,0.8,0.3,1.2,0.4s0.9,0.2,1.3,0.2c0.6,0,1.1-0.1,1.4-0.3
	c0.3-0.2,0.5-0.6,0.5-1.1c0-0.4-0.2-0.7-0.5-0.9S20.5,43,19.7,43H19v-1.5h0.7c0.7,0,1.2-0.1,1.6-0.3c0.3-0.2,0.5-0.5,0.5-1
	c0-0.7-0.4-1.1-1.3-1.1c-0.3,0-0.6,0.1-0.9,0.2c-0.3,0.1-0.7,0.3-1.1,0.5l-0.9-1.4c0.8-0.6,1.9-0.9,3-0.9c1,0,1.7,0.2,2.3,0.6
	c0.6,0.4,0.8,0.9,0.8,1.6c0,0.6-0.2,1.1-0.5,1.5s-0.8,0.7-1.5,0.8v0c0.7,0.1,1.3,0.3,1.7,0.7c0.4,0.4,0.6,0.8,0.6,1.5
	C24,45.2,23.7,45.9,23,46.4z M32.3,45.8c-0.9,0.8-2.1,1.2-3.8,1.2h-2.6v-9.3h2.9c1.5,0,2.7,0.4,3.5,1.2c0.8,0.8,1.3,1.9,1.3,3.4
	C33.6,43.8,33.2,45,32.3,45.8z M45.7,47h-1.8v-4.4c0-0.2,0-0.4,0-0.7c0-0.3,0-1,0.1-2.2h-0.1L41.6,47h-1.8l-2.2-7.3h-0.1
	c0.1,1.5,0.1,2.5,0.1,3V47h-1.8v-9.3h2.7l2.2,7.1h0l2.3-7.1h2.7V47z"/>
<path id="color_209_" d="M29,39.3h-1v6h0.8c1.9,0,2.8-1,2.8-3.1C31.6,40.3,30.7,39.3,29,39.3z"/>
</svg>
