<?xml version="1.0" encoding="utf-8"?>
<!-- Generator: Adobe Illustrator 19.1.0, SVG Export Plug-In . SVG Version: 6.00 Build 0)  -->
<!DOCTYPE svg PUBLIC "-//W3C//DTD SVG 1.1//EN" "http://www.w3.org/Graphics/SVG/1.1/DTD/svg11.dtd">
<svg version="1.1" id="Layer_1" xmlns="http://www.w3.org/2000/svg" xmlns:xlink="http://www.w3.org/1999/xlink" x="0px" y="0px"
	 width="64px" height="64px" viewBox="0 0 64 64" enable-background="new 0 0 64 64" xml:space="preserve">
<polygon id="color_43_" points="45,1.6 45,13 56.4,13 "/>
<path d="M44,15c-0.6,0-1-0.4-1-1V1H8C7.4,1,7,1.4,7,2v60c0,0.6,0.4,1,1,1h48c0.6,0,1-0.4,1-1V15H44z M40.7,42.7l-6,6
	C34.5,48.9,34.3,49,34,49s-0.5-0.1-0.7-0.3c-0.4-0.4-0.4-1,0-1.4l4.3-4.3H32c-5,0-9-4-9-9c0-0.6,0.4-1,1-1s1,0.4,1,1
	c0,3.9,3.1,7,7,7h5.6l-4.3-4.3c-0.4-0.4-0.4-1,0-1.4s1-0.4,1.4,0l6,6c0.1,0.1,0.2,0.2,0.2,0.3c0.1,0.2,0.1,0.5,0,0.8
	C40.9,42.5,40.8,42.6,40.7,42.7z M40,31c-0.6,0-1-0.4-1-1c0-3.9-3.1-7-7-7h-5.6l4.3,4.3c0.4,0.4,0.4,1,0,1.4
	C30.5,28.9,30.3,29,30,29s-0.5-0.1-0.7-0.3l-6-6c-0.1-0.1-0.2-0.2-0.2-0.3c-0.1-0.2-0.1-0.5,0-0.8c0.1-0.1,0.1-0.2,0.2-0.3l6-6
	c0.4-0.4,1-0.4,1.4,0s0.4,1,0,1.4L26.4,21H32c5,0,9,4,9,9C41,30.6,40.6,31,40,31z"/>
</svg>
