<?xml version="1.0" encoding="utf-8"?>
<!-- Generator: Adobe Illustrator 19.1.0, SVG Export Plug-In . SVG Version: 6.00 Build 0)  -->
<!DOCTYPE svg PUBLIC "-//W3C//DTD SVG 1.1//EN" "http://www.w3.org/Graphics/SVG/1.1/DTD/svg11.dtd">
<svg version="1.1" id="Layer_1" xmlns="http://www.w3.org/2000/svg" xmlns:xlink="http://www.w3.org/1999/xlink" x="0px" y="0px"
	 width="64px" height="64px" viewBox="0 0 64 64" enable-background="new 0 0 64 64" xml:space="preserve">
<path d="M62,11H30.5l-5.7-7.6C24.6,3.1,24.3,3,24,3H2C1.4,3,1,3.4,1,4v56c0,0.6,0.4,1,1,1h60c0.6,0,1-0.4,1-1V12
	C63,11.4,62.6,11,62,11z M46.9,38.5L39.7,51H44c0.6,0,1,0.4,1,1s-0.4,1-1,1h-6H26h-6c-0.6,0-1-0.4-1-1s0.4-1,1-1h4.3l-7.1-12.5
	c-0.2-0.4-0.2-0.8,0.1-1.1l12-15.4c0.6-0.8,1.8-0.3,1.8,0.6v10.5c-2.6,0.5-4.4,3-3.9,5.8c0.3,2,1.9,3.6,3.8,4
	c3.2,0.7,6.1-1.8,6.1-4.9c0-2.4-1.7-4.4-4-4.9V22.6c0-1,1.2-1.4,1.8-0.6l12,15.4C47,37.7,47.1,38.1,46.9,38.5z"/>
</svg>
