<?xml version="1.0" encoding="utf-8"?>
<!-- Generator: Adobe Illustrator 19.1.0, SVG Export Plug-In . SVG Version: 6.00 Build 0)  -->
<!DOCTYPE svg PUBLIC "-//W3C//DTD SVG 1.1//EN" "http://www.w3.org/Graphics/SVG/1.1/DTD/svg11.dtd">
<svg version="1.1" id="Layer_1" xmlns="http://www.w3.org/2000/svg" xmlns:xlink="http://www.w3.org/1999/xlink" x="0px" y="0px"
	 width="64px" height="64px" viewBox="0 0 64 64" enable-background="new 0 0 64 64" xml:space="preserve">
<polygon id="color_32_" points="45,1.6 45,13 56.4,13 "/>
<path d="M44,15c-0.6,0-1-0.4-1-1V1H8C7.4,1,7,1.4,7,2v60c0,0.6,0.4,1,1,1h48c0.6,0,1-0.4,1-1V15H44z M31,50c0,0.6-0.4,1-1,1h-8
	c-0.6,0-1-0.4-1-1v-5h-3c-0.6,0-1-0.4-1-1s0.4-1,1-1h3v-5c0-0.6,0.4-1,1-1h8c0.6,0,1,0.4,1,1V50z M30,27H18c-0.6,0-1-0.4-1-1
	s0.4-1,1-1h12c0.6,0,1,0.4,1,1S30.6,27,30,27z M46,45H34c-0.6,0-1-0.4-1-1s0.4-1,1-1h12c0.6,0,1,0.4,1,1S46.6,45,46,45z M46,27h-3v5
	c0,0.6-0.4,1-1,1h-8c-0.6,0-1-0.4-1-1V20c0-0.6,0.4-1,1-1h8c0.6,0,1,0.4,1,1v5h3c0.6,0,1,0.4,1,1S46.6,27,46,27z"/>
</svg>
