<?xml version="1.0" encoding="utf-8"?>
<!-- Generator: Adobe Illustrator 19.1.0, SVG Export Plug-In . SVG Version: 6.00 Build 0)  -->
<!DOCTYPE svg PUBLIC "-//W3C//DTD SVG 1.1//EN" "http://www.w3.org/Graphics/SVG/1.1/DTD/svg11.dtd">
<svg version="1.1" id="Layer_1" xmlns="http://www.w3.org/2000/svg" xmlns:xlink="http://www.w3.org/1999/xlink" x="0px" y="0px"
	 width="64px" height="64px" viewBox="0 0 64 64" enable-background="new 0 0 64 64" xml:space="preserve">
<polygon id="color_308_" points="42,2.6 42,16 55.4,16 "/>
<path d="M57,29V18H41c-0.6,0-1-0.4-1-1V1H8C7.4,1,7,1.4,7,2v27H57z"/>
<path d="M7,56v6c0,0.6,0.4,1,1,1h48c0.6,0,1-0.4,1-1v-6H7z"/>
<path id="color_206_" d="M61,31H3c-0.6,0-1,0.4-1,1v21c0,0.6,0.4,1,1,1h58c0.6,0,1-0.4,1-1V32C62,31.4,61.6,31,61,31z M25.6,46.4
	c-0.6,0.5-1.6,0.7-2.8,0.7c-1,0-1.9-0.2-2.7-0.5V45c0.4,0.2,0.8,0.3,1.2,0.4s0.9,0.2,1.3,0.2c0.6,0,1.1-0.1,1.4-0.3
	c0.3-0.2,0.5-0.6,0.5-1.1c0-0.4-0.2-0.7-0.5-0.9S23,43,22.2,43h-0.7v-1.5h0.7c0.7,0,1.2-0.1,1.6-0.3c0.3-0.2,0.5-0.5,0.5-1
	c0-0.7-0.4-1.1-1.3-1.1c-0.3,0-0.6,0.1-0.9,0.2c-0.3,0.1-0.7,0.3-1.1,0.5l-0.9-1.4c0.8-0.6,1.9-0.9,3-0.9c1,0,1.7,0.2,2.3,0.6
	c0.6,0.4,0.8,0.9,0.8,1.6c0,0.6-0.2,1.1-0.5,1.5s-0.8,0.7-1.5,0.8v0c0.7,0.1,1.3,0.3,1.7,0.7c0.4,0.4,0.6,0.8,0.6,1.5
	C26.5,45.2,26.2,45.9,25.6,46.4z M35.7,46.6c-0.6,0.2-1.2,0.3-1.7,0.4c-0.5,0.1-1.1,0.1-1.6,0.1c-1.4,0-2.5-0.4-3.2-1.2
	c-0.7-0.8-1.1-2-1.1-3.5c0-1.5,0.4-2.7,1.3-3.5c0.9-0.8,2-1.3,3.6-1.3c1,0,1.9,0.2,2.8,0.6L35,39.7c-0.7-0.3-1.4-0.5-2.1-0.5
	c-0.9,0-1.5,0.3-2,0.9s-0.8,1.3-0.8,2.3c0,1,0.2,1.8,0.6,2.3c0.4,0.5,1,0.8,1.8,0.8c0.4,0,0.8,0,1.3-0.1v-1.9H32v-1.6h3.7V46.6z
	 M44,47h-6.5v-1.4l2.3-2.4c0.7-0.7,1.1-1.2,1.4-1.5c0.2-0.3,0.4-0.5,0.5-0.8c0.1-0.2,0.1-0.5,0.1-0.7c0-0.4-0.1-0.6-0.3-0.8
	c-0.2-0.2-0.5-0.3-0.8-0.3c-0.4,0-0.7,0.1-1,0.2s-0.7,0.4-1.1,0.7l-1.1-1.3c0.5-0.4,0.8-0.7,1.1-0.8s0.6-0.3,1-0.4s0.8-0.1,1.2-0.1
	c0.6,0,1.1,0.1,1.5,0.3c0.4,0.2,0.8,0.5,1,0.9s0.4,0.8,0.4,1.3c0,0.4-0.1,0.8-0.2,1.2c-0.2,0.4-0.4,0.8-0.7,1.2
	c-0.3,0.4-0.9,1-1.7,1.7l-1.2,1.1v0.1h4V47z"/>
</svg>
