<?xml version="1.0" encoding="utf-8"?>
<!-- Generator: Adobe Illustrator 19.1.0, SVG Export Plug-In . SVG Version: 6.00 Build 0)  -->
<!DOCTYPE svg PUBLIC "-//W3C//DTD SVG 1.1//EN" "http://www.w3.org/Graphics/SVG/1.1/DTD/svg11.dtd">
<svg version="1.1" id="Layer_1" xmlns="http://www.w3.org/2000/svg" xmlns:xlink="http://www.w3.org/1999/xlink" x="0px" y="0px"
	 width="64px" height="64px" viewBox="0 0 64 64" enable-background="new 0 0 64 64" xml:space="preserve">
<path id="color_31_" d="M57,14c0-0.1,0-0.3-0.1-0.4C57,13.7,57,13.9,57,14z"/>
<path d="M44,15c-0.6,0-1-0.4-1-1V1H8C7.4,1,7,1.4,7,2v60c0,0.6,0.4,1,1,1h48c0.6,0,1-0.4,1-1V15H44z M44.7,24.7l-16,16
	C28.5,40.9,28.3,41,28,41s-0.5-0.1-0.7-0.3l-8-8c-0.4-0.4-0.4-1,0-1.4s1-0.4,1.4,0l7.3,7.3l15.3-15.3c0.4-0.4,1-0.4,1.4,0
	S45.1,24.3,44.7,24.7z"/>
<polygon id="color_5_" points="56.4,13 45,1.6 45,13 "/>
</svg>
