<?xml version="1.0" encoding="utf-8"?>
<!-- Generator: Adobe Illustrator 19.1.0, SVG Export Plug-In . SVG Version: 6.00 Build 0)  -->
<!DOCTYPE svg PUBLIC "-//W3C//DTD SVG 1.1//EN" "http://www.w3.org/Graphics/SVG/1.1/DTD/svg11.dtd">
<svg version="1.1" id="Layer_1" xmlns="http://www.w3.org/2000/svg" xmlns:xlink="http://www.w3.org/1999/xlink" x="0px" y="0px"
	 width="64px" height="64px" viewBox="0 0 64 64" enable-background="new 0 0 64 64" xml:space="preserve">
<path d="M62,11H30.5l-5.7-7.6C24.6,3.1,24.3,3,24,3H2C1.4,3,1,3.4,1,4v56c0,0.6,0.4,1,1,1h60c0.6,0,1-0.4,1-1V12
	C63,11.4,62.6,11,62,11z M40.7,46.7l-6,6C34.5,52.9,34.3,53,34,53s-0.5-0.1-0.7-0.3c-0.4-0.4-0.4-1,0-1.4l4.3-4.3H32c-5,0-9-4-9-9
	c0-0.6,0.4-1,1-1s1,0.4,1,1c0,3.9,3.1,7,7,7h5.6l-4.3-4.3c-0.4-0.4-0.4-1,0-1.4s1-0.4,1.4,0l6,6c0.1,0.1,0.2,0.2,0.2,0.3
	c0.1,0.2,0.1,0.5,0,0.8C40.9,46.5,40.8,46.6,40.7,46.7z M40,35c-0.6,0-1-0.4-1-1c0-3.9-3.1-7-7-7h-5.6l4.3,4.3c0.4,0.4,0.4,1,0,1.4
	C30.5,32.9,30.3,33,30,33s-0.5-0.1-0.7-0.3l-6-6c-0.1-0.1-0.2-0.2-0.2-0.3c-0.1-0.2-0.1-0.5,0-0.8c0.1-0.1,0.1-0.2,0.2-0.3l6-6
	c0.4-0.4,1-0.4,1.4,0s0.4,1,0,1.4L26.4,25H32c5,0,9,4,9,9C41,34.6,40.6,35,40,35z"/>
</svg>
