<?xml version="1.0" encoding="utf-8"?>
<!-- Generator: Adobe Illustrator 19.1.0, SVG Export Plug-In . SVG Version: 6.00 Build 0)  -->
<!DOCTYPE svg PUBLIC "-//W3C//DTD SVG 1.1//EN" "http://www.w3.org/Graphics/SVG/1.1/DTD/svg11.dtd">
<svg version="1.1" id="Layer_1" xmlns="http://www.w3.org/2000/svg" xmlns:xlink="http://www.w3.org/1999/xlink" x="0px" y="0px"
	 width="64px" height="64px" viewBox="0 0 64 64" enable-background="new 0 0 64 64" xml:space="preserve">
<path d="M62,11H30.5l-5.7-7.6C24.6,3.1,24.3,3,24,3H2C1.4,3,1,3.4,1,4v56c0,0.6,0.4,1,1,1h60c0.6,0,1-0.4,1-1V12
	C63,11.4,62.6,11,62,11z M33,46c0,0.4-0.2,0.7-0.5,0.9C32.3,47,32.2,47,32,47c-0.2,0-0.4,0-0.5-0.1L21.7,41H16c-0.6,0-1-0.4-1-1v-8
	c0-0.6,0.4-1,1-1h5.7l9.8-5.9c0.3-0.2,0.7-0.2,1,0S33,25.6,33,26V46z M38,40.5c-0.3,0-0.7-0.2-0.9-0.5c-0.3-0.5-0.1-1.1,0.4-1.4
	c0.9-0.5,1.5-1.5,1.5-2.6s-0.6-2.1-1.5-2.6c-0.5-0.3-0.6-0.9-0.4-1.4s0.9-0.6,1.4-0.4C40,32.6,41,34.2,41,36s-1,3.4-2.5,4.3
	C38.3,40.4,38.2,40.5,38,40.5z M40.3,48.3c-0.1,0-0.2,0.1-0.3,0.1c-0.4,0-0.8-0.3-0.9-0.7c-0.2-0.5,0.1-1.1,0.6-1.3
	C44.1,44.8,47,40.7,47,36c0-4.7-2.9-8.8-7.3-10.4c-0.5-0.2-0.8-0.8-0.6-1.3c0.2-0.5,0.8-0.8,1.3-0.6C45.5,25.6,49,30.5,49,36
	C49,41.5,45.5,46.4,40.3,48.3z"/>
</svg>
