<?xml version="1.0" encoding="utf-8"?>
<!-- Generator: Adobe Illustrator 19.1.0, SVG Export Plug-In . SVG Version: 6.00 Build 0)  -->
<!DOCTYPE svg PUBLIC "-//W3C//DTD SVG 1.1//EN" "http://www.w3.org/Graphics/SVG/1.1/DTD/svg11.dtd">
<svg version="1.1" id="Layer_1" xmlns="http://www.w3.org/2000/svg" xmlns:xlink="http://www.w3.org/1999/xlink" x="0px" y="0px"
	 width="64px" height="64px" viewBox="0 0 64 64" enable-background="new 0 0 64 64" xml:space="preserve">
<path id="color_69_" d="M62,5H2C1.4,5,1,5.4,1,6v9c0,0.6,0.4,1,1,1h60c0.6,0,1-0.4,1-1V6C63,5.4,62.6,5,62,5z"/>
<path d="M56,18H8c-0.6,0-1,0.4-1,1v39c0,0.6,0.4,1,1,1h48c0.6,0,1-0.4,1-1V19C57,18.4,56.6,18,56,18z M41,38c0,0.6-0.4,1-1,1H24
	c-0.6,0-1-0.4-1-1V28c0-0.6,0.4-1,1-1h16c0.6,0,1,0.4,1,1V38z"/>
</svg>
