<?xml version="1.0" encoding="utf-8"?>
<!-- Generator: Adobe Illustrator 19.1.0, SVG Export Plug-In . SVG Version: 6.00 Build 0)  -->
<!DOCTYPE svg PUBLIC "-//W3C//DTD SVG 1.1//EN" "http://www.w3.org/Graphics/SVG/1.1/DTD/svg11.dtd">
<svg version="1.1" id="Layer_1" xmlns="http://www.w3.org/2000/svg" xmlns:xlink="http://www.w3.org/1999/xlink" x="0px" y="0px"
	 width="64px" height="64px" viewBox="0 0 64 64" enable-background="new 0 0 64 64" xml:space="preserve">
<polygon id="color_264_" points="42,2.6 42,16 55.4,16 "/>
<path d="M57,29V18H41c-0.6,0-1-0.4-1-1V1H8C7.4,1,7,1.4,7,2v27H57z"/>
<path d="M7,56v6c0,0.6,0.4,1,1,1h48c0.6,0,1-0.4,1-1v-6H7z"/>
<path id="color_106_" d="M32.7,39.2c-0.8,0-1.4,0.3-1.8,0.8c-0.4,0.5-0.6,1.3-0.6,2.3c0,1,0.2,1.8,0.6,2.3c0.4,0.5,1,0.8,1.8,0.8
	c1.6,0,2.4-1,2.4-3.1C35,40.3,34.2,39.2,32.7,39.2z"/>
<path id="color_105_" d="M21.8,39.3h-1v6h0.8c1.9,0,2.8-1,2.8-3.1C24.4,40.3,23.6,39.3,21.8,39.3z"/>
<path id="color_104_" d="M61,31H3c-0.6,0-1,0.4-1,1v21c0,0.6,0.4,1,1,1h58c0.6,0,1-0.4,1-1V32C62,31.4,61.6,31,61,31z M25.2,45.8
	c-0.9,0.8-2.1,1.2-3.8,1.2h-2.6v-9.3h2.9c1.5,0,2.7,0.4,3.5,1.2c0.8,0.8,1.3,1.9,1.3,3.4C26.5,43.8,26,45,25.2,45.8z M35.9,45.9
	c-0.8,0.8-1.9,1.2-3.3,1.2s-2.5-0.4-3.3-1.2c-0.8-0.8-1.1-2-1.1-3.6c0-1.5,0.4-2.7,1.1-3.5c0.8-0.8,1.9-1.2,3.3-1.2
	c1.4,0,2.5,0.4,3.3,1.2c0.8,0.8,1.1,2,1.1,3.5C37.1,43.9,36.7,45.1,35.9,45.9z M43.2,45.5c0.7,0,1.4-0.2,2.4-0.5v1.7
	C44.8,47,44,47.1,43,47.1c-1.4,0-2.4-0.4-3.1-1.2c-0.7-0.8-1.1-2-1.1-3.5c0-1,0.2-1.8,0.5-2.5c0.4-0.7,0.9-1.3,1.5-1.7
	c0.7-0.4,1.4-0.6,2.3-0.6c0.9,0,1.8,0.2,2.7,0.7l-0.6,1.6c-0.3-0.2-0.7-0.3-1-0.4c-0.4-0.1-0.7-0.2-1-0.2c-0.7,0-1.3,0.3-1.7,0.8
	s-0.6,1.3-0.6,2.3C40.9,44.5,41.7,45.5,43.2,45.5z"/>
</svg>
