<?xml version="1.0" encoding="utf-8"?>
<!-- Generator: Adobe Illustrator 19.1.0, SVG Export Plug-In . SVG Version: 6.00 Build 0)  -->
<!DOCTYPE svg PUBLIC "-//W3C//DTD SVG 1.1//EN" "http://www.w3.org/Graphics/SVG/1.1/DTD/svg11.dtd">
<svg version="1.1" id="Layer_1" xmlns="http://www.w3.org/2000/svg" xmlns:xlink="http://www.w3.org/1999/xlink" x="0px" y="0px"
	 width="64px" height="64px" viewBox="0 0 64 64" enable-background="new 0 0 64 64" xml:space="preserve">
<polygon id="color_232_" points="42,2.6 42,16 55.4,16 "/>
<path d="M57,29V18H41c-0.6,0-1-0.4-1-1V1H8C7.4,1,7,1.4,7,2v27H57z"/>
<path d="M7,56v6c0,0.6,0.4,1,1,1h48c0.6,0,1-0.4,1-1v-6H7z"/>
<path id="color_83_" d="M40.5,39.3h-0.6v2.5h0.6c0.6,0,1.1-0.1,1.4-0.3s0.4-0.5,0.4-1c0-0.4-0.2-0.8-0.5-0.9S41.1,39.3,40.5,39.3z"
	/>
<path id="color_82_" d="M32,39.1c-0.1,0.5-0.5,1.9-1.2,4h2.4c-0.6-2-1-3.1-1-3.4C32.1,39.5,32,39.3,32,39.1z"/>
<path id="color_81_" d="M22.4,39.3h-0.6v2.5h0.6c0.6,0,1.1-0.1,1.4-0.3s0.4-0.5,0.4-1c0-0.4-0.2-0.8-0.5-0.9
	C23.5,39.4,23,39.3,22.4,39.3z"/>
<path id="color_80_" d="M61,31H3c-0.6,0-1,0.4-1,1v21c0,0.6,0.4,1,1,1h58c0.6,0,1-0.4,1-1V32C62,31.4,61.6,31,61,31z M25.1,47
	l-2.2-3.6h-1V47h-2v-9.3h2.7c1.3,0,2.2,0.2,2.8,0.7s0.9,1.2,0.9,2.1c0,0.5-0.2,1-0.5,1.5c-0.3,0.4-0.7,0.8-1.3,1
	c1.4,2.1,2.3,3.4,2.7,4H25.1z M34.4,47l-0.7-2.2h-3.4L29.6,47h-2.1l3.3-9.3h2.4l3.3,9.3H34.4z M43.1,47l-2.2-3.6h-1V47h-2v-9.3h2.7
	c1.3,0,2.2,0.2,2.8,0.7s0.9,1.2,0.9,2.1c0,0.5-0.2,1-0.5,1.5c-0.3,0.4-0.7,0.8-1.3,1c1.4,2.1,2.3,3.4,2.7,4H43.1z"/>
</svg>
