<?xml version="1.0" encoding="utf-8"?>
<!-- Generator: Adobe Illustrator 19.1.0, SVG Export Plug-In . SVG Version: 6.00 Build 0)  -->
<!DOCTYPE svg PUBLIC "-//W3C//DTD SVG 1.1//EN" "http://www.w3.org/Graphics/SVG/1.1/DTD/svg11.dtd">
<svg version="1.1" id="Layer_1" xmlns="http://www.w3.org/2000/svg" xmlns:xlink="http://www.w3.org/1999/xlink" x="0px" y="0px"
	 width="24px" height="24px" viewBox="0 0 24 24" enable-background="new 0 0 24 24" xml:space="preserve">
<path d="M23,0H8C7.4,0,7,0.4,7,1v6H1C0.4,7,0,7.4,0,8v15c0,0.6,0.4,1,1,1h15c0.6,0,1-0.4,1-1v-6h6c0.6,0,1-0.4,1-1V1
	C24,0.4,23.6,0,23,0z M22,15h-5v-1c0-0.6-0.4-1-1-1s-1,0.4-1,1v1h-1c-0.6,0-1,0.4-1,1s0.4,1,1,1h1v5H2V9h5v1c0,0.6,0.4,1,1,1
	s1-0.4,1-1V9h1c0.6,0,1-0.4,1-1s-0.4-1-1-1H9V2h13V15z"/>
<path d="M14,9h1v1c0,0.6,0.4,1,1,1s1-0.4,1-1V8c0-0.6-0.4-1-1-1h-2c-0.6,0-1,0.4-1,1S13.4,9,14,9z"/>
<path d="M10,15H9v-1c0-0.6-0.4-1-1-1s-1,0.4-1,1v2c0,0.6,0.4,1,1,1h2c0.6,0,1-0.4,1-1S10.6,15,10,15z"/>
</svg>
