<?xml version="1.0" encoding="utf-8"?>
<!-- Generator: Adobe Illustrator 19.1.0, SVG Export Plug-In . SVG Version: 6.00 Build 0)  -->
<!DOCTYPE svg PUBLIC "-//W3C//DTD SVG 1.1//EN" "http://www.w3.org/Graphics/SVG/1.1/DTD/svg11.dtd">
<svg version="1.1" id="Layer_1" xmlns="http://www.w3.org/2000/svg" xmlns:xlink="http://www.w3.org/1999/xlink" x="0px" y="0px"
	 width="24px" height="24px" viewBox="0 0 24 24" enable-background="new 0 0 24 24" xml:space="preserve">
<path d="M10,0H8C7.4,0,7,0.4,7,1v2c0,0.6,0.4,1,1,1s1-0.4,1-1V2h1c0.6,0,1-0.4,1-1S10.6,0,10,0z"/>
<path d="M23,0h-2c-0.6,0-1,0.4-1,1s0.4,1,1,1h1v1c0,0.6,0.4,1,1,1s1-0.4,1-1V1C24,0.4,23.6,0,23,0z"/>
<path d="M23,13c-0.6,0-1,0.4-1,1v1h-1c-0.6,0-1,0.4-1,1s0.4,1,1,1h2c0.6,0,1-0.4,1-1v-2C24,13.4,23.6,13,23,13z"/>
<path d="M17,0h-3c-0.6,0-1,0.4-1,1s0.4,1,1,1h3c0.6,0,1-0.4,1-1S17.6,0,17,0z"/>
<path d="M17,15V8c0-0.6-0.4-1-1-1H9c0-0.6-0.4-1-1-1S7,6.4,7,7C6.4,7,6,7.4,6,8s0.4,1,1,1v7c0,0.6,0.4,1,1,1h7c0,0.6,0.4,1,1,1
	s1-0.4,1-1c0.6,0,1-0.4,1-1S17.6,15,17,15z M9,15V9h6v6H9z"/>
<path d="M23,6c-0.6,0-1,0.4-1,1v3c0,0.6,0.4,1,1,1s1-0.4,1-1V7C24,6.4,23.6,6,23,6z"/>
<path d="M3,7H1C0.4,7,0,7.4,0,8v2c0,0.6,0.4,1,1,1s1-0.4,1-1V9h1c0.6,0,1-0.4,1-1S3.6,7,3,7z"/>
<path d="M3,22H2v-1c0-0.6-0.4-1-1-1s-1,0.4-1,1v2c0,0.6,0.4,1,1,1h2c0.6,0,1-0.4,1-1S3.6,22,3,22z"/>
<path d="M16,20c-0.6,0-1,0.4-1,1v1h-1c-0.6,0-1,0.4-1,1s0.4,1,1,1h2c0.6,0,1-0.4,1-1v-2C17,20.4,16.6,20,16,20z"/>
<path d="M1,18c0.6,0,1-0.4,1-1v-3c0-0.6-0.4-1-1-1s-1,0.4-1,1v3C0,17.6,0.4,18,1,18z"/>
<path d="M10,22H7c-0.6,0-1,0.4-1,1s0.4,1,1,1h3c0.6,0,1-0.4,1-1S10.6,22,10,22z"/>
</svg>
