<?xml version="1.0" encoding="utf-8"?>
<!-- Generator: Adobe Illustrator 19.1.0, SVG Export Plug-In . SVG Version: 6.00 Build 0)  -->
<!DOCTYPE svg PUBLIC "-//W3C//DTD SVG 1.1//EN" "http://www.w3.org/Graphics/SVG/1.1/DTD/svg11.dtd">
<svg version="1.1" id="Layer_1" xmlns="http://www.w3.org/2000/svg" xmlns:xlink="http://www.w3.org/1999/xlink" x="0px" y="0px"
	 width="24px" height="24px" viewBox="0 0 24 24" enable-background="new 0 0 24 24" xml:space="preserve">
<path d="M23,0H1C0.4,0,0,0.4,0,1v22c0,0.6,0.4,1,1,1h22c0.6,0,1-0.4,1-1V1C24,0.4,23.6,0,23,0z M22,22H2V2h20V22z"/>
<path d="M7,11c2.2,0,4-1.8,4-4S9.2,3,7,3S3,4.8,3,7S4.8,11,7,11z M7,5c1.1,0,2,0.9,2,2S8.1,9,7,9S5,8.1,5,7S5.9,5,7,5z"/>
<path d="M14,11h6c0.6,0,1-0.4,1-1V4c0-0.6-0.4-1-1-1h-6c-0.6,0-1,0.4-1,1v6C13,10.6,13.4,11,14,11z M15,5h4v4h-4V5z"/>
<path d="M14,21h6c0.4,0,0.7-0.2,0.9-0.5c0.2-0.3,0.2-0.7,0-1l-3-5c-0.4-0.6-1.4-0.6-1.7,0l-3,5c-0.2,0.3-0.2,0.7,0,1
	C13.3,20.8,13.6,21,14,21z M17,16.9l1.2,2.1h-2.5L17,16.9z"/>
<path d="M4,18h2v2c0,0.6,0.4,1,1,1s1-0.4,1-1v-2h2c0.6,0,1-0.4,1-1s-0.4-1-1-1H8v-2c0-0.6-0.4-1-1-1s-1,0.4-1,1v2H4
	c-0.6,0-1,0.4-1,1S3.4,18,4,18z"/>
</svg>
