<?xml version="1.0" encoding="utf-8"?>
<!-- Generator: Adobe Illustrator 19.1.0, SVG Export Plug-In . SVG Version: 6.00 Build 0)  -->
<!DOCTYPE svg PUBLIC "-//W3C//DTD SVG 1.1//EN" "http://www.w3.org/Graphics/SVG/1.1/DTD/svg11.dtd">
<svg version="1.1" id="Layer_1" xmlns="http://www.w3.org/2000/svg" xmlns:xlink="http://www.w3.org/1999/xlink" x="0px" y="0px"
	 width="24px" height="24px" viewBox="0 0 24 24" enable-background="new 0 0 24 24" xml:space="preserve">
<path d="M2,7v16c0,0.6,0.4,1,1,1h18c0.6,0,1-0.4,1-1V7c0-0.6-0.4-1-1-1H3C2.4,6,2,6.4,2,7z M4,8h16v14H4V8z"/>
<path d="M4,4c0,0.6,0.4,1,1,1h14c0.6,0,1-0.4,1-1s-0.4-1-1-1H5C4.4,3,4,3.4,4,4z"/>
<path d="M16,2c0.6,0,1-0.4,1-1s-0.4-1-1-1H8C7.4,0,7,0.4,7,1s0.4,1,1,1H16z"/>
</svg>
