<?xml version="1.0" encoding="utf-8"?>
<!-- Generator: Adobe Illustrator 19.1.0, SVG Export Plug-In . SVG Version: 6.00 Build 0)  -->
<!DOCTYPE svg PUBLIC "-//W3C//DTD SVG 1.1//EN" "http://www.w3.org/Graphics/SVG/1.1/DTD/svg11.dtd">
<svg version="1.1" id="Layer_1" xmlns="http://www.w3.org/2000/svg" xmlns:xlink="http://www.w3.org/1999/xlink" x="0px" y="0px"
	 width="24px" height="24px" viewBox="0 0 24 24" enable-background="new 0 0 24 24" xml:space="preserve">
<path d="M20.2,9.4c-0.4-0.4-1-0.4-1.4,0l-7.1,7.1c-1.2,1.2-3.1,1.2-4.2,0c-1.2-1.2-1.2-3.1,0-4.2l7.1-7.1c0.2-0.2,0.3-0.4,0.3-0.7
	s-0.1-0.5-0.3-0.7l-2.8-2.8c-0.4-0.4-1-0.4-1.4,0L3.3,8c-3.5,3.5-3.5,9.2,0,12.7c1.8,1.8,4.1,2.6,6.4,2.6c2.3,0,4.6-0.9,6.4-2.6
	l7.1-7.1c0.2-0.2,0.3-0.4,0.3-0.7s-0.1-0.5-0.3-0.7L20.2,9.4z M11,3l1.4,1.4l-1.4,1.4L9.6,4.5L11,3z M14.6,19.3
	c-2.7,2.7-7.2,2.7-9.9,0s-2.7-7.2,0-9.9l3.5-3.5l1.4,1.4l-3.5,3.5c-1.9,2-1.9,5.1,0,7.1s5.1,1.9,7.1,0l3.5-3.5l1.4,1.4L14.6,19.3z
	 M19.5,14.4l-1.4-1.4l1.4-1.4L21,13L19.5,14.4z"/>
</svg>
