<?xml version="1.0" encoding="utf-8"?>
<!-- Generator: Adobe Illustrator 19.1.0, SVG Export Plug-In . SVG Version: 6.00 Build 0)  -->
<!DOCTYPE svg PUBLIC "-//W3C//DTD SVG 1.1//EN" "http://www.w3.org/Graphics/SVG/1.1/DTD/svg11.dtd">
<svg version="1.1" id="Layer_1" xmlns="http://www.w3.org/2000/svg" xmlns:xlink="http://www.w3.org/1999/xlink" x="0px" y="0px"
	 width="24px" height="24px" viewBox="0 0 24 24" enable-background="new 0 0 24 24" xml:space="preserve">
<path d="M23,19h-2V8.4l1.7-1.7c0.9-0.9,0.9-2.5,0-3.4c-0.5-0.5-1.2-0.7-1.8-0.7C20.5,1.1,19.1,0,17.5,0h-14C1.6,0,0,1.6,0,3.5V4
	c0,0.6,0.4,1,1,1h4v15.5C5,22.4,6.6,24,8.5,24H20h0.5c1.9,0,3.5-1.6,3.5-3.5V20C24,19.4,23.6,19,23,19z M21.3,5.3l-1.9,1.9
	c-0.1,0-0.1,0.1-0.2,0.2L16,10.6L15.4,10l5.3-5.3c0.2-0.2,0.4-0.2,0.6,0C21.5,4.9,21.5,5.1,21.3,5.3z M3.5,2c0.1,0,0.3,0,0.4,0.1
	c0,0,0.1,0,0.1,0c0.1,0,0.2,0.1,0.4,0.2c0,0,0,0,0,0c0.1,0.1,0.2,0.2,0.3,0.3c0,0,0,0,0.1,0.1C4.8,2.7,4.9,2.8,4.9,3c0,0,0,0,0,0
	H2.1C2.3,2.4,2.8,2,3.5,2z M7,20.5V4V3.5C7,3.2,7,3,6.9,2.8c0-0.1,0-0.2-0.1-0.2c0-0.2-0.1-0.3-0.2-0.5c0,0,0,0,0-0.1h10.8
	C18.3,2,19,2.7,19,3.5v0.1l-5.7,5.7c-0.4,0.4-0.4,1,0,1.4l2,2c0.2,0.2,0.5,0.3,0.7,0.3s0.5-0.1,0.7-0.3l2.3-2.3V19h-8
	c-0.6,0-1,0.4-1,1v0.5c0,1.2-1.2,1.4-1.5,1.5C7.7,22,7,21.3,7,20.5z M20.5,22H20h-8.3c0.1-0.3,0.2-0.6,0.3-1h9.9
	C21.7,21.6,21.2,22,20.5,22z"/>
<path d="M10,17c0.1,0,0.2,0,0.3,0c1,0,3.1-0.1,3.9-1c0.6-0.6,0.9-1.3,0.9-2.1c0-0.8-0.3-1.6-0.9-2.1c-1.2-1.2-3.1-1.2-4.2,0
	c0,0,0,0,0,0c-1,1-1,3.5-1,4.3C9,16.6,9.4,17,10,17z M11.4,13.2c0.4-0.4,1-0.4,1.4,0c0.2,0.2,0.3,0.4,0.3,0.7c0,0.3-0.1,0.5-0.3,0.7
	c-0.2,0.2-1,0.3-1.8,0.4C11.1,14.1,11.2,13.4,11.4,13.2z"/>
</svg>
