<?xml version="1.0" encoding="utf-8"?>
<!-- Generator: Adobe Illustrator 19.1.0, SVG Export Plug-In . SVG Version: 6.00 Build 0)  -->
<!DOCTYPE svg PUBLIC "-//W3C//DTD SVG 1.1//EN" "http://www.w3.org/Graphics/SVG/1.1/DTD/svg11.dtd">
<svg version="1.1" id="Layer_1" xmlns="http://www.w3.org/2000/svg" xmlns:xlink="http://www.w3.org/1999/xlink" x="0px" y="0px"
	 width="24px" height="24px" viewBox="0 0 24 24" enable-background="new 0 0 24 24" xml:space="preserve">
<path d="M23,2h-7V1c0-0.6-0.4-1-1-1H9C8.4,0,8,0.4,8,1v1H1C0.4,2,0,2.4,0,3v18c0,0.3,0.1,0.6,0.4,0.8C0.6,22,1,22,1.3,22L8,20.1
	l7.7,2.9c0.1,0,0.2,0.1,0.4,0.1c0,0,0.1,0,0.1,0l7-1c0.5-0.1,0.9-0.5,0.9-1V3C24,2.4,23.6,2,23,2z M10,2h4v2h-4V2z M22,20.1L16.1,21
	l-7.8-2.9C8.1,18,7.9,18,7.7,18L2,19.7V4h6v1c0,0.6,0.4,1,1,1h6c0.6,0,1-0.4,1-1V4h6V20.1z"/>
<path d="M8.7,9.3c-0.4-0.4-1-0.4-1.4,0l-2,2c-0.4,0.4-0.4,1,0,1.4l2,2C7.5,14.9,7.7,15,8,15s0.5-0.1,0.7-0.3c0.4-0.4,0.4-1,0-1.4
	L7.4,12l1.3-1.3C9.1,10.3,9.1,9.7,8.7,9.3z"/>
<path d="M15.3,9.3c-0.4,0.4-0.4,1,0,1.4l1.3,1.3l-1.3,1.3c-0.4,0.4-0.4,1,0,1.4c0.2,0.2,0.5,0.3,0.7,0.3s0.5-0.1,0.7-0.3l2-2
	c0.4-0.4,0.4-1,0-1.4l-2-2C16.3,8.9,15.7,8.9,15.3,9.3z"/>
<path d="M13.2,7c-0.5-0.1-1.1,0.2-1.2,0.7l-2,8c-0.1,0.5,0.2,1.1,0.7,1.2c0.1,0,0.2,0,0.2,0c0.4,0,0.9-0.3,1-0.8l2-8
	C14.1,7.7,13.8,7.2,13.2,7z"/>
</svg>
