<?xml version="1.0" encoding="utf-8"?>
<!-- Generator: Adobe Illustrator 19.1.0, SVG Export Plug-In . SVG Version: 6.00 Build 0)  -->
<!DOCTYPE svg PUBLIC "-//W3C//DTD SVG 1.1//EN" "http://www.w3.org/Graphics/SVG/1.1/DTD/svg11.dtd">
<svg version="1.1" id="Layer_1" xmlns="http://www.w3.org/2000/svg" xmlns:xlink="http://www.w3.org/1999/xlink" x="0px" y="0px"
	 width="24px" height="24px" viewBox="0 0 24 24" enable-background="new 0 0 24 24" xml:space="preserve">
<path d="M22.2,1.8c-1.2-1.2-3.2-1.2-4.4,0L17,2.6l-1.3-1.3c-0.4-0.4-1-0.4-1.4,0l-3,3c-0.4,0.4-0.4,1,0,1.4L12.6,7l-7.3,7.3
	c-0.1,0.1-0.2,0.3-0.2,0.4c-0.2,0.5-0.4,1-0.5,1.3C3.1,16.3,2,17.5,2,19c0,1.7,1.3,3,3,3c1.5,0,2.7-1.1,3-2.5
	c0.3-0.1,0.8-0.4,1.3-0.5c0.2,0,0.3-0.1,0.4-0.2l7.3-7.3l1.3,1.3c0.2,0.2,0.5,0.3,0.7,0.3s0.5-0.1,0.7-0.3l3-3c0.4-0.4,0.4-1,0-1.4
	L21.4,7l0.8-0.8C23.4,5,23.4,3,22.2,1.8z M8.5,17.1C6.4,17.8,6,18.3,6,19c0,0.6-0.4,1-1,1s-1-0.4-1-1s0.4-1,1-1
	c0.7,0,1.2-0.4,1.9-2.5L14,8.4l1.6,1.6L8.5,17.1z M20.8,4.8l-1.5,1.5c-0.4,0.4-0.4,1,0,1.4L20.6,9L19,10.6L13.4,5L15,3.4l1.3,1.3
	c0.4,0.4,1,0.4,1.4,0l1.5-1.5c0.4-0.4,1.1-0.4,1.6,0C21.2,3.6,21.2,4.4,20.8,4.8z"/>
</svg>
