<?xml version="1.0" encoding="utf-8"?>
<!-- Generator: Adobe Illustrator 19.1.0, SVG Export Plug-In . SVG Version: 6.00 Build 0)  -->
<!DOCTYPE svg PUBLIC "-//W3C//DTD SVG 1.1//EN" "http://www.w3.org/Graphics/SVG/1.1/DTD/svg11.dtd">
<svg version="1.1" id="Layer_1" xmlns="http://www.w3.org/2000/svg" xmlns:xlink="http://www.w3.org/1999/xlink" x="0px" y="0px"
	 width="24px" height="24px" viewBox="0 0 24 24" enable-background="new 0 0 24 24" xml:space="preserve">
<path d="M23,12h-2.1c-0.2-1.7-0.8-3.4-1.7-4.8l1.5-1.5c0.4-0.4,0.4-1,0-1.4c-0.4-0.4-1-0.4-1.4,0l-1.3,1.3c-0.4-0.4-0.7-0.7-1.2-1
	c-0.1-0.5-0.4-0.9-0.6-1.4l1.6-1.6c0.4-0.4,0.4-1,0-1.4s-1-0.4-1.4,0l-1.6,1.6C13.9,1.3,13,1,12,1s-1.9,0.3-2.7,0.8L7.7,0.3
	c-0.4-0.4-1-0.4-1.4,0s-0.4,1,0,1.4l1.6,1.6C7.6,3.7,7.4,4.1,7.2,4.6c-0.4,0.3-0.8,0.6-1.2,1L4.7,4.3c-0.4-0.4-1-0.4-1.4,0
	c-0.4,0.4-0.4,1,0,1.4l1.5,1.5c-0.9,1.4-1.5,3-1.7,4.8H1c-0.6,0-1,0.4-1,1s0.4,1,1,1h2c0.1,2.2,0.7,4.2,1.8,5.8l-1.5,1.5
	c-0.4,0.4-0.4,1,0,1.4C3.5,22.9,3.7,23,4,23s0.5-0.1,0.7-0.3l1.3-1.3C7.6,23,9.7,24,12,24s4.4-1,5.9-2.6l1.3,1.3
	c0.2,0.2,0.5,0.3,0.7,0.3s0.5-0.1,0.7-0.3c0.4-0.4,0.4-1,0-1.4l-1.5-1.5c1-1.6,1.7-3.6,1.8-5.8h2c0.6,0,1-0.4,1-1S23.6,12,23,12z
	 M14.8,5C14.2,5.4,13,6,12,6S9.8,5.4,9.2,5c0.4-1.2,1.5-2,2.8-2S14.4,3.8,14.8,5z M5,13.5c0-2.7,1.1-5.3,2.9-6.9
	c0.8,0.5,2,1.1,3.1,1.3v14C7.6,21.3,5,17.8,5,13.5z M13,21.9v-14c1.1-0.2,2.3-0.8,3.1-1.3c1.8,1.6,2.9,4.1,2.9,6.9
	C19,17.8,16.4,21.3,13,21.9z"/>
</svg>
