<?xml version="1.0" encoding="utf-8"?>
<!-- Generator: Adobe Illustrator 19.1.0, SVG Export Plug-In . SVG Version: 6.00 Build 0)  -->
<!DOCTYPE svg PUBLIC "-//W3C//DTD SVG 1.1//EN" "http://www.w3.org/Graphics/SVG/1.1/DTD/svg11.dtd">
<svg version="1.1" id="Layer_1" xmlns="http://www.w3.org/2000/svg" xmlns:xlink="http://www.w3.org/1999/xlink" x="0px" y="0px"
	 width="24px" height="24px" viewBox="0 0 24 24" enable-background="new 0 0 24 24" xml:space="preserve">
<path d="M4,23V1c0-0.6-0.4-1-1-1S2,0.4,2,1v22c0,0.6,0.4,1,1,1S4,23.6,4,23z"/>
<path d="M6,5v5c0,0.6,0.4,1,1,1h14c0.6,0,1-0.4,1-1V5c0-0.6-0.4-1-1-1H7C6.4,4,6,4.4,6,5z M8,6h12v3H8V6z"/>
<path d="M6,19c0,0.6,0.4,1,1,1h8c0.6,0,1-0.4,1-1v-5c0-0.6-0.4-1-1-1H7c-0.6,0-1,0.4-1,1V19z M8,15h6v3H8V15z"/>
</svg>
