<?xml version="1.0" encoding="utf-8"?>
<!-- Generator: Adobe Illustrator 19.1.0, SVG Export Plug-In . SVG Version: 6.00 Build 0)  -->
<!DOCTYPE svg PUBLIC "-//W3C//DTD SVG 1.1//EN" "http://www.w3.org/Graphics/SVG/1.1/DTD/svg11.dtd">
<svg version="1.1" id="Layer_1" xmlns="http://www.w3.org/2000/svg" xmlns:xlink="http://www.w3.org/1999/xlink" x="0px" y="0px"
	 width="24px" height="24px" viewBox="0 0 24 24" enable-background="new 0 0 24 24" xml:space="preserve">
<path d="M22,5.9c0-0.1,0-0.2-0.1-0.3c0,0,0,0,0,0c0,0,0,0,0,0c0-0.1-0.1-0.2-0.2-0.2c0,0,0,0,0-0.1c-0.1-0.1-0.2-0.1-0.3-0.2l-9-4
	c-0.3-0.1-0.6-0.1-0.8,0l-9,4c-0.1,0-0.2,0.1-0.3,0.2c0,0,0,0,0,0.1C2.2,5.4,2.2,5.5,2.1,5.5c0,0,0,0,0,0c0,0,0,0,0,0
	C2,5.7,2,5.8,2,5.9c0,0,0,0,0,0c0,0,0,0,0,0v12c0,0.4,0.2,0.8,0.6,0.9l9,4c0,0,0,0,0,0C11.7,23,11.9,23,12,23s0.3,0,0.4-0.1
	c0,0,0,0,0,0l9-4c0.4-0.2,0.6-0.5,0.6-0.9L22,5.9C22,6,22,6,22,5.9C22,6,22,6,22,5.9z M12,3.1L18.5,6L12,8.9L5.5,6L12,3.1z M4,7.5
	l7,3.1v9.8l-7-3.1V7.5z M13,20.5v-9.8l7-3.1v9.8L13,20.5z"/>
</svg>
