<?xml version="1.0" encoding="utf-8"?>
<!-- Generator: Adobe Illustrator 19.1.0, SVG Export Plug-In . SVG Version: 6.00 Build 0)  -->
<!DOCTYPE svg PUBLIC "-//W3C//DTD SVG 1.1//EN" "http://www.w3.org/Graphics/SVG/1.1/DTD/svg11.dtd">
<svg version="1.1" id="Layer_1" xmlns="http://www.w3.org/2000/svg" xmlns:xlink="http://www.w3.org/1999/xlink" x="0px" y="0px"
	 width="16px" height="16px" viewBox="0 0 16 16" enable-background="new 0 0 16 16" xml:space="preserve">
<path fill="#444444" d="M7,8H1C0.4,8,0,8.4,0,9v6c0,0.6,0.4,1,1,1h6c0.6,0,1-0.4,1-1V9C8,8.4,7.6,8,7,8z"/>
<path data-color="color-2" fill="#444444" d="M11,4H2v2h8v8h2V5C12,4.4,11.6,4,11,4z"/>
<path data-color="color-2" fill="#444444" d="M15,0H6v2h8v8h2V1C16,0.4,15.6,0,15,0z"/>
</svg>
