<?xml version="1.0" encoding="utf-8"?>
<!-- Generator: Adobe Illustrator 19.1.0, SVG Export Plug-In . SVG Version: 6.00 Build 0)  -->
<!DOCTYPE svg PUBLIC "-//W3C//DTD SVG 1.1//EN" "http://www.w3.org/Graphics/SVG/1.1/DTD/svg11.dtd">
<svg version="1.1" id="Layer_1" xmlns="http://www.w3.org/2000/svg" xmlns:xlink="http://www.w3.org/1999/xlink" x="0px" y="0px"
	 width="16px" height="16px" viewBox="0 0 16 16" enable-background="new 0 0 16 16" xml:space="preserve">
<path data-color="color-2" fill="#444444" d="M4,8H0l0,4.9c0,1,0.7,1.9,1.7,2.1C2.9,15.2,4,14.2,4,13V8z"/>
<path fill="#444444" d="M15,1H7C6.4,1,6,1.4,6,2v11c0,0.7-0.2,1.4-0.6,2H13c1.7,0,3-1.3,3-3V2C16,1.4,15.6,1,15,1z"/>
</svg>
