<?xml version="1.0" encoding="utf-8"?>
<!-- Generator: Adobe Illustrator 19.1.0, SVG Export Plug-In . SVG Version: 6.00 Build 0)  -->
<!DOCTYPE svg PUBLIC "-//W3C//DTD SVG 1.1//EN" "http://www.w3.org/Graphics/SVG/1.1/DTD/svg11.dtd">
<svg version="1.1" id="Layer_1" xmlns="http://www.w3.org/2000/svg" xmlns:xlink="http://www.w3.org/1999/xlink" x="0px" y="0px"
	 width="48px" height="48px" viewBox="0 0 48 48" enable-background="new 0 0 48 48" xml:space="preserve">
<path d="M13,10c0-2.8-2.2-5-5-5s-5,2.2-5,5s2.2,5,5,5S13,12.8,13,10z M5,10c0-1.7,1.3-3,3-3s3,1.3,3,3s-1.3,3-3,3S5,11.7,5,10z"/>
<path d="M45,10c0-2.8-2.2-5-5-5s-5,2.2-5,5s2.2,5,5,5S45,12.8,45,10z M37,10c0-1.7,1.3-3,3-3s3,1.3,3,3s-1.3,3-3,3S37,11.7,37,10z"
	/>
<path d="M46,19H34H14H2c-0.6,0-1,0.4-1,1v8c0,0.2,0.1,0.4,0.2,0.6L5,34.3V42c0,0.6,0.4,1,1,1h8c0.6,0,1-0.4,1-1v-7.6l4,4V46
	c0,0.6,0.4,1,1,1h8c0.6,0,1-0.4,1-1v-7.6l4-4V42c0,0.6,0.4,1,1,1h8c0.6,0,1-0.4,1-1v-7.7l3.8-5.7c0.1-0.2,0.2-0.4,0.2-0.6v-8
	C47,19.4,46.6,19,46,19z M13,41H7v-7c0-0.2-0.1-0.4-0.2-0.6L3,27.7V21h10v11V41z M27.3,37.3C27.1,37.5,27,37.7,27,38v7h-6v-7
	c0-0.3-0.1-0.5-0.3-0.7L15,31.6V21h18v10.6L27.3,37.3z M45,27.7l-3.8,5.7C41.1,33.6,41,33.8,41,34v7h-6v-9V21h10V27.7z"/>
<path d="M31,8c0-3.9-3.1-7-7-7s-7,3.1-7,7s3.1,7,7,7S31,11.9,31,8z M19,8c0-2.8,2.2-5,5-5s5,2.2,5,5s-2.2,5-5,5S19,10.8,19,8z"/>
</svg>
