<?xml version="1.0" encoding="utf-8"?>
<!-- Generator: Adobe Illustrator 19.1.0, SVG Export Plug-In . SVG Version: 6.00 Build 0)  -->
<!DOCTYPE svg PUBLIC "-//W3C//DTD SVG 1.1//EN" "http://www.w3.org/Graphics/SVG/1.1/DTD/svg11.dtd">
<svg version="1.1" id="Layer_1" xmlns="http://www.w3.org/2000/svg" xmlns:xlink="http://www.w3.org/1999/xlink" x="0px" y="0px"
	 width="16px" height="16px" viewBox="0 0 16 16" enable-background="new 0 0 16 16" xml:space="preserve">
<path fill="#444444" d="M13.8,16H2.2C1,16,0,15,0,13.8V2.2C0,1,1,0,2.2,0h11.6C15,0,16,1,16,2.2v11.6C16,15,15,16,13.8,16z M2.2,2
	C2.1,2,2,2.1,2,2.2v11.6C2,13.9,2.1,14,2.2,14h11.6c0.1,0,0.2-0.1,0.2-0.2V2.2C14,2.1,13.9,2,13.8,2H2.2z"/>
<rect data-color="color-2" x="4" y="5" fill="#444444" width="8" height="2"/>
<rect data-color="color-2" x="4" y="9" fill="#444444" width="5" height="2"/>
</svg>
