<?xml version="1.0" encoding="utf-8"?>
<!-- Generator: Adobe Illustrator 19.1.0, SVG Export Plug-In . SVG Version: 6.00 Build 0)  -->
<!DOCTYPE svg PUBLIC "-//W3C//DTD SVG 1.1//EN" "http://www.w3.org/Graphics/SVG/1.1/DTD/svg11.dtd">
<svg version="1.1" id="Layer_1" xmlns="http://www.w3.org/2000/svg" xmlns:xlink="http://www.w3.org/1999/xlink" x="0px" y="0px"
	 width="16px" height="16px" viewBox="0 0 16 16" enable-background="new 0 0 16 16" xml:space="preserve">
<path fill="#444444" d="M7,10V3c0-0.6-0.4-1-1-1H5V0H2v2H1C0.4,2,0,2.4,0,3v7c0,0.6,0.4,1,1,1h5C6.6,11,7,10.6,7,10z"/>
<path fill="#444444" d="M15,2h-1V0h-3v2h-1C9.4,2,9,2.4,9,3v7c0,0.6,0.4,1,1,1h5c0.6,0,1-0.4,1-1V3C16,2.4,15.6,2,15,2z"/>
<path data-color="color-2" fill="#444444" d="M12,14H4v-2H2v3c0,0.6,0.4,1,1,1h10c0.6,0,1-0.4,1-1v-3h-2V14z"/>
</svg>
