<?xml version="1.0" encoding="utf-8"?>
<!-- Generator: Adobe Illustrator 18.1.1, SVG Export Plug-In . SVG Version: 6.00 Build 0)  -->
<!DOCTYPE svg PUBLIC "-//W3C//DTD SVG 1.1//EN" "http://www.w3.org/Graphics/SVG/1.1/DTD/svg11.dtd">
<svg version="1.1" id="Layer_1" xmlns="http://www.w3.org/2000/svg" xmlns:xlink="http://www.w3.org/1999/xlink" x="0px" y="0px"
	 width="32px" height="32px" viewBox="0 0 32 32" enable-background="new 0 0 32 32" xml:space="preserve">
<path d="M31,5H15.5l-2.7-3.6C12.6,1.1,12.3,1,12,1H1C0.4,1,0,1.4,0,2v28c0,0.6,0.4,1,1,1h30c0.6,0,1-0.4,1-1V6C32,5.4,31.6,5,31,5z
	 M12,26H9c-0.6,0-1-0.4-1-1v-3c0-0.2,0.1-0.3,0.1-0.5l4.3,4.3C12.3,25.9,12.2,26,12,26z M23.7,14.7l-9.8,9.8l-4.4-4.4l9.8-9.8
	c0.4-0.4,1-0.4,1.4,0l3,3C24.1,13.7,24.1,14.3,23.7,14.7z"/>
</svg>
