<?xml version="1.0" encoding="utf-8"?>
<!-- Generator: Adobe Illustrator 19.1.0, SVG Export Plug-In . SVG Version: 6.00 Build 0)  -->
<!DOCTYPE svg PUBLIC "-//W3C//DTD SVG 1.1//EN" "http://www.w3.org/Graphics/SVG/1.1/DTD/svg11.dtd">
<svg version="1.1" id="Layer_1" xmlns="http://www.w3.org/2000/svg" xmlns:xlink="http://www.w3.org/1999/xlink" x="0px" y="0px"
	 width="32px" height="32px" viewBox="0 0 32 32" enable-background="new 0 0 32 32" xml:space="preserve">
<path id="color_117_" d="M3,29v2c0,0.6,0.4,1,1,1h24c0.6,0,1-0.4,1-1v-2H3z"/>
<polygon id="color_116_" points="22,1.6 22,7 27.4,7 "/>
<path d="M10.4,18.5H10v3.2h0.3c0.5,0,0.8-0.1,1-0.4s0.3-0.7,0.3-1.2c0-0.5-0.1-0.9-0.3-1.2S10.9,18.5,10.4,18.5z"/>
<path d="M16.3,18.5h-0.4v3.2h0.3c0.5,0,0.8-0.1,1-0.4s0.3-0.7,0.3-1.2c0-0.5-0.1-0.9-0.3-1.2S16.7,18.5,16.3,18.5z"/>
<path d="M31,13h-2V9h-8c-0.6,0-1-0.4-1-1V0H4C3.4,0,3,0.4,3,1v12H1c-0.6,0-1,0.4-1,1v12c0,0.6,0.4,1,1,1h30c0.6,0,1-0.4,1-1V14
	C32,13.4,31.6,13,31,13z M12.5,22.2C12,22.7,11.2,23,10.3,23H8.4v-5.7h2c0.9,0,1.6,0.2,2.1,0.7s0.7,1.1,0.7,2
	C13.3,21,13,21.7,12.5,22.2z M18.4,22.2c-0.5,0.5-1.3,0.8-2.2,0.8h-1.8v-5.7h2c0.9,0,1.6,0.2,2.1,0.7s0.7,1.1,0.7,2
	C19.2,21,18.9,21.7,18.4,22.2z M21.7,19.1c0.1,0.1,0.4,0.2,0.9,0.5c0.5,0.2,0.8,0.5,1,0.7s0.3,0.6,0.3,1c0,0.4-0.1,0.7-0.3,0.9
	s-0.4,0.5-0.8,0.6s-0.7,0.2-1.2,0.2c-0.4,0-0.7,0-1-0.1s-0.5-0.1-0.8-0.3v-1.4c0.3,0.2,0.6,0.3,0.9,0.4s0.6,0.1,0.9,0.1
	c0.2,0,0.4,0,0.5-0.1s0.2-0.2,0.2-0.3c0-0.1,0-0.1-0.1-0.2s-0.1-0.1-0.2-0.2s-0.3-0.2-0.8-0.4c-0.4-0.2-0.7-0.3-0.8-0.5
	s-0.3-0.3-0.4-0.5S20,19.2,20,18.9c0-0.5,0.2-0.9,0.6-1.2s0.9-0.4,1.6-0.4c0.6,0,1.2,0.1,1.8,0.4l-0.5,1.2c-0.5-0.2-1-0.4-1.4-0.4
	c-0.2,0-0.3,0-0.4,0.1s-0.1,0.2-0.1,0.3C21.5,18.9,21.5,19,21.7,19.1z"/>
</svg>
