<?xml version="1.0" encoding="utf-8"?>
<!-- Generator: Adobe Illustrator 19.1.0, SVG Export Plug-In . SVG Version: 6.00 Build 0)  -->
<!DOCTYPE svg PUBLIC "-//W3C//DTD SVG 1.1//EN" "http://www.w3.org/Graphics/SVG/1.1/DTD/svg11.dtd">
<svg version="1.1" id="Layer_1" xmlns="http://www.w3.org/2000/svg" xmlns:xlink="http://www.w3.org/1999/xlink" x="0px" y="0px"
	 width="32px" height="32px" viewBox="0 0 32 32" enable-background="new 0 0 32 32" xml:space="preserve">
<path id="color_77_" d="M3,29v2c0,0.6,0.4,1,1,1h24c0.6,0,1-0.4,1-1v-2H3z"/>
<polygon id="color_76_" points="22,1.6 22,7 27.4,7 "/>
<path d="M14.8,18.5c-0.8,0-1.2,0.6-1.2,1.7c0,1.1,0.4,1.7,1.2,1.7c0.4,0,0.7-0.1,0.9-0.4s0.3-0.7,0.3-1.3c0-0.6-0.1-1-0.3-1.3
	S15.2,18.5,14.8,18.5z"/>
<path d="M31,13h-2V9h-8c-0.6,0-1-0.4-1-1V0H4C3.4,0,3,0.4,3,1v12H1c-0.6,0-1,0.4-1,1v12c0,0.6,0.4,1,1,1h30c0.6,0,1-0.4,1-1V14
	C32,13.4,31.6,13,31,13z M11.3,18.5H9.5v1.1h1.7v1.2H9.5V23H7.9v-5.7h3.4V18.5z M16.9,22.3c-0.5,0.5-1.2,0.8-2.1,0.8
	c-0.9,0-1.6-0.3-2.1-0.8S12,21.1,12,20.1c0-1,0.2-1.7,0.7-2.2s1.2-0.8,2.1-0.8c0.9,0,1.6,0.2,2.1,0.7s0.7,1.2,0.7,2.2
	C17.6,21.1,17.4,21.8,16.9,22.3z M24.1,23h-2L20,19h0c0,0.6,0.1,1.1,0.1,1.4V23h-1.4v-5.7h2l2.1,4h0c0-0.6-0.1-1-0.1-1.4v-2.6h1.4
	V23z"/>
</svg>
