<?xml version="1.0" encoding="utf-8"?>
<!-- Generator: Adobe Illustrator 19.1.0, SVG Export Plug-In . SVG Version: 6.00 Build 0)  -->
<!DOCTYPE svg PUBLIC "-//W3C//DTD SVG 1.1//EN" "http://www.w3.org/Graphics/SVG/1.1/DTD/svg11.dtd">
<svg version="1.1" id="Layer_1" xmlns="http://www.w3.org/2000/svg" xmlns:xlink="http://www.w3.org/1999/xlink" x="0px" y="0px"
	 width="32px" height="32px" viewBox="0 0 32 32" enable-background="new 0 0 32 32" xml:space="preserve">
<path id="color_59_" d="M3,29v2c0,0.6,0.4,1,1,1h24c0.6,0,1-0.4,1-1v-2H3z"/>
<polygon id="color_58_" points="22,1.6 22,7 27.4,7 "/>
<path d="M31,13h-2V9h-8c-0.6,0-1-0.4-1-1V0H4C3.4,0,3,0.4,3,1v12H1c-0.6,0-1,0.4-1,1v12c0,0.6,0.4,1,1,1h30c0.6,0,1-0.4,1-1V14
	C32,13.4,31.6,13,31,13z M9.5,19.1c0.1,0.1,0.4,0.2,0.9,0.5c0.5,0.2,0.8,0.5,1,0.7s0.3,0.6,0.3,1c0,0.4-0.1,0.7-0.3,0.9
	s-0.4,0.5-0.8,0.6s-0.7,0.2-1.2,0.2c-0.4,0-0.7,0-1-0.1S8,22.9,7.7,22.7v-1.4c0.3,0.2,0.6,0.3,0.9,0.4s0.6,0.1,0.9,0.1
	c0.2,0,0.4,0,0.5-0.1s0.2-0.2,0.2-0.3c0-0.1,0-0.1-0.1-0.2S10,21.1,9.9,21s-0.3-0.2-0.8-0.4c-0.4-0.2-0.7-0.3-0.8-0.5
	S8,19.8,7.9,19.6s-0.1-0.4-0.1-0.7c0-0.5,0.2-0.9,0.6-1.2s0.9-0.4,1.6-0.4c0.6,0,1.2,0.1,1.8,0.4l-0.5,1.2c-0.5-0.2-1-0.4-1.4-0.4
	c-0.2,0-0.3,0-0.4,0.1c-0.1,0.1-0.1,0.2-0.1,0.3C9.3,18.9,9.4,19,9.5,19.1z M18.8,23H17l-0.5-2.5c0-0.1-0.1-0.3-0.1-0.6
	s-0.1-0.6-0.1-0.8c0,0.2-0.1,0.4-0.1,0.6c0,0.3-0.1,0.5-0.1,0.7s-0.2,1.1-0.6,2.6h-1.8l-1.4-5.7h1.5l0.6,2.9
	c0.1,0.6,0.2,1.1,0.3,1.5c0-0.3,0.1-0.6,0.2-1.1s0.2-0.8,0.2-1.1l0.5-2.2h1.4l0.5,2.2c0.1,0.3,0.2,0.7,0.3,1.2s0.1,0.8,0.2,1
	c0-0.3,0.1-0.8,0.3-1.5l0.6-2.9h1.5L18.8,23z M24.3,18.5h-1.9v1.1h1.7v1.2h-1.7V23h-1.5v-5.7h3.4V18.5z"/>
</svg>
