<?xml version="1.0" encoding="utf-8"?>
<!-- Generator: Adobe Illustrator 19.1.0, SVG Export Plug-In . SVG Version: 6.00 Build 0)  -->
<!DOCTYPE svg PUBLIC "-//W3C//DTD SVG 1.1//EN" "http://www.w3.org/Graphics/SVG/1.1/DTD/svg11.dtd">
<svg version="1.1" id="Layer_1" xmlns="http://www.w3.org/2000/svg" xmlns:xlink="http://www.w3.org/1999/xlink" x="0px" y="0px"
	 width="32px" height="32px" viewBox="0 0 32 32" enable-background="new 0 0 32 32" xml:space="preserve">
<path id="color_97_" d="M3,29v2c0,0.6,0.4,1,1,1h24c0.6,0,1-0.4,1-1v-2H3z"/>
<polygon id="color_96_" points="22,1.6 22,7 27.4,7 "/>
<path d="M21.8,18.5h-0.4v3.2h0.3c0.5,0,0.8-0.1,1-0.4s0.3-0.7,0.3-1.2c0-0.5-0.1-0.9-0.3-1.2S22.2,18.5,21.8,18.5z"/>
<path d="M31,13h-2V9h-8c-0.6,0-1-0.4-1-1V0H4C3.4,0,3,0.4,3,1v12H1c-0.6,0-1,0.4-1,1v12c0,0.6,0.4,1,1,1h30c0.6,0,1-0.4,1-1V14
	C32,13.4,31.6,13,31,13z M11.2,24.4l-1-1.3l0,0v0l0,0c-0.9,0-1.6-0.3-2.1-0.8s-0.7-1.2-0.7-2.2c0-1,0.2-1.7,0.7-2.2s1.2-0.8,2.1-0.8
	c0.9,0,1.6,0.2,2.1,0.7s0.7,1.2,0.7,2.2c0,1.3-0.4,2.2-1.2,2.6l1.4,1.6H11.2z M17.3,23l-1.1-1.8L15.1,23h-1.7l1.9-2.9l-1.8-2.8h1.7
	l1,1.8l1-1.8H19l-1.8,2.9l1.9,2.8H17.3z M23.8,22.2c-0.5,0.5-1.3,0.8-2.2,0.8h-1.8v-5.7h2c0.9,0,1.6,0.2,2.1,0.7s0.7,1.1,0.7,2
	C24.6,21,24.3,21.7,23.8,22.2z"/>
<path d="M10.2,18.5C9.4,18.5,9,19,9,20.1c0,1.1,0.4,1.7,1.2,1.7c0.4,0,0.7-0.1,0.9-0.4s0.3-0.7,0.3-1.3c0-0.6-0.1-1-0.3-1.3
	S10.6,18.5,10.2,18.5z"/>
</svg>
