<?xml version="1.0" encoding="utf-8"?>
<!-- Generator: Adobe Illustrator 19.1.0, SVG Export Plug-In . SVG Version: 6.00 Build 0)  -->
<!DOCTYPE svg PUBLIC "-//W3C//DTD SVG 1.1//EN" "http://www.w3.org/Graphics/SVG/1.1/DTD/svg11.dtd">
<svg version="1.1" id="Layer_1" xmlns="http://www.w3.org/2000/svg" xmlns:xlink="http://www.w3.org/1999/xlink" x="0px" y="0px"
	 width="32px" height="32px" viewBox="0 0 32 32" enable-background="new 0 0 32 32" xml:space="preserve">
<path id="color_169_" d="M3,29v2c0,0.6,0.4,1,1,1h24c0.6,0,1-0.4,1-1v-2H3z"/>
<polygon id="color_168_" points="22,1.6 22,7 27.4,7 "/>
<path d="M31,13h-2V9h-8c-0.6,0-1-0.4-1-1V0H4C3.4,0,3,0.4,3,1v12H1c-0.6,0-1,0.4-1,1v12c0,0.6,0.4,1,1,1h30c0.6,0,1-0.4,1-1V14
	C32,13.4,31.6,13,31,13z M13.7,23h-1.4v-2.5c0-0.1,0-0.3,0-0.4s0-0.5,0.1-1.2h0L11.2,23H9.7l-1.2-4.1h0c0.1,0.7,0.1,1.2,0.1,1.6V23
	H7.2v-5.7h2.1l1.2,4.1h0l1.2-4.1h2.1V23z M23.5,23h-1.8l-1.9-5.7l-1.8,2.5l1.8,3.2h-1.7L17,20.8l-0.5,0.3V23H15v-5.7h1.6v2.5
	c0.1-0.2,0.2-0.4,0.5-0.7l1.2-1.8h1.7h0h1.7l0.8,2.9c0.2,0.6,0.2,1.1,0.3,1.3c0-0.2,0.1-0.4,0.1-0.7s0.1-0.5,0.1-0.6l0.8-2.9h1.7
	L23.5,23z"/>
</svg>
