<?xml version="1.0" encoding="utf-8"?>
<!-- Generator: Adobe Illustrator 19.1.0, SVG Export Plug-In . SVG Version: 6.00 Build 0)  -->
<!DOCTYPE svg PUBLIC "-//W3C//DTD SVG 1.1//EN" "http://www.w3.org/Graphics/SVG/1.1/DTD/svg11.dtd">
<svg version="1.1" id="Layer_1" xmlns="http://www.w3.org/2000/svg" xmlns:xlink="http://www.w3.org/1999/xlink" x="0px" y="0px"
	 width="48px" height="48px" viewBox="0 0 48 48" enable-background="new 0 0 48 48" xml:space="preserve">
<path d="M24,28c6.1,0,11-4.9,11-11v-4c0-6.1-4.9-11-11-11S13,6.9,13,13v4C13,23.1,17.9,28,24,28z"/>
<path d="M32,32H16c-5,0-9,4-9,9v4c0,0.6,0.4,1,1,1h32c0.6,0,1-0.4,1-1v-4C41,36,37,32,32,32z"/>
</svg>
