<?xml version="1.0" encoding="utf-8"?>
<!-- Generator: Adobe Illustrator 19.1.0, SVG Export Plug-In . SVG Version: 6.00 Build 0)  -->
<!DOCTYPE svg PUBLIC "-//W3C//DTD SVG 1.1//EN" "http://www.w3.org/Graphics/SVG/1.1/DTD/svg11.dtd">
<svg version="1.1" id="Layer_1" xmlns="http://www.w3.org/2000/svg" xmlns:xlink="http://www.w3.org/1999/xlink" x="0px" y="0px"
	 width="48px" height="48px" viewBox="0 0 48 48" enable-background="new 0 0 48 48" xml:space="preserve">
<path d="M31,33.4v2c7.8,0.9,12,3.1,12,4.6c0,2.1-7.2,5-19,5S5,42.1,5,40c0-1.5,4.2-3.7,12-4.6v-2C10,34.1,3,36.2,3,40
	c0,4.6,10.6,7,21,7s21-2.4,21-7C45,36.2,38,34.1,31,33.4z"/>
<path d="M34,17H14c-0.6,0-1,0.4-1,1v8c0,0.3,0.2,0.6,0.4,0.8l5.6,3.7V40c0,0.6,0.4,1,1,1h8c0.6,0,1-0.4,1-1v-9.5l5.6-3.7
	c0.3-0.2,0.4-0.5,0.4-0.8v-8C35,17.4,34.6,17,34,17z"/>
<path d="M24,15c3.9,0,7-3.1,7-7s-3.1-7-7-7s-7,3.1-7,7S20.1,15,24,15z"/>
</svg>
