<?xml version="1.0" encoding="utf-8"?>
<!-- Generator: Adobe Illustrator 19.1.0, SVG Export Plug-In . SVG Version: 6.00 Build 0)  -->
<!DOCTYPE svg PUBLIC "-//W3C//DTD SVG 1.1//EN" "http://www.w3.org/Graphics/SVG/1.1/DTD/svg11.dtd">
<svg version="1.1" id="Layer_1" xmlns="http://www.w3.org/2000/svg" xmlns:xlink="http://www.w3.org/1999/xlink" x="0px" y="0px"
	 width="48px" height="48px" viewBox="0 0 48 48" enable-background="new 0 0 48 48" xml:space="preserve">
<path d="M21.2,9.4c0.4-0.6,1.3-0.6,1.7,0l3.7,5.6H36v-1c0-6.6-5.4-12-12-12S12,7.4,12,14v1h5.5L21.2,9.4z"/>
<path d="M25.2,16.6L22,11.8l-3.2,4.8C18.6,16.8,18.3,17,18,17h-6v3c0,6.6,5.4,12,12,12s12-5.4,12-12v-3H26
	C25.7,17,25.4,16.8,25.2,16.6z"/>
<path d="M34.1,29.7l8,4.8c1-1.3,1.7-3,1.9-4.8c-2.9-0.6-5.4-2.7-6.8-5.2C36.6,26.5,35.5,28.2,34.1,29.7z"/>
<path d="M13.9,29.7c-1.4-1.5-2.5-3.2-3.1-5.1c-1.4,2.5-3.8,4.6-6.7,5.2c0.2,1.8,0.8,3.4,1.9,4.7L13.9,29.7z"/>
<path d="M42.1,36.8l-9.6-5.7C30.1,32.9,27.2,34,24,34s-6.1-1.1-8.5-2.9l-9.6,5.7c-1.2,0.7-1.9,2-1.9,3.4V44c0,1.1,0.9,2,2,2h36
	c1.1,0,2-0.9,2-2v-3.7C44,38.9,43.3,37.6,42.1,36.8z"/>
</svg>
