<?xml version="1.0" encoding="utf-8"?>
<!-- Generator: Adobe Illustrator 19.1.0, SVG Export Plug-In . SVG Version: 6.00 Build 0)  -->
<!DOCTYPE svg PUBLIC "-//W3C//DTD SVG 1.1//EN" "http://www.w3.org/Graphics/SVG/1.1/DTD/svg11.dtd">
<svg version="1.1" id="Layer_1" xmlns="http://www.w3.org/2000/svg" xmlns:xlink="http://www.w3.org/1999/xlink" x="0px" y="0px"
	 width="48px" height="48px" viewBox="0 0 48 48" enable-background="new 0 0 48 48" xml:space="preserve">
<path d="M38,13H10c-0.6,0-1,0.4-1,1c0,5,4,9,9,9c2.2,0,4.3-0.8,6-2.3c1.7,1.5,3.8,2.3,6,2.3c5,0,9-4,9-9C39,13.4,38.6,13,38,13z"/>
<path d="M42.1,36.8l-9.6-5.7C30.1,32.9,27.2,34,24,34s-6.1-1.1-8.5-2.9l-9.6,5.7c-1.2,0.7-1.9,2-1.9,3.4V44c0,1.1,0.9,2,2,2h36
	c1.1,0,2-0.9,2-2v-3.7C44,38.9,43.3,37.6,42.1,36.8z"/>
<path d="M35.6,11c-1.3-5.2-6-9-11.6-9s-10.3,3.8-11.6,9H35.6z"/>
<path d="M30,25c-2.1,0-4.2-0.6-6-1.8c-1.8,1.2-3.9,1.8-6,1.8c-2,0-3.9-0.5-5.5-1.5C14,28.4,18.6,32,24,32s10-3.6,11.5-8.5
	C33.9,24.5,32,25,30,25z"/>
</svg>
