<?xml version="1.0" encoding="utf-8"?>
<!-- Generator: Adobe Illustrator 19.1.0, SVG Export Plug-In . SVG Version: 6.00 Build 0)  -->
<!DOCTYPE svg PUBLIC "-//W3C//DTD SVG 1.1//EN" "http://www.w3.org/Graphics/SVG/1.1/DTD/svg11.dtd">
<svg version="1.1" id="Layer_1" xmlns="http://www.w3.org/2000/svg" xmlns:xlink="http://www.w3.org/1999/xlink" x="0px" y="0px"
	 width="48px" height="48px" viewBox="0 0 48 48" enable-background="new 0 0 48 48" xml:space="preserve">
<path d="M18,27c6.1,0,11-4.9,11-11v-4c0-6.1-4.9-11-11-11S7,5.9,7,12v4C7,22.1,11.9,27,18,27z"/>
<path d="M36,23c-5.7,0-10.4,4.4-10.9,10H10c-5,0-9,4-9,9v4c0,0.6,0.4,1,1,1h32c0.6,0,1-0.4,1-1v-1.1c0.3,0,0.7,0.1,1,0.1
	c6.1,0,11-4.9,11-11S42.1,23,36,23z M36,43c-5,0-9-4-9-9s4-9,9-9s9,4,9,9S41,43,36,43z"/>
<path d="M40,33h-8c-0.6,0-1,0.4-1,1s0.4,1,1,1h8c0.6,0,1-0.4,1-1S40.6,33,40,33z"/>
</svg>
