<?xml version="1.0" encoding="utf-8"?>
<!-- Generator: Adobe Illustrator 19.1.0, SVG Export Plug-In . SVG Version: 6.00 Build 0)  -->
<!DOCTYPE svg PUBLIC "-//W3C//DTD SVG 1.1//EN" "http://www.w3.org/Graphics/SVG/1.1/DTD/svg11.dtd">
<svg version="1.1" id="Layer_1" xmlns="http://www.w3.org/2000/svg" xmlns:xlink="http://www.w3.org/1999/xlink" x="0px" y="0px"
	 width="48px" height="48px" viewBox="0 0 48 48" enable-background="new 0 0 48 48" xml:space="preserve">
<path d="M24,33c-5,0-9-4-9-9v-4c0-5,4-9,9-9s9,4,9,9v4C33,29,29,33,24,33z"/>
<path d="M46,1H2C1.4,1,1,1.4,1,2v44c0,0.6,0.4,1,1,1h44c0.6,0,1-0.4,1-1V2C47,1.4,46.6,1,46,1z M45,45h-6v-5.1c0-1.5-0.7-3-1.9-3.9
	l-5.4-4.2c-2,2-4.7,3.2-7.7,3.2s-5.7-1.2-7.7-3.2L10.9,36C9.7,37,9,38.4,9,39.9V45H3V3h42V45z"/>
</svg>
