<?xml version="1.0" encoding="utf-8"?>
<!-- Generator: Adobe Illustrator 19.1.0, SVG Export Plug-In . SVG Version: 6.00 Build 0)  -->
<!DOCTYPE svg PUBLIC "-//W3C//DTD SVG 1.1//EN" "http://www.w3.org/Graphics/SVG/1.1/DTD/svg11.dtd">
<svg version="1.1" id="Layer_1" xmlns="http://www.w3.org/2000/svg" xmlns:xlink="http://www.w3.org/1999/xlink" x="0px" y="0px"
	 width="64px" height="64px" viewBox="0 0 64 64" enable-background="new 0 0 64 64" xml:space="preserve">
<path d="M39.5,19H60c0.6,0,1-0.4,1-1s-0.4-1-1-1H39.5c-3.8,0-7.4,1.7-9.9,4.5L21.5,31H4c-0.6,0-1,0.4-1,1s0.4,1,1,1h17.5l8.1,9.5
	c2.5,2.9,6.1,4.5,9.9,4.5H60c0.6,0,1-0.4,1-1s-0.4-1-1-1H39.5c-3.2,0-6.3-1.4-8.4-3.8L23.3,32l7.9-9.2C33.3,20.4,36.3,19,39.5,19z"
	/>
<path d="M51.3,26.7c0.2,0.2,0.5,0.3,0.7,0.3s0.5-0.1,0.7-0.3l8-8c0.4-0.4,0.4-1,0-1.4l-8-8c-0.4-0.4-1-0.4-1.4,0s-0.4,1,0,1.4
	l7.3,7.3l-7.3,7.3C50.9,25.7,50.9,26.3,51.3,26.7z"/>
<path d="M51.3,54.7c0.2,0.2,0.5,0.3,0.7,0.3s0.5-0.1,0.7-0.3l8-8c0.4-0.4,0.4-1,0-1.4l-8-8c-0.4-0.4-1-0.4-1.4,0s-0.4,1,0,1.4
	l7.3,7.3l-7.3,7.3C50.9,53.7,50.9,54.3,51.3,54.7z"/>
</svg>
