<?xml version="1.0" encoding="utf-8"?>
<!-- Generator: Adobe Illustrator 19.1.0, SVG Export Plug-In . SVG Version: 6.00 Build 0)  -->
<!DOCTYPE svg PUBLIC "-//W3C//DTD SVG 1.1//EN" "http://www.w3.org/Graphics/SVG/1.1/DTD/svg11.dtd">
<svg version="1.1" id="Layer_1" xmlns="http://www.w3.org/2000/svg" xmlns:xlink="http://www.w3.org/1999/xlink" x="0px" y="0px"
	 width="64px" height="64px" viewBox="0 0 64 64" enable-background="new 0 0 64 64" xml:space="preserve">
<path d="M62,1H2C1.4,1,1,1.4,1,2v60c0,0.6,0.4,1,1,1h60c0.6,0,1-0.4,1-1V2C63,1.4,62.6,1,62,1z M50,33H29v9c0,0.4-0.2,0.7-0.5,0.9
	C28.3,43,28.2,43,28,43c-0.2,0-0.4-0.1-0.6-0.2l-14-10C13.2,32.6,13,32.3,13,32s0.2-0.6,0.4-0.8l14-10c0.3-0.2,0.7-0.2,1-0.1
	c0.3,0.2,0.5,0.5,0.5,0.9v9h21c0.6,0,1,0.4,1,1S50.6,33,50,33z"/>
</svg>
