<?xml version="1.0" encoding="utf-8"?>
<!-- Generator: Adobe Illustrator 19.1.0, SVG Export Plug-In . SVG Version: 6.00 Build 0)  -->
<!DOCTYPE svg PUBLIC "-//W3C//DTD SVG 1.1//EN" "http://www.w3.org/Graphics/SVG/1.1/DTD/svg11.dtd">
<svg version="1.1" id="Layer_1" xmlns="http://www.w3.org/2000/svg" xmlns:xlink="http://www.w3.org/1999/xlink" x="0px" y="0px"
	 width="64px" height="64px" viewBox="0 0 64 64" enable-background="new 0 0 64 64" xml:space="preserve">
<path d="M60.9,23.6c-0.1-0.1-0.1-0.2-0.2-0.3l-12-12c-0.4-0.4-1-0.4-1.4,0s-0.4,1,0,1.4L57.6,23H39V4c0-0.6-0.4-1-1-1H8.2l17.4,10.4
	C26.4,14,27,15,27,16v33h11c0.6,0,1-0.4,1-1V25h18.6L47.3,35.3c-0.4,0.4-0.4,1,0,1.4c0.2,0.2,0.5,0.3,0.7,0.3s0.5-0.1,0.7-0.3l12-12
	c0.1-0.1,0.2-0.2,0.2-0.3C61,24.1,61,23.9,60.9,23.6z"/>
<path d="M24.5,15.1l-20-12C4.2,3,3.8,3,3.5,3.1S3,3.6,3,4v44c0,0.4,0.2,0.7,0.5,0.9l20,12C23.6,61,23.8,61,24,61
	c0.2,0,0.3,0,0.5-0.1c0.3-0.2,0.5-0.5,0.5-0.9V16C25,15.6,24.8,15.3,24.5,15.1z"/>
</svg>
