<?xml version="1.0" encoding="utf-8"?>
<!-- Generator: Adobe Illustrator 19.1.0, SVG Export Plug-In . SVG Version: 6.00 Build 0)  -->
<!DOCTYPE svg PUBLIC "-//W3C//DTD SVG 1.1//EN" "http://www.w3.org/Graphics/SVG/1.1/DTD/svg11.dtd">
<svg version="1.1" id="Layer_1" xmlns="http://www.w3.org/2000/svg" xmlns:xlink="http://www.w3.org/1999/xlink" x="0px" y="0px"
	 width="64px" height="64px" viewBox="0 0 64 64" enable-background="new 0 0 64 64" xml:space="preserve">
<path d="M62,5H2C1.4,5,1,5.4,1,6v8c0,0.6,0.4,1,1,1h60c0.6,0,1-0.4,1-1V6C63,5.4,62.6,5,62,5z"/>
<path d="M62,17H2c-0.6,0-1,0.4-1,1v40c0,0.6,0.4,1,1,1h60c0.6,0,1-0.4,1-1V18C63,17.4,62.6,17,62,17z M53,42c0,0.6-0.4,1-1,1
	s-1-0.4-1-1V28.4L34.7,44.7C34.5,44.9,34.3,45,34,45s-0.5-0.1-0.7-0.3c-0.4-0.4-0.4-1,0-1.4L49.6,27H36c-0.6,0-1-0.4-1-1s0.4-1,1-1
	h16c0.1,0,0.3,0,0.4,0.1c0.2,0.1,0.4,0.3,0.5,0.5C53,25.7,53,25.9,53,26V42z"/>
</svg>
