<?xml version="1.0" encoding="utf-8"?>
<!-- Generator: Adobe Illustrator 19.1.0, SVG Export Plug-In . SVG Version: 6.00 Build 0)  -->
<!DOCTYPE svg PUBLIC "-//W3C//DTD SVG 1.1//EN" "http://www.w3.org/Graphics/SVG/1.1/DTD/svg11.dtd">
<svg version="1.1" id="Layer_1" xmlns="http://www.w3.org/2000/svg" xmlns:xlink="http://www.w3.org/1999/xlink" x="0px" y="0px"
	 width="64px" height="64px" viewBox="0 0 64 64" enable-background="new 0 0 64 64" xml:space="preserve">
<path d="M15.3,48.7c0.2,0.2,0.5,0.3,0.7,0.3s0.5-0.1,0.7-0.3l32-32c0.4-0.4,0.4-1,0-1.4s-1-0.4-1.4,0l-32,32
	C14.9,47.7,14.9,48.3,15.3,48.7z"/>
<path d="M37.1,5.6C36.9,6,37,6.4,37.3,6.7l20,20c0.2,0.2,0.4,0.3,0.7,0.3c0.1,0,0.3,0,0.4-0.1c0.4-0.2,0.6-0.5,0.6-0.9V6
	c0-0.6-0.4-1-1-1H38C37.6,5,37.2,5.2,37.1,5.6z"/>
<path d="M5.6,37.1C5.2,37.2,5,37.6,5,38v20c0,0.6,0.4,1,1,1h20c0,0,0,0,0,0c0.6,0,1-0.4,1-1c0-0.3-0.2-0.6-0.4-0.8L6.7,37.3
	C6.4,37,6,36.9,5.6,37.1z"/>
</svg>
