<?xml version="1.0" encoding="utf-8"?>
<!-- Generator: Adobe Illustrator 19.1.0, SVG Export Plug-In . SVG Version: 6.00 Build 0)  -->
<!DOCTYPE svg PUBLIC "-//W3C//DTD SVG 1.1//EN" "http://www.w3.org/Graphics/SVG/1.1/DTD/svg11.dtd">
<svg version="1.1" id="Layer_1" xmlns="http://www.w3.org/2000/svg" xmlns:xlink="http://www.w3.org/1999/xlink" x="0px" y="0px"
	 width="64px" height="64px" viewBox="0 0 64 64" enable-background="new 0 0 64 64" xml:space="preserve">
<path d="M9.3,60.7C9.5,60.9,9.7,61,10,61s0.5-0.1,0.7-0.3l28-28c0.4-0.4,0.4-1,0-1.4l-28-28c-0.4-0.4-1-0.4-1.4,0s-0.4,1,0,1.4
	L36.6,32L9.3,59.3C8.9,59.7,8.9,60.3,9.3,60.7z"/>
<path d="M26.7,3.3c-0.4-0.4-1-0.4-1.4,0s-0.4,1,0,1.4L52.6,32L25.3,59.3c-0.4,0.4-0.4,1,0,1.4c0.2,0.2,0.5,0.3,0.7,0.3
	s0.5-0.1,0.7-0.3l28-28c0.4-0.4,0.4-1,0-1.4L26.7,3.3z"/>
</svg>
