<?xml version="1.0" encoding="utf-8"?>
<!-- Generator: Adobe Illustrator 19.1.0, SVG Export Plug-In . SVG Version: 6.00 Build 0)  -->
<!DOCTYPE svg PUBLIC "-//W3C//DTD SVG 1.1//EN" "http://www.w3.org/Graphics/SVG/1.1/DTD/svg11.dtd">
<svg version="1.1" id="Layer_1" xmlns="http://www.w3.org/2000/svg" xmlns:xlink="http://www.w3.org/1999/xlink" x="0px" y="0px"
	 width="64px" height="64px" viewBox="0 0 64 64" enable-background="new 0 0 64 64" xml:space="preserve">
<path d="M53,6v52c0,0.6,0.4,1,1,1s1-0.4,1-1V6c0-0.6-0.4-1-1-1S53,5.4,53,6z"/>
<path d="M9.5,5.1C9.2,5.3,9,5.6,9,6v52c0,0.4,0.2,0.7,0.5,0.9C9.7,59,9.8,59,10,59c0.2,0,0.4-0.1,0.6-0.2l36-26
	c0.3-0.2,0.4-0.5,0.4-0.8s-0.2-0.6-0.4-0.8l-36-26C10.3,5,9.9,4.9,9.5,5.1z"/>
</svg>
