<?xml version="1.0" encoding="utf-8"?>
<!-- Generator: Adobe Illustrator 19.1.0, SVG Export Plug-In . SVG Version: 6.00 Build 0)  -->
<!DOCTYPE svg PUBLIC "-//W3C//DTD SVG 1.1//EN" "http://www.w3.org/Graphics/SVG/1.1/DTD/svg11.dtd">
<svg version="1.1" id="Layer_1" xmlns="http://www.w3.org/2000/svg" xmlns:xlink="http://www.w3.org/1999/xlink" x="0px" y="0px"
	 width="64px" height="64px" viewBox="0 0 64 64" enable-background="new 0 0 64 64" xml:space="preserve">
<path d="M50,23c-4.2,0-11.5,5.1-19.1,10.4C24.2,38.1,17.2,43,14,43c-5,0-9-3.9-9-9c0-5.1,4-9,9-9c3.1,0,7,2.2,10.8,4.9l-8.3,3.1
	c-0.5,0.2-0.8,0.8-0.6,1.3c0.1,0.4,0.5,0.7,0.9,0.7c0.1,0,0.2,0,0.3-0.1l10.1-3.7c0.5-0.2,0.8-0.8,0.6-1.3l-3.7-10.1
	c-0.2-0.5-0.8-0.8-1.3-0.6c-0.5,0.2-0.8,0.8-0.6,1.3l2.6,7.2C21.3,25.1,17.5,23,14,23C7.8,23,3,27.8,3,34c0,6.2,4.8,11,11,11
	c3.8,0,10.7-4.8,18-9.9C38.8,30.4,46.4,25,50,25c5,0,9,4,9,9c0,5-4,9-9,9c-3.6,0-8.3-3-12.3-5.9c-0.5-0.3-1.1-0.2-1.4,0.2
	c-0.3,0.4-0.2,1.1,0.2,1.4C41.1,42,45.8,45,50,45c6.2,0,11-4.8,11-11C61,27.8,56.2,23,50,23z"/>
</svg>
