<?xml version="1.0" encoding="utf-8"?>
<!-- Generator: Adobe Illustrator 19.1.0, SVG Export Plug-In . SVG Version: 6.00 Build 0)  -->
<!DOCTYPE svg PUBLIC "-//W3C//DTD SVG 1.1//EN" "http://www.w3.org/Graphics/SVG/1.1/DTD/svg11.dtd">
<svg version="1.1" id="Layer_1" xmlns="http://www.w3.org/2000/svg" xmlns:xlink="http://www.w3.org/1999/xlink" x="0px" y="0px"
	 width="64px" height="64px" viewBox="0 0 64 64" enable-background="new 0 0 64 64" xml:space="preserve">
<path d="M50.7,11.3l-8-8c-0.4-0.4-1-0.4-1.4,0l-28,28c-0.4,0.4-0.4,1,0,1.4l28,28c0.2,0.2,0.5,0.3,0.7,0.3s0.5-0.1,0.7-0.3l8-8
	c0.4-0.4,0.4-1,0-1.4L31.4,32l19.3-19.3C51.1,12.3,51.1,11.7,50.7,11.3z"/>
</svg>
