<?xml version="1.0" encoding="utf-8"?>
<!-- Generator: Adobe Illustrator 19.1.0, SVG Export Plug-In . SVG Version: 6.00 Build 0)  -->
<!DOCTYPE svg PUBLIC "-//W3C//DTD SVG 1.1//EN" "http://www.w3.org/Graphics/SVG/1.1/DTD/svg11.dtd">
<svg version="1.1" id="Layer_1" xmlns="http://www.w3.org/2000/svg" xmlns:xlink="http://www.w3.org/1999/xlink" x="0px" y="0px"
	 width="64px" height="64px" viewBox="0 0 64 64" enable-background="new 0 0 64 64" xml:space="preserve">
<path d="M49,23H36c-0.6,0-1,0.4-1,1s0.4,1,1,1h13c6.6,0,12,5.4,12,12s-5.4,12-12,12H15C8.4,49,3,43.6,3,37s5.4-12,12-12h13
	c0.6,0,1-0.4,1-1s-0.4-1-1-1H15C7.3,23,1,29.3,1,37s6.3,14,14,14h34c7.7,0,14-6.3,14-14S56.7,23,49,23z"/>
<path d="M17.3,34.7c0.2,0.2,0.5,0.3,0.7,0.3s0.5-0.1,0.7-0.3l10-10c0.4-0.4,0.4-1,0-1.4l-10-10c-0.4-0.4-1-0.4-1.4,0s-0.4,1,0,1.4
	l9.3,9.3l-9.3,9.3C16.9,33.7,16.9,34.3,17.3,34.7z"/>
<path d="M35.3,24.7l10,10c0.2,0.2,0.5,0.3,0.7,0.3s0.5-0.1,0.7-0.3c0.4-0.4,0.4-1,0-1.4L37.4,24l9.3-9.3c0.4-0.4,0.4-1,0-1.4
	s-1-0.4-1.4,0l-10,10C34.9,23.7,34.9,24.3,35.3,24.7z"/>
</svg>
