<?xml version="1.0" encoding="utf-8"?>
<!-- Generator: Adobe Illustrator 19.1.0, SVG Export Plug-In . SVG Version: 6.00 Build 0)  -->
<!DOCTYPE svg PUBLIC "-//W3C//DTD SVG 1.1//EN" "http://www.w3.org/Graphics/SVG/1.1/DTD/svg11.dtd">
<svg version="1.1" id="Layer_1" xmlns="http://www.w3.org/2000/svg" xmlns:xlink="http://www.w3.org/1999/xlink" x="0px" y="0px"
	 width="64px" height="64px" viewBox="0 0 64 64" enable-background="new 0 0 64 64" xml:space="preserve">
<path d="M21.3,24.7c0.2,0.2,0.5,0.3,0.7,0.3s0.5-0.1,0.7-0.3l10-10c0.1-0.1,0.2-0.2,0.2-0.3c0.1-0.2,0.1-0.5,0-0.8
	c-0.1-0.1-0.1-0.2-0.2-0.3l-10-10c-0.4-0.4-1-0.4-1.4,0s-0.4,1,0,1.4l8.3,8.3H4c-0.6,0-1,0.4-1,1s0.4,1,1,1h25.6l-8.3,8.3
	C20.9,23.7,20.9,24.3,21.3,24.7z"/>
<path d="M31.3,59.3c-0.4,0.4-0.4,1,0,1.4c0.2,0.2,0.5,0.3,0.7,0.3s0.5-0.1,0.7-0.3l10-10c0.1-0.1,0.2-0.2,0.2-0.3
	c0.1-0.2,0.1-0.5,0-0.8c-0.1-0.1-0.1-0.2-0.2-0.3l-10-10c-0.4-0.4-1-0.4-1.4,0s-0.4,1,0,1.4l8.3,8.3H4c-0.6,0-1,0.4-1,1s0.4,1,1,1
	h35.6L31.3,59.3z"/>
<path d="M4,33h53.6l-8.3,8.3c-0.4,0.4-0.4,1,0,1.4c0.2,0.2,0.5,0.3,0.7,0.3s0.5-0.1,0.7-0.3l10-10c0.1-0.1,0.2-0.2,0.2-0.3
	c0.1-0.2,0.1-0.5,0-0.8c-0.1-0.1-0.1-0.2-0.2-0.3l-10-10c-0.4-0.4-1-0.4-1.4,0s-0.4,1,0,1.4l8.3,8.3H4c-0.6,0-1,0.4-1,1S3.4,33,4,33
	z"/>
</svg>
