<?xml version="1.0" encoding="utf-8"?>
<!-- Generator: Adobe Illustrator 19.1.0, SVG Export Plug-In . SVG Version: 6.00 Build 0)  -->
<!DOCTYPE svg PUBLIC "-//W3C//DTD SVG 1.1//EN" "http://www.w3.org/Graphics/SVG/1.1/DTD/svg11.dtd">
<svg version="1.1" id="Layer_1" xmlns="http://www.w3.org/2000/svg" xmlns:xlink="http://www.w3.org/1999/xlink" x="0px" y="0px"
	 width="64px" height="64px" viewBox="0 0 64 64" enable-background="new 0 0 64 64" xml:space="preserve">
<path d="M58,33H36.5L22.8,15.4C22.6,15.1,22.3,15,22,15H10c-0.6,0-1,0.4-1,1s0.4,1,1,1h11.5L34,33H4c-0.6,0-1,0.4-1,1s0.4,1,1,1h32
	h22c0.6,0,1-0.4,1-1S58.6,33,58,33z"/>
<path d="M46.7,19.3c-0.4-0.4-1-0.4-1.4,0s-0.4,1,0,1.4L58.6,34L45.3,47.3c-0.4,0.4-0.4,1,0,1.4c0.2,0.2,0.5,0.3,0.7,0.3
	s0.5-0.1,0.7-0.3l14-14c0.4-0.4,0.4-1,0-1.4L46.7,19.3z"/>
</svg>
