<?xml version="1.0" encoding="utf-8"?>
<!-- Generator: Adobe Illustrator 19.1.0, SVG Export Plug-In . SVG Version: 6.00 Build 0)  -->
<!DOCTYPE svg PUBLIC "-//W3C//DTD SVG 1.1//EN" "http://www.w3.org/Graphics/SVG/1.1/DTD/svg11.dtd">
<svg version="1.1" id="Layer_1" xmlns="http://www.w3.org/2000/svg" xmlns:xlink="http://www.w3.org/1999/xlink" x="0px" y="0px"
	 width="64px" height="64px" viewBox="0 0 64 64" enable-background="new 0 0 64 64" xml:space="preserve">
<path d="M28.4,13.1c-0.3-0.2-0.7-0.1-1,0.1l-24,18C3.1,31.4,3,31.7,3,32s0.1,0.6,0.4,0.8l24,18c0.2,0.1,0.4,0.2,0.6,0.2
	c0.2,0,0.3,0,0.4-0.1c0.3-0.2,0.6-0.5,0.6-0.9v-9h21c0.6,0,1-0.4,1-1V24c0-0.6-0.4-1-1-1H29v-9C29,13.6,28.8,13.3,28.4,13.1z"/>
<path d="M60,23c-0.6,0-1,0.4-1,1v16c0,0.6,0.4,1,1,1s1-0.4,1-1V24C61,23.4,60.6,23,60,23z"/>
</svg>
