<?xml version="1.0" encoding="utf-8"?>
<!-- Generator: Adobe Illustrator 18.1.1, SVG Export Plug-In . SVG Version: 6.00 Build 0)  -->
<!DOCTYPE svg PUBLIC "-//W3C//DTD SVG 1.1//EN" "http://www.w3.org/Graphics/SVG/1.1/DTD/svg11.dtd">
<svg version="1.1" id="Layer_1" xmlns="http://www.w3.org/2000/svg" xmlns:xlink="http://www.w3.org/1999/xlink" x="0px" y="0px"
	 width="32px" height="32px" viewBox="0 0 32 32" enable-background="new 0 0 32 32" xml:space="preserve">
<path d="M29.3,23.6c1-1.2,1.6-2.7,1.7-4.2c0-0.5-0.3-1-0.8-1.1C27.3,17.7,25,14.9,25,12V9c0-5-4-9-9-9S7,4,7,9v3
	c0,2.9-2.3,5.7-5.2,6.4C1.3,18.5,1,18.9,1,19.4c0.1,1.6,0.7,3,1.7,4.2C1.6,24.6,1,25.9,1,27.4V31c0,0.6,0.4,1,1,1h28
	c0.6,0,1-0.4,1-1v-3.6C31,25.9,30.4,24.6,29.3,23.6z M28.9,20.1c-0.2,0.9-0.7,1.8-1.3,2.5l-5.5-3c0.9-0.9,1.7-2,2.2-3.2
	C25.4,18.1,27,19.4,28.9,20.1z M12.3,18.9C12.3,18.9,12.3,18.9,12.3,18.9C10.3,17.7,9,15.5,9,13v-2h2c0.3,0,0.6-0.2,0.8-0.4L13,8.8
	l1.2,1.8c0.2,0.3,0.5,0.4,0.8,0.4h8v2c0,3.9-3.1,7-7,7C14.6,20,13.4,19.6,12.3,18.9z M16,2c3.9,0,7,3.1,7,7h-7.5l-1.7-2.6
	c-0.4-0.6-1.3-0.6-1.7,0L10.5,9H9C9,5.1,12.1,2,16,2z M7.7,16.4c0.5,1.2,1.3,2.3,2.2,3.2l-5.5,3c-0.6-0.7-1.1-1.6-1.3-2.5
	C5,19.4,6.6,18.1,7.7,16.4z M29,30H3v-2.6c0-1.1,0.6-2.1,1.6-2.6l7.1-3.9c1.3,0.7,2.8,1.1,4.3,1.1c1.6,0,3.1-0.4,4.4-1.1l7.1,3.9
	c1,0.5,1.6,1.5,1.6,2.6V30z"/>
</svg>
