<?xml version="1.0" encoding="utf-8"?>
<!-- Generator: Adobe Illustrator 18.1.1, SVG Export Plug-In . SVG Version: 6.00 Build 0)  -->
<!DOCTYPE svg PUBLIC "-//W3C//DTD SVG 1.1//EN" "http://www.w3.org/Graphics/SVG/1.1/DTD/svg11.dtd">
<svg version="1.1" id="Layer_1" xmlns="http://www.w3.org/2000/svg" xmlns:xlink="http://www.w3.org/1999/xlink" x="0px" y="0px"
	 width="32px" height="32px" viewBox="0 0 32 32" enable-background="new 0 0 32 32" xml:space="preserve">
<path d="M1,27.4V31c0,0.6,0.4,1,1,1h28c0.6,0,1-0.4,1-1v-3.6c0-1.8-1-3.5-2.6-4.4l-6.3-3.4c1.8-1.6,2.9-4,2.9-6.6V9c0-5-4-9-9-9
	S7,4,7,9v4c0,2.6,1.1,4.9,2.9,6.6L3.6,23C2,23.9,1,25.5,1,27.4z M16,2c3.9,0,7,3.1,7,7v0.9c-1.4-0.3-2.5-1.1-3.1-2.3
	C19.7,7.2,19.4,7,19,7c-0.4,0-0.7,0.2-0.9,0.6c-1,2.1-3.3,3.4-6.1,3.4c-1.2,0-1.9-0.6-3-1.4l0,0V9C9,5.1,12.1,2,16,2z M9,13v-0.9
	c0.8,0.5,1.7,0.9,3,0.9c2.9,0,5.5-1.2,7-3.1c1,1.1,2.4,1.8,4,2.1V13c0,2.4-1.2,4.5-3,5.8c-0.1,0-0.2,0.1-0.4,0.2
	c-1.1,0.6-2.3,1-3.6,1c-1.4,0-2.6-0.4-3.7-1.1c0,0,0,0,0,0C10.3,17.7,9,15.5,9,13z M4.6,24.7l7.1-3.9c1.3,0.7,2.8,1.1,4.3,1.1
	s3.1-0.4,4.3-1.1l7.1,3.9c1,0.5,1.6,1.5,1.6,2.6V30H3v-2.6C3,26.3,3.6,25.3,4.6,24.7z"/>
</svg>
