<?xml version="1.0" encoding="utf-8"?>
<!-- Generator: Adobe Illustrator 18.1.1, SVG Export Plug-In . SVG Version: 6.00 Build 0)  -->
<!DOCTYPE svg PUBLIC "-//W3C//DTD SVG 1.1//EN" "http://www.w3.org/Graphics/SVG/1.1/DTD/svg11.dtd">
<svg version="1.1" id="Layer_1" xmlns="http://www.w3.org/2000/svg" xmlns:xlink="http://www.w3.org/1999/xlink" x="0px" y="0px"
	 width="32px" height="32px" viewBox="0 0 32 32" enable-background="new 0 0 32 32" xml:space="preserve">
<path d="M31.4,0.1C31.3,0,31.1,0,31,0h-9c-0.6,0-1,0.4-1,1s0.4,1,1,1h6.6l-7.1,7.1C19.2,7.2,16.2,6,13,6C5.8,6,0,11.8,0,19
	s5.8,13,13,13s13-5.8,13-13c0-3.2-1.2-6.2-3.1-8.4L30,3.4V10c0,0.6,0.4,1,1,1s1-0.4,1-1V1c0-0.1,0-0.3-0.1-0.4
	C31.8,0.4,31.6,0.2,31.4,0.1z M13,30C6.9,30,2,25.1,2,19S6.9,8,13,8s11,4.9,11,11S19.1,30,13,30z"/>
</svg>
