<?xml version="1.0" encoding="utf-8"?>
<!-- Generator: Adobe Illustrator 19.1.0, SVG Export Plug-In . SVG Version: 6.00 Build 0)  -->
<!DOCTYPE svg PUBLIC "-//W3C//DTD SVG 1.1//EN" "http://www.w3.org/Graphics/SVG/1.1/DTD/svg11.dtd">
<svg version="1.1" id="Layer_1" xmlns="http://www.w3.org/2000/svg" xmlns:xlink="http://www.w3.org/1999/xlink" x="0px" y="0px"
	 width="48px" height="48px" viewBox="0 0 48 48" enable-background="new 0 0 48 48" xml:space="preserve">
<path d="M43.1,19.6L31,31.7c-2.5-1.9-5.9-1.9-8.4,0L7.7,16.8c-0.4-0.4-1-0.4-1.4,0l-2.8,2.8c-0.4,0.4-0.4,1,0,1.4s1,0.4,1.4,0
	L7,18.9l14.2,14.2c-0.9,1.2-1.4,2.7-1.4,4.2c0,1.9,0.7,3.6,2.1,4.9s3.1,2.1,4.9,2.1c1.9,0,3.6-0.7,5-2.1c2.5-2.5,2.7-6.4,0.7-9.1
	L44.5,21c0.4-0.4,0.4-1,0-1.4S43.5,19.2,43.1,19.6z M30.4,40.8c-0.9,0.9-2.2,1.5-3.5,1.5c-1.3,0-2.6-0.5-3.5-1.5s-1.5-2.2-1.5-3.5
	c0-1.3,0.5-2.6,1.5-3.5c1-1,2.3-1.5,3.5-1.5s2.6,0.5,3.5,1.5C32.3,35.7,32.3,38.8,30.4,40.8z"/>
<path d="M26.8,27c0.3,0,0.5-0.1,0.7-0.3l11.3-11.3c0.2-0.2,0.3-0.4,0.3-0.7s-0.1-0.5-0.3-0.7L28.9,4c-0.4-0.4-1-0.4-1.4,0L16.2,15.3
	c-0.4,0.4-0.4,1,0,1.4l9.9,9.9C26.3,26.8,26.6,27,26.8,27z M28.2,6.2l8.5,8.5l-9.9,9.9L18.3,16L28.2,6.2z"/>
</svg>
