<?xml version="1.0" encoding="utf-8"?>
<!-- Generator: Adobe Illustrator 19.1.0, SVG Export Plug-In . SVG Version: 6.00 Build 0)  -->
<!DOCTYPE svg PUBLIC "-//W3C//DTD SVG 1.1//EN" "http://www.w3.org/Graphics/SVG/1.1/DTD/svg11.dtd">
<svg version="1.1" id="Layer_1" xmlns="http://www.w3.org/2000/svg" xmlns:xlink="http://www.w3.org/1999/xlink" x="0px" y="0px"
	 width="48px" height="48px" viewBox="0 0 48 48" enable-background="new 0 0 48 48" xml:space="preserve">
<path d="M9,40c0,2.8,2.2,5,5,5s5-2.2,5-5s-2.2-5-5-5S9,37.2,9,40z M17,40c0,1.7-1.3,3-3,3s-3-1.3-3-3s1.3-3,3-3S17,38.3,17,40z"/>
<path d="M33,40c0,2.8,2.2,5,5,5s5-2.2,5-5s-2.2-5-5-5S33,37.2,33,40z M41,40c0,1.7-1.3,3-3,3s-3-1.3-3-3s1.3-3,3-3S41,38.3,41,40z"
	/>
<path d="M2,3h4.1L7,8.2c0,0,0,0,0,0l4,22c0.1,0.5,0.5,0.8,1,0.8h28c0.5,0,0.9-0.3,1-0.8l4-22c0.1-0.3,0-0.6-0.2-0.8S44.3,7,44,7H8.8
	L7.9,1.8C7.8,1.3,7.4,1,6.9,1H2C1.4,1,1,1.4,1,2S1.4,3,2,3z M42.8,9l-3.6,20H12.8L9.2,9H42.8z"/>
</svg>
