<?xml version="1.0" encoding="utf-8"?>
<!-- Generator: Adobe Illustrator 19.1.0, SVG Export Plug-In . SVG Version: 6.00 Build 0)  -->
<!DOCTYPE svg PUBLIC "-//W3C//DTD SVG 1.1//EN" "http://www.w3.org/Graphics/SVG/1.1/DTD/svg11.dtd">
<svg version="1.1" id="Layer_1" xmlns="http://www.w3.org/2000/svg" xmlns:xlink="http://www.w3.org/1999/xlink" x="0px" y="0px"
	 width="24px" height="24px" viewBox="0 0 24 24" enable-background="new 0 0 24 24" xml:space="preserve">
<path d="M18,22c0.6,0,1-0.4,1-1s-0.4-1-1-1H6c-0.6,0-1,0.4-1,1s0.4,1,1,1H18z"/>
<path d="M23,2H1C0.4,2,0,2.4,0,3v14c0,0.6,0.4,1,1,1h22c0.6,0,1-0.4,1-1V3C24,2.4,23.6,2,23,2z M22,16H2V4h20V16z"/>
<path d="M9.6,13.9C9.7,14,9.8,14,10,14c0.2,0,0.4-0.1,0.6-0.2l4-3c0.3-0.2,0.4-0.5,0.4-0.8s-0.1-0.6-0.4-0.8l-4-3
	c-0.3-0.2-0.7-0.3-1-0.1C9.2,6.3,9,6.6,9,7v6C9,13.4,9.2,13.7,9.6,13.9z M11,9l1.3,1L11,11V9z"/>
</svg>
