<?xml version="1.0" encoding="utf-8"?>
<!-- Generator: Adobe Illustrator 19.1.0, SVG Export Plug-In . SVG Version: 6.00 Build 0)  -->
<!DOCTYPE svg PUBLIC "-//W3C//DTD SVG 1.1//EN" "http://www.w3.org/Graphics/SVG/1.1/DTD/svg11.dtd">
<svg version="1.1" id="Layer_1" xmlns="http://www.w3.org/2000/svg" xmlns:xlink="http://www.w3.org/1999/xlink" x="0px" y="0px"
	 width="24px" height="24px" viewBox="0 0 24 24" enable-background="new 0 0 24 24" xml:space="preserve">
<path d="M5,0C4.4,0,4,0.4,4,1v22c0,0.6,0.4,1,1,1h14c0.6,0,1-0.4,1-1V1c0-0.6-0.4-1-1-1H5z M18,22H6V2h12V22z"/>
<path d="M10,7h4c0.6,0,1-0.4,1-1s-0.4-1-1-1h-4C9.4,5,9,5.4,9,6S9.4,7,10,7z"/>
<path d="M10,11h4c0.6,0,1-0.4,1-1s-0.4-1-1-1h-4c-0.6,0-1,0.4-1,1S9.4,11,10,11z"/>
<path d="M12,19c1.7,0,3-1.3,3-3s-1.3-3-3-3s-3,1.3-3,3S10.3,19,12,19z M12,15c0.6,0,1,0.4,1,1s-0.4,1-1,1s-1-0.4-1-1S11.4,15,12,15z
	"/>
</svg>
