<?xml version="1.0" encoding="utf-8"?>
<!-- Generator: Adobe Illustrator 19.1.0, SVG Export Plug-In . SVG Version: 6.00 Build 0)  -->
<!DOCTYPE svg PUBLIC "-//W3C//DTD SVG 1.1//EN" "http://www.w3.org/Graphics/SVG/1.1/DTD/svg11.dtd">
<svg version="1.1" id="Layer_1" xmlns="http://www.w3.org/2000/svg" xmlns:xlink="http://www.w3.org/1999/xlink" x="0px" y="0px"
	 width="24px" height="24px" viewBox="0 0 24 24" enable-background="new 0 0 24 24" xml:space="preserve">
<path d="M23.9,11.6C23.9,11.5,23.9,11.5,23.9,11.6l-5-8.1C18.7,3.2,18.3,3,18,3H6C5.7,3,5.3,3.2,5.2,3.5l-5,8c0,0,0,0.1,0,0.1
	c0,0,0,0.1,0,0.1C0,11.8,0,11.9,0,12v8c0,0.6,0.4,1,1,1h22c0.6,0,1-0.4,1-1v-8C24,11.9,24,11.8,23.9,11.6
	C23.9,11.6,23.9,11.6,23.9,11.6z M6.6,5h10.9l3.8,6H2.8L6.6,5z M2,19v-6h20v6H2z"/>
<path d="M19,15H5c-0.6,0-1,0.4-1,1s0.4,1,1,1h14c0.6,0,1-0.4,1-1S19.6,15,19,15z"/>
</svg>
