<?xml version="1.0" encoding="utf-8"?>
<!-- Generator: Adobe Illustrator 19.1.0, SVG Export Plug-In . SVG Version: 6.00 Build 0)  -->
<!DOCTYPE svg PUBLIC "-//W3C//DTD SVG 1.1//EN" "http://www.w3.org/Graphics/SVG/1.1/DTD/svg11.dtd">
<svg version="1.1" id="Layer_1" xmlns="http://www.w3.org/2000/svg" xmlns:xlink="http://www.w3.org/1999/xlink" x="0px" y="0px"
	 width="24px" height="24px" viewBox="0 0 24 24" enable-background="new 0 0 24 24" xml:space="preserve">
<path d="M5.2,19.9L6,23.2C6.1,23.7,6.5,24,7,24h8c0.5,0,0.9-0.3,1-0.8l0.8-3.4c1.3-0.4,2.2-1.5,2.2-2.9v-2h1c0.6,0,1-0.4,1-1v-4
	c0-0.6-0.4-1-1-1h-1V7c0-1.4-0.9-2.5-2.2-2.9L16,0.8C15.9,0.3,15.5,0,15,0H7C6.5,0,6.1,0.3,6,0.8L5.2,4.1C3.9,4.5,3,5.6,3,7v10
	C3,18.4,3.9,19.5,5.2,19.9z M7.8,22l-0.5-2h7.4l-0.5,2H7.8z M14.2,2l0.5,2H7.3l0.5-2H14.2z M5,7c0-0.6,0.4-1,1-1h10c0.6,0,1,0.4,1,1
	v10c0,0.6-0.4,1-1,1H6c-0.6,0-1-0.4-1-1V7z"/>
<path d="M7,17h8c0.6,0,1-0.4,1-1V8c0-0.6-0.4-1-1-1H7C6.4,7,6,7.4,6,8v8C6,16.6,6.4,17,7,17z M8,9h6v6H8V9z"/>
</svg>
