<?xml version="1.0" encoding="utf-8"?>
<!-- Generator: Adobe Illustrator 19.1.0, SVG Export Plug-In . SVG Version: 6.00 Build 0)  -->
<!DOCTYPE svg PUBLIC "-//W3C//DTD SVG 1.1//EN" "http://www.w3.org/Graphics/SVG/1.1/DTD/svg11.dtd">
<svg version="1.1" id="Layer_1" xmlns="http://www.w3.org/2000/svg" xmlns:xlink="http://www.w3.org/1999/xlink" x="0px" y="0px"
	 width="24px" height="24px" viewBox="0 0 24 24" enable-background="new 0 0 24 24" xml:space="preserve">
<path d="M23,6h-8.9l3.6-4.4c0.4-0.4,0.3-1.1-0.1-1.4c-0.4-0.4-1.1-0.3-1.4,0.1l-4.2,5l-2.2-3C9.5,2,8.8,1.9,8.4,2.2
	C8,2.5,7.9,3.2,8.2,3.6L10,6H1C0.4,6,0,6.4,0,7v16c0,0.6,0.4,1,1,1h22c0.6,0,1-0.4,1-1V7C24,6.4,23.6,6,23,6z M22,22H2V8h20V22z"/>
<path d="M3,10v10c0,0.6,0.4,1,1,1h13c0.6,0,1-0.4,1-1V10c0-0.6-0.4-1-1-1H4C3.4,9,3,9.4,3,10z M5,11h11v8H5V11z"/>
<path d="M20,12c0.6,0,1-0.4,1-1v-1c0-0.6-0.4-1-1-1s-1,0.4-1,1v1C19,11.6,19.4,12,20,12z"/>
<path d="M20,21c0.6,0,1-0.4,1-1v-5c0-0.6-0.4-1-1-1s-1,0.4-1,1v5C19,20.6,19.4,21,20,21z"/>
</svg>
