<?xml version="1.0" encoding="utf-8"?>
<!-- Generator: Adobe Illustrator 19.1.0, SVG Export Plug-In . SVG Version: 6.00 Build 0)  -->
<!DOCTYPE svg PUBLIC "-//W3C//DTD SVG 1.1//EN" "http://www.w3.org/Graphics/SVG/1.1/DTD/svg11.dtd">
<svg version="1.1" id="Layer_1" xmlns="http://www.w3.org/2000/svg" xmlns:xlink="http://www.w3.org/1999/xlink" x="0px" y="0px"
	 width="24px" height="24px" viewBox="0 0 24 24" enable-background="new 0 0 24 24" xml:space="preserve">
<path d="M20,0H4C2.3,0,1,1.3,1,3v18c0,1.7,1.3,3,3,3h16c1.7,0,3-1.3,3-3V3C23,1.3,21.7,0,20,0z M21,21c0,0.6-0.4,1-1,1H4
	c-0.6,0-1-0.4-1-1V3c0-0.6,0.4-1,1-1h16c0.6,0,1,0.4,1,1V21z"/>
<path d="M19,4H5C4.4,4,4,4.4,4,5v14c0,0.6,0.4,1,1,1h14c0.6,0,1-0.4,1-1V5C20,4.4,19.6,4,19,4z M18,18H6V6h12V18z"/>
<path d="M9,10h6c0.6,0,1-0.4,1-1s-0.4-1-1-1H9C8.4,8,8,8.4,8,9S8.4,10,9,10z"/>
<path d="M9,13h6c0.6,0,1-0.4,1-1s-0.4-1-1-1H9c-0.6,0-1,0.4-1,1S8.4,13,9,13z"/>
<path d="M9,16h3c0.6,0,1-0.4,1-1s-0.4-1-1-1H9c-0.6,0-1,0.4-1,1S8.4,16,9,16z"/>
</svg>
