<?xml version="1.0" encoding="utf-8"?>
<!-- Generator: Adobe Illustrator 19.1.0, SVG Export Plug-In . SVG Version: 6.00 Build 0)  -->
<!DOCTYPE svg PUBLIC "-//W3C//DTD SVG 1.1//EN" "http://www.w3.org/Graphics/SVG/1.1/DTD/svg11.dtd">
<svg version="1.1" id="Layer_1" xmlns="http://www.w3.org/2000/svg" xmlns:xlink="http://www.w3.org/1999/xlink" x="0px" y="0px"
	 width="24px" height="24px" viewBox="0 0 24 24" enable-background="new 0 0 24 24" xml:space="preserve">
<path fill="#444444" d="M21.14691,0.00009H2.85328C1.27744,0.00009,0,1.27439,0,2.84654v18.30709
	c0,1.57198,1.27744,2.84629,2.85328,2.84629h18.29363c1.57584,0,2.85309-1.27431,2.85309-2.84629V2.84654
	C24,1.27439,22.72275,0.00009,21.14691,0.00009z M18,3h2c0.55228,0,1,0.44772,1,1v2c0,0.55228-0.44772,1-1,1h-2
	c-0.55228,0-1-0.44772-1-1V4C17,3.44772,17.44772,3,18,3z M12.02806,7.42332c2.54895,0,4.61533,2.06175,4.61533,4.60464
	c0,2.54306-2.06638,4.60445-4.61533,4.60445c-2.54897,0-4.61535-2.06139-4.61535-4.60445
	C7.41271,9.48507,9.47909,7.42332,12.02806,7.42332z M20,21H4c-0.55228,0-1-0.44772-1-1V10h2
	c-0.30084,1.09318-0.36648,2.39004-0.10071,3.62332c0.59988,2.78374,2.87001,5.00028,5.66501,5.54528
	c4.66398,0.90943,8.76445-2.64691,8.76445-7.14065c0-0.66641-0.15988-1.41433-0.32875-2.02796h2v10C21,20.55228,20.55229,21,20,21z"
	/>
</svg>
