<?xml version="1.0" encoding="utf-8"?>
<!-- Generator: Adobe Illustrator 19.1.0, SVG Export Plug-In . SVG Version: 6.00 Build 0)  -->
<!DOCTYPE svg PUBLIC "-//W3C//DTD SVG 1.1//EN" "http://www.w3.org/Graphics/SVG/1.1/DTD/svg11.dtd">
<svg version="1.1" id="Layer_1" xmlns="http://www.w3.org/2000/svg" xmlns:xlink="http://www.w3.org/1999/xlink" x="0px" y="0px"
	 width="64px" height="64px" viewBox="0 0 64 64" enable-background="new 0 0 64 64" xml:space="preserve">
<path id="color_2_" d="M20.2,31.3C19.1,31.1,18.1,31,17,31c-1.4,0-2.7,0.2-4,0.5v31c1.3,0.3,2.6,0.5,4,0.5c1.1,0,2.1-0.1,3.2-0.3
	c0.5-0.1,0.8-0.5,0.8-1V32.3C21,31.8,20.7,31.4,20.2,31.3z"/>
<path d="M59,36.5V22c0-11.6-9.4-21-21-21H26C14.4,1,5,10.4,5,22v14.5C2.5,39.3,1,43,1,47c0,6.7,4.1,12.4,10,14.8V32.2
	c-1.4,0.6-2.8,1.4-4,2.3V22C7,11.5,15.5,3,26,3h12c10.5,0,19,8.5,19,19v12.5c-1.2-1-2.6-1.8-4-2.3v29.6c5.9-2.4,10-8.1,10-14.8
	C63,43,61.5,39.3,59,36.5z"/>
<path id="color_1_" d="M51,31.5c-1.3-0.3-2.6-0.5-4-0.5c-1.1,0-2.1,0.1-3.2,0.3c-0.5,0.1-0.8,0.5-0.8,1v29.4c0,0.5,0.3,0.9,0.8,1
	c1.1,0.2,2.1,0.3,3.2,0.3c1.4,0,2.7-0.2,4-0.5V31.5z"/>
</svg>
