<?xml version="1.0" encoding="utf-8"?>
<!-- Generator: Adobe Illustrator 19.1.0, SVG Export Plug-In . SVG Version: 6.00 Build 0)  -->
<!DOCTYPE svg PUBLIC "-//W3C//DTD SVG 1.1//EN" "http://www.w3.org/Graphics/SVG/1.1/DTD/svg11.dtd">
<svg version="1.1" id="Layer_1" xmlns="http://www.w3.org/2000/svg" xmlns:xlink="http://www.w3.org/1999/xlink" x="0px" y="0px"
	 width="64px" height="64px" viewBox="0 0 64 64" enable-background="new 0 0 64 64" xml:space="preserve">
<path d="M62,15H16.2L40.4,2.9c0.5-0.2,0.7-0.8,0.4-1.3c-0.2-0.5-0.8-0.7-1.3-0.4L11.8,15H2c-0.6,0-1,0.4-1,1v46c0,0.6,0.4,1,1,1h60
	c0.6,0,1-0.4,1-1V16C63,15.4,62.6,15,62,15z M34.6,49.5l-1.9,1.9c-0.2,0.2-0.4,0.3-0.7,0.3s-0.5-0.1-0.7-0.3l-1.9-1.9
	c-0.4-0.4-0.4-1,0-1.4c1.4-1.4,3.9-1.4,5.3,0C35,48.5,35,49.1,34.6,49.5z M42.3,42.7c-0.2,0.2-0.5,0.3-0.7,0.3s-0.5-0.1-0.7-0.3
	C38.5,40.3,35.4,39,32,39s-6.5,1.3-8.9,3.7c-0.4,0.4-1,0.4-1.4,0s-0.4-1,0-1.4C24.4,38.5,28.1,37,32,37s7.6,1.5,10.3,4.3
	C42.7,41.7,42.7,42.3,42.3,42.7z M50.1,35.9c-0.2,0.2-0.5,0.3-0.7,0.3s-0.5-0.1-0.7-0.3C44.2,31.4,38.3,29,32,29
	c-6.3,0-12.2,2.4-16.6,6.9c-0.4,0.4-1,0.4-1.4,0s-0.4-1,0-1.4C18.8,29.7,25.2,27,32,27c6.8,0,13.2,2.7,18.1,7.5
	C50.5,34.9,50.5,35.5,50.1,35.9z"/>
</svg>
