<?xml version="1.0" encoding="utf-8"?>
<!-- Generator: Adobe Illustrator 18.1.1, SVG Export Plug-In . SVG Version: 6.00 Build 0)  -->
<!DOCTYPE svg PUBLIC "-//W3C//DTD SVG 1.1//EN" "http://www.w3.org/Graphics/SVG/1.1/DTD/svg11.dtd">
<svg version="1.1" id="Layer_1" xmlns="http://www.w3.org/2000/svg" xmlns:xlink="http://www.w3.org/1999/xlink" x="0px" y="0px"
	 width="32px" height="32px" viewBox="0 0 32 32" enable-background="new 0 0 32 32" xml:space="preserve">
<path d="M3,2v28c0,0.6,0.4,1,1,1s1-0.4,1-1V2c0-0.6-0.4-1-1-1S3,1.4,3,2z"/>
<path d="M29,13V6c0-0.6-0.4-1-1-1H10C9.4,5,9,5.4,9,6v7c0,0.6,0.4,1,1,1h18C28.6,14,29,13.6,29,13z"/>
<path d="M10,18c-0.6,0-1,0.4-1,1v7c0,0.6,0.4,1,1,1h9c0.6,0,1-0.4,1-1v-7c0-0.6-0.4-1-1-1H10z"/>
</svg>
