<?xml version="1.0" encoding="utf-8"?>
<!-- Generator: Adobe Illustrator 18.1.1, SVG Export Plug-In . SVG Version: 6.00 Build 0)  -->
<!DOCTYPE svg PUBLIC "-//W3C//DTD SVG 1.1//EN" "http://www.w3.org/Graphics/SVG/1.1/DTD/svg11.dtd">
<svg version="1.1" id="Layer_1" xmlns="http://www.w3.org/2000/svg" xmlns:xlink="http://www.w3.org/1999/xlink" x="0px" y="0px"
	 width="32px" height="32px" viewBox="0 0 32 32" enable-background="new 0 0 32 32" xml:space="preserve">
<path d="M6,14.6L17.4,26l9.6-9.6L15.6,5L6,14.6z M13,17c-0.6,0-1-0.4-1-1c0-0.6,0.4-1,1-1s1,0.4,1,1C14,16.6,13.6,17,13,17z M20,14
	c0.6,0,1,0.4,1,1c0,0.6-0.4,1-1,1s-1-0.4-1-1C19,14.4,19.4,14,20,14z M17,11c0.6,0,1,0.4,1,1c0,0.6-0.4,1-1,1s-1-0.4-1-1
	C16,11.4,16.4,11,17,11z M17,19c0,0.6-0.4,1-1,1s-1-0.4-1-1c0-0.6,0.4-1,1-1S17,18.4,17,19z"/>
<path d="M2.7,17.9c-1.2,1.2-1.2,3.1,0,4.2l7.2,7.2c0.6,0.6,1.3,0.9,2.1,0.9s1.6-0.3,2.1-0.9l1.9-1.9L4.6,16L2.7,17.9z"/>
<path d="M30.3,13.1c1.2-1.2,1.2-3.1,0-4.2l-7.2-7.2c-1.1-1.1-3.1-1.1-4.2,0L17,3.6L28.4,15L30.3,13.1z"/>
</svg>
