<?xml version="1.0" encoding="utf-8"?>
<!-- Generator: Adobe Illustrator 18.1.1, SVG Export Plug-In . SVG Version: 6.00 Build 0)  -->
<!DOCTYPE svg PUBLIC "-//W3C//DTD SVG 1.1//EN" "http://www.w3.org/Graphics/SVG/1.1/DTD/svg11.dtd">
<svg version="1.1" id="Layer_1" xmlns="http://www.w3.org/2000/svg" xmlns:xlink="http://www.w3.org/1999/xlink" x="0px" y="0px"
	 width="32px" height="32px" viewBox="0 0 32 32" enable-background="new 0 0 32 32" xml:space="preserve">
<path d="M4,3H1C0.4,3,0,3.4,0,4v2h4V3z"/>
<polygon points="21.2,3 6,3 6,6 18.2,6 "/>
<path d="M31,3h-2.6C28.8,3.6,29,4.4,29,5.1c0,0.3,0,0.6-0.1,0.9H32V4C32,3.4,31.6,3,31,3z"/>
<path d="M27.8,8L21,14.8c-0.6,0.6-1.3,0.9-2.1,0.9c-0.1,0-0.1,0-0.2,0c0,1.2-0.5,2.3-1.4,3.2c-1.1,1.1-2.6,1.7-4.2,1.7
	c-1.2,0-2.4-0.3-3.5-1c-0.8-0.5-1.3-1.3-1.2-2.2c0-0.8,0.4-1.5,1-1.9c0-0.8,0.2-2.1,1.3-3.2c0.9-0.9,2.1-1.4,3.3-1.4
	c0.1,0,0.2,0,0.3,0c0-0.7,0.3-1.4,0.9-2l1-1H0v20c0,0.6,0.4,1,1,1h30c0.6,0,1-0.4,1-1V8L27.8,8C27.8,8,27.8,8,27.8,8z"/>
<path d="M19.6,13.4l6.8-6.8c0.8-0.8,0.8-2.2,0-3v0c-0.8-0.8-2.2-0.8-3,0l-6.8,6.8c-0.4,0.4-0.4,1,0,1.4l1.6,1.6
	C18.6,13.8,19.2,13.8,19.6,13.4z"/>
<path d="M12.2,13.7c-0.7,0.7-0.8,1.5-0.8,2.2c0,0.5-0.2,0.9-0.7,1.1c-0.4,0.2-0.4,0.7-0.1,0.9c1.7,1,3.9,0.9,5.3-0.4
	c1.1-1.1,1-2.8,0-3.8C14.9,12.7,13.2,12.7,12.2,13.7z"/>
</svg>
