<?xml version="1.0" encoding="utf-8"?>
<!-- Generator: Adobe Illustrator 18.1.1, SVG Export Plug-In . SVG Version: 6.00 Build 0)  -->
<!DOCTYPE svg PUBLIC "-//W3C//DTD SVG 1.1//EN" "http://www.w3.org/Graphics/SVG/1.1/DTD/svg11.dtd">
<svg version="1.1" id="Layer_1" xmlns="http://www.w3.org/2000/svg" xmlns:xlink="http://www.w3.org/1999/xlink" x="0px" y="0px"
	 width="32px" height="32px" viewBox="0 0 32 32" enable-background="new 0 0 32 32" xml:space="preserve">
<path d="M31,3H6v3h26V4C32,3.4,31.6,3,31,3z"/>
<path d="M4,3H1C0.4,3,0,3.4,0,4v2h4V3z"/>
<path d="M0,28c0,0.6,0.4,1,1,1h30c0.6,0,1-0.4,1-1V8H0V28z M13,20h6c0.6,0,1,0.4,1,1s-0.4,1-1,1h-6c-0.6,0-1-0.4-1-1S12.4,20,13,20z
	 M5.3,13.7c-0.4-0.4-0.4-1,0-1.4s1-0.4,1.4,0l4,4c0.4,0.4,0.4,1,0,1.4l-4,4C6.5,21.9,6.3,22,6,22s-0.5-0.1-0.7-0.3
	c-0.4-0.4-0.4-1,0-1.4L8.6,17L5.3,13.7z"/>
</svg>
