<?xml version="1.0" encoding="utf-8"?>
<!-- Generator: Adobe Illustrator 18.1.1, SVG Export Plug-In . SVG Version: 6.00 Build 0)  -->
<!DOCTYPE svg PUBLIC "-//W3C//DTD SVG 1.1//EN" "http://www.w3.org/Graphics/SVG/1.1/DTD/svg11.dtd">
<svg version="1.1" id="Layer_1" xmlns="http://www.w3.org/2000/svg" xmlns:xlink="http://www.w3.org/1999/xlink" x="0px" y="0px"
	 width="32px" height="32px" viewBox="0 0 32 32" enable-background="new 0 0 32 32" xml:space="preserve">
<path d="M19.3,13.3L15,17.6l-2.3-2.3c-0.4-0.4-1-0.4-1.4,0s-0.4,1,0,1.4l3,3c0.2,0.2,0.5,0.3,0.7,0.3s0.5-0.1,0.7-0.3l5-5
	c0.4-0.4,0.4-1,0-1.4S19.7,12.9,19.3,13.3z"/>
<path d="M3,1v30c0,0.6,0.4,1,1,1h24c0.6,0,1-0.4,1-1V1c0-0.6-0.4-1-1-1h-4v4c0.6,0,1,0.4,1,1v22c0,0.6-0.4,1-1,1H8c-0.6,0-1-0.4-1-1
	V5c0-0.6,0.4-1,1-1V0H4C3.4,0,3,0.4,3,1z"/>
<path d="M22,6V1c0-0.6-0.4-1-1-1H11c-0.6,0-1,0.4-1,1v5c0,0.6,0.4,1,1,1h2.1c0.4,0,0.8-0.2,1-0.6C14.4,5.6,15.1,5,16,5
	c0.9,0,1.6,0.6,1.9,1.4C18,6.8,18.4,7,18.9,7H21C21.6,7,22,6.6,22,6z"/>
</svg>
