<?xml version="1.0" encoding="utf-8"?>
<!-- Generator: Adobe Illustrator 18.1.1, SVG Export Plug-In . SVG Version: 6.00 Build 0)  -->
<!DOCTYPE svg PUBLIC "-//W3C//DTD SVG 1.1//EN" "http://www.w3.org/Graphics/SVG/1.1/DTD/svg11.dtd">
<svg version="1.1" id="Layer_1" xmlns="http://www.w3.org/2000/svg" xmlns:xlink="http://www.w3.org/1999/xlink" x="0px" y="0px"
	 width="32px" height="32px" viewBox="0 0 32 32" enable-background="new 0 0 32 32" xml:space="preserve">
<path d="M28,4c-1.9,0-3.4,1.3-3.9,3H20V5c0-0.6-0.4-1-1-1h-6c-0.6,0-1,0.4-1,1v2H7.9C7.4,5.3,5.9,4,4,4C1.8,4,0,5.8,0,8s1.8,4,4,4
	c1.9,0,3.4-1.3,3.9-3H12v0.7C7.3,11.4,4,15.9,4,21v0H2c-0.6,0-1,0.4-1,1v6c0,0.6,0.4,1,1,1h6c0.6,0,1-0.4,1-1v-6c0-0.6-0.4-1-1-1H6
	v0c0-4.1,2.5-7.8,6.3-9.3c0.2,0.2,0.4,0.3,0.7,0.3h6c0.3,0,0.5-0.1,0.7-0.3c3.8,1.5,6.3,5.2,6.3,9.3v0h-2c-0.6,0-1,0.4-1,1v6
	c0,0.6,0.4,1,1,1h6c0.6,0,1-0.4,1-1v-6c0-0.6-0.4-1-1-1h-2v0c0-5.1-3.3-9.6-8-11.3V9h4.1c0.4,1.7,2,3,3.9,3c2.2,0,4-1.8,4-4
	S30.2,4,28,4z"/>
</svg>
