<?xml version="1.0" encoding="utf-8"?>
<!-- Generator: Adobe Illustrator 18.1.1, SVG Export Plug-In . SVG Version: 6.00 Build 0)  -->
<!DOCTYPE svg PUBLIC "-//W3C//DTD SVG 1.1//EN" "http://www.w3.org/Graphics/SVG/1.1/DTD/svg11.dtd">
<svg version="1.1" id="Layer_1" xmlns="http://www.w3.org/2000/svg" xmlns:xlink="http://www.w3.org/1999/xlink" x="0px" y="0px"
	 width="32px" height="32px" viewBox="0 0 32 32" enable-background="new 0 0 32 32" xml:space="preserve">
<path d="M13,32h6c3.9,0,7-3.1,7-7V7c0-3.9-3.1-7-7-7h-6C9.1,0,6,3.1,6,7v18C6,28.9,9.1,32,13,32z M15,8.1V6c0-0.6,0.4-1,1-1
	s1,0.4,1,1v2.1c1.7,0.4,3,2,3,3.9s-1.3,3.4-3,3.9V18c0,0.6-0.4,1-1,1s-1-0.4-1-1v-2.1c-1.7-0.4-3-2-3-3.9S13.3,8.6,15,8.1z"/>
</svg>
