<?xml version="1.0" encoding="utf-8"?>
<!-- Generator: Adobe Illustrator 18.1.1, SVG Export Plug-In . SVG Version: 6.00 Build 0)  -->
<!DOCTYPE svg PUBLIC "-//W3C//DTD SVG 1.1//EN" "http://www.w3.org/Graphics/SVG/1.1/DTD/svg11.dtd">
<svg version="1.1" id="Layer_1" xmlns="http://www.w3.org/2000/svg" xmlns:xlink="http://www.w3.org/1999/xlink" x="0px" y="0px"
	 width="32px" height="32px" viewBox="0 0 32 32" enable-background="new 0 0 32 32" xml:space="preserve">
<path d="M24,5c0.6,0,1-0.4,1-1V2c0-0.6-0.4-1-1-1H8C7.4,1,7,1.4,7,2v2c0,0.6,0.4,1,1,1H24z"/>
<path d="M8,27c-0.6,0-1,0.4-1,1v2c0,0.6,0.4,1,1,1h16c0.6,0,1-0.4,1-1v-2c0-0.6-0.4-1-1-1H8z"/>
<path d="M6,8v16c0,0.6,0.4,1,1,1h18c0.6,0,1-0.4,1-1V8c0-0.6-0.4-1-1-1H7C6.4,7,6,7.4,6,8z M10,15c0-0.6,0.4-1,1-1s1,0.4,1,1v5
	c0,0.6-0.4,1-1,1s-1-0.4-1-1V15z"/>
</svg>
