<?xml version="1.0" encoding="utf-8"?>
<!-- Generator: Adobe Illustrator 18.1.1, SVG Export Plug-In . SVG Version: 6.00 Build 0)  -->
<!DOCTYPE svg PUBLIC "-//W3C//DTD SVG 1.1//EN" "http://www.w3.org/Graphics/SVG/1.1/DTD/svg11.dtd">
<svg version="1.1" id="Layer_1" xmlns="http://www.w3.org/2000/svg" xmlns:xlink="http://www.w3.org/1999/xlink" x="0px" y="0px"
	 width="32px" height="32px" viewBox="0 0 32 32" enable-background="new 0 0 32 32" xml:space="preserve">
<path d="M26.2,8.2l-4,12.9l7.6-8.5c0.2-0.2,0.3-0.5,0.3-0.7s-0.1-0.5-0.3-0.7L26.2,8.2z"/>
<path d="M24.3,4.1L20,2.8v18.7l5-16.1C25,5.1,25,4.8,24.9,4.6S24.5,4.2,24.3,4.1z"/>
<path d="M17,0H5C4.4,0,4,0.4,4,1v18h14V1C18,0.4,17.6,0,17,0z"/>
<path d="M4,31c0,0.6,0.4,1,1,1h12c0.6,0,1-0.4,1-1V21H4V31z M11,24c1.1,0,2,0.9,2,2s-0.9,2-2,2s-2-0.9-2-2S9.9,24,11,24z"/>
</svg>
