<?xml version="1.0" encoding="utf-8"?>
<!-- Generator: Adobe Illustrator 18.1.1, SVG Export Plug-In . SVG Version: 6.00 Build 0)  -->
<!DOCTYPE svg PUBLIC "-//W3C//DTD SVG 1.1//EN" "http://www.w3.org/Graphics/SVG/1.1/DTD/svg11.dtd">
<svg version="1.1" id="Layer_1" xmlns="http://www.w3.org/2000/svg" xmlns:xlink="http://www.w3.org/1999/xlink" x="0px" y="0px"
	 width="32px" height="32px" viewBox="0 0 32 32" enable-background="new 0 0 32 32" xml:space="preserve">
<path d="M31,2H1C0.4,2,0,2.4,0,3v26c0,0.6,0.4,1,1,1h30c0.6,0,1-0.4,1-1V3C32,2.4,31.6,2,31,2z M28,20.6l-5.3-5.3
	c-0.4-0.4-1-0.4-1.4-0.1l-6.5,5.5l-4.4-2.6c-0.4-0.2-0.8-0.2-1.2,0.1L4,22.8V7c0-0.6,0.4-1,1-1h22c0.6,0,1,0.4,1,1V20.6z"/>
<path d="M14.5,8C12.6,8,11,9.6,11,11.5s1.6,3.5,3.5,3.5s3.5-1.6,3.5-3.5S16.4,8,14.5,8z"/>
</svg>
