<?xml version="1.0" encoding="utf-8"?>
<!-- Generator: Adobe Illustrator 18.1.1, SVG Export Plug-In . SVG Version: 6.00 Build 0)  -->
<!DOCTYPE svg PUBLIC "-//W3C//DTD SVG 1.1//EN" "http://www.w3.org/Graphics/SVG/1.1/DTD/svg11.dtd">
<svg version="1.1" id="Layer_1" xmlns="http://www.w3.org/2000/svg" xmlns:xlink="http://www.w3.org/1999/xlink" x="0px" y="0px"
	 width="32px" height="32px" viewBox="0 0 32 32" enable-background="new 0 0 32 32" xml:space="preserve">
<path d="M12,7c-0.6,0-1,0.4-1,1v16c0,0.6,0.4,1,1,1h8c0.6,0,1-0.4,1-1V8c0-0.6-0.4-1-1-1H12z"/>
<path d="M4,30V2c0-0.6-0.4-1-1-1S2,1.4,2,2v28c0,0.6,0.4,1,1,1S4,30.6,4,30z"/>
<path d="M29,1c-0.6,0-1,0.4-1,1v28c0,0.6,0.4,1,1,1s1-0.4,1-1V2C30,1.4,29.6,1,29,1z"/>
</svg>
