<?xml version="1.0" encoding="utf-8"?>
<!-- Generator: Adobe Illustrator 19.2.1, SVG Export Plug-In . SVG Version: 6.00 Build 0)  -->
<!DOCTYPE svg PUBLIC "-//W3C//DTD SVG 1.1//EN" "http://www.w3.org/Graphics/SVG/1.1/DTD/svg11.dtd">
<svg version="1.1" id="Layer_1" xmlns="http://www.w3.org/2000/svg" xmlns:xlink="http://www.w3.org/1999/xlink" x="0px" y="0px"
	 width="48px" height="48px" viewBox="0 0 48 48" enable-background="new 0 0 48 48" xml:space="preserve">
<path id="color_3_" d="M20,18c-3.309,0-6,2.691-6,6s2.691,6,6,6s6-2.691,6-6S23.309,18,20,18z M19,27.858c-1.721-0.447-3-2-3-3.858
	s1.279-3.411,3-3.858V27.858z M21,27.858v-7.716c1.721,0.447,3,2,3,3.858S22.721,27.411,21,27.858z"/>
<path d="M43,7H5c-2.206,0-4,1.794-4,4v26c0,2.206,1.794,4,4,4h38c2.206,0,4-1.794,4-4V11C47,8.794,45.206,7,43,7z M28,32h-8
	c-4.418,0-8-3.582-8-8s3.582-8,8-8h8c4.418,0,8,3.582,8,8S32.418,32,28,32z"/>
</svg>
