<?xml version="1.0" encoding="utf-8"?>
<!-- Generator: Adobe Illustrator 19.1.0, SVG Export Plug-In . SVG Version: 6.00 Build 0)  -->
<!DOCTYPE svg PUBLIC "-//W3C//DTD SVG 1.1//EN" "http://www.w3.org/Graphics/SVG/1.1/DTD/svg11.dtd">
<svg version="1.1" id="Layer_1" xmlns="http://www.w3.org/2000/svg" xmlns:xlink="http://www.w3.org/1999/xlink" x="0px" y="0px"
	 width="48px" height="48px" viewBox="0 0 48 48" enable-background="new 0 0 48 48" xml:space="preserve">
<path id="color_29_" d="M36,17c-5.4,0-11,4.1-11,11c0,6.5,9.9,16.5,10.3,16.9c0.2,0.2,0.5,0.3,0.7,0.3s0.5-0.1,0.7-0.3
	C37.1,44.5,47,34.5,47,28C47,21.1,41.4,17,36,17z M36,31c-1.7,0-3-1.3-3-3s1.3-3,3-3s3,1.3,3,3S37.7,31,36,31z"/>
<path d="M12,22.3c1.1,1.6,2.9,2.7,5,2.7c2.1,0,3.9-1.1,5-2.7c0.4,0.6,1,1.2,1.6,1.6C25.4,18.3,30.8,15,36,15c2.2,0,4.5,0.6,6.5,1.7
	L34.9,1.6C34.7,1.2,34.4,1,34,1H10C9.6,1,9.3,1.2,9.1,1.6l-8,16C1,17.7,1,17.8,1,18c0,4.8,3,7,6,7C9.1,25,10.9,23.9,12,22.3z"/>
<path d="M23,28c0-0.7,0.1-1.4,0.2-2c-0.4-0.2-0.8-0.5-1.2-0.8c-1.4,1.1-3.2,1.8-5,1.8c-1.8,0-3.6-0.6-5-1.8C10.6,26.4,8.8,27,7,27
	v15c0,0.6,0.4,1,1,1h22.8C27.6,39.2,23,33,23,28z"/>
</svg>
