<?xml version="1.0" encoding="utf-8"?>
<!-- Generator: Adobe Illustrator 19.1.0, SVG Export Plug-In . SVG Version: 6.00 Build 0)  -->
<!DOCTYPE svg PUBLIC "-//W3C//DTD SVG 1.1//EN" "http://www.w3.org/Graphics/SVG/1.1/DTD/svg11.dtd">
<svg version="1.1" id="Layer_1" xmlns="http://www.w3.org/2000/svg" xmlns:xlink="http://www.w3.org/1999/xlink" x="0px" y="0px"
	 width="48px" height="48px" viewBox="0 0 48 48" enable-background="new 0 0 48 48" xml:space="preserve">
<path d="M33,11.1V6c0-0.6-0.4-1-1-1H2C1.4,5,1,5.4,1,6v8h16.3c0.9,2.9,3.5,5,6.7,5H1v13c0,0.6,0.4,1,1,1h5.3l0.6,1.8
	c0.8,2.5,3.1,4.4,5.8,4.7C18.1,40.1,26.5,41,32,41c4.1,0,7.8-1.5,10.6-4.4c2.9-2.9,4.4-6.8,4.4-11.1C46.9,17.9,40.7,11.6,33,11.1z
	 M8,24h6c0.6,0,1,0.4,1,1s-0.4,1-1,1H8c-0.6,0-1-0.4-1-1S7.4,24,8,24z M41.2,35.2C38.8,37.7,35.5,39,32,39c-5.4,0-13.7-0.9-18.1-1.5
	c-1.9-0.2-3.5-1.5-4.1-3.4L9.4,33H32c0.6,0,1-0.4,1-1v-5.5c0.9,0.3,1.9,0.5,3,0.5c0.6,0,1-0.4,1-1s-0.4-1-1-1c-3.9,0-7-3.1-7-7
	c0-0.6-0.4-1-1-1h-4c-2.4,0-4.4-1.7-4.9-4h12.8c7.2,0,13,5.6,13.1,12.6C45,29.3,43.7,32.7,41.2,35.2z"/>
</svg>
