<?xml version="1.0" encoding="utf-8"?>
<!-- Generator: Adobe Illustrator 19.1.0, SVG Export Plug-In . SVG Version: 6.00 Build 0)  -->
<!DOCTYPE svg PUBLIC "-//W3C//DTD SVG 1.1//EN" "http://www.w3.org/Graphics/SVG/1.1/DTD/svg11.dtd">
<svg version="1.1" id="Layer_1" xmlns="http://www.w3.org/2000/svg" xmlns:xlink="http://www.w3.org/1999/xlink" x="0px" y="0px"
	 width="48px" height="48px" viewBox="0 0 48 48" enable-background="new 0 0 48 48" xml:space="preserve">
<path d="M40,1H8C4.1,1,1,4.1,1,8c0,3.5,2.6,6.4,6,6.9V43c0,2.2,1.8,4,4,4h5V7H8C7.4,7,7,7.4,7,8v4.9C4.7,12.4,3,10.4,3,8
	c0-2.8,2.2-5,5-5h32c2.8,0,5,2.2,5,5c0,2.4-1.7,4.4-4,4.9V8c0-0.6-0.4-1-1-1H24v40h13c2.2,0,4-1.8,4-4V14.9c3.4-0.5,6-3.4,6-6.9
	C47,4.1,43.9,1,40,1z M33,38c0,0.6-0.4,1-1,1s-1-0.4-1-1V28c0-0.6,0.4-1,1-1s1,0.4,1,1V38z"/>
</svg>
