<?xml version="1.0" encoding="utf-8"?>
<!-- Generator: Adobe Illustrator 19.1.0, SVG Export Plug-In . SVG Version: 6.00 Build 0)  -->
<!DOCTYPE svg PUBLIC "-//W3C//DTD SVG 1.1//EN" "http://www.w3.org/Graphics/SVG/1.1/DTD/svg11.dtd">
<svg version="1.1" id="Layer_1" xmlns="http://www.w3.org/2000/svg" xmlns:xlink="http://www.w3.org/1999/xlink" x="0px" y="0px"
	 width="48px" height="48px" viewBox="0 0 48 48" enable-background="new 0 0 48 48" xml:space="preserve">
<path d="M42,27.5V12c0-0.6-0.4-1-1-1h-8v-1c0-5-4-9-9-9s-9,4-9,9v1H7c-0.6,0-1,0.4-1,1v34c0,0.6,0.4,1,1,1h28h0h0
	c6.1,0,11-4.9,11-11C46,32.6,44.4,29.5,42,27.5z M17,10c0-3.9,3.1-7,7-7s7,3.1,7,7v1H17V10z M35,45c-5,0-9-4-9-9s4-9,9-9s9,4,9,9
	S40,45,35,45z"/>
<path id="color_16_" d="M39,35h-3v-3c0-0.6-0.4-1-1-1s-1,0.4-1,1v3h-3c-0.6,0-1,0.4-1,1s0.4,1,1,1h3v3c0,0.6,0.4,1,1,1s1-0.4,1-1v-3
	h3c0.6,0,1-0.4,1-1S39.6,35,39,35z"/>
</svg>
