<?xml version="1.0" encoding="utf-8"?>
<!-- Generator: Adobe Illustrator 18.1.1, SVG Export Plug-In . SVG Version: 6.00 Build 0)  -->
<!DOCTYPE svg PUBLIC "-//W3C//DTD SVG 1.1//EN" "http://www.w3.org/Graphics/SVG/1.1/DTD/svg11.dtd">
<svg version="1.1" id="Layer_1" xmlns="http://www.w3.org/2000/svg" xmlns:xlink="http://www.w3.org/1999/xlink" x="0px" y="0px"
	 width="32px" height="32px" viewBox="0 0 32 32" enable-background="new 0 0 32 32" xml:space="preserve">
<path d="M2,15c0,0.3,0.1,0.5,0.3,0.7l11,11c0.3,0.3,0.7,0.4,1.1,0.2c0.4-0.2,0.6-0.5,0.6-0.9v-5c7.7,0.1,10.3,0.9,13.1,5.5
	c0.2,0.3,0.5,0.5,0.9,0.5c0.1,0,0.2,0,0.3,0c0.4-0.1,0.7-0.5,0.7-1c0-10.3-5-15.7-15-16V5c0-0.4-0.2-0.8-0.6-0.9
	C14,3.9,13.6,4,13.3,4.3l-11,10C2.1,14.4,2,14.7,2,15z M13,7.3V11c0,0.6,0.4,1,1,1c8.4,0,12.8,3.4,13.8,10.7
	C24.9,19.6,21.3,19,14,19c-0.6,0-1,0.4-1,1v3.6L4.4,15L13,7.3z"/>
</svg>
