<?xml version="1.0" encoding="utf-8"?>
<!-- Generator: Adobe Illustrator 18.1.1, SVG Export Plug-In . SVG Version: 6.00 Build 0)  -->
<!DOCTYPE svg PUBLIC "-//W3C//DTD SVG 1.1//EN" "http://www.w3.org/Graphics/SVG/1.1/DTD/svg11.dtd">
<svg version="1.1" id="Layer_1" xmlns="http://www.w3.org/2000/svg" xmlns:xlink="http://www.w3.org/1999/xlink" x="0px" y="0px"
	 width="32px" height="32px" viewBox="0 0 32 32" enable-background="new 0 0 32 32" xml:space="preserve">
<path d="M10,1H2C1.4,1,1,1.4,1,2v8c0,0.6,0.4,1,1,1s1-0.4,1-1V3h7c0.6,0,1-0.4,1-1S10.6,1,10,1z"/>
<path d="M30,1h-8c-0.6,0-1,0.4-1,1s0.4,1,1,1h7v7c0,0.6,0.4,1,1,1s1-0.4,1-1V2C31,1.4,30.6,1,30,1z"/>
<path d="M30,21c-0.6,0-1,0.4-1,1v7h-7c-0.6,0-1,0.4-1,1s0.4,1,1,1h8c0.6,0,1-0.4,1-1v-8C31,21.4,30.6,21,30,21z"/>
<path d="M1,30c0,0.6,0.4,1,1,1h8c0.6,0,1-0.4,1-1s-0.4-1-1-1H3v-7c0-0.6-0.4-1-1-1s-1,0.4-1,1V30z"/>
<path d="M10,11v10c0,0.6,0.4,1,1,1h10c0.6,0,1-0.4,1-1V11c0-0.6-0.4-1-1-1H11C10.4,10,10,10.4,10,11z M12,12h8v8h-8V12z"/>
</svg>
