<?xml version="1.0" encoding="utf-8"?>
<!-- Generator: Adobe Illustrator 18.1.1, SVG Export Plug-In . SVG Version: 6.00 Build 0)  -->
<!DOCTYPE svg PUBLIC "-//W3C//DTD SVG 1.1//EN" "http://www.w3.org/Graphics/SVG/1.1/DTD/svg11.dtd">
<svg version="1.1" id="Layer_1" xmlns="http://www.w3.org/2000/svg" xmlns:xlink="http://www.w3.org/1999/xlink" x="0px" y="0px"
	 width="32px" height="32px" viewBox="0 0 32 32" enable-background="new 0 0 32 32" xml:space="preserve">
<path d="M30.7,8.3l-7-7c-0.4-0.4-1-0.4-1.4,0s-0.4,1,0,1.4L27.6,8H9C8.4,8,8,8.4,8,9v18.6l-5.3-5.3c-0.4-0.4-1-0.4-1.4,0
	s-0.4,1,0,1.4l7,7c0.1,0.1,0.2,0.2,0.3,0.2C8.7,31,8.9,31,9,31s0.3,0,0.4-0.1c0.1-0.1,0.2-0.1,0.3-0.2l7-7c0.4-0.4,0.4-1,0-1.4
	s-1-0.4-1.4,0L10,27.6V10h17.6l-5.3,5.3c-0.4,0.4-0.4,1,0,1.4c0.2,0.2,0.5,0.3,0.7,0.3s0.5-0.1,0.7-0.3l7-7c0.1-0.1,0.2-0.2,0.2-0.3
	c0.1-0.2,0.1-0.5,0-0.8C30.9,8.5,30.8,8.4,30.7,8.3z"/>
</svg>
