<?xml version="1.0" encoding="utf-8"?>
<!-- Generator: Adobe Illustrator 18.1.1, SVG Export Plug-In . SVG Version: 6.00 Build 0)  -->
<!DOCTYPE svg PUBLIC "-//W3C//DTD SVG 1.1//EN" "http://www.w3.org/Graphics/SVG/1.1/DTD/svg11.dtd">
<svg version="1.1" id="Layer_1" xmlns="http://www.w3.org/2000/svg" xmlns:xlink="http://www.w3.org/1999/xlink" x="0px" y="0px"
	 width="32px" height="32px" viewBox="0 0 32 32" enable-background="new 0 0 32 32" xml:space="preserve">
<path d="M30.7,8.3l-5-5c-0.4-0.4-1-0.4-1.4,0s-0.4,1,0,1.4L27.6,8H20c-0.3,0-0.6,0.1-0.8,0.3L7.5,22H2c-0.6,0-1,0.4-1,1s0.4,1,1,1h6
	c0.3,0,0.6-0.1,0.8-0.3L20.5,10h7.1l-3.3,3.3c-0.4,0.4-0.4,1,0,1.4c0.2,0.2,0.5,0.3,0.7,0.3s0.5-0.1,0.7-0.3l5-5
	c0.1-0.1,0.2-0.2,0.2-0.3c0.1-0.2,0.1-0.5,0-0.8C30.9,8.5,30.8,8.4,30.7,8.3z"/>
<path d="M2,10h5.5l4,4.7c0.2,0.2,0.5,0.3,0.8,0.3c0.2,0,0.5-0.1,0.7-0.2c0.4-0.4,0.5-1,0.1-1.4l-4.3-5C8.6,8.1,8.3,8,8,8H2
	C1.4,8,1,8.4,1,9S1.4,10,2,10z"/>
<path d="M30.9,22.6c-0.1-0.1-0.1-0.2-0.2-0.3l-5-5c-0.4-0.4-1-0.4-1.4,0s-0.4,1,0,1.4l3.3,3.3h-7.1l-4-4.7c-0.4-0.4-1-0.5-1.4-0.1
	c-0.4,0.4-0.5,1-0.1,1.4l4.3,5c0.2,0.2,0.5,0.3,0.8,0.3h7.6l-3.3,3.3c-0.4,0.4-0.4,1,0,1.4c0.2,0.2,0.5,0.3,0.7,0.3s0.5-0.1,0.7-0.3
	l5-5c0.1-0.1,0.2-0.2,0.2-0.3C31,23.1,31,22.9,30.9,22.6z"/>
</svg>
