<?xml version="1.0" encoding="utf-8"?>
<!-- Generator: Adobe Illustrator 18.1.1, SVG Export Plug-In . SVG Version: 6.00 Build 0)  -->
<!DOCTYPE svg PUBLIC "-//W3C//DTD SVG 1.1//EN" "http://www.w3.org/Graphics/SVG/1.1/DTD/svg11.dtd">
<svg version="1.1" id="Layer_1" xmlns="http://www.w3.org/2000/svg" xmlns:xlink="http://www.w3.org/1999/xlink" x="0px" y="0px"
	 width="32px" height="32px" viewBox="0 0 32 32" enable-background="new 0 0 32 32" xml:space="preserve">
<path d="M6.1,30.5C6.3,30.8,6.6,31,7,31h8c0.3,0,0.6-0.2,0.8-0.4l10-14c0.2-0.3,0.2-0.8,0-1.2l-10-14C15.6,1.2,15.3,1,15,1H7
	C6.6,1,6.3,1.2,6.1,1.5S6,2.3,6.2,2.6L15.8,16L6.2,29.4C6,29.7,5.9,30.1,6.1,30.5z M17.8,16.6c0.2-0.3,0.2-0.8,0-1.2L8.9,3h5.5
	l9.3,13l-9.3,13H8.9L17.8,16.6z"/>
</svg>
