<?xml version="1.0" encoding="utf-8"?>
<!-- Generator: Adobe Illustrator 18.1.1, SVG Export Plug-In . SVG Version: 6.00 Build 0)  -->
<!DOCTYPE svg PUBLIC "-//W3C//DTD SVG 1.1//EN" "http://www.w3.org/Graphics/SVG/1.1/DTD/svg11.dtd">
<svg version="1.1" id="Layer_1" xmlns="http://www.w3.org/2000/svg" xmlns:xlink="http://www.w3.org/1999/xlink" x="0px" y="0px"
	 width="32px" height="32px" viewBox="0 0 32 32" enable-background="new 0 0 32 32" xml:space="preserve">
<path d="M18,15c0.3,0,0.5-0.1,0.7-0.3L24,9.4l4.3,4.3c0.2,0.2,0.4,0.3,0.7,0.3c0.1,0,0.3,0,0.4-0.1c0.4-0.2,0.6-0.5,0.6-0.9V3
	c0-0.6-0.4-1-1-1H19c-0.4,0-0.8,0.2-0.9,0.6S18,3.4,18.3,3.7L22.6,8l-5.3,5.3c-0.4,0.4-0.4,1,0,1.4C17.5,14.9,17.7,15,18,15z M28,4
	v6.6L21.4,4H28z"/>
<path d="M2,29c0,0.6,0.4,1,1,1h10c0,0,0,0,0,0c0.6,0,1-0.4,1-1c0-0.3-0.2-0.6-0.4-0.8L9.4,24l5.3-5.3c0.4-0.4,0.4-1,0-1.4
	s-1-0.4-1.4,0L8,22.6l-4.3-4.3C3.4,18,3,17.9,2.6,18.1C2.2,18.2,2,18.6,2,19V29z M4,21.4l6.6,6.6H4V21.4z"/>
</svg>
