<?xml version="1.0" encoding="utf-8"?>
<!-- Generator: Adobe Illustrator 18.1.1, SVG Export Plug-In . SVG Version: 6.00 Build 0)  -->
<!DOCTYPE svg PUBLIC "-//W3C//DTD SVG 1.1//EN" "http://www.w3.org/Graphics/SVG/1.1/DTD/svg11.dtd">
<svg version="1.1" id="Layer_1" xmlns="http://www.w3.org/2000/svg" xmlns:xlink="http://www.w3.org/1999/xlink" x="0px" y="0px"
	 width="32px" height="32px" viewBox="0 0 32 32" enable-background="new 0 0 32 32" xml:space="preserve">
<path d="M16,1c-0.6,0-1,0.4-1,1v10.6l-3.3-3.3c-0.4-0.4-1-0.4-1.4,0s-0.4,1,0,1.4l5,5c0.1,0.1,0.2,0.2,0.3,0.2
	C15.7,16,15.9,16,16,16s0.3,0,0.4-0.1c0.1-0.1,0.2-0.1,0.3-0.2l5-5c0.4-0.4,0.4-1,0-1.4s-1-0.4-1.4,0L17,12.6V2C17,1.4,16.6,1,16,1z
	"/>
<path d="M30,9h-5c-0.6,0-1,0.4-1,1s0.4,1,1,1h4v10H3V11h4c0.6,0,1-0.4,1-1S7.6,9,7,9H2c-0.6,0-1,0.4-1,1v12v9c0,0.6,0.4,1,1,1h28
	c0.6,0,1-0.4,1-1v-9V10C31,9.4,30.6,9,30,9z M29,30H3v-7h26V30z"/>
<path d="M13,27h6c0.6,0,1-0.4,1-1s-0.4-1-1-1h-6c-0.6,0-1,0.4-1,1S12.4,27,13,27z"/>
</svg>
