<?xml version="1.0" encoding="utf-8"?>
<!-- Generator: Adobe Illustrator 18.1.1, SVG Export Plug-In . SVG Version: 6.00 Build 0)  -->
<!DOCTYPE svg PUBLIC "-//W3C//DTD SVG 1.1//EN" "http://www.w3.org/Graphics/SVG/1.1/DTD/svg11.dtd">
<svg version="1.1" id="Layer_1" xmlns="http://www.w3.org/2000/svg" xmlns:xlink="http://www.w3.org/1999/xlink" x="0px" y="0px"
	 width="32px" height="32px" viewBox="0 0 32 32" enable-background="new 0 0 32 32" xml:space="preserve">
<path d="M5,16v7c0,0.6,0.4,1,1,1s1-0.4,1-1v-7c0-2.8,2.2-5,5-5h11.6l-5.3,5.3c-0.4,0.4-0.4,1,0,1.4c0.2,0.2,0.5,0.3,0.7,0.3
	s0.5-0.1,0.7-0.3l7-7c0.1-0.1,0.2-0.2,0.2-0.3c0.1-0.2,0.1-0.5,0-0.8c-0.1-0.1-0.1-0.2-0.2-0.3l-7-7c-0.4-0.4-1-0.4-1.4,0
	s-0.4,1,0,1.4L23.6,9H12C8.1,9,5,12.1,5,16z"/>
<path d="M30,29v-8c0-0.6-0.4-1-1-1s-1,0.4-1,1v7H3c-0.6,0-1,0.4-1,1s0.4,1,1,1h26C29.6,30,30,29.6,30,29z"/>
</svg>
