<?xml version="1.0" encoding="utf-8"?>
<!-- Generator: Adobe Illustrator 18.1.1, SVG Export Plug-In . SVG Version: 6.00 Build 0)  -->
<!DOCTYPE svg PUBLIC "-//W3C//DTD SVG 1.1//EN" "http://www.w3.org/Graphics/SVG/1.1/DTD/svg11.dtd">
<svg version="1.1" id="Layer_1" xmlns="http://www.w3.org/2000/svg" xmlns:xlink="http://www.w3.org/1999/xlink" x="0px" y="0px"
	 width="32px" height="32px" viewBox="0 0 32 32" enable-background="new 0 0 32 32" xml:space="preserve">
<path d="M16,22c0.6,0,1-0.4,1-1V4.4l2.3,2.3C19.5,6.9,19.7,7,20,7s0.5-0.1,0.7-0.3c0.4-0.4,0.4-1,0-1.4l-4-4
	c-0.1-0.1-0.2-0.2-0.3-0.2c-0.2-0.1-0.5-0.1-0.8,0c-0.1,0.1-0.2,0.1-0.3,0.2l-4,4c-0.4,0.4-0.4,1,0,1.4s1,0.4,1.4,0L15,4.4V21
	C15,21.6,15.4,22,16,22z"/>
<path d="M5,12v18c0,0.6,0.4,1,1,1h20c0.6,0,1-0.4,1-1V12c0-0.6-0.4-1-1-1h-6c-0.6,0-1,0.4-1,1s0.4,1,1,1h5v16H7V13h5
	c0.6,0,1-0.4,1-1s-0.4-1-1-1H6C5.4,11,5,11.4,5,12z"/>
</svg>
