<?xml version="1.0" encoding="utf-8"?>
<!-- Generator: Adobe Illustrator 18.1.1, SVG Export Plug-In . SVG Version: 6.00 Build 0)  -->
<!DOCTYPE svg PUBLIC "-//W3C//DTD SVG 1.1//EN" "http://www.w3.org/Graphics/SVG/1.1/DTD/svg11.dtd">
<svg version="1.1" id="Layer_1" xmlns="http://www.w3.org/2000/svg" xmlns:xlink="http://www.w3.org/1999/xlink" x="0px" y="0px"
	 width="32px" height="32px" viewBox="0 0 32 32" enable-background="new 0 0 32 32" xml:space="preserve">
<path d="M27,20c-0.6,0-1,0.4-1,1v8H3V8h6c0.6,0,1-0.4,1-1S9.6,6,9,6H2C1.4,6,1,6.4,1,7v23c0,0.6,0.4,1,1,1h25c0.6,0,1-0.4,1-1v-9
	C28,20.4,27.6,20,27,20z"/>
<path d="M20.7,2.3C20.4,2,20,1.9,19.6,2.1C19.2,2.2,19,2.6,19,3v4.1C12.9,7.5,7,9.7,7,21c0,0.4,0.3,0.8,0.7,0.9C7.8,22,7.9,22,8,22
	c0.3,0,0.6-0.1,0.8-0.4C11,18.7,13.3,17.1,19,17v4c0,0.4,0.2,0.8,0.6,0.9c0.4,0.2,0.8,0.1,1.1-0.2l10-9c0.2-0.2,0.3-0.5,0.3-0.7
	s-0.1-0.6-0.3-0.7L20.7,2.3z M21,18.8V16c0-0.5-0.4-1-1-1l-0.3,0c-5.3,0-8.3,1.2-10.6,3.2c0.8-7.2,5-9,10.9-9.2c0.5,0,1-0.5,1-1V5.2
	l7.5,6.8L21,18.8z"/>
</svg>
