<?xml version="1.0" encoding="utf-8"?>
<!-- Generator: Adobe Illustrator 18.1.1, SVG Export Plug-In . SVG Version: 6.00 Build 0)  -->
<!DOCTYPE svg PUBLIC "-//W3C//DTD SVG 1.1//EN" "http://www.w3.org/Graphics/SVG/1.1/DTD/svg11.dtd">
<svg version="1.1" id="Layer_1" xmlns="http://www.w3.org/2000/svg" xmlns:xlink="http://www.w3.org/1999/xlink" x="0px" y="0px"
	 width="32px" height="32px" viewBox="0 0 32 32" enable-background="new 0 0 32 32" xml:space="preserve">
<path d="M9.7,22.3c-0.4-0.4-1-0.4-1.4,0s-0.4,1,0,1.4l7,7c0.1,0.1,0.2,0.2,0.3,0.2C15.7,31,15.9,31,16,31s0.3,0,0.4-0.1
	c0.1-0.1,0.2-0.1,0.3-0.2l7-7c0.4-0.4,0.4-1,0-1.4s-1-0.4-1.4,0L17,27.6V4.4l5.3,5.3C22.5,9.9,22.7,10,23,10s0.5-0.1,0.7-0.3
	c0.4-0.4,0.4-1,0-1.4l-7-7c-0.1-0.1-0.2-0.2-0.3-0.2c-0.2-0.1-0.5-0.1-0.8,0c-0.1,0.1-0.2,0.1-0.3,0.2l-7,7c-0.4,0.4-0.4,1,0,1.4
	s1,0.4,1.4,0L15,4.4V15H3c-0.6,0-1,0.4-1,1s0.4,1,1,1h12v10.6L9.7,22.3z"/>
<path d="M30,16c0-0.6-0.4-1-1-1h-8c-0.6,0-1,0.4-1,1s0.4,1,1,1h8C29.6,17,30,16.6,30,16z"/>
</svg>
