<?xml version="1.0" encoding="utf-8"?>
<!-- Generator: Adobe Illustrator 18.1.1, SVG Export Plug-In . SVG Version: 6.00 Build 0)  -->
<!DOCTYPE svg PUBLIC "-//W3C//DTD SVG 1.1//EN" "http://www.w3.org/Graphics/SVG/1.1/DTD/svg11.dtd">
<svg version="1.1" id="Layer_1" xmlns="http://www.w3.org/2000/svg" xmlns:xlink="http://www.w3.org/1999/xlink" x="0px" y="0px"
	 width="32px" height="32px" viewBox="0 0 32 32" enable-background="new 0 0 32 32" xml:space="preserve">
<path d="M26.7,6.3c-0.4-0.4-1-0.4-1.4,0L16,15.6L6.7,6.3c-0.4-0.4-1-0.4-1.4,0l-4,4c-0.4,0.4-0.4,1,0,1.4l14,14
	c0.2,0.2,0.5,0.3,0.7,0.3s0.5-0.1,0.7-0.3l14-14c0.4-0.4,0.4-1,0-1.4L26.7,6.3z M16,23.6L3.4,11L6,8.4l9.3,9.3c0.4,0.4,1,0.4,1.4,0
	L26,8.4l2.6,2.6L16,23.6z"/>
</svg>
