<?xml version="1.0" encoding="utf-8"?>
<!-- Generator: Adobe Illustrator 18.1.1, SVG Export Plug-In . SVG Version: 6.00 Build 0)  -->
<!DOCTYPE svg PUBLIC "-//W3C//DTD SVG 1.1//EN" "http://www.w3.org/Graphics/SVG/1.1/DTD/svg11.dtd">
<svg version="1.1" id="Layer_1" xmlns="http://www.w3.org/2000/svg" xmlns:xlink="http://www.w3.org/1999/xlink" x="0px" y="0px"
	 width="32px" height="32px" viewBox="0 0 32 32" enable-background="new 0 0 32 32" xml:space="preserve">
<path d="M30.7,15.3l-8-8c-0.4-0.4-1-0.4-1.4,0s-0.4,1,0,1.4l6.3,6.3H7c-0.6,0-1,0.4-1,1s0.4,1,1,1h20.6l-6.3,6.3
	c-0.4,0.4-0.4,1,0,1.4c0.2,0.2,0.5,0.3,0.7,0.3s0.5-0.1,0.7-0.3l8-8c0.1-0.1,0.2-0.2,0.2-0.3c0.1-0.2,0.1-0.5,0-0.8
	C30.9,15.5,30.8,15.4,30.7,15.3z"/>
<path d="M2,28c0.6,0,1-0.4,1-1V5c0-0.6-0.4-1-1-1S1,4.4,1,5v22C1,27.6,1.4,28,2,28z"/>
</svg>
