<?xml version="1.0" encoding="utf-8"?>
<!-- Generator: Adobe Illustrator 18.1.1, SVG Export Plug-In . SVG Version: 6.00 Build 0)  -->
<!DOCTYPE svg PUBLIC "-//W3C//DTD SVG 1.1//EN" "http://www.w3.org/Graphics/SVG/1.1/DTD/svg11.dtd">
<svg version="1.1" id="Layer_1" xmlns="http://www.w3.org/2000/svg" xmlns:xlink="http://www.w3.org/1999/xlink" x="0px" y="0px"
	 width="32px" height="32px" viewBox="0 0 32 32" enable-background="new 0 0 32 32" xml:space="preserve">
<path d="M27,12h2c0.6,0,1-0.4,1-1s-0.4-1-1-1H3c-0.6,0-1,0.4-1,1s0.4,1,1,1h2l-3.5,4.7c-1,1.5-1.6,3.3-1.6,5.2C0,27.1,3.9,31,9,31
	h14c5.1,0,9-3.9,9-9.1c0-1.9-0.5-3.7-1.6-5.2L27,12z M23,29H9c-4.1,0-7-3-7-7.1c0-1.5,0.4-2.9,1.2-4.1L7.5,12h17l4.3,5.9
	c0.8,1.2,1.2,2.6,1.2,4.1C30,26,27.1,29,23,29z"/>
<path d="M11.5,9c0.2,0,0.5-0.1,0.6-0.2C12.8,8.2,15,6.2,15,4.5C15,2.6,13.4,1,11.5,1S8,2.6,8,4.5c0,1.7,2.2,3.7,2.9,4.3
	C11,8.9,11.3,9,11.5,9z M10,4.5C10,3.7,10.7,3,11.5,3S13,3.7,13,4.5c0,0.4-0.7,1.3-1.5,2.1C10.7,5.8,10,4.9,10,4.5z"/>
<path d="M20.5,9c0.2,0,0.5-0.1,0.6-0.2C21.8,8.2,24,6.2,24,4.5C24,2.6,22.4,1,20.5,1S17,2.6,17,4.5c0,1.7,2.2,3.7,2.9,4.3
	C20,8.9,20.3,9,20.5,9z M19,4.5C19,3.7,19.7,3,20.5,3S22,3.7,22,4.5c0,0.4-0.7,1.3-1.5,2.1C19.7,5.8,19,4.9,19,4.5z"/>
</svg>
