<?xml version="1.0" encoding="utf-8"?>
<!-- Generator: Adobe Illustrator 18.1.1, SVG Export Plug-In . SVG Version: 6.00 Build 0)  -->
<!DOCTYPE svg PUBLIC "-//W3C//DTD SVG 1.1//EN" "http://www.w3.org/Graphics/SVG/1.1/DTD/svg11.dtd">
<svg version="1.1" id="Layer_1" xmlns="http://www.w3.org/2000/svg" xmlns:xlink="http://www.w3.org/1999/xlink" x="0px" y="0px"
	 width="32px" height="32px" viewBox="0 0 32 32" enable-background="new 0 0 32 32" xml:space="preserve">
<path d="M31.3,16.1L29,15.3V11c0-0.6-0.4-1-1-1h-8V6c0-0.6-0.4-1-1-1H1C0.4,5,0,5.4,0,6v17c0,0.6,0.4,1,1,1h4c0,2.2,1.8,4,4,4
	s4-1.8,4-4h6h2.1c0,0.2-0.1,0.3-0.1,0.5c0,1.9,1.6,3.5,3.5,3.5s3.5-1.6,3.5-3.5c0-0.2,0-0.3-0.1-0.5H31c0.6,0,1-0.4,1-1v-6
	C32,16.6,31.7,16.2,31.3,16.1z M9,26c-1.1,0-2-0.9-2-2s0.9-2,2-2s2,0.9,2,2S10.1,26,9,26z M12.4,22c-0.7-1.2-2-2-3.4-2
	s-2.7,0.8-3.4,2H2V7h16v15H12.4z M24.5,26c-0.8,0-1.5-0.7-1.5-1.5s0.7-1.5,1.5-1.5s1.5,0.7,1.5,1.5S25.3,26,24.5,26z M30,22h-3.1
	c-0.6-0.6-1.5-1-2.4-1s-1.8,0.4-2.4,1H20V12h7v4c0,0.4,0.3,0.8,0.7,0.9l2.3,0.8V22z"/>
<path d="M25,15h-1v-1c0-0.6-0.4-1-1-1s-1,0.4-1,1v2c0,0.6,0.4,1,1,1h2c0.6,0,1-0.4,1-1S25.6,15,25,15z"/>
</svg>
