<?xml version="1.0" encoding="utf-8"?>
<!-- Generator: Adobe Illustrator 18.1.1, SVG Export Plug-In . SVG Version: 6.00 Build 0)  -->
<!DOCTYPE svg PUBLIC "-//W3C//DTD SVG 1.1//EN" "http://www.w3.org/Graphics/SVG/1.1/DTD/svg11.dtd">
<svg version="1.1" id="Layer_1" xmlns="http://www.w3.org/2000/svg" xmlns:xlink="http://www.w3.org/1999/xlink" x="0px" y="0px"
	 width="32px" height="32px" viewBox="0 0 32 32" enable-background="new 0 0 32 32" xml:space="preserve">
<path d="M8,5C6.3,5,5,6.3,5,8s1.3,3,3,3s3-1.3,3-3S9.7,5,8,5z M8,9C7.4,9,7,8.6,7,8s0.4-1,1-1s1,0.4,1,1S8.6,9,8,9z"/>
<path d="M25,10c-0.5,0-1,0.1-1.4,0.1l-9.9-9.9C13.5,0.1,13.3,0,13,0H1C0.4,0,0,0.4,0,1v12c0,0.3,0.1,0.5,0.3,0.7l17,17
	c0.2,0.2,0.5,0.3,0.7,0.3s0.5-0.1,0.7-0.3l6.7-6.7c3.7-0.2,6.6-3.3,6.6-7C32,13.1,28.9,10,25,10z M18,28.6l-16-16V2h10.6l8.9,8.9
	C19.4,12.1,18,14.4,18,17c0,3.1,2.1,5.8,4.9,6.7L18,28.6z M25,22C25,22,25,22,25,22c-2.8,0-5-2.2-5-5c0-2.8,2.2-5,5-5s5,2.2,5,5
	C30,19.7,27.8,22,25,22z"/>
<path d="M27,16h-1v-1c0-0.6-0.4-1-1-1s-1,0.4-1,1v2c0,0.6,0.4,1,1,1h2c0.6,0,1-0.4,1-1S27.6,16,27,16z"/>
</svg>
