<?xml version="1.0" encoding="utf-8"?>
<!-- Generator: Adobe Illustrator 18.1.1, SVG Export Plug-In . SVG Version: 6.00 Build 0)  -->
<!DOCTYPE svg PUBLIC "-//W3C//DTD SVG 1.1//EN" "http://www.w3.org/Graphics/SVG/1.1/DTD/svg11.dtd">
<svg version="1.1" id="Layer_1" xmlns="http://www.w3.org/2000/svg" xmlns:xlink="http://www.w3.org/1999/xlink" x="0px" y="0px"
	 width="32px" height="32px" viewBox="0 0 32 32" enable-background="new 0 0 32 32" xml:space="preserve">
<path d="M1,14c0.6,0,1-0.4,1-1V3c0-0.6-0.4-1-1-1S0,2.4,0,3v10C0,13.6,0.4,14,1,14z"/>
<path d="M31,2c-0.6,0-1,0.4-1,1v10c0,0.6,0.4,1,1,1s1-0.4,1-1V3C32,2.4,31.6,2,31,2z"/>
<path d="M17,13V3c0-0.6-0.4-1-1-1s-1,0.4-1,1v10c0,0.6,0.4,1,1,1S17,13.6,17,13z"/>
<path d="M21,13V3c0-0.6-0.4-1-1-1s-1,0.4-1,1v10c0,0.6,0.4,1,1,1S21,13.6,21,13z"/>
<path d="M6,13V3c0-0.6-0.4-1-1-1S4,2.4,4,3v10c0,0.6,0.4,1,1,1S6,13.6,6,13z"/>
<path d="M27,14c0.6,0,1-0.4,1-1V3c0-0.6-0.4-1-1-1h-3c-0.6,0-1,0.4-1,1v10c0,0.6,0.4,1,1,1s1-0.4,1-1V4h1v9C26,13.6,26.4,14,27,14z"
	/>
<path d="M12,14c0.6,0,1-0.4,1-1V3c0-0.6-0.4-1-1-1H9C8.4,2,8,2.4,8,3v10c0,0.6,0.4,1,1,1s1-0.4,1-1V4h1v9C11,13.6,11.4,14,12,14z"/>
<path d="M31,16H1c-0.6,0-1,0.4-1,1v12c0,0.6,0.4,1,1,1s1-0.4,1-1V18h2v6c0,0.6,0.4,1,1,1s1-0.4,1-1v-6h2v6c0,0.6,0.4,1,1,1h3
	c0.6,0,1-0.4,1-1v-6h2v6c0,0.6,0.4,1,1,1s1-0.4,1-1v-6h2v6c0,0.6,0.4,1,1,1s1-0.4,1-1v-6h2v6c0,0.6,0.4,1,1,1h3c0.6,0,1-0.4,1-1v-6
	h2v11c0,0.6,0.4,1,1,1s1-0.4,1-1V17C32,16.4,31.6,16,31,16z M11,23h-1v-5h1V23z M26,23h-1v-5h1V23z"/>
</svg>
