<?xml version="1.0" encoding="utf-8"?>
<!-- Generator: Adobe Illustrator 19.1.0, SVG Export Plug-In . SVG Version: 6.00 Build 0)  -->
<!DOCTYPE svg PUBLIC "-//W3C//DTD SVG 1.1//EN" "http://www.w3.org/Graphics/SVG/1.1/DTD/svg11.dtd">
<svg version="1.1" id="Layer_1" xmlns="http://www.w3.org/2000/svg" xmlns:xlink="http://www.w3.org/1999/xlink" x="0px" y="0px"
	 width="64px" height="64px" viewBox="0 0 64 64" enable-background="new 0 0 64 64" xml:space="preserve">
<polygon points="22.6,41.5 20.7,37.7 18.5,37.7 21.6,43.5 21.6,47 23.6,47 23.6,43.4 26.7,37.7 24.5,37.7 "/>
<path d="M33.7,43.4c0,0.7-0.1,1.2-0.4,1.6c-0.3,0.3-0.8,0.5-1.4,0.5c-0.7,0-1.1-0.2-1.4-0.5c-0.3-0.3-0.4-0.9-0.4-1.6v-5.7h-2v6
	c0,1.1,0.3,1.9,1,2.5s1.6,0.9,2.8,0.9c0.8,0,1.5-0.1,2.1-0.4c0.6-0.3,1-0.7,1.3-1.2c0.3-0.5,0.5-1.1,0.5-1.8v-6h-2V43.4z"/>
<path d="M41.7,43.2c-0.3,1-0.4,1.7-0.5,2c0-0.2-0.1-0.5-0.2-0.9c-0.1-0.4-0.2-0.8-0.3-1.1L39,37.7h-2l3.1,9.3h2.1l3.2-9.3h-2
	L41.7,43.2z"/>
<path d="M61.7,31.3L57,26.6V18c0-0.1,0-0.3-0.1-0.4c-0.1-0.1-0.1-0.2-0.2-0.3l-16-16c-0.1-0.1-0.2-0.2-0.3-0.2C40.3,1,40.1,1,40,1H8
	C7.4,1,7,1.4,7,2v24.6l-4.7,4.7c-0.1,0.1-0.2,0.2-0.2,0.3C2,31.7,2,31.9,2,32v21c0,0.6,0.4,1,1,1h4v8c0,0.6,0.4,1,1,1h48
	c0.6,0,1-0.4,1-1v-8h4c0.6,0,1-0.4,1-1V32c0-0.1,0-0.3-0.1-0.4C61.9,31.5,61.8,31.4,61.7,31.3z M58.6,31H57v-1.6L58.6,31z M41,4.4
	L53.6,17H41V4.4z M9,3h30v15c0,0.6,0.4,1,1,1h15v12H9V3z M7,31H5.4L7,29.4V31z M55,61H9v-7h46V61z M4,52V33h56v19H4z"/>
</svg>
