<?xml version="1.0" encoding="utf-8"?>
<!-- Generator: Adobe Illustrator 19.1.0, SVG Export Plug-In . SVG Version: 6.00 Build 0)  -->
<!DOCTYPE svg PUBLIC "-//W3C//DTD SVG 1.1//EN" "http://www.w3.org/Graphics/SVG/1.1/DTD/svg11.dtd">
<svg version="1.1" id="Layer_1" xmlns="http://www.w3.org/2000/svg" xmlns:xlink="http://www.w3.org/1999/xlink" x="0px" y="0px"
	 width="64px" height="64px" viewBox="0 0 64 64" enable-background="new 0 0 64 64" xml:space="preserve">
<path d="M7,62c0,0.6,0.4,1,1,1h48c0.6,0,1-0.4,1-1V2c0-0.6-0.4-1-1-1H40c-0.4,0-0.8,0.3-1,0.7L33.3,21h-2.5L25,1.7
	C24.8,1.3,24.4,1,24,1H8C7.4,1,7,1.4,7,2V62z M37,23v14H27V23H37z M9,3h14.3l5.4,18H26c-0.6,0-1,0.4-1,1v16c0,0.6,0.4,1,1,1h12
	c0.6,0,1-0.4,1-1V22c0-0.6-0.4-1-1-1h-2.7l5.4-18H55v58H9V3z"/>
<path d="M32,33c0.6,0,1-0.4,1-1v-2c0-0.6-0.4-1-1-1s-1,0.4-1,1v2C31,32.6,31.4,33,32,33z"/>
<path d="M34,49h-4c-0.6,0-1,0.4-1,1s0.4,1,1,1h4c0.6,0,1-0.4,1-1S34.6,49,34,49z"/>
<path d="M34,43h-4c-0.6,0-1,0.4-1,1s0.4,1,1,1h4c0.6,0,1-0.4,1-1S34.6,43,34,43z"/>
</svg>
