<?xml version="1.0" encoding="utf-8"?>
<!-- Generator: Adobe Illustrator 19.1.0, SVG Export Plug-In . SVG Version: 6.00 Build 0)  -->
<!DOCTYPE svg PUBLIC "-//W3C//DTD SVG 1.1//EN" "http://www.w3.org/Graphics/SVG/1.1/DTD/svg11.dtd">
<svg version="1.1" id="Layer_1" xmlns="http://www.w3.org/2000/svg" xmlns:xlink="http://www.w3.org/1999/xlink" x="0px" y="0px"
	 width="64px" height="64px" viewBox="0 0 64 64" enable-background="new 0 0 64 64" xml:space="preserve">
<path d="M62,11H30.5l-5.7-7.6C24.6,3.1,24.3,3,24,3H2C1.4,3,1,3.4,1,4v56c0,0.6,0.4,1,1,1h60c0.6,0,1-0.4,1-1V12
	C63,11.4,62.6,11,62,11z M61,59H3V5h20.5l5.7,7.6c0.2,0.3,0.5,0.4,0.8,0.4h31V59z"/>
<path d="M25,31c0,3.9,3.2,5,6,5.8V45c-2.2,0-4-1.8-4-4c0-0.6-0.4-1-1-1s-1,0.4-1,1c0,3.3,2.7,6,6,6v3c0,0.6,0.4,1,1,1s1-0.4,1-1v-3
	c3.3,0,6-2.7,6-6c0-3.9-3.2-5-6-5.8V27c2.2,0,4,1.8,4,4c0,0.6,0.4,1,1,1s1-0.4,1-1c0-3.3-2.7-6-6-6v-3c0-0.6-0.4-1-1-1s-1,0.4-1,1v3
	C27.7,25,25,27.7,25,31z M37,41c0,2.2-1.8,4-4,4v-7.7C35.5,38,37,38.8,37,41z M31,27v7.7c-2.5-0.7-4-1.5-4-3.7
	C27,28.8,28.8,27,31,27z"/>
</svg>
