<?xml version="1.0" encoding="utf-8"?>
<!-- Generator: Adobe Illustrator 19.1.0, SVG Export Plug-In . SVG Version: 6.00 Build 0)  -->
<!DOCTYPE svg PUBLIC "-//W3C//DTD SVG 1.1//EN" "http://www.w3.org/Graphics/SVG/1.1/DTD/svg11.dtd">
<svg version="1.1" id="Layer_1" xmlns="http://www.w3.org/2000/svg" xmlns:xlink="http://www.w3.org/1999/xlink" x="0px" y="0px"
	 width="64px" height="64px" viewBox="0 0 64 64" enable-background="new 0 0 64 64" xml:space="preserve">
<path d="M23.7,41.6c-0.7-0.3-1.1-0.5-1.2-0.7c-0.2-0.1-0.3-0.2-0.4-0.4s-0.1-0.3-0.1-0.5c0-0.3,0.1-0.5,0.3-0.7s0.5-0.3,0.9-0.3
	c0.3,0,0.6,0,1,0.1c0.3,0.1,0.7,0.2,1.2,0.4l0.6-1.5c-0.5-0.2-0.9-0.4-1.4-0.5c-0.4-0.1-0.9-0.2-1.4-0.2c-1,0-1.8,0.2-2.3,0.7
	c-0.6,0.5-0.8,1.1-0.8,1.9c0,0.4,0.1,0.8,0.3,1.1c0.2,0.3,0.4,0.6,0.7,0.9s0.7,0.5,1.3,0.8c0.6,0.3,1,0.5,1.2,0.6
	c0.2,0.1,0.3,0.3,0.4,0.4s0.2,0.3,0.2,0.5c0,0.3-0.1,0.6-0.3,0.7c-0.2,0.2-0.6,0.2-1,0.2c-0.4,0-0.8-0.1-1.2-0.2
	c-0.4-0.1-1-0.3-1.6-0.6v1.8c0.8,0.4,1.6,0.6,2.6,0.6c1.1,0,1.9-0.2,2.5-0.7c0.6-0.5,0.9-1.1,0.9-2c0-0.6-0.2-1.1-0.5-1.5
	S24.6,42.1,23.7,41.6z"/>
<path d="M35.7,45.1c0.4-0.7,0.6-1.7,0.6-2.7c0-1.5-0.4-2.7-1.1-3.5c-0.8-0.8-1.8-1.2-3.3-1.2s-2.5,0.4-3.3,1.2
	c-0.8,0.8-1.1,2-1.1,3.5c0,1.5,0.4,2.7,1.1,3.6c0.8,0.8,1.9,1.2,3.3,1.2h0.1l1.7,2.1h2.5L34,46.7C34.8,46.4,35.4,45.8,35.7,45.1z
	 M31.9,45.5c-0.8,0-1.4-0.3-1.8-0.8s-0.6-1.3-0.6-2.3c0-1,0.2-1.8,0.6-2.3c0.4-0.5,1-0.8,1.8-0.8c1.6,0,2.3,1,2.3,3.1
	C34.3,44.4,33.5,45.5,31.9,45.5z"/>
<polygon points="40.5,37.7 38.5,37.7 38.5,47 44.2,47 44.2,45.4 40.5,45.4 "/>
<path d="M61.7,31.3L57,26.6V18c0-0.1,0-0.3-0.1-0.4c-0.1-0.1-0.1-0.2-0.2-0.3l-16-16c-0.1-0.1-0.2-0.2-0.3-0.2C40.3,1,40.1,1,40,1H8
	C7.4,1,7,1.4,7,2v24.6l-4.7,4.7c-0.1,0.1-0.2,0.2-0.2,0.3C2,31.7,2,31.9,2,32v21c0,0.6,0.4,1,1,1h4v8c0,0.6,0.4,1,1,1h48
	c0.6,0,1-0.4,1-1v-8h4c0.6,0,1-0.4,1-1V32c0-0.1,0-0.3-0.1-0.4C61.9,31.5,61.8,31.4,61.7,31.3z M58.6,31H57v-1.6L58.6,31z M41,4.4
	L53.6,17H41V4.4z M9,3h30v15c0,0.6,0.4,1,1,1h15v12H9V3z M7,31H5.4L7,29.4V31z M55,61H9v-7h46V61z M4,52V33h56v19H4z"/>
</svg>
