<?xml version="1.0" encoding="utf-8"?>
<!-- Generator: Adobe Illustrator 19.1.0, SVG Export Plug-In . SVG Version: 6.00 Build 0)  -->
<!DOCTYPE svg PUBLIC "-//W3C//DTD SVG 1.1//EN" "http://www.w3.org/Graphics/SVG/1.1/DTD/svg11.dtd">
<svg version="1.1" id="Layer_1" xmlns="http://www.w3.org/2000/svg" xmlns:xlink="http://www.w3.org/1999/xlink" x="0px" y="0px"
	 width="64px" height="64px" viewBox="0 0 64 64" enable-background="new 0 0 64 64" xml:space="preserve">
<path d="M7,62c0,0.6,0.4,1,1,1h48c0.6,0,1-0.4,1-1V14c0-0.1,0-0.3-0.1-0.4c-0.1-0.1-0.1-0.2-0.2-0.3l-12-12
	c-0.1-0.1-0.2-0.2-0.3-0.2C44.3,1,44.1,1,44,1H8C7.4,1,7,1.4,7,2V62z M45,4.4l8.6,8.6H45V4.4z M9,3h34v11c0,0.6,0.4,1,1,1h11v46H9V3
	z"/>
<path d="M35,21h-6c-0.6,0-1,0.4-1,1v20c0,0.6,0.4,1,1,1h6c0.6,0,1-0.4,1-1V22C36,21.4,35.6,21,35,21z M34,41h-4V23h4V41z"/>
<path d="M22,34h-6c-0.6,0-1,0.4-1,1v7c0,0.6,0.4,1,1,1h6c0.6,0,1-0.4,1-1v-7C23,34.4,22.6,34,22,34z M21,41h-4v-5h4V41z"/>
<path d="M48,29h-6c-0.6,0-1,0.4-1,1v12c0,0.6,0.4,1,1,1h6c0.6,0,1-0.4,1-1V30C49,29.4,48.6,29,48,29z M47,41h-4V31h4V41z"/>
</svg>
