<?xml version="1.0" encoding="utf-8"?>
<!-- Generator: Adobe Illustrator 19.1.0, SVG Export Plug-In . SVG Version: 6.00 Build 0)  -->
<!DOCTYPE svg PUBLIC "-//W3C//DTD SVG 1.1//EN" "http://www.w3.org/Graphics/SVG/1.1/DTD/svg11.dtd">
<svg version="1.1" id="Layer_1" xmlns="http://www.w3.org/2000/svg" xmlns:xlink="http://www.w3.org/1999/xlink" x="0px" y="0px"
	 width="64px" height="64px" viewBox="0 0 64 64" enable-background="new 0 0 64 64" xml:space="preserve">
<path d="M25.5,42.1L25.5,42.1c0.4-0.1,0.8-0.3,1-0.7c0.3-0.4,0.4-0.8,0.4-1.4c0-0.8-0.3-1.4-0.9-1.8c-0.6-0.4-1.5-0.6-2.9-0.6h-2.9
	V47h3.5c1,0,1.9-0.2,2.5-0.7s0.9-1.1,0.9-2c0-0.6-0.1-1.1-0.4-1.4C26.5,42.5,26.1,42.3,25.5,42.1z M22.3,39.3h1c0.6,0,1,0.1,1.2,0.2
	c0.3,0.2,0.4,0.4,0.4,0.8c0,0.4-0.1,0.7-0.4,0.8c-0.2,0.2-0.6,0.2-1.2,0.2h-1.1V39.3z M24.7,45.1c-0.3,0.2-0.7,0.3-1.2,0.3h-1.3V43
	h1.2c1.1,0,1.7,0.4,1.7,1.2C25.1,44.5,25,44.9,24.7,45.1z"/>
<path d="M31.4,37.7L28.1,47h2.1l0.7-2.2h3.4L35,47h2.1l-3.3-9.3H31.4z M31.4,43.1c0.7-2.1,1.1-3.5,1.2-4c0,0.2,0.1,0.4,0.2,0.6
	c0.1,0.3,0.4,1.4,1,3.4H31.4z"/>
<polygon points="37.6,39.4 40.1,39.4 40.1,47 42.1,47 42.1,39.4 44.6,39.4 44.6,37.7 37.6,37.7 "/>
<path d="M61.7,31.3L57,26.6V18c0-0.1,0-0.3-0.1-0.4c-0.1-0.1-0.1-0.2-0.2-0.3l-16-16c-0.1-0.1-0.2-0.2-0.3-0.2C40.3,1,40.1,1,40,1H8
	C7.4,1,7,1.4,7,2v24.6l-4.7,4.7c-0.1,0.1-0.2,0.2-0.2,0.3C2,31.7,2,31.9,2,32v21c0,0.6,0.4,1,1,1h4v8c0,0.6,0.4,1,1,1h48
	c0.6,0,1-0.4,1-1v-8h4c0.6,0,1-0.4,1-1V32c0-0.1,0-0.3-0.1-0.4C61.9,31.5,61.8,31.4,61.7,31.3z M58.6,31H57v-1.6L58.6,31z M41,4.4
	L53.6,17H41V4.4z M9,3h30v15c0,0.6,0.4,1,1,1h15v12H9V3z M7,31H5.4L7,29.4V31z M55,61H9v-7h46V61z M4,52V33h56v19H4z"/>
</svg>
