<?xml version="1.0" encoding="utf-8"?>
<!-- Generator: Adobe Illustrator 19.1.0, SVG Export Plug-In . SVG Version: 6.00 Build 0)  -->
<!DOCTYPE svg PUBLIC "-//W3C//DTD SVG 1.1//EN" "http://www.w3.org/Graphics/SVG/1.1/DTD/svg11.dtd">
<svg version="1.1" id="Layer_1" xmlns="http://www.w3.org/2000/svg" xmlns:xlink="http://www.w3.org/1999/xlink" x="0px" y="0px"
	 width="64px" height="64px" viewBox="0 0 64 64" enable-background="new 0 0 64 64" xml:space="preserve">
<path d="M62,11H30.5l-5.7-7.6C24.6,3.1,24.3,3,24,3H2C1.4,3,1,3.4,1,4v56c0,0.6,0.4,1,1,1h60c0.6,0,1-0.4,1-1V12
	C63,11.4,62.6,11,62,11z M61,59H3V5h20.5l5.7,7.6c0.2,0.3,0.5,0.4,0.8,0.4h31V59z"/>
<path d="M16,31c-0.6,0-1,0.4-1,1v8c0,0.6,0.4,1,1,1h5.7l9.8,5.9C31.6,47,31.8,47,32,47c0.2,0,0.3,0,0.5-0.1c0.3-0.2,0.5-0.5,0.5-0.9
	V26c0-0.4-0.2-0.7-0.5-0.9s-0.7-0.2-1,0L21.7,31H16z M22.5,32.9l8.5-5.1v16.5l-8.5-5.1C22.4,39,22.2,39,22,39h-5v-6h5
	C22.2,33,22.4,33,22.5,32.9z"/>
<path d="M37.5,38.6c-0.5,0.3-0.6,0.9-0.4,1.4c0.2,0.3,0.5,0.5,0.9,0.5c0.2,0,0.3,0,0.5-0.1C40,39.4,41,37.8,41,36s-1-3.4-2.5-4.3
	c-0.5-0.3-1.1-0.1-1.4,0.4c-0.3,0.5-0.1,1.1,0.4,1.4c0.9,0.5,1.5,1.5,1.5,2.6S38.4,38.1,37.5,38.6z"/>
<path d="M39.7,25.6C44.1,27.2,47,31.3,47,36c0,4.7-2.9,8.8-7.3,10.4c-0.5,0.2-0.8,0.8-0.6,1.3c0.1,0.4,0.5,0.7,0.9,0.7
	c0.1,0,0.2,0,0.3-0.1C45.5,46.4,49,41.5,49,36c0-5.5-3.5-10.4-8.7-12.3c-0.5-0.2-1.1,0.1-1.3,0.6C38.9,24.9,39.2,25.4,39.7,25.6z"/>
</svg>
