<?xml version="1.0" encoding="utf-8"?>
<!-- Generator: Adobe Illustrator 19.1.0, SVG Export Plug-In . SVG Version: 6.00 Build 0)  -->
<!DOCTYPE svg PUBLIC "-//W3C//DTD SVG 1.1//EN" "http://www.w3.org/Graphics/SVG/1.1/DTD/svg11.dtd">
<svg version="1.1" id="Layer_1" xmlns="http://www.w3.org/2000/svg" xmlns:xlink="http://www.w3.org/1999/xlink" x="0px" y="0px"
	 width="64px" height="64px" viewBox="0 0 64 64" enable-background="new 0 0 64 64" xml:space="preserve">
<path d="M22.4,37.7h-2.9V47h2.6c1.6,0,2.9-0.4,3.8-1.2s1.3-2,1.3-3.5c0-1.4-0.4-2.6-1.3-3.4C25.1,38.1,23.9,37.7,22.4,37.7z
	 M22.3,45.4h-0.8v-6h1c1.8,0,2.6,1,2.6,3C25.2,44.4,24.2,45.4,22.3,45.4z"/>
<polygon points="28.5,39.4 31,39.4 31,47 33,47 33,39.4 35.5,39.4 35.5,37.7 28.5,37.7 "/>
<path d="M40.1,37.7h-2.9V47h2.6c1.6,0,2.9-0.4,3.8-1.2c0.9-0.8,1.3-2,1.3-3.5c0-1.4-0.4-2.6-1.3-3.4C42.8,38.1,41.6,37.7,40.1,37.7z
	 M40,45.4h-0.8v-6h1c1.8,0,2.6,1,2.6,3C42.8,44.4,41.9,45.4,40,45.4z"/>
<path d="M61.7,31.3L57,26.6V18c0-0.1,0-0.3-0.1-0.4c-0.1-0.1-0.1-0.2-0.2-0.3l-16-16c-0.1-0.1-0.2-0.2-0.3-0.2C40.3,1,40.1,1,40,1H8
	C7.4,1,7,1.4,7,2v24.6l-4.7,4.7c-0.1,0.1-0.2,0.2-0.2,0.3C2,31.7,2,31.9,2,32v21c0,0.6,0.4,1,1,1h4v8c0,0.6,0.4,1,1,1h48
	c0.6,0,1-0.4,1-1v-8h4c0.6,0,1-0.4,1-1V32c0-0.1,0-0.3-0.1-0.4C61.9,31.5,61.8,31.4,61.7,31.3z M58.6,31H57v-1.6L58.6,31z M41,4.4
	L53.6,17H41V4.4z M9,3h30v15c0,0.6,0.4,1,1,1h15v12H9V3z M7,31H5.4L7,29.4V31z M55,61H9v-7h46V61z M4,52V33h56v19H4z"/>
</svg>
