<?xml version="1.0" encoding="utf-8"?>
<!-- Generator: Adobe Illustrator 19.1.0, SVG Export Plug-In . SVG Version: 6.00 Build 0)  -->
<!DOCTYPE svg PUBLIC "-//W3C//DTD SVG 1.1//EN" "http://www.w3.org/Graphics/SVG/1.1/DTD/svg11.dtd">
<svg version="1.1" id="Layer_1" xmlns="http://www.w3.org/2000/svg" xmlns:xlink="http://www.w3.org/1999/xlink" x="0px" y="0px"
	 width="64px" height="64px" viewBox="0 0 64 64" enable-background="new 0 0 64 64" xml:space="preserve">
<path d="M22,46.4c0,0.6-0.1,1-0.3,1.3s-0.5,0.4-0.9,0.4c-0.3,0-0.6,0-0.9-0.1v1.6c0.3,0.1,0.7,0.1,1.2,0.1c1,0,1.7-0.3,2.2-0.9
	s0.7-1.4,0.7-2.5v-8.7h-2V46.4z"/>
<path d="M28.7,37.7L25.4,47h2.1l0.7-2.2h3.4l0.7,2.2h2.1l-3.3-9.3H28.7z M28.7,43.1c0.7-2.1,1.1-3.5,1.2-4c0,0.2,0.1,0.4,0.2,0.6
	c0.1,0.3,0.4,1.4,1.1,3.4H28.7z"/>
<path d="M41.7,42c0.3-0.4,0.5-0.9,0.5-1.5c0-0.9-0.3-1.6-0.9-2.1s-1.5-0.7-2.8-0.7h-2.7V47h2v-3.6h1L41,47h2.2c-0.4-0.6-1.3-2-2.7-4
	C41,42.7,41.4,42.4,41.7,42z M39.8,41.5c-0.3,0.2-0.8,0.3-1.4,0.3h-0.6v-2.5h0.6c0.6,0,1.1,0.1,1.4,0.3c0.3,0.2,0.5,0.5,0.5,0.9
	C40.2,41,40,41.3,39.8,41.5z"/>
<path d="M61.7,31.3L57,26.6V18c0-0.1,0-0.3-0.1-0.4c-0.1-0.1-0.1-0.2-0.2-0.3l-16-16c-0.1-0.1-0.2-0.2-0.3-0.2C40.3,1,40.1,1,40,1H8
	C7.4,1,7,1.4,7,2v24.6l-4.7,4.7c-0.1,0.1-0.2,0.2-0.2,0.3C2,31.7,2,31.9,2,32v21c0,0.6,0.4,1,1,1h4v8c0,0.6,0.4,1,1,1h48
	c0.6,0,1-0.4,1-1v-8h4c0.6,0,1-0.4,1-1V32c0-0.1,0-0.3-0.1-0.4C61.9,31.5,61.8,31.4,61.7,31.3z M58.6,31H57v-1.6L58.6,31z M41,4.4
	L53.6,17H41V4.4z M9,3h30v15c0,0.6,0.4,1,1,1h15v12H9V3z M7,31H5.4L7,29.4V31z M55,61H9v-7h46V61z M4,52V33h56v19H4z"/>
</svg>
