<?xml version="1.0" encoding="utf-8"?>
<!-- Generator: Adobe Illustrator 19.1.0, SVG Export Plug-In . SVG Version: 6.00 Build 0)  -->
<!DOCTYPE svg PUBLIC "-//W3C//DTD SVG 1.1//EN" "http://www.w3.org/Graphics/SVG/1.1/DTD/svg11.dtd">
<svg version="1.1" id="Layer_1" xmlns="http://www.w3.org/2000/svg" xmlns:xlink="http://www.w3.org/1999/xlink" x="0px" y="0px"
	 width="64px" height="64px" viewBox="0 0 64 64" enable-background="new 0 0 64 64" xml:space="preserve">
<path d="M2,63h40c0.6,0,1-0.4,1-1V18c0-0.6-0.4-1-1-1H2c-0.6,0-1,0.4-1,1v44C1,62.6,1.4,63,2,63z M3,19h38v42H3V19z"/>
<path d="M18,3h39v43c0,0.6,0.4,1,1,1s1-0.4,1-1V2c0-0.6-0.4-1-1-1H18c-0.6,0-1,0.4-1,1S17.4,3,18,3z"/>
<path d="M10,11h39v43c0,0.6,0.4,1,1,1s1-0.4,1-1V10c0-0.6-0.4-1-1-1H10c-0.6,0-1,0.4-1,1S9.4,11,10,11z"/>
</svg>
