<?xml version="1.0" encoding="utf-8"?>
<!-- Generator: Adobe Illustrator 19.1.0, SVG Export Plug-In . SVG Version: 6.00 Build 0)  -->
<!DOCTYPE svg PUBLIC "-//W3C//DTD SVG 1.1//EN" "http://www.w3.org/Graphics/SVG/1.1/DTD/svg11.dtd">
<svg version="1.1" id="Layer_1" xmlns="http://www.w3.org/2000/svg" xmlns:xlink="http://www.w3.org/1999/xlink" x="0px" y="0px"
	 width="64px" height="64px" viewBox="0 0 64 64" enable-background="new 0 0 64 64" xml:space="preserve">
<path d="M7,62c0,0.6,0.4,1,1,1h48c0.6,0,1-0.4,1-1V14c0-0.1,0-0.3-0.1-0.4c-0.1-0.1-0.1-0.2-0.2-0.3l-12-12
	c-0.1-0.1-0.2-0.2-0.3-0.2C44.3,1,44.1,1,44,1H32H16H8C7.4,1,7,1.4,7,2V62z M45,4.4l8.6,8.6H45V4.4z M17,3h14v19.4l-6.6-3.3
	C24.3,19,24.2,19,24,19s-0.3,0-0.4,0.1L17,22.4V3z M9,3h6v21c0,0.3,0.2,0.7,0.5,0.9s0.7,0.2,1,0l7.6-3.8l7.6,3.8
	C31.7,25,31.8,25,32,25c0.2,0,0.4,0,0.5-0.1c0.3-0.2,0.5-0.5,0.5-0.9V3h10v11c0,0.6,0.4,1,1,1h11v46H9V3z"/>
</svg>
