<?xml version="1.0" encoding="utf-8"?>
<!-- Generator: Adobe Illustrator 19.1.0, SVG Export Plug-In . SVG Version: 6.00 Build 0)  -->
<!DOCTYPE svg PUBLIC "-//W3C//DTD SVG 1.1//EN" "http://www.w3.org/Graphics/SVG/1.1/DTD/svg11.dtd">
<svg version="1.1" id="Layer_1" xmlns="http://www.w3.org/2000/svg" xmlns:xlink="http://www.w3.org/1999/xlink" x="0px" y="0px"
	 width="64px" height="64px" viewBox="0 0 64 64" enable-background="new 0 0 64 64" xml:space="preserve">
<path d="M22.6,37.6c-1.4,0-2.5,0.4-3.3,1.2c-0.8,0.8-1.1,2-1.1,3.5c0,1.5,0.4,2.7,1.1,3.6c0.8,0.8,1.9,1.2,3.3,1.2s2.5-0.4,3.3-1.2
	c0.8-0.8,1.1-2,1.1-3.5c0-1.5-0.4-2.7-1.1-3.5C25.1,38,24,37.6,22.6,37.6z M22.6,45.5c-0.8,0-1.4-0.3-1.8-0.8
	c-0.4-0.5-0.6-1.3-0.6-2.3c0-1,0.2-1.8,0.6-2.3c0.4-0.5,1-0.8,1.8-0.8c1.6,0,2.3,1,2.3,3.1C24.9,44.4,24.2,45.5,22.6,45.5z"/>
<path d="M32.1,37.7h-2.9V47h2.6c1.6,0,2.9-0.4,3.8-1.2c0.9-0.8,1.3-2,1.3-3.5c0-1.4-0.4-2.6-1.3-3.4C34.8,38.1,33.6,37.7,32.1,37.7z
	 M32,45.4h-0.8v-6h1c1.8,0,2.6,1,2.6,3C34.8,44.4,33.9,45.4,32,45.4z"/>
<polygon points="46.4,37.7 44.2,37.7 42.3,41.1 40.3,37.7 38.1,37.7 41,42.2 37.9,47 40,47 42.2,43.5 44.3,47 46.6,47 43.4,42.3 "/>
<path d="M61.7,31.3L57,26.6V18c0-0.1,0-0.3-0.1-0.4c-0.1-0.1-0.1-0.2-0.2-0.3l-16-16c-0.1-0.1-0.2-0.2-0.3-0.2C40.3,1,40.1,1,40,1H8
	C7.4,1,7,1.4,7,2v24.6l-4.7,4.7c-0.1,0.1-0.2,0.2-0.2,0.3C2,31.7,2,31.9,2,32v21c0,0.6,0.4,1,1,1h4v8c0,0.6,0.4,1,1,1h48
	c0.6,0,1-0.4,1-1v-8h4c0.6,0,1-0.4,1-1V32c0-0.1,0-0.3-0.1-0.4C61.9,31.5,61.8,31.4,61.7,31.3z M58.6,31H57v-1.6L58.6,31z M41,4.4
	L53.6,17H41V4.4z M9,3h30v15c0,0.6,0.4,1,1,1h15v12H9V3z M7,31H5.4L7,29.4V31z M55,61H9v-7h46V61z M4,52V33h56v19H4z"/>
</svg>
