<?xml version="1.0" encoding="utf-8"?>
<!-- Generator: Adobe Illustrator 19.1.0, SVG Export Plug-In . SVG Version: 6.00 Build 0)  -->
<!DOCTYPE svg PUBLIC "-//W3C//DTD SVG 1.1//EN" "http://www.w3.org/Graphics/SVG/1.1/DTD/svg11.dtd">
<svg version="1.1" id="Layer_1" xmlns="http://www.w3.org/2000/svg" xmlns:xlink="http://www.w3.org/1999/xlink" x="0px" y="0px"
	 width="64px" height="64px" viewBox="0 0 64 64" enable-background="new 0 0 64 64" xml:space="preserve">
<polygon points="26.2,37.7 24,37.7 21.5,40.9 20.8,42 20.8,37.7 18.8,37.7 18.8,47 20.8,47 20.8,43.7 21.6,43.1 24,47 26.3,47 
	23,41.8 "/>
<path d="M32.6,44.8L32.6,44.8l-2.2-7.1h-2.7V47h1.8v-4.3c0-0.5,0-1.5-0.1-3h0.1l2.2,7.3h1.8l2.4-7.3h0.1c-0.1,1.2-0.1,1.9-0.1,2.2
	c0,0.3,0,0.5,0,0.7V47h1.8v-9.3h-2.7L32.6,44.8z"/>
<polygon points="42.2,37.7 40.2,37.7 40.2,47 45.9,47 45.9,45.4 42.2,45.4 "/>
<path d="M61.7,31.3L57,26.6V18c0-0.1,0-0.3-0.1-0.4c-0.1-0.1-0.1-0.2-0.2-0.3l-16-16c-0.1-0.1-0.2-0.2-0.3-0.2C40.3,1,40.1,1,40,1H8
	C7.4,1,7,1.4,7,2v24.6l-4.7,4.7c-0.1,0.1-0.2,0.2-0.2,0.3C2,31.7,2,31.9,2,32v21c0,0.6,0.4,1,1,1h4v8c0,0.6,0.4,1,1,1h48
	c0.6,0,1-0.4,1-1v-8h4c0.6,0,1-0.4,1-1V32c0-0.1,0-0.3-0.1-0.4C61.9,31.5,61.8,31.4,61.7,31.3z M58.6,31H57v-1.6L58.6,31z M41,4.4
	L53.6,17H41V4.4z M9,3h30v15c0,0.6,0.4,1,1,1h15v12H9V3z M7,31H5.4L7,29.4V31z M55,61H9v-7h46V61z M4,52V33h56v19H4z"/>
</svg>
