<?xml version="1.0" encoding="utf-8"?>
<!-- Generator: Adobe Illustrator 19.1.0, SVG Export Plug-In . SVG Version: 6.00 Build 0)  -->
<!DOCTYPE svg PUBLIC "-//W3C//DTD SVG 1.1//EN" "http://www.w3.org/Graphics/SVG/1.1/DTD/svg11.dtd">
<svg version="1.1" id="Layer_1" xmlns="http://www.w3.org/2000/svg" xmlns:xlink="http://www.w3.org/1999/xlink" x="0px" y="0px"
	 width="64px" height="64px" viewBox="0 0 64 64" enable-background="new 0 0 64 64" xml:space="preserve">
<path d="M27.8,42.8c-0.1,0.3-0.2,0.7-0.3,1.2c-0.1,0.5-0.2,0.9-0.2,1.2c0-0.3-0.1-0.8-0.2-1.2c-0.1-0.5-0.2-0.8-0.2-1.1l-1.4-5.2
	h-1.9l-1.4,5.2c-0.1,0.3-0.2,0.7-0.3,1.2c-0.1,0.5-0.1,0.9-0.2,1.1c-0.1-0.7-0.2-1.5-0.5-2.4l-1.2-5.1h-1.9l2.4,9.3h2.2l1.3-4.9
	c0.1-0.2,0.1-0.6,0.2-1.1s0.2-0.9,0.2-1.1c0,0.2,0.1,0.6,0.2,1.1S25,42,25,42.1l1.3,4.9h2.2l2.4-9.3h-1.9L27.8,42.8z"/>
<path d="M35.5,41.6c-0.7-0.3-1.1-0.5-1.2-0.7c-0.2-0.1-0.3-0.2-0.4-0.4c-0.1-0.1-0.1-0.3-0.1-0.5c0-0.3,0.1-0.5,0.3-0.7
	c0.2-0.2,0.5-0.3,0.9-0.3c0.3,0,0.6,0,1,0.1c0.3,0.1,0.7,0.2,1.2,0.4l0.6-1.5c-0.5-0.2-0.9-0.4-1.4-0.5c-0.4-0.1-0.9-0.2-1.4-0.2
	c-1,0-1.8,0.2-2.3,0.7s-0.8,1.1-0.8,1.9c0,0.4,0.1,0.8,0.3,1.1c0.2,0.3,0.4,0.6,0.7,0.9s0.7,0.5,1.3,0.8c0.6,0.3,1,0.5,1.2,0.6
	c0.2,0.1,0.3,0.3,0.4,0.4s0.2,0.3,0.2,0.5c0,0.3-0.1,0.6-0.3,0.7c-0.2,0.2-0.6,0.2-1,0.2c-0.4,0-0.8-0.1-1.2-0.2
	c-0.4-0.1-1-0.3-1.6-0.6v1.8c0.8,0.4,1.6,0.6,2.6,0.6c1.1,0,1.9-0.2,2.5-0.7c0.6-0.5,0.9-1.1,0.9-2c0-0.6-0.2-1.1-0.5-1.5
	C37,42.5,36.4,42.1,35.5,41.6z"/>
<polygon points="39.7,47 41.7,47 41.7,43.3 44.8,43.3 44.8,41.7 41.7,41.7 41.7,39.3 45,39.3 45,37.7 39.7,37.7 "/>
<path d="M61.7,31.3L57,26.6V18c0-0.1,0-0.3-0.1-0.4c-0.1-0.1-0.1-0.2-0.2-0.3l-16-16c-0.1-0.1-0.2-0.2-0.3-0.2C40.3,1,40.1,1,40,1H8
	C7.4,1,7,1.4,7,2v24.6l-4.7,4.7c-0.1,0.1-0.2,0.2-0.2,0.3C2,31.7,2,31.9,2,32v21c0,0.6,0.4,1,1,1h4v8c0,0.6,0.4,1,1,1h48
	c0.6,0,1-0.4,1-1v-8h4c0.6,0,1-0.4,1-1V32c0-0.1,0-0.3-0.1-0.4C61.9,31.5,61.8,31.4,61.7,31.3z M58.6,31H57v-1.6L58.6,31z M41,4.4
	L53.6,17H41V4.4z M9,3h30v15c0,0.6,0.4,1,1,1h15v12H9V3z M7,31H5.4L7,29.4V31z M55,61H9v-7h46V61z M4,52V33h56v19H4z"/>
</svg>
