<?xml version="1.0" encoding="utf-8"?>
<!-- Generator: Adobe Illustrator 19.1.0, SVG Export Plug-In . SVG Version: 6.00 Build 0)  -->
<!DOCTYPE svg PUBLIC "-//W3C//DTD SVG 1.1//EN" "http://www.w3.org/Graphics/SVG/1.1/DTD/svg11.dtd">
<svg version="1.1" id="Layer_1" xmlns="http://www.w3.org/2000/svg" xmlns:xlink="http://www.w3.org/1999/xlink" x="0px" y="0px"
	 width="64px" height="64px" viewBox="0 0 64 64" enable-background="new 0 0 64 64" xml:space="preserve">
<path d="M7,62c0,0.6,0.4,1,1,1h48c0.6,0,1-0.4,1-1V14c0-0.1,0-0.3-0.1-0.4c-0.1-0.1-0.1-0.2-0.2-0.3l-12-12
	c-0.1-0.1-0.2-0.2-0.3-0.2C44.3,1,44.1,1,44,1H8C7.4,1,7,1.4,7,2V62z M45,4.4l8.6,8.6H45V4.4z M9,3h34v11c0,0.6,0.4,1,1,1h11v46H9V3
	z"/>
<path d="M30,15h4c0.6,0,1-0.4,1-1s-0.4-1-1-1h-4c-0.6,0-1,0.4-1,1S29.4,15,30,15z"/>
<path d="M30,9h4c0.6,0,1-0.4,1-1s-0.4-1-1-1h-4c-0.6,0-1,0.4-1,1S29.4,9,30,9z"/>
<path d="M30,27h4c0.6,0,1-0.4,1-1s-0.4-1-1-1h-4c-0.6,0-1,0.4-1,1S29.4,27,30,27z"/>
<path d="M30,21h4c0.6,0,1-0.4,1-1s-0.4-1-1-1h-4c-0.6,0-1,0.4-1,1S29.4,21,30,21z"/>
<path d="M38,31H26c-0.6,0-1,0.4-1,1v16c0,0.6,0.4,1,1,1h12c0.6,0,1-0.4,1-1V32C39,31.4,38.6,31,38,31z M37,47H27V33h10V47z"/>
<path d="M32,43c0.6,0,1-0.4,1-1v-2c0-0.6-0.4-1-1-1s-1,0.4-1,1v2C31,42.6,31.4,43,32,43z"/>
</svg>
