<?xml version="1.0" encoding="utf-8"?>
<!-- Generator: Adobe Illustrator 19.1.0, SVG Export Plug-In . SVG Version: 6.00 Build 0)  -->
<!DOCTYPE svg PUBLIC "-//W3C//DTD SVG 1.1//EN" "http://www.w3.org/Graphics/SVG/1.1/DTD/svg11.dtd">
<svg version="1.1" id="Layer_1" xmlns="http://www.w3.org/2000/svg" xmlns:xlink="http://www.w3.org/1999/xlink" x="0px" y="0px"
	 width="64px" height="64px" viewBox="0 0 64 64" enable-background="new 0 0 64 64" xml:space="preserve">
<path d="M56.7,13.3l-12-12c-0.1-0.1-0.2-0.2-0.3-0.2C44.3,1,44.1,1,44,1H8C7.4,1,7,1.4,7,2v60c0,0.6,0.4,1,1,1h48c0.6,0,1-0.4,1-1
	V14c0-0.1,0-0.3-0.1-0.4C56.9,13.5,56.8,13.4,56.7,13.3z M45,4.4l8.6,8.6H45V4.4z M9,61V3h34v11c0,0.6,0.4,1,1,1h11v46H9z"/>
<path d="M39,28v-4c0-3.9-3.1-7-7-7s-7,3.1-7,7v4c0,3.9,3.1,7,7,7S39,31.9,39,28z M32,33c-2.8,0-5-2.2-5-5v-4c0-2.8,2.2-5,5-5
	s5,2.2,5,5v4C37,30.8,34.8,33,32,33z"/>
<path d="M36,35h-4h-4c-5,0-9,4-9,9c0,0.6,0.4,1,1,1h24c0.6,0,1-0.4,1-1C45,39,41,35,36,35z M21.1,43c0.5-3.4,3.4-6,6.9-6h8
	c3.5,0,6.4,2.6,6.9,6H21.1z"/>
</svg>
