<?xml version="1.0" encoding="utf-8"?>
<!-- Generator: Adobe Illustrator 19.1.0, SVG Export Plug-In . SVG Version: 6.00 Build 0)  -->
<!DOCTYPE svg PUBLIC "-//W3C//DTD SVG 1.1//EN" "http://www.w3.org/Graphics/SVG/1.1/DTD/svg11.dtd">
<svg version="1.1" id="Layer_1" xmlns="http://www.w3.org/2000/svg" xmlns:xlink="http://www.w3.org/1999/xlink" x="0px" y="0px"
	 width="64px" height="64px" viewBox="0 0 64 64" enable-background="new 0 0 64 64" xml:space="preserve">
<ellipse fill="#444444" cx="32.03743" cy="32.03711" rx="6.15381" ry="6.13932"/>
<path fill="#444444" d="M39.12354,25.74886h4.3265c0.4943,0,0.89502-0.39958,0.89502-0.8929v-4.31624
	c0-0.49316-0.40071-0.8929-0.89502-0.8929h-4.3265c-0.4943,0-0.89502,0.39974-0.89502,0.8929v4.31624
	C38.22852,25.34928,38.62923,25.74886,39.12354,25.74886z"/>
<path fill="#444444" d="M32,0C14.32682,0,0,14.32682,0,32c0,17.67302,14.32682,32,32,32s32-14.32698,32-32
	C64,14.32682,49.67318,0,32,0z M48,44.20475c0,2.09603-1.70296,3.79508-3.8042,3.79508H19.80436
	C17.70329,47.99984,16,46.30078,16,44.20475V19.79541C16,17.69922,17.70329,16,19.80436,16H44.1958
	C46.29704,16,48,17.69922,48,19.79541V44.20475z"/>
<path fill="#444444" d="M41.77164,32.03727c0,5.35482-4.36686,9.71126-9.73421,9.71126c-5.36768,0-9.73421-4.35645-9.73421-9.71126
	c0-0.88851,0.12077-1.74935,0.34587-2.56755h-2.99398v13.91618c0,0.49316,0.40072,0.8929,0.89502,0.8929h22.97445
	c0.4943,0,0.89502-0.39974,0.89502-0.8929V29.46973h-2.99398C41.65088,30.28792,41.77164,31.14876,41.77164,32.03727z"/>
</svg>
