<?xml version="1.0" encoding="utf-8"?>
<!-- Generator: Adobe Illustrator 19.1.0, SVG Export Plug-In . SVG Version: 6.00 Build 0)  -->
<!DOCTYPE svg PUBLIC "-//W3C//DTD SVG 1.1//EN" "http://www.w3.org/Graphics/SVG/1.1/DTD/svg11.dtd">
<svg version="1.1" id="Layer_1" xmlns="http://www.w3.org/2000/svg" xmlns:xlink="http://www.w3.org/1999/xlink" x="0px" y="0px"
	 width="24px" height="24px" viewBox="0 0 24 24" enable-background="new 0 0 24 24" xml:space="preserve">
<path d="M12,18c0.6,0,1-0.4,1-1V5.4l3.3,3.3C16.5,8.9,16.7,9,17,9s0.5-0.1,0.7-0.3c0.4-0.4,0.4-1,0-1.4l-5-5
	c-0.1-0.1-0.2-0.2-0.3-0.2c-0.2-0.1-0.5-0.1-0.8,0c-0.1,0.1-0.2,0.1-0.3,0.2l-5,5c-0.4,0.4-0.4,1,0,1.4s1,0.4,1.4,0L11,5.4V17
	C11,17.6,11.4,18,12,18z"/>
<path d="M5,15c-0.6,0-1,0.4-1,1v5c0,0.6,0.4,1,1,1h14c0.6,0,1-0.4,1-1v-5c0-0.6-0.4-1-1-1s-1,0.4-1,1v4H6v-4C6,15.4,5.6,15,5,15z"/>
</svg>
