<?xml version="1.0" encoding="utf-8"?>
<!-- Generator: Adobe Illustrator 19.1.0, SVG Export Plug-In . SVG Version: 6.00 Build 0)  -->
<!DOCTYPE svg PUBLIC "-//W3C//DTD SVG 1.1//EN" "http://www.w3.org/Graphics/SVG/1.1/DTD/svg11.dtd">
<svg version="1.1" id="Layer_1" xmlns="http://www.w3.org/2000/svg" xmlns:xlink="http://www.w3.org/1999/xlink" x="0px" y="0px"
	 width="24px" height="24px" viewBox="0 0 24 24" enable-background="new 0 0 24 24" xml:space="preserve">
<path d="M2,13c0.6,0,1-0.4,1-1c0-5,4-9,9-9c2.8,0,5.3,1.3,7,3.3l-3.8-0.5c-0.5-0.1-1.1,0.3-1.1,0.9c-0.1,0.5,0.3,1.1,0.9,1.1
	l5.9,0.8c0,0,0.1,0,0.1,0c0.5,0,0.9-0.4,1-0.9l0.8-5.9c0.1-0.5-0.3-1.1-0.9-1.1c-0.5-0.1-1.1,0.3-1.1,0.9l-0.4,3.3
	C18.3,2.4,15.3,1,12,1C5.9,1,1,5.9,1,12C1,12.6,1.4,13,2,13z"/>
<path d="M22,11c-0.6,0-1,0.4-1,1c0,5-4,9-9,9c-2.8,0-5.3-1.3-7-3.3l3.8,0.5c0.5,0.1,1.1-0.3,1.1-0.9c0.1-0.5-0.3-1.1-0.9-1.1
	l-5.9-0.8c-0.6-0.1-1.1,0.3-1.1,0.9l-0.8,5.9c-0.1,0.5,0.3,1.1,0.9,1.1c0,0,0.1,0,0.1,0c0.5,0,0.9-0.4,1-0.9l0.4-3.3
	C5.7,21.6,8.7,23,12,23c6.1,0,11-4.9,11-11C23,11.4,22.6,11,22,11z"/>
</svg>
