<?xml version="1.0" encoding="utf-8"?>
<!-- Generator: Adobe Illustrator 19.1.0, SVG Export Plug-In . SVG Version: 6.00 Build 0)  -->
<!DOCTYPE svg PUBLIC "-//W3C//DTD SVG 1.1//EN" "http://www.w3.org/Graphics/SVG/1.1/DTD/svg11.dtd">
<svg version="1.1" id="Layer_1" xmlns="http://www.w3.org/2000/svg" xmlns:xlink="http://www.w3.org/1999/xlink" x="0px" y="0px"
	 width="24px" height="24px" viewBox="0 0 24 24" enable-background="new 0 0 24 24" xml:space="preserve">
<path d="M8.7,7.3c-0.4-0.4-1-0.4-1.4,0l-4,4c-0.1,0.1-0.2,0.2-0.2,0.3c-0.1,0.2-0.1,0.5,0,0.8c0.1,0.1,0.1,0.2,0.2,0.3l4,4
	C7.5,16.9,7.7,17,8,17s0.5-0.1,0.7-0.3c0.4-0.4,0.4-1,0-1.4L6.4,13h11.2l-2.3,2.3c-0.4,0.4-0.4,1,0,1.4c0.2,0.2,0.5,0.3,0.7,0.3
	s0.5-0.1,0.7-0.3l4-4c0.1-0.1,0.2-0.2,0.2-0.3c0.1-0.2,0.1-0.5,0-0.8c-0.1-0.1-0.1-0.2-0.2-0.3l-4-4c-0.4-0.4-1-0.4-1.4,0
	s-0.4,1,0,1.4l2.3,2.3H6.4l2.3-2.3C9.1,8.3,9.1,7.7,8.7,7.3z"/>
<path d="M1,20c0.6,0,1-0.4,1-1V5c0-0.6-0.4-1-1-1S0,4.4,0,5v14C0,19.6,0.4,20,1,20z"/>
<path d="M23,4c-0.6,0-1,0.4-1,1v14c0,0.6,0.4,1,1,1s1-0.4,1-1V5C24,4.4,23.6,4,23,4z"/>
</svg>
