<?xml version="1.0" encoding="utf-8"?>
<!-- Generator: Adobe Illustrator 19.1.0, SVG Export Plug-In . SVG Version: 6.00 Build 0)  -->
<!DOCTYPE svg PUBLIC "-//W3C//DTD SVG 1.1//EN" "http://www.w3.org/Graphics/SVG/1.1/DTD/svg11.dtd">
<svg version="1.1" id="Layer_1" xmlns="http://www.w3.org/2000/svg" xmlns:xlink="http://www.w3.org/1999/xlink" x="0px" y="0px"
	 width="24px" height="24px" viewBox="0 0 24 24" enable-background="new 0 0 24 24" xml:space="preserve">
<path d="M2,8h12v4c0,0.4,0.2,0.7,0.5,0.9C14.7,13,14.8,13,15,13c0.2,0,0.4-0.1,0.6-0.2l7-5C22.8,7.6,23,7.3,23,7s-0.2-0.6-0.4-0.8
	l-7-5c-0.3-0.2-0.7-0.2-1-0.1C14.2,1.3,14,1.6,14,2v4H2C1.4,6,1,6.4,1,7S1.4,8,2,8z M16,3.9L20.3,7L16,10.1V3.9z"/>
<path d="M1.4,17.8l7,5C8.6,22.9,8.8,23,9,23c0.2,0,0.3,0,0.5-0.1C9.8,22.7,10,22.4,10,22v-4h12c0.6,0,1-0.4,1-1s-0.4-1-1-1H10v-4
	c0-0.4-0.2-0.7-0.5-0.9c-0.3-0.2-0.7-0.1-1,0.1l-7,5C1.2,16.4,1,16.7,1,17S1.2,17.6,1.4,17.8z M8,13.9v6.1L3.7,17L8,13.9z"/>
</svg>
