<?xml version="1.0" encoding="utf-8"?>
<!-- Generator: Adobe Illustrator 19.1.0, SVG Export Plug-In . SVG Version: 6.00 Build 0)  -->
<!DOCTYPE svg PUBLIC "-//W3C//DTD SVG 1.1//EN" "http://www.w3.org/Graphics/SVG/1.1/DTD/svg11.dtd">
<svg version="1.1" id="Layer_1" xmlns="http://www.w3.org/2000/svg" xmlns:xlink="http://www.w3.org/1999/xlink" x="0px" y="0px"
	 width="24px" height="24px" viewBox="0 0 24 24" enable-background="new 0 0 24 24" xml:space="preserve">
<path d="M1,7c0,0.6,0.4,1,1,1h17.6l-3.3,3.3c-0.4,0.4-0.4,1,0,1.4c0.2,0.2,0.5,0.3,0.7,0.3s0.5-0.1,0.7-0.3l5-5
	c0.1-0.1,0.2-0.2,0.2-0.3c0.1-0.2,0.1-0.5,0-0.8c-0.1-0.1-0.1-0.2-0.2-0.3l-5-5c-0.4-0.4-1-0.4-1.4,0s-0.4,1,0,1.4L19.6,6H2
	C1.4,6,1,6.4,1,7z"/>
<path d="M1.1,17.4c0.1,0.1,0.1,0.2,0.2,0.3l5,5C6.5,22.9,6.7,23,7,23s0.5-0.1,0.7-0.3c0.4-0.4,0.4-1,0-1.4L4.4,18H22
	c0.6,0,1-0.4,1-1s-0.4-1-1-1H4.4l3.3-3.3c0.4-0.4,0.4-1,0-1.4s-1-0.4-1.4,0l-5,5c-0.1,0.1-0.2,0.2-0.2,0.3C1,16.9,1,17.1,1.1,17.4z"
	/>
</svg>
