<?xml version="1.0" encoding="utf-8"?>
<!-- Generator: Adobe Illustrator 19.1.0, SVG Export Plug-In . SVG Version: 6.00 Build 0)  -->
<!DOCTYPE svg PUBLIC "-//W3C//DTD SVG 1.1//EN" "http://www.w3.org/Graphics/SVG/1.1/DTD/svg11.dtd">
<svg version="1.1" id="Layer_1" xmlns="http://www.w3.org/2000/svg" xmlns:xlink="http://www.w3.org/1999/xlink" x="0px" y="0px"
	 width="24px" height="24px" viewBox="0 0 24 24" enable-background="new 0 0 24 24" xml:space="preserve">
<path d="M3.7,7.7L6,5.4V17c0,0.6,0.4,1,1,1h11.6l-2.3,2.3c-0.4,0.4-0.4,1,0,1.4c0.2,0.2,0.5,0.3,0.7,0.3s0.5-0.1,0.7-0.3l4-4
	c0.1-0.1,0.2-0.2,0.2-0.3c0.1-0.2,0.1-0.5,0-0.8c-0.1-0.1-0.1-0.2-0.2-0.3l-4-4c-0.4-0.4-1-0.4-1.4,0s-0.4,1,0,1.4l2.3,2.3H8V5.4
	l2.3,2.3C10.5,7.9,10.7,8,11,8s0.5-0.1,0.7-0.3c0.4-0.4,0.4-1,0-1.4l-4-4C7.6,2.2,7.5,2.1,7.4,2.1C7.1,2,6.9,2,6.6,2.1
	C6.5,2.1,6.4,2.2,6.3,2.3l-4,4c-0.4,0.4-0.4,1,0,1.4S3.3,8.1,3.7,7.7z"/>
</svg>
