<?xml version="1.0" encoding="utf-8"?>
<!-- Generator: Adobe Illustrator 19.1.0, SVG Export Plug-In . SVG Version: 6.00 Build 0)  -->
<!DOCTYPE svg PUBLIC "-//W3C//DTD SVG 1.1//EN" "http://www.w3.org/Graphics/SVG/1.1/DTD/svg11.dtd">
<svg version="1.1" id="Layer_1" xmlns="http://www.w3.org/2000/svg" xmlns:xlink="http://www.w3.org/1999/xlink" x="0px" y="0px"
	 width="24px" height="24px" viewBox="0 0 24 24" enable-background="new 0 0 24 24" xml:space="preserve">
<path d="M15.7,12.3l-3-3c-0.1-0.1-0.2-0.2-0.3-0.2c-0.2-0.1-0.5-0.1-0.8,0c-0.1,0.1-0.2,0.1-0.3,0.2l-3,3c-0.4,0.4-0.4,1,0,1.4
	s1,0.4,1.4,0l1.3-1.3V18c0,0.6,0.4,1,1,1s1-0.4,1-1v-5.6l1.3,1.3c0.2,0.2,0.5,0.3,0.7,0.3s0.5-0.1,0.7-0.3
	C16.1,13.3,16.1,12.7,15.7,12.3z"/>
<path d="M19.9,10.1C19.2,6,15.7,3,11.5,3c-4.3,0-7.9,3.2-8.4,7.4C1.2,11.2,0,13,0,15c0,2.8,2.2,5,5,5h2c0.6,0,1-0.4,1-1s-0.4-1-1-1
	H5c-1.7,0-3-1.3-3-3c0-1.4,0.9-2.6,2.3-2.9C4.7,12,5,11.6,5,11.2C5.2,7.7,8,5,11.5,5c3.4,0,6.3,2.7,6.5,6.1c0,0.5,0.5,0.9,1,0.9
	c0,0,0,0,0.1,0c1.6,0,3,1.4,3,3c0,1.7-1.3,3-3,3h-2c-0.6,0-1,0.4-1,1s0.4,1,1,1h2c2.8,0,5-2.2,5-5C24,12.5,22.2,10.5,19.9,10.1z"/>
</svg>
