<?xml version="1.0" encoding="utf-8"?>
<!-- Generator: Adobe Illustrator 19.1.0, SVG Export Plug-In . SVG Version: 6.00 Build 0)  -->
<!DOCTYPE svg PUBLIC "-//W3C//DTD SVG 1.1//EN" "http://www.w3.org/Graphics/SVG/1.1/DTD/svg11.dtd">
<svg version="1.1" id="Layer_1" xmlns="http://www.w3.org/2000/svg" xmlns:xlink="http://www.w3.org/1999/xlink" x="0px" y="0px"
	 width="24px" height="24px" viewBox="0 0 24 24" enable-background="new 0 0 24 24" xml:space="preserve">
<path d="M12,0c-0.6,0-1,0.4-1,1v7.6L9.7,7.3c-0.4-0.4-1-0.4-1.4,0s-0.4,1,0,1.4l3,3c0.1,0.1,0.2,0.2,0.3,0.2C11.7,12,11.9,12,12,12
	s0.3,0,0.4-0.1c0.1-0.1,0.2-0.1,0.3-0.2l3-3c0.4-0.4,0.4-1,0-1.4s-1-0.4-1.4,0L13,8.6V1C13,0.4,12.6,0,12,0z"/>
<path d="M23,5h-4c-0.6,0-1,0.4-1,1s0.4,1,1,1h3v7H2V7h3c0.6,0,1-0.4,1-1S5.6,5,5,5H1C0.4,5,0,5.4,0,6v9v8c0,0.6,0.4,1,1,1h22
	c0.6,0,1-0.4,1-1v-8V6C24,5.4,23.6,5,23,5z M22,22H2v-6h20V22z"/>
<path d="M10,20h4c0.6,0,1-0.4,1-1s-0.4-1-1-1h-4c-0.6,0-1,0.4-1,1S9.4,20,10,20z"/>
</svg>
