<?xml version="1.0" encoding="utf-8"?>
<!-- Generator: Adobe Illustrator 19.1.0, SVG Export Plug-In . SVG Version: 6.00 Build 0)  -->
<!DOCTYPE svg PUBLIC "-//W3C//DTD SVG 1.1//EN" "http://www.w3.org/Graphics/SVG/1.1/DTD/svg11.dtd">
<svg version="1.1" id="Layer_1" xmlns="http://www.w3.org/2000/svg" xmlns:xlink="http://www.w3.org/1999/xlink" x="0px" y="0px"
	 width="24px" height="24px" viewBox="0 0 24 24" enable-background="new 0 0 24 24" xml:space="preserve">
<path d="M2.3,13.7c0.4,0.4,1,0.4,1.4,0L5,12.4v2.5c0,2.3,1.3,4.3,3.3,5.4l2.7,1.3V23c0,0.6,0.4,1,1,1s1-0.4,1-1v-2v-1.4l2.7-1.3
	c2-1,3.3-3.1,3.3-5.4V9.4l1.3,1.3c0.2,0.2,0.5,0.3,0.7,0.3s0.5-0.1,0.7-0.3c0.4-0.4,0.4-1,0-1.4l-3-3c-0.1-0.1-0.2-0.2-0.3-0.2
	c-0.2-0.1-0.5-0.1-0.8,0c-0.1,0.1-0.2,0.1-0.3,0.2l-3,3c-0.4,0.4-0.4,1,0,1.4s1,0.4,1.4,0L17,9.4v3.5c0,1.5-0.8,2.9-2.2,3.6L13,17.4
	v-13l1.3,1.3C14.5,5.9,14.7,6,15,6s0.5-0.1,0.7-0.3c0.4-0.4,0.4-1,0-1.4l-3-3c-0.1-0.1-0.2-0.2-0.3-0.2c-0.2-0.1-0.5-0.1-0.8,0
	c-0.1,0.1-0.2,0.1-0.3,0.2l-3,3c-0.4,0.4-0.4,1,0,1.4s1,0.4,1.4,0L11,4.4V19v0.4l-1.8-0.9C7.8,17.8,7,16.4,7,14.9v-2.5l1.3,1.3
	C8.5,13.9,8.7,14,9,14s0.5-0.1,0.7-0.3c0.4-0.4,0.4-1,0-1.4l-3-3C6.6,9.2,6.5,9.1,6.4,9.1C6.1,9,5.9,9,5.6,9.1
	C5.5,9.1,5.4,9.2,5.3,9.3l-3,3C1.9,12.7,1.9,13.3,2.3,13.7z"/>
</svg>
