<?xml version="1.0" encoding="utf-8"?>
<!-- Generator: Adobe Illustrator 19.1.0, SVG Export Plug-In . SVG Version: 6.00 Build 0)  -->
<!DOCTYPE svg PUBLIC "-//W3C//DTD SVG 1.1//EN" "http://www.w3.org/Graphics/SVG/1.1/DTD/svg11.dtd">
<svg version="1.1" id="Layer_1" xmlns="http://www.w3.org/2000/svg" xmlns:xlink="http://www.w3.org/1999/xlink" x="0px" y="0px"
	 width="24px" height="24px" viewBox="0 0 24 24" enable-background="new 0 0 24 24" xml:space="preserve">
<path d="M11.2,22.6c0.2,0.3,0.5,0.4,0.8,0.4s0.6-0.2,0.8-0.4l8-11c0.2-0.3,0.3-0.7,0.1-1C20.7,10.2,20.4,10,20,10h-4V2
	c0-0.6-0.4-1-1-1H9C8.4,1,8,1.4,8,2v8H4c-0.4,0-0.7,0.2-0.9,0.5c-0.2,0.3-0.1,0.7,0.1,1L11.2,22.6z M9,12c0.6,0,1-0.4,1-1V3h4v8
	c0,0.6,0.4,1,1,1h3l-6,8.3L6,12H9z"/>
</svg>
