<?xml version="1.0" encoding="utf-8"?>
<!-- Generator: Adobe Illustrator 19.1.0, SVG Export Plug-In . SVG Version: 6.00 Build 0)  -->
<!DOCTYPE svg PUBLIC "-//W3C//DTD SVG 1.1//EN" "http://www.w3.org/Graphics/SVG/1.1/DTD/svg11.dtd">
<svg version="1.1" id="Layer_1" xmlns="http://www.w3.org/2000/svg" xmlns:xlink="http://www.w3.org/1999/xlink" x="0px" y="0px"
	 width="24px" height="24px" viewBox="0 0 24 24" enable-background="new 0 0 24 24" xml:space="preserve">
<path d="M22,1h-7c-0.4,0-0.8,0.2-0.9,0.6C13.9,2,14,2.4,14.3,2.7l2.8,2.8L5.5,17.1l-2.8-2.8C2.4,14,2,13.9,1.6,14.1
	C1.2,14.2,1,14.6,1,15v7c0,0.6,0.4,1,1,1h7c0.4,0,0.8-0.2,0.9-0.6c0.2-0.4,0.1-0.8-0.2-1.1l-2.8-2.8L18.5,6.9l2.8,2.8
	C21.5,9.9,21.7,10,22,10c0.1,0,0.3,0,0.4-0.1C22.8,9.8,23,9.4,23,9V2C23,1.4,22.6,1,22,1z M3,21v-3.6L6.6,21H3z M21,6.6L17.4,3H21
	V6.6z"/>
</svg>
