<?xml version="1.0" encoding="utf-8"?>
<!-- Generator: Adobe Illustrator 19.1.0, SVG Export Plug-In . SVG Version: 6.00 Build 0)  -->
<!DOCTYPE svg PUBLIC "-//W3C//DTD SVG 1.1//EN" "http://www.w3.org/Graphics/SVG/1.1/DTD/svg11.dtd">
<svg version="1.1" id="Layer_1" xmlns="http://www.w3.org/2000/svg" xmlns:xlink="http://www.w3.org/1999/xlink" x="0px" y="0px"
	 width="24px" height="24px" viewBox="0 0 24 24" enable-background="new 0 0 24 24" xml:space="preserve">
<path d="M1,13h12v4c0,0.4,0.2,0.7,0.5,0.9C13.7,18,13.8,18,14,18c0.2,0,0.4-0.1,0.6-0.2l7-5c0.3-0.2,0.4-0.5,0.4-0.8
	s-0.2-0.6-0.4-0.8l-7-5c-0.3-0.2-0.7-0.2-1-0.1C13.2,6.3,13,6.6,13,7v4H1c-0.6,0-1,0.4-1,1S0.4,13,1,13z M15,8.9l4.3,3.1L15,15.1
	V8.9z"/>
</svg>
