<?xml version="1.0" encoding="utf-8"?>
<!-- Generator: Adobe Illustrator 19.1.0, SVG Export Plug-In . SVG Version: 6.00 Build 0)  -->
<!DOCTYPE svg PUBLIC "-//W3C//DTD SVG 1.1//EN" "http://www.w3.org/Graphics/SVG/1.1/DTD/svg11.dtd">
<svg version="1.1" id="Layer_1" xmlns="http://www.w3.org/2000/svg" xmlns:xlink="http://www.w3.org/1999/xlink" x="0px" y="0px"
	 width="24px" height="24px" viewBox="0 0 24 24" enable-background="new 0 0 24 24" xml:space="preserve">
<path d="M1.1,12.4c0.1,0.1,0.1,0.2,0.2,0.3l5,5C6.5,17.9,6.7,18,7,18s0.5-0.1,0.7-0.3c0.4-0.4,0.4-1,0-1.4L4.4,13H13
	c0.6,0,1-0.4,1-1s-0.4-1-1-1H4.4l3.3-3.3c0.4-0.4,0.4-1,0-1.4s-1-0.4-1.4,0l-5,5c-0.1,0.1-0.2,0.2-0.2,0.3C1,11.9,1,12.1,1.1,12.4z"
	/>
<path d="M23,3h-6c-0.6,0-1,0.4-1,1v16c0,0.6,0.4,1,1,1h6c0.6,0,1-0.4,1-1V4C24,3.4,23.6,3,23,3z M22,19h-4V5h4V19z"/>
</svg>
