<?xml version="1.0" encoding="utf-8"?>
<!-- Generator: Adobe Illustrator 19.1.0, SVG Export Plug-In . SVG Version: 6.00 Build 0)  -->
<!DOCTYPE svg PUBLIC "-//W3C//DTD SVG 1.1//EN" "http://www.w3.org/Graphics/SVG/1.1/DTD/svg11.dtd">
<svg version="1.1" id="Layer_1" xmlns="http://www.w3.org/2000/svg" xmlns:xlink="http://www.w3.org/1999/xlink" x="0px" y="0px"
	 width="24px" height="24px" viewBox="0 0 24 24" enable-background="new 0 0 24 24" xml:space="preserve">
<path d="M22.4,14.1c-0.4-0.2-0.8-0.1-1.1,0.2l-2.8,2.8L6.9,5.5l2.8-2.8C10,2.4,10.1,2,9.9,1.6S9.4,1,9,1H2C1.4,1,1,1.4,1,2v7
	c0,0.4,0.2,0.8,0.6,0.9C1.7,10,1.9,10,2,10c0.3,0,0.5-0.1,0.7-0.3l2.8-2.8l11.6,11.6l-2.8,2.8c-0.3,0.3-0.4,0.7-0.2,1.1
	S14.6,23,15,23h7c0.6,0,1-0.4,1-1v-7C23,14.6,22.8,14.2,22.4,14.1z M3,3h3.6L3,6.6V3z M21,21h-3.6l3.6-3.6V21z"/>
</svg>
