<?xml version="1.0" encoding="utf-8"?>
<!-- Generator: Adobe Illustrator 19.1.0, SVG Export Plug-In . SVG Version: 6.00 Build 0)  -->
<!DOCTYPE svg PUBLIC "-//W3C//DTD SVG 1.1//EN" "http://www.w3.org/Graphics/SVG/1.1/DTD/svg11.dtd">
<svg version="1.1" id="Layer_1" xmlns="http://www.w3.org/2000/svg" xmlns:xlink="http://www.w3.org/1999/xlink" x="0px" y="0px"
	 width="24px" height="24px" viewBox="0 0 24 24" enable-background="new 0 0 24 24" xml:space="preserve">
<path id="color_79_" d="M15,0H9C8.4,0,8,0.4,8,1v2c0,0.6,0.4,1,1,1h6c0.6,0,1-0.4,1-1V1C16,0.4,15.6,0,15,0z"/>
<path d="M23,2h-5v2c0,1.1-0.9,2-2,2H8C6.9,6,6,5.1,6,4V2H1C0.4,2,0,2.4,0,3v18c0,0.3,0.1,0.6,0.4,0.8C0.6,22,1,22,1.3,22L8,20.1
	l7.7,2.9c0.1,0,0.2,0.1,0.4,0.1c0,0,0.1,0,0.1,0l7-1c0.5-0.1,0.9-0.5,0.9-1V3C24,2.4,23.6,2,23,2z M8.7,14.3c0.4,0.4,0.4,1,0,1.4
	C8.5,15.9,8.3,16,8,16s-0.5-0.1-0.7-0.3l-2-2c-0.4-0.4-0.4-1,0-1.4l2-2c0.4-0.4,1-0.4,1.4,0s0.4,1,0,1.4L7.4,13L8.7,14.3z M14,9.2
	l-2,8c-0.1,0.5-0.5,0.8-1,0.8c-0.1,0-0.2,0-0.2,0c-0.5-0.1-0.9-0.7-0.7-1.2l2-8c0.1-0.5,0.7-0.9,1.2-0.7C13.8,8.2,14.1,8.7,14,9.2z
	 M18.7,13.7l-2,2C16.5,15.9,16.3,16,16,16s-0.5-0.1-0.7-0.3c-0.4-0.4-0.4-1,0-1.4l1.3-1.3l-1.3-1.3c-0.4-0.4-0.4-1,0-1.4
	s1-0.4,1.4,0l2,2C19.1,12.7,19.1,13.3,18.7,13.7z"/>
</svg>
