<?xml version="1.0" encoding="utf-8"?>
<!-- Generator: Adobe Illustrator 19.1.0, SVG Export Plug-In . SVG Version: 6.00 Build 0)  -->
<!DOCTYPE svg PUBLIC "-//W3C//DTD SVG 1.1//EN" "http://www.w3.org/Graphics/SVG/1.1/DTD/svg11.dtd">
<svg version="1.1" id="Layer_1" xmlns="http://www.w3.org/2000/svg" xmlns:xlink="http://www.w3.org/1999/xlink" x="0px" y="0px"
	 width="24px" height="24px" viewBox="0 0 24 24" enable-background="new 0 0 24 24" xml:space="preserve">
<path id="color_118_" d="M15,3c-0.6,0-1-0.4-1-1V1c0-0.6,0.4-1,1-1s1,0.4,1,1v1C16,2.6,15.6,3,15,3z"/>
<path id="color_117_" d="M19.9,5.1c-0.3,0-0.5-0.1-0.7-0.3c-0.4-0.4-0.4-1,0-1.4l0.7-0.7c0.4-0.4,1-0.4,1.4,0s0.4,1,0,1.4l-0.7,0.7
	C20.5,5,20.2,5.1,19.9,5.1z"/>
<path id="color_116_" d="M23,10h-1c-0.6,0-1-0.4-1-1s0.4-1,1-1h1c0.6,0,1,0.4,1,1S23.6,10,23,10z"/>
<path id="color_115_" d="M20.7,15.7c-0.3,0-0.5-0.1-0.7-0.3l-0.7-0.7c-0.4-0.4-0.4-1,0-1.4s1-0.4,1.4,0l0.7,0.7c0.4,0.4,0.4,1,0,1.4
	C21.2,15.6,20.9,15.7,20.7,15.7z"/>
<path id="color_114_" d="M10.1,5.1C9.8,5.1,9.5,5,9.3,4.8L8.6,4.1c-0.4-0.4-0.4-1,0-1.4s1-0.4,1.4,0l0.7,0.7c0.4,0.4,0.4,1,0,1.4
	C10.6,5,10.3,5.1,10.1,5.1z"/>
<path id="color_31_" d="M18.7,8.3l-3-3c-0.4-0.4-1-0.4-1.4,0L12,7.6l4.4,4.4l2.3-2.3C19.1,9.3,19.1,8.7,18.7,8.3z"/>
<path d="M10.6,9l-9.3,9.3c-0.4,0.4-0.4,1,0,1.4l3,3C4.5,22.9,4.7,23,5,23s0.5-0.1,0.7-0.3l9.3-9.3L10.6,9z"/>
</svg>
