<?xml version="1.0" encoding="utf-8"?>
<!-- Generator: Adobe Illustrator 19.1.0, SVG Export Plug-In . SVG Version: 6.00 Build 0)  -->
<!DOCTYPE svg PUBLIC "-//W3C//DTD SVG 1.1//EN" "http://www.w3.org/Graphics/SVG/1.1/DTD/svg11.dtd">
<svg version="1.1" id="Layer_1" xmlns="http://www.w3.org/2000/svg" xmlns:xlink="http://www.w3.org/1999/xlink" x="0px" y="0px"
	 width="24px" height="24px" viewBox="0 0 24 24" enable-background="new 0 0 24 24" xml:space="preserve">
<path id="color_65_" d="M22,2H10C9.4,2,9,2.4,9,3v2c0,0.6,0.4,1,1,1h12c0.6,0,1-0.4,1-1V3C23,2.4,22.6,2,22,2z"/>
<path id="color_64_" d="M22,10H10c-0.6,0-1,0.4-1,1v2c0,0.6,0.4,1,1,1h12c0.6,0,1-0.4,1-1v-2C23,10.4,22.6,10,22,10z"/>
<path id="color_63_" d="M22,18H10c-0.6,0-1,0.4-1,1v2c0,0.6,0.4,1,1,1h12c0.6,0,1-0.4,1-1v-2C23,18.4,22.6,18,22,18z"/>
<path d="M6,1H2C1.4,1,1,1.4,1,2v4c0,0.6,0.4,1,1,1h4c0.6,0,1-0.4,1-1V2C7,1.4,6.6,1,6,1z"/>
<path d="M6,9H2c-0.6,0-1,0.4-1,1v4c0,0.6,0.4,1,1,1h4c0.6,0,1-0.4,1-1v-4C7,9.4,6.6,9,6,9z"/>
<path d="M6,17H2c-0.6,0-1,0.4-1,1v4c0,0.6,0.4,1,1,1h4c0.6,0,1-0.4,1-1v-4C7,17.4,6.6,17,6,17z"/>
</svg>
