<?xml version="1.0" encoding="utf-8"?>
<!-- Generator: Adobe Illustrator 19.1.0, SVG Export Plug-In . SVG Version: 6.00 Build 0)  -->
<!DOCTYPE svg PUBLIC "-//W3C//DTD SVG 1.1//EN" "http://www.w3.org/Graphics/SVG/1.1/DTD/svg11.dtd">
<svg version="1.1" id="Layer_1" xmlns="http://www.w3.org/2000/svg" xmlns:xlink="http://www.w3.org/1999/xlink" x="0px" y="0px"
	 width="24px" height="24px" viewBox="0 0 24 24" enable-background="new 0 0 24 24" xml:space="preserve">
<path id="color_26_" d="M17,8h-2V3.1c0-1.5-1.1-2.8-2.5-3.1C10.6-0.3,9,1.2,9,3v5H7c-2.2,0-4,1.8-4,4c0,0.6,0,1,0,1h18
	c0,0,0-0.4,0-1C21,9.8,19.2,8,17,8z M13,5c0,0.6-0.4,1-1,1s-1-0.4-1-1V4c0-0.6,0.4-1,1-1s1,0.4,1,1V5z"/>
<path d="M3,15v9h1c1.6,0,3.1-0.8,4-2c0.9,1.2,2.4,2,4,2s3.1-0.8,4-2c0.9,1.2,2.4,2,4,2h1v-9H3z"/>
</svg>
