<?xml version="1.0" encoding="utf-8"?>
<!-- Generator: Adobe Illustrator 19.1.0, SVG Export Plug-In . SVG Version: 6.00 Build 0)  -->
<!DOCTYPE svg PUBLIC "-//W3C//DTD SVG 1.1//EN" "http://www.w3.org/Graphics/SVG/1.1/DTD/svg11.dtd">
<svg version="1.1" id="Layer_1" xmlns="http://www.w3.org/2000/svg" xmlns:xlink="http://www.w3.org/1999/xlink" x="0px" y="0px"
	 width="24px" height="24px" viewBox="0 0 24 24" enable-background="new 0 0 24 24" xml:space="preserve">
<path d="M10.7,8.3C10.5,8.1,10.3,8,10,8H6C5.7,8,5.5,8.1,5.3,8.3l-3,3C2.1,11.5,2,11.7,2,12v11c0,0.6,0.4,1,1,1h10c0.6,0,1-0.4,1-1
	V12c0-0.3-0.1-0.5-0.3-0.7L10.7,8.3z"/>
<path id="color_97_" d="M6,7h4c0.6,0,1-0.4,1-1V4c0-0.6-0.4-1-1-1H6C5.4,3,5,3.4,5,4v2C5,6.6,5.4,7,6,7z"/>
<path id="color_96_" d="M22,5h-3c-0.6,0-1,0.4-1,1s0.4,1,1,1h3c0.6,0,1-0.4,1-1S22.6,5,22,5z"/>
<path id="color_95_" d="M16.8,7.4c-0.4-0.4-1-0.4-1.4,0s-0.4,1,0,1.4l2.1,2.1c0.2,0.2,0.5,0.3,0.7,0.3s0.5-0.1,0.7-0.3
	c0.4-0.4,0.4-1,0-1.4L16.8,7.4z"/>
<path id="color_94_" d="M16.1,4.9c0.3,0,0.5-0.1,0.7-0.3L19,2.5c0.4-0.4,0.4-1,0-1.4s-1-0.4-1.4,0l-2.1,2.1c-0.4,0.4-0.4,1,0,1.4
	C15.6,4.8,15.9,4.9,16.1,4.9z"/>
</svg>
