<?xml version="1.0" encoding="utf-8"?>
<!-- Generator: Adobe Illustrator 19.1.0, SVG Export Plug-In . SVG Version: 6.00 Build 0)  -->
<!DOCTYPE svg PUBLIC "-//W3C//DTD SVG 1.1//EN" "http://www.w3.org/Graphics/SVG/1.1/DTD/svg11.dtd">
<svg version="1.1" id="Layer_1" xmlns="http://www.w3.org/2000/svg" xmlns:xlink="http://www.w3.org/1999/xlink" x="0px" y="0px"
	 width="24px" height="24px" viewBox="0 0 24 24" enable-background="new 0 0 24 24" xml:space="preserve">
<path d="M21.6,11.4l-0.8-1.1C21.5,9.4,22,8.3,22,7c0-2.8-2.2-5-5-5h-2.2c0,0-0.9-1.2-1-1.3C13.4,0.4,12.8,0,11.9,0
	c-1.9,0-4.6,1.5-7,3.9C3.4,5.4,2.2,7.1,1.5,8.6c-1,2.4-0.3,3.6,0.2,4.2c0,0,10.7,7.8,10.7,7.8c0.4,0.3,0.8,0.5,1.3,0.5
	c1.6,0,3.7-1.4,5.3-3C21.2,15.8,22.9,12.9,21.6,11.4z M17,4c1.7,0,3,1.3,3,3c0,0.6-0.2,1.1-0.5,1.6L16.2,4H17z M3.4,9.4
	C3.9,8.1,5,6.6,6.3,5.3C8.6,3,10.8,2,11.9,2c0.1,0,0.4,0,0.5,0.1c0.2,0.2,0.2,0.8-0.3,2c-0.5,1.3-1.6,2.7-2.9,4.1
	c-2.3,2.3-4.5,3.3-5.6,3.3c-0.1,0-0.4,0-0.5-0.1C3,11.1,2.9,10.5,3.4,9.4z"/>
<path id="color_99_" d="M3,15.2l-0.8,1.2C1.5,17.4,0,19.7,0,21c0,1.7,1.3,3,3,3s3-1.3,3-3c0-1.3-1.5-3.6-2.2-4.6L3,15.2z"/>
</svg>
