<?xml version="1.0" encoding="utf-8"?>
<!-- Generator: Adobe Illustrator 19.1.0, SVG Export Plug-In . SVG Version: 6.00 Build 0)  -->
<!DOCTYPE svg PUBLIC "-//W3C//DTD SVG 1.1//EN" "http://www.w3.org/Graphics/SVG/1.1/DTD/svg11.dtd">
<svg version="1.1" id="Layer_1" xmlns="http://www.w3.org/2000/svg" xmlns:xlink="http://www.w3.org/1999/xlink" x="0px" y="0px"
	 width="64px" height="64px" viewBox="0 0 64 64" enable-background="new 0 0 64 64" xml:space="preserve">
<path d="M5,6v52c0,2.8,2.2,5,5,5h44c2.8,0,5-2.2,5-5V6c0-2.8-2.2-5-5-5H10C7.2,1,5,3.2,5,6z M57,6v52c0,1.7-1.3,3-3,3H10
	c-1.7,0-3-1.3-3-3V6c0-1.7,1.3-3,3-3h44C55.7,3,57,4.3,57,6z"/>
<path d="M14,53h36c0.6,0,1-0.4,1-1V12c0-0.6-0.4-1-1-1H14c-0.6,0-1,0.4-1,1v40C13,52.6,13.4,53,14,53z M15,51v-8h34v8H15z M49,13v28
	H15V13H49z"/>
</svg>
