<?xml version="1.0" encoding="utf-8"?>
<!-- Generator: Adobe Illustrator 19.1.0, SVG Export Plug-In . SVG Version: 6.00 Build 0)  -->
<!DOCTYPE svg PUBLIC "-//W3C//DTD SVG 1.1//EN" "http://www.w3.org/Graphics/SVG/1.1/DTD/svg11.dtd">
<svg version="1.1" id="Layer_1" xmlns="http://www.w3.org/2000/svg" xmlns:xlink="http://www.w3.org/1999/xlink" x="0px" y="0px"
	 width="64px" height="64px" viewBox="0 0 64 64" enable-background="new 0 0 64 64" xml:space="preserve">
<path d="M4,61h56c0.6,0,1-0.4,1-1V4c0-0.6-0.4-1-1-1H4C3.4,3,3,3.4,3,4v56C3,60.6,3.4,61,4,61z M5,5h54v54H5V5z"/>
<path d="M18,15c-0.6,0-1,0.4-1,1v12c0,0.6,0.4,1,1,1s1-0.4,1-1V16C19,15.4,18.6,15,18,15z"/>
<path d="M46,15c-0.6,0-1,0.4-1,1v12c0,0.6,0.4,1,1,1s1-0.4,1-1V16C47,15.4,46.6,15,46,15z"/>
<path d="M32,33c-5,0-9,4-9,9v6c0,0.6,0.4,1,1,1h16c0.6,0,1-0.4,1-1v-6C41,37,37,33,32,33z M39,47H25v-5c0-3.9,3.1-7,7-7s7,3.1,7,7
	V47z"/>
</svg>
