<?xml version="1.0" encoding="utf-8"?>
<!-- Generator: Adobe Illustrator 19.1.0, SVG Export Plug-In . SVG Version: 6.00 Build 0)  -->
<!DOCTYPE svg PUBLIC "-//W3C//DTD SVG 1.1//EN" "http://www.w3.org/Graphics/SVG/1.1/DTD/svg11.dtd">
<svg version="1.1" id="Layer_1" xmlns="http://www.w3.org/2000/svg" xmlns:xlink="http://www.w3.org/1999/xlink" x="0px" y="0px"
	 width="64px" height="64px" viewBox="0 0 64 64" enable-background="new 0 0 64 64" xml:space="preserve">
<path d="M49,15.1V2c0-0.6-0.4-1-1-1H16c-0.6,0-1,0.4-1,1v13.1C7.2,15.6,1,22.1,1,30v18c0,0.6,0.4,1,1,1h13.6l13.7,13.7
	c0.1,0.1,0.2,0.2,0.3,0.2C29.7,63,29.9,63,30,63h18c0.6,0,1-0.4,1-1V49h13c0.6,0,1-0.4,1-1V30C63,22.1,56.8,15.6,49,15.1z M47,3v12
	H17V3H47z M29,59.6L18.4,49H29V59.6z M47,61H31V48c0-0.6-0.4-1-1-1H17V37h30V61z M61,47H49V36c0-0.6-0.4-1-1-1H16c-0.6,0-1,0.4-1,1
	v11H3V30c0-7.2,5.8-13,13-13h32c7.2,0,13,5.8,13,13V47z"/>
<path d="M48,25h-4c-0.6,0-1,0.4-1,1s0.4,1,1,1h4c0.6,0,1-0.4,1-1S48.6,25,48,25z"/>
</svg>
