<?xml version="1.0" encoding="utf-8"?>
<!-- Generator: Adobe Illustrator 19.1.0, SVG Export Plug-In . SVG Version: 6.00 Build 0)  -->
<!DOCTYPE svg PUBLIC "-//W3C//DTD SVG 1.1//EN" "http://www.w3.org/Graphics/SVG/1.1/DTD/svg11.dtd">
<svg version="1.1" id="Layer_1" xmlns="http://www.w3.org/2000/svg" xmlns:xlink="http://www.w3.org/1999/xlink" x="0px" y="0px"
	 width="64px" height="64px" viewBox="0 0 64 64" enable-background="new 0 0 64 64" xml:space="preserve">
<path d="M46,25H18C8.6,25,1,32.6,1,42s7.6,17,17,17h28c9.4,0,17-7.6,17-17S55.4,25,46,25z M46,57H18C9.7,57,3,50.3,3,42
	s6.7-15,15-15h28c8.3,0,15,6.7,15,15S54.3,57,46,57z"/>
<path d="M24,41h-5v-5c0-0.6-0.4-1-1-1s-1,0.4-1,1v5h-5c-0.6,0-1,0.4-1,1s0.4,1,1,1h5v5c0,0.6,0.4,1,1,1s1-0.4,1-1v-5h5
	c0.6,0,1-0.4,1-1S24.6,41,24,41z"/>
<path d="M48.7,35.3c-0.4-0.4-1-0.4-1.4,0l-4,4c-0.4,0.4-0.4,1,0,1.4c0.2,0.2,0.5,0.3,0.7,0.3s0.5-0.1,0.7-0.3l4-4
	C49.1,36.3,49.1,35.7,48.7,35.3z"/>
<path d="M49.3,43.3l-4,4c-0.4,0.4-0.4,1,0,1.4c0.2,0.2,0.5,0.3,0.7,0.3s0.5-0.1,0.7-0.3l4-4c0.4-0.4,0.4-1,0-1.4
	S49.7,42.9,49.3,43.3z"/>
<path d="M33,18V6c0-0.6-0.4-1-1-1s-1,0.4-1,1v12c0,0.6,0.4,1,1,1S33,18.6,33,18z"/>
</svg>
