<?xml version="1.0" encoding="utf-8"?>
<!-- Generator: Adobe Illustrator 19.1.0, SVG Export Plug-In . SVG Version: 6.00 Build 0)  -->
<!DOCTYPE svg PUBLIC "-//W3C//DTD SVG 1.1//EN" "http://www.w3.org/Graphics/SVG/1.1/DTD/svg11.dtd">
<svg version="1.1" id="Layer_1" xmlns="http://www.w3.org/2000/svg" xmlns:xlink="http://www.w3.org/1999/xlink" x="0px" y="0px"
	 width="64px" height="64px" viewBox="0 0 64 64" enable-background="new 0 0 64 64" xml:space="preserve">
<path d="M14,17c-2.8,0-5,2.2-5,5v36c0,2.8,2.2,5,5,5h20c2.8,0,5-2.2,5-5V22c0-2.8-2.2-5-5-5H14z M37,22v36c0,1.7-1.3,3-3,3H14
	c-1.7,0-3-1.3-3-3V22c0-1.7,1.3-3,3-3h20C35.7,19,37,20.3,37,22z"/>
<path d="M36,11c5,0,9,4,9,9c0,0.6,0.4,1,1,1s1-0.4,1-1c0-6.1-4.9-11-11-11c-0.6,0-1,0.4-1,1S35.4,11,36,11z"/>
<path d="M36,3c9.4,0,17,7.6,17,17c0,0.6,0.4,1,1,1s1-0.4,1-1C55,9.5,46.5,1,36,1c-0.6,0-1,0.4-1,1S35.4,3,36,3z"/>
<path d="M29,32c0-2.8-2.2-5-5-5s-5,2.2-5,5s2.2,5,5,5S29,34.8,29,32z M24,35c-1.7,0-3-1.3-3-3s1.3-3,3-3s3,1.3,3,3S25.7,35,24,35z"
	/>
<path d="M20,43h-2c-0.6,0-1,0.4-1,1s0.4,1,1,1h2c0.6,0,1-0.4,1-1S20.6,43,20,43z"/>
<path d="M30,43h-2c-0.6,0-1,0.4-1,1s0.4,1,1,1h2c0.6,0,1-0.4,1-1S30.6,43,30,43z"/>
<path d="M20,51h-2c-0.6,0-1,0.4-1,1s0.4,1,1,1h2c0.6,0,1-0.4,1-1S20.6,51,20,51z"/>
<path d="M30,51h-2c-0.6,0-1,0.4-1,1s0.4,1,1,1h2c0.6,0,1-0.4,1-1S30.6,51,30,51z"/>
</svg>
