<?xml version="1.0" encoding="utf-8"?>
<!-- Generator: Adobe Illustrator 19.1.0, SVG Export Plug-In . SVG Version: 6.00 Build 0)  -->
<!DOCTYPE svg PUBLIC "-//W3C//DTD SVG 1.1//EN" "http://www.w3.org/Graphics/SVG/1.1/DTD/svg11.dtd">
<svg version="1.1" id="Layer_1" xmlns="http://www.w3.org/2000/svg" xmlns:xlink="http://www.w3.org/1999/xlink" x="0px" y="0px"
	 width="64px" height="64px" viewBox="0 0 64 64" enable-background="new 0 0 64 64" xml:space="preserve">
<path d="M32,11c-6.1,0-11,4.9-11,11s4.9,11,11,11s11-4.9,11-11S38.1,11,32,11z M32,31c-5,0-9-4-9-9s4-9,9-9s9,4,9,9S37,31,32,31z"/>
<path d="M32,19c-1.7,0-3,1.3-3,3s1.3,3,3,3s3-1.3,3-3S33.7,19,32,19z M32,23c-0.6,0-1-0.4-1-1s0.4-1,1-1s1,0.4,1,1S32.6,23,32,23z"
	/>
<path d="M11,62c0,0.6,0.4,1,1,1h40c0.6,0,1-0.4,1-1s-0.4-1-1-1h-5c0.1-8.5,1.9-16.4,3.4-23.3c1.3-5.9,2.6-11.6,2.6-16.6
	C53,9.8,43.8,1,32,1S11,9.8,11,21.1c0,5,1.2,10.6,2.6,16.6c1.5,7,3.3,14.8,3.4,23.3h-5C11.4,61,11,61.4,11,62z M15.5,37.2
	C14.2,31.4,13,25.9,13,21.1C13,10.9,21.3,3,32,3s19,7.9,19,18.1c0,4.8-1.2,10.3-2.5,16.1c-1.6,7.1-3.3,15-3.5,23.8H19
	C18.8,52.3,17.1,44.3,15.5,37.2z"/>
</svg>
