<?xml version="1.0" encoding="utf-8"?>
<!-- Generator: Adobe Illustrator 19.1.0, SVG Export Plug-In . SVG Version: 6.00 Build 0)  -->
<!DOCTYPE svg PUBLIC "-//W3C//DTD SVG 1.1//EN" "http://www.w3.org/Graphics/SVG/1.1/DTD/svg11.dtd">
<svg version="1.1" id="Layer_1" xmlns="http://www.w3.org/2000/svg" xmlns:xlink="http://www.w3.org/1999/xlink" x="0px" y="0px"
	 width="32px" height="32px" viewBox="0 0 32 32" enable-background="new 0 0 32 32" xml:space="preserve">
<polygon points="9.4,23 10.9,23 10.9,20.9 12.7,20.9 12.7,19.6 10.9,19.6 10.9,18.5 12.8,18.5 12.8,17.3 9.4,17.3 "/>
<path d="M17.1,20L17.1,20c0.3-0.1,0.5-0.2,0.6-0.5S18,19,18,18.7c0-0.5-0.2-0.8-0.6-1.1s-1-0.3-1.7-0.3h-2V23H16
	c0.7,0,1.2-0.1,1.6-0.4s0.6-0.7,0.6-1.2c0-0.3-0.1-0.6-0.2-0.9S17.5,20.1,17.1,20z M15.3,18.5h0.4c0.5,0,0.7,0.2,0.7,0.5
	c0,0.2-0.1,0.3-0.2,0.4s-0.3,0.1-0.5,0.1h-0.5V18.5z M15.8,21.8h-0.5v-1.2h0.5c0.2,0,0.4,0.1,0.6,0.2s0.2,0.2,0.2,0.4
	C16.5,21.6,16.3,21.8,15.8,21.8z"/>
<path d="M20.7,21.7c0.6-0.6,1-1,1.2-1.2s0.3-0.4,0.5-0.6s0.2-0.4,0.3-0.6s0.1-0.4,0.1-0.6c0-0.3-0.1-0.6-0.2-0.8s-0.4-0.4-0.7-0.6
	s-0.6-0.2-1-0.2c-0.3,0-0.6,0-0.8,0.1s-0.5,0.1-0.7,0.3s-0.4,0.3-0.7,0.6l0.8,1c0.2-0.2,0.4-0.4,0.6-0.5s0.4-0.2,0.5-0.2
	c0.2,0,0.3,0,0.4,0.1s0.1,0.2,0.1,0.4c0,0.1,0,0.2-0.1,0.3s-0.1,0.2-0.3,0.4s-0.4,0.4-0.8,0.9L18.7,22v1h4.1v-1.3L20.7,21.7
	L20.7,21.7z"/>
<path d="M31,12h-2V9c0-0.1,0-0.3-0.1-0.4c-0.1-0.1-0.1-0.2-0.2-0.3l-8-8c-0.1-0.1-0.2-0.2-0.3-0.2C20.3,0,20.1,0,20,0H4
	C3.4,0,3,0.4,3,1v11H1c-0.6,0-1,0.4-1,1v14c0,0.6,0.4,1,1,1h2v3c0,0.6,0.4,1,1,1h24c0.6,0,1-0.4,1-1v-3h2c0.6,0,1-0.4,1-1V13
	C32,12.4,31.6,12,31,12z M21,3.4L25.6,8H21V3.4z M5,2h14v7c0,0.6,0.4,1,1,1h7v2H5V2z M27,30H5v-2h22V30z M30,26H2V14h28V26z"/>
</svg>
