<?xml version="1.0" encoding="utf-8"?>
<!-- Generator: Adobe Illustrator 19.1.0, SVG Export Plug-In . SVG Version: 6.00 Build 0)  -->
<!DOCTYPE svg PUBLIC "-//W3C//DTD SVG 1.1//EN" "http://www.w3.org/Graphics/SVG/1.1/DTD/svg11.dtd">
<svg version="1.1" id="Layer_1" xmlns="http://www.w3.org/2000/svg" xmlns:xlink="http://www.w3.org/1999/xlink" x="0px" y="0px"
	 width="32px" height="32px" viewBox="0 0 32 32" enable-background="new 0 0 32 32" xml:space="preserve">
<path d="M11.1,18.4c0.4,0,0.8,0.1,1.4,0.4l0.5-1.2c-0.6-0.3-1.2-0.4-1.8-0.4c-0.7,0-1.2,0.1-1.6,0.4S9,18.4,9,18.9
	c0,0.3,0,0.5,0.1,0.7s0.2,0.4,0.4,0.5s0.5,0.3,0.8,0.5c0.4,0.2,0.7,0.3,0.8,0.4s0.2,0.1,0.2,0.2s0.1,0.1,0.1,0.2
	c0,0.1-0.1,0.2-0.2,0.3s-0.3,0.1-0.5,0.1c-0.3,0-0.6,0-0.9-0.1S9.3,21.5,9,21.3v1.4c0.3,0.1,0.5,0.2,0.8,0.3s0.6,0.1,1,0.1
	c0.5,0,0.9-0.1,1.2-0.2s0.6-0.4,0.8-0.6s0.3-0.6,0.3-0.9c0-0.4-0.1-0.7-0.3-1s-0.5-0.5-1-0.7c-0.5-0.2-0.8-0.4-0.9-0.5
	s-0.2-0.2-0.2-0.3c0-0.1,0-0.2,0.1-0.3S10.9,18.4,11.1,18.4z"/>
<path d="M18.1,19c0-1.1-0.8-1.7-2.3-1.7h-1.9V23h1.5v-2.1h0.4L17,23h1.8l-1.7-2.5C17.7,20.1,18.1,19.6,18.1,19z M15.7,19.8h-0.3
	v-1.3h0.3c0.5,0,0.8,0.2,0.8,0.6C16.5,19.5,16.2,19.8,15.7,19.8z"/>
<polygon points="18.9,18.6 20.2,18.6 20.2,23 21.8,23 21.8,18.6 23.2,18.6 23.2,17.3 18.9,17.3 "/>
<path d="M31,12h-2V9c0-0.1,0-0.3-0.1-0.4c-0.1-0.1-0.1-0.2-0.2-0.3l-8-8c-0.1-0.1-0.2-0.2-0.3-0.2C20.3,0,20.1,0,20,0H4
	C3.4,0,3,0.4,3,1v11H1c-0.6,0-1,0.4-1,1v14c0,0.6,0.4,1,1,1h2v3c0,0.6,0.4,1,1,1h24c0.6,0,1-0.4,1-1v-3h2c0.6,0,1-0.4,1-1V13
	C32,12.4,31.6,12,31,12z M21,3.4L25.6,8H21V3.4z M5,2h14v7c0,0.6,0.4,1,1,1h7v2H5V2z M27,30H5v-2h22V30z M30,26H2V14h28V26z"/>
</svg>
