<?xml version="1.0" encoding="utf-8"?>
<!-- Generator: Adobe Illustrator 18.1.1, SVG Export Plug-In . SVG Version: 6.00 Build 0)  -->
<!DOCTYPE svg PUBLIC "-//W3C//DTD SVG 1.1//EN" "http://www.w3.org/Graphics/SVG/1.1/DTD/svg11.dtd">
<svg version="1.1" id="Layer_1" xmlns="http://www.w3.org/2000/svg" xmlns:xlink="http://www.w3.org/1999/xlink" x="0px" y="0px"
	 width="32px" height="32px" viewBox="0 0 32 32" enable-background="new 0 0 32 32" xml:space="preserve">
<path d="M3,31c0,0.6,0.4,1,1,1h24c0.6,0,1-0.4,1-1V1c0-0.6-0.4-1-1-1H4C3.4,0,3,0.4,3,1V31z M5,2h22v28H5V2z"/>
<path d="M16,8c-4.4,0-8,3.6-8,8s3.6,8,8,8s8-3.6,8-8S20.4,8,16,8z M21.9,15H17v-4.9C19.5,10.5,21.5,12.5,21.9,15z M16,22
	c-3.3,0-6-2.7-6-6c0-3,2.2-5.4,5-5.9V16c0,0.6,0.4,1,1,1h5.9C21.4,19.8,19,22,16,22z"/>
</svg>
