<?xml version="1.0" encoding="utf-8"?>
<!-- Generator: Adobe Illustrator 18.1.1, SVG Export Plug-In . SVG Version: 6.00 Build 0)  -->
<!DOCTYPE svg PUBLIC "-//W3C//DTD SVG 1.1//EN" "http://www.w3.org/Graphics/SVG/1.1/DTD/svg11.dtd">
<svg version="1.1" id="Layer_1" xmlns="http://www.w3.org/2000/svg" xmlns:xlink="http://www.w3.org/1999/xlink" x="0px" y="0px"
	 width="32px" height="32px" viewBox="0 0 32 32" enable-background="new 0 0 32 32" xml:space="preserve">
<path d="M31,5H15.5l-2.7-3.6C12.6,1.1,12.3,1,12,1H1C0.4,1,0,1.4,0,2v28c0,0.6,0.4,1,1,1h30c0.6,0,1-0.4,1-1V6C32,5.4,31.6,5,31,5z
	 M30,29H2V3h9.5l2.7,3.6C14.4,6.9,14.7,7,15,7h15V29z"/>
<path d="M8.2,18.4c-0.2,0.3-0.3,0.8-0.1,1.1l3.1,5.5H10c-0.6,0-1,0.4-1,1s0.4,1,1,1h3h6h3c0.6,0,1-0.4,1-1s-0.4-1-1-1h-1.3l3.1-5.5
	c0.2-0.4,0.2-0.8-0.1-1.1l-7-9c0,0,0,0,0,0C16.6,9.1,16.3,9,16,9s-0.6,0.1-0.7,0.4c0,0,0,0,0,0L8.2,18.4z M18.4,25h-4.8l-3.4-5.9
	l4.8-6.2v3.3c-1.2,0.4-2,1.5-2,2.8c0,1.7,1.3,3,3,3s3-1.3,3-3c0-1.3-0.8-2.4-2-2.8v-3.3l4.8,6.2L18.4,25z M16,18c0.6,0,1,0.4,1,1
	s-0.4,1-1,1s-1-0.4-1-1S15.4,18,16,18z"/>
</svg>
