<?xml version="1.0" encoding="utf-8"?>
<!-- Generator: Adobe Illustrator 18.1.1, SVG Export Plug-In . SVG Version: 6.00 Build 0)  -->
<!DOCTYPE svg PUBLIC "-//W3C//DTD SVG 1.1//EN" "http://www.w3.org/Graphics/SVG/1.1/DTD/svg11.dtd">
<svg version="1.1" id="Layer_1" xmlns="http://www.w3.org/2000/svg" xmlns:xlink="http://www.w3.org/1999/xlink" x="0px" y="0px"
	 width="32px" height="32px" viewBox="0 0 32 32" enable-background="new 0 0 32 32" xml:space="preserve">
<path d="M0.2,29.6c0.1,0.1,0.2,0.2,0.3,0.3C0.6,29.9,0.7,30,0.8,30c0.1,0,0.1,0,0.2,0c0,0,0,0,0,0h23c0.4,0,0.8-0.3,0.9-0.7l6-18
	c0.1-0.3,0.1-0.6-0.1-0.9C30.6,10.2,30.3,10,30,10h-5V6c0-0.6-0.4-1-1-1H12.4L9.7,2.3C9.5,2.1,9.3,2,9,2H1C0.4,2,0,2.4,0,3v26
	c0,0.1,0,0.1,0,0.2C0,29.3,0.1,29.5,0.2,29.6z M28.6,12l-5.3,16H2.4l5.3-16H28.6z M2,4h6.6l2.7,2.7C11.5,6.9,11.7,7,12,7h11v3H7
	c-0.4,0-0.8,0.3-0.9,0.7L2,22.8V4z"/>
</svg>
