<?xml version="1.0" encoding="utf-8"?>
<!-- Generator: Adobe Illustrator 19.1.0, SVG Export Plug-In . SVG Version: 6.00 Build 0)  -->
<!DOCTYPE svg PUBLIC "-//W3C//DTD SVG 1.1//EN" "http://www.w3.org/Graphics/SVG/1.1/DTD/svg11.dtd">
<svg version="1.1" id="Layer_1" xmlns="http://www.w3.org/2000/svg" xmlns:xlink="http://www.w3.org/1999/xlink" x="0px" y="0px"
	 width="32px" height="32px" viewBox="0 0 32 32" enable-background="new 0 0 32 32" xml:space="preserve">
<path d="M11.7,20.6c0,0.4-0.1,0.7-0.2,0.9s-0.4,0.3-0.7,0.3c-0.3,0-0.5-0.1-0.7-0.3S9.9,21,9.9,20.6v-3.4H8.3v3.5
	c0,0.7,0.2,1.3,0.6,1.7s1,0.6,1.8,0.6c0.8,0,1.4-0.2,1.8-0.6s0.6-1,0.6-1.7v-3.4h-1.5V20.6z"/>
<path d="M17.7,20.6c0,0.4-0.1,0.7-0.2,0.9s-0.4,0.3-0.7,0.3c-0.3,0-0.5-0.1-0.7-0.3s-0.2-0.5-0.2-0.9v-3.4h-1.6v3.5
	c0,0.7,0.2,1.3,0.6,1.7s1,0.6,1.8,0.6c0.8,0,1.4-0.2,1.8-0.6s0.6-1,0.6-1.7v-3.4h-1.5V20.6z"/>
<polygon points="20.5,23 23.9,23 23.9,21.7 22,21.7 22,20.7 23.7,20.7 23.7,19.4 22,19.4 22,18.5 23.9,18.5 23.9,17.3 20.5,17.3 "/>
<path d="M31,12h-2V9c0-0.1,0-0.3-0.1-0.4c-0.1-0.1-0.1-0.2-0.2-0.3l-8-8c-0.1-0.1-0.2-0.2-0.3-0.2C20.3,0,20.1,0,20,0H4
	C3.4,0,3,0.4,3,1v11H1c-0.6,0-1,0.4-1,1v14c0,0.6,0.4,1,1,1h2v3c0,0.6,0.4,1,1,1h24c0.6,0,1-0.4,1-1v-3h2c0.6,0,1-0.4,1-1V13
	C32,12.4,31.6,12,31,12z M21,3.4L25.6,8H21V3.4z M5,2h14v7c0,0.6,0.4,1,1,1h7v2H5V2z M27,30H5v-2h22V30z M30,26H2V14h28V26z"/>
</svg>
