<?xml version="1.0" encoding="utf-8"?>
<!-- Generator: Adobe Illustrator 18.1.1, SVG Export Plug-In . SVG Version: 6.00 Build 0)  -->
<!DOCTYPE svg PUBLIC "-//W3C//DTD SVG 1.1//EN" "http://www.w3.org/Graphics/SVG/1.1/DTD/svg11.dtd">
<svg version="1.1" id="Layer_1" xmlns="http://www.w3.org/2000/svg" xmlns:xlink="http://www.w3.org/1999/xlink" x="0px" y="0px"
	 width="32px" height="32px" viewBox="0 0 32 32" enable-background="new 0 0 32 32" xml:space="preserve">
<path d="M4,32h24c0.6,0,1-0.4,1-1V1c0-0.6-0.4-1-1-1H4C3.4,0,3,0.4,3,1v30C3,31.6,3.4,32,4,32z M5,2h22v28H5V2z"/>
<path d="M16,8c-1.5,0-3.1,1.1-3.7,2.5c-0.2,0.5,0,1.1,0.5,1.3c0.5,0.2,1.1,0,1.3-0.5c0.3-0.6,1.1-1.3,1.9-1.3c1.1,0,2,0.9,2,2
	s-0.9,2-2,2c-0.6,0-1,0.4-1,1v3c0,0.6,0.4,1,1,1s1-0.4,1-1v-2.1c1.7-0.5,3-2,3-3.9C20,9.8,18.2,8,16,8z"/>
<path d="M16,21c-0.6,0-1,0.4-1,1v1c0,0.6,0.4,1,1,1s1-0.4,1-1v-1C17,21.4,16.6,21,16,21z"/>
</svg>
