<?xml version="1.0" encoding="utf-8"?>
<!-- Generator: Adobe Illustrator 19.1.0, SVG Export Plug-In . SVG Version: 6.00 Build 0)  -->
<!DOCTYPE svg PUBLIC "-//W3C//DTD SVG 1.1//EN" "http://www.w3.org/Graphics/SVG/1.1/DTD/svg11.dtd">
<svg version="1.1" id="Layer_1" xmlns="http://www.w3.org/2000/svg" xmlns:xlink="http://www.w3.org/1999/xlink" x="0px" y="0px"
	 width="32px" height="32px" viewBox="0 0 32 32" enable-background="new 0 0 32 32" xml:space="preserve">
<path d="M10.2,21.3L10.2,21.3L9,17.3H7V23h1.4v-2.5c0-0.4,0-0.9-0.1-1.6h0L9.4,23h1.5l1.2-4.1h0c0,0.6,0,1-0.1,1.2s0,0.3,0,0.4V23
	h1.4v-5.7h-2.1L10.2,21.3z"/>
<path d="M15.9,17.3L14.1,23h1.7l0.3-1.1h1.9l0.3,1.1h1.7L18,17.3H15.9z M16.4,20.7c0.2-0.9,0.4-1.5,0.5-1.8s0.1-0.5,0.1-0.7
	c0,0.1,0.1,0.4,0.2,0.7s0.2,0.6,0.2,0.8l0.2,0.9H16.4z"/>
<polygon points="25.5,17.3 23.7,17.3 22.8,19.1 21.7,17.3 20,17.3 21.8,20.1 19.9,23 21.6,23 22.7,21.2 23.9,23 25.6,23 23.7,20.2 
	"/>
<path d="M31,12h-2V9c0-0.1,0-0.3-0.1-0.4c-0.1-0.1-0.1-0.2-0.2-0.3l-8-8c-0.1-0.1-0.2-0.2-0.3-0.2C20.3,0,20.1,0,20,0H4
	C3.4,0,3,0.4,3,1v11H1c-0.6,0-1,0.4-1,1v14c0,0.6,0.4,1,1,1h2v3c0,0.6,0.4,1,1,1h24c0.6,0,1-0.4,1-1v-3h2c0.6,0,1-0.4,1-1V13
	C32,12.4,31.6,12,31,12z M21,3.4L25.6,8H21V3.4z M5,2h14v7c0,0.6,0.4,1,1,1h7v2H5V2z M27,30H5v-2h22V30z M30,26H2V14h28V26z"/>
</svg>
