<?xml version="1.0" encoding="utf-8"?>
<!-- Generator: Adobe Illustrator 18.1.1, SVG Export Plug-In . SVG Version: 6.00 Build 0)  -->
<!DOCTYPE svg PUBLIC "-//W3C//DTD SVG 1.1//EN" "http://www.w3.org/Graphics/SVG/1.1/DTD/svg11.dtd">
<svg version="1.1" id="Layer_1" xmlns="http://www.w3.org/2000/svg" xmlns:xlink="http://www.w3.org/1999/xlink" x="0px" y="0px"
	 width="32px" height="32px" viewBox="0 0 32 32" enable-background="new 0 0 32 32" xml:space="preserve">
<path d="M31,5H15.5l-2.7-3.6C12.6,1.1,12.3,1,12,1H1C0.4,1,0,1.4,0,2v28c0,0.6,0.4,1,1,1h30c0.6,0,1-0.4,1-1V6C32,5.4,31.6,5,31,5z
	 M30,29H2V3h9.5l2.7,3.6C14.4,6.9,14.7,7,15,7h15V29z"/>
<path d="M10.6,17.2c-0.4-0.3-1-0.3-1.3,0.1l-4,4C5.1,21.5,5,21.7,5,22v4c0,0.6,0.4,1,1,1h20c0.6,0,1-0.4,1-1v-4
	c0-0.2-0.1-0.5-0.2-0.6l-5-6C21.6,15.1,21.3,15,21,15c-0.3,0-0.6,0.1-0.8,0.3l-5.4,5.4L10.6,17.2z M15.7,22.7l5.2-5.2l4.1,4.9V25H7
	v-2.6l3.1-3.1l4.3,3.4C14.8,23.1,15.3,23.1,15.7,22.7z"/>
<path d="M11,12.5c0,1.9,1.6,3.5,3.5,3.5s3.5-1.6,3.5-3.5S16.4,9,14.5,9S11,10.6,11,12.5z M16,12.5c0,0.8-0.7,1.5-1.5,1.5
	S13,13.3,13,12.5s0.7-1.5,1.5-1.5S16,11.7,16,12.5z"/>
</svg>
