<?xml version="1.0" encoding="utf-8"?>
<!-- Generator: Adobe Illustrator 19.1.0, SVG Export Plug-In . SVG Version: 6.00 Build 0)  -->
<!DOCTYPE svg PUBLIC "-//W3C//DTD SVG 1.1//EN" "http://www.w3.org/Graphics/SVG/1.1/DTD/svg11.dtd">
<svg version="1.1" id="Layer_1" xmlns="http://www.w3.org/2000/svg" xmlns:xlink="http://www.w3.org/1999/xlink" x="0px" y="0px"
	 width="32px" height="32px" viewBox="0 0 32 32" enable-background="new 0 0 32 32" xml:space="preserve">
<rect x="9.4" y="17.3" width="1.6" height="5.7"/>
<path d="M14.8,18.5c0.2,0,0.5,0,0.7,0.1s0.4,0.2,0.6,0.2l0.5-1.2c-0.6-0.3-1.2-0.4-1.8-0.4c-0.6,0-1.1,0.1-1.5,0.4s-0.7,0.6-1,1
	s-0.3,1-0.3,1.6c0,0.9,0.2,1.7,0.7,2.2s1.1,0.8,2,0.8c0.6,0,1.1-0.1,1.6-0.3v-1.3c-0.2,0.1-0.5,0.2-0.7,0.3s-0.5,0.1-0.7,0.1
	c-0.8,0-1.3-0.5-1.3-1.6c0-0.5,0.1-0.9,0.3-1.2S14.4,18.5,14.8,18.5z"/>
<path d="M20,17.2c-0.9,0-1.6,0.3-2.1,0.8s-0.7,1.2-0.7,2.2c0,1,0.2,1.7,0.7,2.2s1.2,0.8,2.1,0.8c0.9,0,1.6-0.2,2.1-0.8
	s0.7-1.2,0.7-2.2c0-1-0.2-1.7-0.7-2.2S20.9,17.2,20,17.2z M20.9,21.4c-0.2,0.3-0.5,0.4-0.9,0.4c-0.8,0-1.2-0.6-1.2-1.7
	c0-1.1,0.4-1.7,1.2-1.7c0.4,0,0.7,0.1,0.9,0.4s0.3,0.7,0.3,1.3C21.1,20.7,21,21.1,20.9,21.4z"/>
<path d="M31,12h-2V9c0-0.1,0-0.3-0.1-0.4c-0.1-0.1-0.1-0.2-0.2-0.3l-8-8c-0.1-0.1-0.2-0.2-0.3-0.2C20.3,0,20.1,0,20,0H4
	C3.4,0,3,0.4,3,1v11H1c-0.6,0-1,0.4-1,1v14c0,0.6,0.4,1,1,1h2v3c0,0.6,0.4,1,1,1h24c0.6,0,1-0.4,1-1v-3h2c0.6,0,1-0.4,1-1V13
	C32,12.4,31.6,12,31,12z M21,3.4L25.6,8H21V3.4z M5,2h14v7c0,0.6,0.4,1,1,1h7v2H5V2z M27,30H5v-2h22V30z M30,26H2V14h28V26z"/>
</svg>
