<?xml version="1.0" encoding="utf-8"?>
<!-- Generator: Adobe Illustrator 19.1.0, SVG Export Plug-In . SVG Version: 6.00 Build 0)  -->
<!DOCTYPE svg PUBLIC "-//W3C//DTD SVG 1.1//EN" "http://www.w3.org/Graphics/SVG/1.1/DTD/svg11.dtd">
<svg version="1.1" id="Layer_1" xmlns="http://www.w3.org/2000/svg" xmlns:xlink="http://www.w3.org/1999/xlink" x="0px" y="0px"
	 width="32px" height="32px" viewBox="0 0 32 32" enable-background="new 0 0 32 32" xml:space="preserve">
<path d="M10.2,17.2c-0.9,0-1.6,0.3-2.1,0.8s-0.7,1.2-0.7,2.2c0,1,0.2,1.7,0.7,2.2s1.2,0.8,2.1,0.8c0.9,0,1.6-0.2,2.1-0.8
	s0.7-1.2,0.7-2.2c0-1-0.2-1.7-0.7-2.2S11.1,17.2,10.2,17.2z M11,21.4c-0.2,0.3-0.5,0.4-0.9,0.4c-0.8,0-1.2-0.6-1.2-1.7
	c0-1.1,0.4-1.7,1.2-1.7c0.4,0,0.7,0.1,0.9,0.4s0.3,0.7,0.3,1.3C11.3,20.7,11.2,21.1,11,21.4z"/>
<path d="M16,17.3h-2V23h1.8c1,0,1.7-0.3,2.2-0.8s0.8-1.2,0.8-2.2c0-0.9-0.2-1.6-0.7-2S16.9,17.3,16,17.3z M16.9,21.3
	c-0.2,0.3-0.6,0.4-1,0.4h-0.3v-3.2H16c0.4,0,0.7,0.1,0.9,0.4s0.3,0.6,0.3,1.2C17.2,20.6,17.1,21.1,16.9,21.3z"/>
<polygon points="24.9,17.3 23.1,17.3 22.1,19.1 21.1,17.3 19.4,17.3 21.1,20.1 19.2,23 21,23 22.1,21.2 23.2,23 25,23 23,20.2 "/>
<path d="M31,12h-2V9c0-0.1,0-0.3-0.1-0.4c-0.1-0.1-0.1-0.2-0.2-0.3l-8-8c-0.1-0.1-0.2-0.2-0.3-0.2C20.3,0,20.1,0,20,0H4
	C3.4,0,3,0.4,3,1v11H1c-0.6,0-1,0.4-1,1v14c0,0.6,0.4,1,1,1h2v3c0,0.6,0.4,1,1,1h24c0.6,0,1-0.4,1-1v-3h2c0.6,0,1-0.4,1-1V13
	C32,12.4,31.6,12,31,12z M21,3.4L25.6,8H21V3.4z M5,2h14v7c0,0.6,0.4,1,1,1h7v2H5V2z M27,30H5v-2h22V30z M30,26H2V14h28V26z"/>
</svg>
