<?xml version="1.0" encoding="utf-8"?>
<!-- Generator: Adobe Illustrator 19.1.0, SVG Export Plug-In . SVG Version: 6.00 Build 0)  -->
<!DOCTYPE svg PUBLIC "-//W3C//DTD SVG 1.1//EN" "http://www.w3.org/Graphics/SVG/1.1/DTD/svg11.dtd">
<svg version="1.1" id="Layer_1" xmlns="http://www.w3.org/2000/svg" xmlns:xlink="http://www.w3.org/1999/xlink" x="0px" y="0px"
	 width="32px" height="32px" viewBox="0 0 32 32" enable-background="new 0 0 32 32" xml:space="preserve">
<rect x="6" y="17.3" width="1.6" height="5.7"/>
<path d="M12.9,19.9c0,0.3,0,0.8,0.1,1.4h0l-2.1-4h-2V23h1.4v-2.6c0-0.3,0-0.8-0.1-1.4h0l2.1,4h2v-5.7h-1.4V19.9z"/>
<path d="M17.5,17.3h-2V23h1.8c1,0,1.7-0.3,2.2-0.8s0.8-1.2,0.8-2.2c0-0.9-0.2-1.6-0.7-2S18.4,17.3,17.5,17.3z M18.4,21.3
	c-0.2,0.3-0.6,0.4-1,0.4H17v-3.2h0.4c0.4,0,0.7,0.1,0.9,0.4s0.3,0.6,0.3,1.2C18.7,20.6,18.6,21.1,18.4,21.3z"/>
<path d="M23.3,17.3h-2V23h1.8c1,0,1.7-0.3,2.2-0.8s0.8-1.2,0.8-2.2c0-0.9-0.2-1.6-0.7-2S24.2,17.3,23.3,17.3z M24.3,21.3
	c-0.2,0.3-0.6,0.4-1,0.4h-0.3v-3.2h0.4c0.4,0,0.7,0.1,0.9,0.4s0.3,0.6,0.3,1.2C24.6,20.6,24.5,21.1,24.3,21.3z"/>
<path d="M31,12h-2V9c0-0.1,0-0.3-0.1-0.4c-0.1-0.1-0.1-0.2-0.2-0.3l-8-8c-0.1-0.1-0.2-0.2-0.3-0.2C20.3,0,20.1,0,20,0H4
	C3.4,0,3,0.4,3,1v11H1c-0.6,0-1,0.4-1,1v14c0,0.6,0.4,1,1,1h2v3c0,0.6,0.4,1,1,1h24c0.6,0,1-0.4,1-1v-3h2c0.6,0,1-0.4,1-1V13
	C32,12.4,31.6,12,31,12z M21,3.4L25.6,8H21V3.4z M5,2h14v7c0,0.6,0.4,1,1,1h7v2H5V2z M27,30H5v-2h22V30z M30,26H2V14h28V26z"/>
</svg>
