<?xml version="1.0" encoding="utf-8"?>
<!-- Generator: Adobe Illustrator 18.1.1, SVG Export Plug-In . SVG Version: 6.00 Build 0)  -->
<!DOCTYPE svg PUBLIC "-//W3C//DTD SVG 1.1//EN" "http://www.w3.org/Graphics/SVG/1.1/DTD/svg11.dtd">
<svg version="1.1" id="Layer_1" xmlns="http://www.w3.org/2000/svg" xmlns:xlink="http://www.w3.org/1999/xlink" x="0px" y="0px"
	 width="32px" height="32px" viewBox="0 0 32 32" enable-background="new 0 0 32 32" xml:space="preserve">
<path d="M31,5H15.5l-2.7-3.6C12.6,1.1,12.3,1,12,1H1C0.4,1,0,1.4,0,2v28c0,0.6,0.4,1,1,1h30c0.6,0,1-0.4,1-1V6C32,5.4,31.6,5,31,5z
	 M30,29H2V3h9.5l2.7,3.6C14.4,6.9,14.7,7,15,7h15V29z"/>
<path d="M12,15v2c0,1.2,0.5,2.3,1.4,3H13c-2.2,0-4,1.8-4,4v1c0,0.6,0.4,1,1,1h12c0.6,0,1-0.4,1-1v-1c0-2.2-1.8-4-4-4h-0.4
	c0.8-0.7,1.4-1.8,1.4-3v-2c0-2.2-1.8-4-4-4S12,12.8,12,15z M21,24H11c0-1.1,0.9-2,2-2h6C20.1,22,21,22.9,21,24z M14,15
	c0-1.1,0.9-2,2-2s2,0.9,2,2v2c0,1.1-0.9,2-2,2s-2-0.9-2-2V15z"/>
</svg>
