<?xml version="1.0" encoding="utf-8"?>
<!-- Generator: Adobe Illustrator 19.1.0, SVG Export Plug-In . SVG Version: 6.00 Build 0)  -->
<!DOCTYPE svg PUBLIC "-//W3C//DTD SVG 1.1//EN" "http://www.w3.org/Graphics/SVG/1.1/DTD/svg11.dtd">
<svg version="1.1" id="Layer_1" xmlns="http://www.w3.org/2000/svg" xmlns:xlink="http://www.w3.org/1999/xlink" x="0px" y="0px"
	 width="32px" height="32px" viewBox="0 0 32 32" enable-background="new 0 0 32 32" xml:space="preserve">
<path d="M13.5,17.3l-1.8,5.6l-1.6-2.4c0.6-0.4,1-0.9,1-1.5c0-1.1-0.8-1.7-2.3-1.7H6.8V23h1.5v-2.1h0.4L10,23h1.7h0.1h1.6l0.3-1.1
	h1.9l0.3,1.1h1.7l-1.9-5.7H13.5z M8.7,19.8H8.4v-1.3h0.3c0.5,0,0.8,0.2,0.8,0.6C9.5,19.5,9.2,19.8,8.7,19.8z M14,20.7
	c0.2-0.9,0.4-1.5,0.5-1.8s0.1-0.5,0.1-0.7c0,0.1,0.1,0.4,0.2,0.7s0.2,0.6,0.2,0.8l0.2,0.9H14z"/>
<path d="M23.5,20.2c-0.2,0.7-0.2,1.2-0.3,1.5c0-0.2-0.1-0.6-0.2-1s-0.2-0.9-0.3-1.2l-0.5-2.2h-1.4l-0.5,2.2
	c-0.1,0.3-0.2,0.7-0.2,1.1S20,21.4,20,21.7c-0.1-0.4-0.1-0.9-0.3-1.5l-0.6-2.9h-1.5L19,23h1.8c0.3-1.5,0.5-2.4,0.6-2.6
	s0.1-0.4,0.1-0.7s0.1-0.5,0.1-0.6c0,0.2,0.1,0.5,0.1,0.8s0.1,0.5,0.1,0.6l0.5,2.5h1.8l1.4-5.7h-1.5L23.5,20.2z"/>
<path d="M31,12h-2V9c0-0.1,0-0.3-0.1-0.4c-0.1-0.1-0.1-0.2-0.2-0.3l-8-8c-0.1-0.1-0.2-0.2-0.3-0.2C20.3,0,20.1,0,20,0H4
	C3.4,0,3,0.4,3,1v11H1c-0.6,0-1,0.4-1,1v14c0,0.6,0.4,1,1,1h2v3c0,0.6,0.4,1,1,1h24c0.6,0,1-0.4,1-1v-3h2c0.6,0,1-0.4,1-1V13
	C32,12.4,31.6,12,31,12z M21,3.4L25.6,8H21V3.4z M5,2h14v7c0,0.6,0.4,1,1,1h7v2H5V2z M27,30H5v-2h22V30z M30,26H2V14h28V26z"/>
</svg>
