<?xml version="1.0" encoding="utf-8"?>
<!-- Generator: Adobe Illustrator 19.1.0, SVG Export Plug-In . SVG Version: 6.00 Build 0)  -->
<!DOCTYPE svg PUBLIC "-//W3C//DTD SVG 1.1//EN" "http://www.w3.org/Graphics/SVG/1.1/DTD/svg11.dtd">
<svg version="1.1" id="Layer_1" xmlns="http://www.w3.org/2000/svg" xmlns:xlink="http://www.w3.org/1999/xlink" x="0px" y="0px"
	 width="32px" height="32px" viewBox="0 0 32 32" enable-background="new 0 0 32 32" xml:space="preserve">
<polygon points="8.2,18.6 9.6,18.6 9.6,23 11.2,23 11.2,18.6 12.6,18.6 12.6,17.3 8.2,17.3 "/>
<path d="M14.6,17.3L12.8,23h1.7l0.3-1.1h1.9l0.3,1.1h1.7l-1.9-5.7H14.6z M15.1,20.7c0.2-0.9,0.4-1.5,0.5-1.8s0.1-0.5,0.1-0.7
	c0,0.1,0.1,0.4,0.2,0.7s0.2,0.6,0.2,0.8l0.2,0.9H15.1z"/>
<path d="M23.4,19c0-1.1-0.8-1.7-2.3-1.7h-1.9V23h1.5v-2.1h0.4l1.2,2.1h1.8l-1.7-2.5C23.1,20.1,23.4,19.6,23.4,19z M21,19.8h-0.3
	v-1.3H21c0.5,0,0.8,0.2,0.8,0.6C21.8,19.5,21.5,19.8,21,19.8z"/>
<path d="M31,12h-2V9c0-0.1,0-0.3-0.1-0.4c-0.1-0.1-0.1-0.2-0.2-0.3l-8-8c-0.1-0.1-0.2-0.2-0.3-0.2C20.3,0,20.1,0,20,0H4
	C3.4,0,3,0.4,3,1v11H1c-0.6,0-1,0.4-1,1v14c0,0.6,0.4,1,1,1h2v3c0,0.6,0.4,1,1,1h24c0.6,0,1-0.4,1-1v-3h2c0.6,0,1-0.4,1-1V13
	C32,12.4,31.6,12,31,12z M21,3.4L25.6,8H21V3.4z M5,2h14v7c0,0.6,0.4,1,1,1h7v2H5V2z M27,30H5v-2h22V30z M30,26H2V14h28V26z"/>
</svg>
