<?xml version="1.0" encoding="utf-8"?>
<!-- Generator: Adobe Illustrator 19.1.0, SVG Export Plug-In . SVG Version: 6.00 Build 0)  -->
<!DOCTYPE svg PUBLIC "-//W3C//DTD SVG 1.1//EN" "http://www.w3.org/Graphics/SVG/1.1/DTD/svg11.dtd">
<svg version="1.1" id="Layer_1" xmlns="http://www.w3.org/2000/svg" xmlns:xlink="http://www.w3.org/1999/xlink" x="0px" y="0px"
	 width="64px" height="64px" viewBox="0 0 64 64" enable-background="new 0 0 64 64" xml:space="preserve">
<path d="M47.7,15C46.3,7.6,39.8,2,32,2S17.7,7.6,16.3,15H47.7z"/>
<path d="M41,33c-3.3,0-6.5-1.2-9-3.3c-2.5,2.1-5.7,3.3-9,3.3c-2.1,0-4.2-0.5-6-1.4c2.3,6,8.1,10.4,15,10.4c6.8,0,12.7-4.3,15-10.4
	C45.2,32.5,43.1,33,41,33z"/>
<path d="M52.9,17.9c0-0.5-0.5-0.9-1-0.9H12.1c-0.5,0-0.9,0.4-1,0.9c0,0.4-0.1,0.7-0.1,1.1c0,6.6,5.4,12,12,12c3.5,0,6.7-1.5,9-4.1
	c2.3,2.6,5.5,4.1,9,4.1c6.6,0,12-5.4,12-12C53,18.6,53,18.3,52.9,17.9z"/>
<path d="M35.9,39.4l-7.9,0c1.3,0.4,2.6,0.6,4,0.6C33.4,40,34.7,39.8,35.9,39.4z"/>
<path d="M55.8,47.7l-13.2-7.2C39.7,42.7,36,44,32,44c-4,0-7.7-1.3-10.7-3.5L8.2,47.7c-2.6,1.4-4.2,4.1-4.2,7V60c0,1.1,0.9,2,2,2h52
	c1.1,0,2-0.9,2-2v-5.3C60,51.8,58.4,49.1,55.8,47.7z"/>
</svg>
