<?xml version="1.0" encoding="utf-8"?>
<!-- Generator: Adobe Illustrator 19.1.0, SVG Export Plug-In . SVG Version: 6.00 Build 0)  -->
<!DOCTYPE svg PUBLIC "-//W3C//DTD SVG 1.1//EN" "http://www.w3.org/Graphics/SVG/1.1/DTD/svg11.dtd">
<svg version="1.1" id="Layer_1" xmlns="http://www.w3.org/2000/svg" xmlns:xlink="http://www.w3.org/1999/xlink" x="0px" y="0px"
	 width="64px" height="64px" viewBox="0 0 64 64" enable-background="new 0 0 64 64" xml:space="preserve">
<path d="M42,1c-7.2,0-13,5.8-13,13v2c0,7.2,5.8,13,13,13s13-5.8,13-13v-2C55,6.8,49.2,1,42,1z"/>
<path d="M18,21c-7.2,0-13,5.8-13,13v2c0,7.2,5.8,13,13,13s13-5.8,13-13v-2C31,26.8,25.2,21,18,21z"/>
<path d="M59.7,33.4L51,27.9c-2.5,1.9-5.6,3.1-9,3.1c-3.4,0-6.5-1.1-9-3.1l-1,0.6c0.7,1.7,1,3.5,1,5.4v2c0,3.8-1.4,7.3-3.9,10.1
	l4.6,3.8c2.1,1.7,3.3,4.2,3.3,6.9V62c0,0.4-0.1,0.7-0.2,1H62c0.6,0,1-0.4,1-1V39.3C63,36.9,61.8,34.7,59.7,33.4z"/>
<path d="M32.5,51.4l-4.8-4C25,49.7,21.7,51,18,51c-3.7,0-7-1.3-9.6-3.5l-4.8,4C1.9,52.8,1,54.7,1,56.8V62c0,0.6,0.4,1,1,1h32
	c0.6,0,1-0.4,1-1v-5.2C35,54.7,34.1,52.8,32.5,51.4z"/>
</svg>
