<?xml version="1.0" encoding="utf-8"?>
<!-- Generator: Adobe Illustrator 19.1.0, SVG Export Plug-In . SVG Version: 6.00 Build 0)  -->
<!DOCTYPE svg PUBLIC "-//W3C//DTD SVG 1.1//EN" "http://www.w3.org/Graphics/SVG/1.1/DTD/svg11.dtd">
<svg version="1.1" id="Layer_1" xmlns="http://www.w3.org/2000/svg" xmlns:xlink="http://www.w3.org/1999/xlink" x="0px" y="0px"
	 width="64px" height="64px" viewBox="0 0 64 64" enable-background="new 0 0 64 64" xml:space="preserve">
<path d="M32,39c-6.1,0-11-4.9-11-11v-4c0-6.1,4.9-11,11-11s11,4.9,11,11v4C43,34.1,38.1,39,32,39z"/>
<path d="M33.5,1c-0.5,0-1,0-1.5,0C15.4,1,1.8,14,1,30.5C0.2,47.6,13.5,62.2,30.5,63c0.5,0,1,0,1.5,0C48.6,63,62.2,50,63,33.5
	C63.8,16.4,50.5,1.8,33.5,1z M61,33.4c-0.4,7.8-3.8,14.8-9.1,19.8c-1.1-5.9-5.3-7.8-10-9.4c-2.2-0.7-3.4-2.5-4.1-4.2
	C36,40.5,34.1,41,32,41s-4-0.5-5.7-1.4c-0.7,1.7-1.9,3.5-4.1,4.2c-4.7,1.6-8.9,3.5-10,9.3c-6-5.6-9.6-13.7-9.1-22.5
	C3.8,15.1,16.5,3,32,3c0.5,0,0.9,0,1.4,0C49.3,3.8,61.7,17.4,61,33.4z"/>
</svg>
