<?xml version="1.0" encoding="utf-8"?>
<!-- Generator: Adobe Illustrator 19.1.0, SVG Export Plug-In . SVG Version: 6.00 Build 0)  -->
<!DOCTYPE svg PUBLIC "-//W3C//DTD SVG 1.1//EN" "http://www.w3.org/Graphics/SVG/1.1/DTD/svg11.dtd">
<svg version="1.1" id="Layer_1" xmlns="http://www.w3.org/2000/svg" xmlns:xlink="http://www.w3.org/1999/xlink" x="0px" y="0px"
	 width="64px" height="64px" viewBox="0 0 64 64" enable-background="new 0 0 64 64" xml:space="preserve">
<path d="M32,43c-6.1,0-11-4.9-11-11v-6c0-6.1,4.9-11,11-11s11,4.9,11,11v6C43,38.1,38.1,43,32,43z"/>
<path d="M62,1H2C1.4,1,1,1.4,1,2v60c0,0.6,0.4,1,1,1h60c0.6,0,1-0.4,1-1V2C63,1.4,62.6,1,62,1z M61,61h-8v-8.1c0-3.4-1.9-6.5-4.9-8
	l-7-3.6C38.7,43.6,35.5,45,32,45c-3.5,0-6.7-1.4-9.1-3.7l-7,3.6c-3,1.5-4.9,4.6-4.9,8V61H3V3h58V61z"/>
</svg>
