<?xml version="1.0" encoding="utf-8"?>
<!-- Generator: Adobe Illustrator 19.1.0, SVG Export Plug-In . SVG Version: 6.00 Build 0)  -->
<!DOCTYPE svg PUBLIC "-//W3C//DTD SVG 1.1//EN" "http://www.w3.org/Graphics/SVG/1.1/DTD/svg11.dtd">
<svg version="1.1" id="Layer_1" xmlns="http://www.w3.org/2000/svg" xmlns:xlink="http://www.w3.org/1999/xlink" x="0px" y="0px"
	 width="48px" height="48px" viewBox="0 0 48 48" enable-background="new 0 0 48 48" xml:space="preserve">
<path fill="#444444" d="M29.34265,19.31165h3.24487c0.37073,0,0.67126-0.29968,0.67126-0.66968v-3.23718
	c0-0.36987-0.30054-0.66968-0.67126-0.66968h-3.24487c-0.37073,0-0.67126,0.2998-0.67126,0.66968v3.23718
	C28.67138,19.01196,28.97192,19.31165,29.34265,19.31165z"/>
<path fill="#444444" d="M31.32873,24.02795c0,4.01611-3.27515,7.28345-7.30066,7.28345c-4.02576,0-7.30066-3.26733-7.30066-7.28345
	c0-0.66638,0.09058-1.31201,0.2594-1.92566h-2.24548v10.43713c0,0.36987,0.30054,0.66968,0.67126,0.66968h17.23083
	c0.37073,0,0.67126-0.2998,0.67126-0.66968V22.10229h-2.24549C31.23816,22.71594,31.32873,23.36157,31.32873,24.02795z"/>
<ellipse fill="#444444" cx="24.02808" cy="24.02783" rx="4.61536" ry="4.60449"/>
<path fill="#444444" d="M42,0H6C2.68628,0,0,2.68628,0,6v36c0,3.31372,2.68628,6,6,6h36c3.31372,0,6-2.68628,6-6V6
	C48,2.68628,45.31372,0,42,0z M36,33.15356c0,1.57202-1.27722,2.84631-2.85315,2.84631H14.85327
	C13.27746,35.99988,12,34.72559,12,33.15356V14.84656C12,13.27441,13.27746,12,14.85327,12h18.29358
	C34.72278,12,36,13.27441,36,14.84656V33.15356z"/>
</svg>
