<?xml version="1.0" encoding="utf-8"?>
<!-- Generator: Adobe Illustrator 19.1.0, SVG Export Plug-In . SVG Version: 6.00 Build 0)  -->
<!DOCTYPE svg PUBLIC "-//W3C//DTD SVG 1.1//EN" "http://www.w3.org/Graphics/SVG/1.1/DTD/svg11.dtd">
<svg version="1.1" id="Layer_1" xmlns="http://www.w3.org/2000/svg" xmlns:xlink="http://www.w3.org/1999/xlink" x="0px" y="0px"
	 width="24px" height="24px" viewBox="0 0 24 24" enable-background="new 0 0 24 24" xml:space="preserve">
<path d="M2,23c0,0.6,0.4,1,1,1h18c0.6,0,1-0.4,1-1V1c0-0.6-0.4-1-1-1H3C2.4,0,2,0.4,2,1V23z M4,2h16v20H4V2z"/>
<path d="M14.3,12.9c0.4-0.7,0.7-1.5,0.7-2.4C15,8,13,6,10.5,6S6,8,6,10.5S8,15,10.5,15c0.9,0,1.7-0.3,2.4-0.7l3.4,3.4
	c0.2,0.2,0.5,0.3,0.7,0.3s0.5-0.1,0.7-0.3c0.4-0.4,0.4-1,0-1.4L14.3,12.9z M8,10.5C8,9.1,9.1,8,10.5,8S13,9.1,13,10.5
	S11.9,13,10.5,13S8,11.9,8,10.5z"/>
</svg>
