<?xml version="1.0" encoding="utf-8"?>
<!-- Generator: Adobe Illustrator 19.1.0, SVG Export Plug-In . SVG Version: 6.00 Build 0)  -->
<!DOCTYPE svg PUBLIC "-//W3C//DTD SVG 1.1//EN" "http://www.w3.org/Graphics/SVG/1.1/DTD/svg11.dtd">
<svg version="1.1" id="Layer_1" xmlns="http://www.w3.org/2000/svg" xmlns:xlink="http://www.w3.org/1999/xlink" x="0px" y="0px"
	 width="24px" height="24px" viewBox="0 0 24 24" enable-background="new 0 0 24 24" xml:space="preserve">
<path d="M23,9h-5V1c0-0.6-0.4-1-1-1H1C0.4,0,0,0.4,0,1v18c0,0.6,0.4,1,1,1h10v3c0,0.6,0.4,1,1,1h11c0.6,0,1-0.4,1-1V10
	C24,9.4,23.6,9,23,9z M2,18V2h14v7h-4c-0.6,0-1,0.4-1,1v8H2z M22,22h-9V11h9V22z"/>
</svg>
