<?xml version="1.0" encoding="utf-8"?>
<!-- Generator: Adobe Illustrator 19.1.0, SVG Export Plug-In . SVG Version: 6.00 Build 0)  -->
<!DOCTYPE svg PUBLIC "-//W3C//DTD SVG 1.1//EN" "http://www.w3.org/Graphics/SVG/1.1/DTD/svg11.dtd">
<svg version="1.1" id="Layer_1" xmlns="http://www.w3.org/2000/svg" xmlns:xlink="http://www.w3.org/1999/xlink" x="0px" y="0px"
	 width="24px" height="24px" viewBox="0 0 24 24" enable-background="new 0 0 24 24" xml:space="preserve">
<path d="M23,4H12.5L9.8,0.4C9.6,0.1,9.3,0,9,0H1C0.4,0,0,0.4,0,1v22c0,0.6,0.4,1,1,1h22c0.6,0,1-0.4,1-1V5C24,4.4,23.6,4,23,4z
	 M22,22H2V2h6.5l2.7,3.6C11.4,5.9,11.7,6,12,6h10V22z"/>
<path d="M8.7,14.3c-0.4-0.4-1-0.4-1.4,0s-0.4,1,0,1.4l2,2C9.5,17.9,9.7,18,10,18s0.5-0.1,0.7-0.3l6-6c0.4-0.4,0.4-1,0-1.4
	s-1-0.4-1.4,0L10,15.6L8.7,14.3z"/>
</svg>
