<?xml version="1.0" encoding="utf-8"?>
<!-- Generator: Adobe Illustrator 19.1.0, SVG Export Plug-In . SVG Version: 6.00 Build 0)  -->
<!DOCTYPE svg PUBLIC "-//W3C//DTD SVG 1.1//EN" "http://www.w3.org/Graphics/SVG/1.1/DTD/svg11.dtd">
<svg version="1.1" id="Layer_1" xmlns="http://www.w3.org/2000/svg" xmlns:xlink="http://www.w3.org/1999/xlink" x="0px" y="0px"
	 width="24px" height="24px" viewBox="0 0 24 24" enable-background="new 0 0 24 24" xml:space="preserve">
<path d="M21,0H3C2.4,0,2,0.4,2,1v22c0,0.6,0.4,1,1,1h18c0.6,0,1-0.4,1-1V1C22,0.4,21.6,0,21,0z M20,22H4V2h16V22z"/>
<path d="M11.4,17.8c0.2,0.2,0.4,0.2,0.6,0.2s0.4-0.1,0.6-0.2c0.6-0.5,5.6-4.7,5.6-7.9c0-2.1-1.7-3.9-3.9-3.9c-0.9,0-1.7,0.3-2.4,0.8
	C11.3,6.3,10.5,6,9.6,6C7.5,6,5.8,7.7,5.8,9.9C5.8,13.1,10.8,17.3,11.4,17.8z M9.6,8c0.6,0,1.2,0.3,1.5,0.8c0.4,0.6,1.3,0.6,1.7,0
	C13.2,8.3,13.8,8,14.4,8c1,0,1.9,0.8,1.9,1.9c0,1.5-2.4,4.2-4.2,5.8c-1.9-1.6-4.2-4.3-4.2-5.8C7.8,8.8,8.6,8,9.6,8z"/>
</svg>
