<?xml version="1.0" encoding="utf-8"?>
<!-- Generator: Adobe Illustrator 19.1.0, SVG Export Plug-In . SVG Version: 6.00 Build 0)  -->
<!DOCTYPE svg PUBLIC "-//W3C//DTD SVG 1.1//EN" "http://www.w3.org/Graphics/SVG/1.1/DTD/svg11.dtd">
<svg version="1.1" id="Layer_1" xmlns="http://www.w3.org/2000/svg" xmlns:xlink="http://www.w3.org/1999/xlink" x="0px" y="0px"
	 width="24px" height="24px" viewBox="0 0 24 24" enable-background="new 0 0 24 24" xml:space="preserve">
<path d="M23,4h-0.6l-2.7-2.7c-0.4-0.4-1-0.4-1.4,0L15.6,4h-3.1L9.8,0.4C9.6,0.1,9.3,0,9,0H1C0.4,0,0,0.4,0,1v22c0,0.6,0.4,1,1,1h22
	c0.6,0,1-0.4,1-1V5C24,4.4,23.6,4,23,4z M19,3.4L20.6,5l-9,9H10v-1.6l6.7-6.7c0,0,0,0,0,0L19,3.4z M2,22V2h6.5l2.7,3.6
	C11.4,5.9,11.7,6,12,6h1.6l-5.3,5.3C8.1,11.5,8,11.7,8,12v3c0,0.6,0.4,1,1,1h3c0.3,0,0.5-0.1,0.7-0.3L22,6.4V22H2z"/>
</svg>
