<?xml version="1.0" encoding="utf-8"?>
<!-- Generator: Adobe Illustrator 19.1.0, SVG Export Plug-In . SVG Version: 6.00 Build 0)  -->
<!DOCTYPE svg PUBLIC "-//W3C//DTD SVG 1.1//EN" "http://www.w3.org/Graphics/SVG/1.1/DTD/svg11.dtd">
<svg version="1.1" id="Layer_1" xmlns="http://www.w3.org/2000/svg" xmlns:xlink="http://www.w3.org/1999/xlink" x="0px" y="0px"
	 width="24px" height="24px" viewBox="0 0 24 24" enable-background="new 0 0 24 24" xml:space="preserve">
<path id="color_102_" d="M22,14H6.2l3.1-3.6C10,9.5,11.1,9,12.3,9H17c0.6,0,1-0.4,1-1s-0.4-1-1-1h-4.7c-1.8,0-3.4,0.8-4.6,2.1
	L3.5,14H1c-0.6,0-1,0.4-1,1s0.4,1,1,1h3h18c0.6,0,1-0.4,1-1S22.6,14,22,14z"/>
<path d="M19,19c-0.3,0-0.5-0.1-0.7-0.3c-0.4-0.4-0.4-1,0-1.4l2.3-2.3l-2.3-2.3c-0.4-0.4-0.4-1,0-1.4s1-0.4,1.4,0l3,3
	c0.4,0.4,0.4,1,0,1.4l-3,3C19.5,18.9,19.3,19,19,19z"/>
<path d="M14,12c-0.3,0-0.5-0.1-0.7-0.3c-0.4-0.4-0.4-1,0-1.4L15.6,8l-2.3-2.3c-0.4-0.4-0.4-1,0-1.4s1-0.4,1.4,0l3,3
	c0.4,0.4,0.4,1,0,1.4l-3,3C14.5,11.9,14.3,12,14,12z"/>
</svg>
