<?xml version="1.0" encoding="utf-8"?>
<!-- Generator: Adobe Illustrator 19.1.0, SVG Export Plug-In . SVG Version: 6.00 Build 0)  -->
<!DOCTYPE svg PUBLIC "-//W3C//DTD SVG 1.1//EN" "http://www.w3.org/Graphics/SVG/1.1/DTD/svg11.dtd">
<svg version="1.1" id="Layer_1" xmlns="http://www.w3.org/2000/svg" xmlns:xlink="http://www.w3.org/1999/xlink" x="0px" y="0px"
	 width="24px" height="24px" viewBox="0 0 24 24" enable-background="new 0 0 24 24" xml:space="preserve">
<path d="M22,16H10v-5.9L0.3,17l9.7,6.9V18h12c0.6,0,1-0.4,1-1S22.6,16,22,16z"/>
<path d="M14,13.9L23.7,7L14,0.1V6H2C1.4,6,1,6.4,1,7s0.4,1,1,1h12V13.9z"/>
</svg>
