<?xml version="1.0" encoding="utf-8"?>
<!-- Generator: Adobe Illustrator 19.1.0, SVG Export Plug-In . SVG Version: 6.00 Build 0)  -->
<!DOCTYPE svg PUBLIC "-//W3C//DTD SVG 1.1//EN" "http://www.w3.org/Graphics/SVG/1.1/DTD/svg11.dtd">
<svg version="1.1" id="Layer_1" xmlns="http://www.w3.org/2000/svg" xmlns:xlink="http://www.w3.org/1999/xlink" x="0px" y="0px"
	 width="24px" height="24px" viewBox="0 0 24 24" enable-background="new 0 0 24 24" xml:space="preserve">
<path id="color_103_" d="M18,6c-0.6,0-1,0.4-1,1v5.9c0,1.5-0.8,2.9-2.2,3.6L13,17.4V2c0-0.6-0.4-1-1-1s-1,0.4-1,1v17v0.4l-1.8-0.9
	C7.8,17.8,7,16.4,7,14.9V10c0-0.6-0.4-1-1-1s-1,0.4-1,1v4.9c0,2.3,1.3,4.3,3.3,5.4l2.7,1.3V23c0,0.6,0.4,1,1,1s1-0.4,1-1v-2v-1.4
	l2.7-1.3c2-1,3.3-3.1,3.3-5.4V7C19,6.4,18.6,6,18,6z"/>
<path d="M15,6c-0.3,0-0.5-0.1-0.7-0.3L12,3.4L9.7,5.7c-0.4,0.4-1,0.4-1.4,0s-0.4-1,0-1.4l3-3c0.4-0.4,1-0.4,1.4,0l3,3
	c0.4,0.4,0.4,1,0,1.4C15.5,5.9,15.3,6,15,6z"/>
<path d="M9,14c-0.3,0-0.5-0.1-0.7-0.3L6,11.4l-2.3,2.3c-0.4,0.4-1,0.4-1.4,0s-0.4-1,0-1.4l3-3c0.4-0.4,1-0.4,1.4,0l3,3
	c0.4,0.4,0.4,1,0,1.4C9.5,13.9,9.3,14,9,14z"/>
<path d="M21,11c-0.3,0-0.5-0.1-0.7-0.3L18,8.4l-2.3,2.3c-0.4,0.4-1,0.4-1.4,0s-0.4-1,0-1.4l3-3c0.4-0.4,1-0.4,1.4,0l3,3
	c0.4,0.4,0.4,1,0,1.4C21.5,10.9,21.3,11,21,11z"/>
</svg>
