<?xml version="1.0" encoding="utf-8"?>
<!-- Generator: Adobe Illustrator 19.1.0, SVG Export Plug-In . SVG Version: 6.00 Build 0)  -->
<!DOCTYPE svg PUBLIC "-//W3C//DTD SVG 1.1//EN" "http://www.w3.org/Graphics/SVG/1.1/DTD/svg11.dtd">
<svg version="1.1" id="Layer_1" xmlns="http://www.w3.org/2000/svg" xmlns:xlink="http://www.w3.org/1999/xlink" x="0px" y="0px"
	 width="24px" height="24px" viewBox="0 0 24 24" enable-background="new 0 0 24 24" xml:space="preserve">
<path d="M17,7H7C6.6,7,6.3,7.2,6.1,7.5c-0.2,0.3-0.2,0.7,0,1l5,8c0.2,0.3,0.5,0.5,0.8,0.5s0.7-0.2,0.8-0.5l5-8c0.2-0.3,0.2-0.7,0-1
	C17.7,7.2,17.4,7,17,7z"/>
</svg>
