<?xml version="1.0" encoding="utf-8"?>
<!-- Generator: Adobe Illustrator 19.1.0, SVG Export Plug-In . SVG Version: 6.00 Build 0)  -->
<!DOCTYPE svg PUBLIC "-//W3C//DTD SVG 1.1//EN" "http://www.w3.org/Graphics/SVG/1.1/DTD/svg11.dtd">
<svg version="1.1" id="Layer_1" xmlns="http://www.w3.org/2000/svg" xmlns:xlink="http://www.w3.org/1999/xlink" x="0px" y="0px"
	 width="24px" height="24px" viewBox="0 0 24 24" enable-background="new 0 0 24 24" xml:space="preserve">
<path id="color_74_" d="M22,17H8c-3.9,0-7-3.1-7-7s3.1-7,7-7h14c0.6,0,1,0.4,1,1s-0.4,1-1,1H8c-2.8,0-5,2.2-5,5s2.2,5,5,5h14
	c0.6,0,1,0.4,1,1S22.6,17,22,17z"/>
<path d="M17,22c-0.3,0-0.5-0.1-0.7-0.3c-0.4-0.4-0.4-1,0-1.4l4.3-4.3l-4.3-4.3c-0.4-0.4-0.4-1,0-1.4s1-0.4,1.4,0l5,5
	c0.4,0.4,0.4,1,0,1.4l-5,5C17.5,21.9,17.3,22,17,22z"/>
</svg>
