<?xml version="1.0" encoding="utf-8"?>
<!-- Generator: Adobe Illustrator 19.1.0, SVG Export Plug-In . SVG Version: 6.00 Build 0)  -->
<!DOCTYPE svg PUBLIC "-//W3C//DTD SVG 1.1//EN" "http://www.w3.org/Graphics/SVG/1.1/DTD/svg11.dtd">
<svg version="1.1" id="Layer_1" xmlns="http://www.w3.org/2000/svg" xmlns:xlink="http://www.w3.org/1999/xlink" x="0px" y="0px"
	 width="24px" height="24px" viewBox="0 0 24 24" enable-background="new 0 0 24 24" xml:space="preserve">
<path d="M22.9,12.4c0.1-0.2,0.1-0.5,0-0.8c-0.1-0.1-0.1-0.2-0.2-0.3l-3-3c-0.4-0.4-1-0.4-1.4,0s-0.4,1,0,1.4l1.3,1.3H1
	c-0.6,0-1,0.4-1,1s0.4,1,1,1h18.6l-1.3,1.3c-0.4,0.4-0.4,1,0,1.4c0.2,0.2,0.5,0.3,0.7,0.3s0.5-0.1,0.7-0.3l3-3
	C22.8,12.6,22.9,12.5,22.9,12.4z"/>
<path id="color_23_" d="M1,6h5.6L5.3,7.3c-0.4,0.4-0.4,1,0,1.4C5.5,8.9,5.7,9,6,9s0.5-0.1,0.7-0.3l3-3c0.1-0.1,0.2-0.2,0.2-0.3
	c0.1-0.2,0.1-0.5,0-0.8C9.9,4.5,9.8,4.4,9.7,4.3l-3-3c-0.4-0.4-1-0.4-1.4,0s-0.4,1,0,1.4L6.6,4H1C0.4,4,0,4.4,0,5S0.4,6,1,6z"/>
<path id="color_22_" d="M16.9,18.6c-0.1-0.1-0.1-0.2-0.2-0.3l-3-3c-0.4-0.4-1-0.4-1.4,0s-0.4,1,0,1.4l1.3,1.3H1c-0.6,0-1,0.4-1,1
	s0.4,1,1,1h12.6l-1.3,1.3c-0.4,0.4-0.4,1,0,1.4c0.2,0.2,0.5,0.3,0.7,0.3s0.5-0.1,0.7-0.3l3-3c0.1-0.1,0.2-0.2,0.2-0.3
	C17,19.1,17,18.9,16.9,18.6z"/>
</svg>
