<?xml version="1.0" encoding="utf-8"?>
<!-- Generator: Adobe Illustrator 19.1.0, SVG Export Plug-In . SVG Version: 6.00 Build 0)  -->
<!DOCTYPE svg PUBLIC "-//W3C//DTD SVG 1.1//EN" "http://www.w3.org/Graphics/SVG/1.1/DTD/svg11.dtd">
<svg version="1.1" id="Layer_1" xmlns="http://www.w3.org/2000/svg" xmlns:xlink="http://www.w3.org/1999/xlink" x="0px" y="0px"
	 width="24px" height="24px" viewBox="0 0 24 24" enable-background="new 0 0 24 24" xml:space="preserve">
<path d="M23,4H8C7.7,4,7.4,4.1,7.2,4.3l-6,7c-0.3,0.4-0.3,0.9,0,1.3l6,7C7.4,19.9,7.7,20,8,20h15c0.6,0,1-0.4,1-1V5
	C24,4.4,23.6,4,23,4z M17.4,14L16,15.4l-2-2l-2,2L10.6,14l2-2l-2-2L12,8.6l2,2l2-2l1.4,1.4l-2,2L17.4,14z"/>
</svg>
