<?xml version="1.0" encoding="utf-8"?>
<!-- Generator: Adobe Illustrator 19.1.0, SVG Export Plug-In . SVG Version: 6.00 Build 0)  -->
<!DOCTYPE svg PUBLIC "-//W3C//DTD SVG 1.1//EN" "http://www.w3.org/Graphics/SVG/1.1/DTD/svg11.dtd">
<svg version="1.1" id="Layer_1" xmlns="http://www.w3.org/2000/svg" xmlns:xlink="http://www.w3.org/1999/xlink" x="0px" y="0px"
	 width="24px" height="24px" viewBox="0 0 24 24" enable-background="new 0 0 24 24" xml:space="preserve">
<path id="color_24_" d="M22,18c-0.3,0-0.5-0.1-0.7-0.3L13,8.5l-5.3,5.3c-0.4,0.4-1,0.4-1.4,0l-5-5c-0.4-0.4-0.4-1,0-1.4s1-0.4,1.4,0
	L7,11.6l5.3-5.3C12.5,6.1,12.8,6,13,6c0.3,0,0.5,0.1,0.7,0.3l9,10c0.4,0.4,0.3,1-0.1,1.4C22.5,17.9,22.2,18,22,18z"/>
<path d="M22,18h-7c-0.6,0-1-0.4-1-1s0.4-1,1-1h6v-6c0-0.6,0.4-1,1-1s1,0.4,1,1v7C23,17.6,22.6,18,22,18z"/>
</svg>
